@startuml

skinparam svgLinkTarget _parent
skinparam linetype ortho
package eapli.framework.services [[../../../eapli/framework/services/package-summary.html{eapli.framework.services}]] #lightyellow {
}

class "<b><size:14>ResourceNotFoundException</b>" as eapli.framework.services.ResourceNotFoundException <<ResponseStatus>> [[../../../eapli/framework/services/ResourceNotFoundException.html{eapli.framework.services.ResourceNotFoundException}]] {
}

hide eapli.framework.services.ResourceNotFoundException fields
hide eapli.framework.services.ResourceNotFoundException methods

class "<b><size:14>RestConsierge</b>" as eapli.framework.services.RestConsierge <<Utility>> [[../../../eapli/framework/services/RestConsierge.html{eapli.framework.services.RestConsierge}]] {
}

hide eapli.framework.services.RestConsierge fields
hide eapli.framework.services.RestConsierge methods


@enduml
