<?xml version="1.0" encoding="UTF-8" standalone="no"?><svg xmlns="http://www.w3.org/2000/svg" xmlns:xlink="http://www.w3.org/1999/xlink" contentScriptType="application/ecmascript" contentStyleType="text/css" height="273px" preserveAspectRatio="none" style="width:629px;height:273px;" version="1.1" viewBox="0 0 629 273" width="629px" zoomAndPan="magnify"><defs><filter height="300%" id="f1hcrta4iuiith" width="300%" x="-1" y="-1"><feGaussianBlur result="blurOut" stdDeviation="2.0"/><feColorMatrix in="blurOut" result="blurOut2" type="matrix" values="0 0 0 0 0 0 0 0 0 0 0 0 0 0 0 0 0 0 .4 0"/><feOffset dx="4.0" dy="4.0" in="blurOut2" result="blurOut3"/><feBlend in="SourceGraphic" in2="blurOut3" mode="normal"/></filter></defs><g><!--MD5=[ea95f360c40200887446ec9fd24aab04]
class eapli.framework.services.ResourceNotFoundException--><a href="../../../eapli/framework/services/ResourceNotFoundException.html" target="_parent" title="eapli.framework.services.ResourceNotFoundException" xlink:actuate="onRequest" xlink:href="../../../eapli/framework/services/ResourceNotFoundException.html" xlink:show="new" xlink:title="eapli.framework.services.ResourceNotFoundException" xlink:type="simple"><rect fill="#FEFECE" filter="url(#f1hcrta4iuiith)" height="154.2969" id="eapli.framework.services.ResourceNotFoundException" style="stroke: #A80036; stroke-width: 1.5;" width="612" x="6" y="8"/><ellipse cx="204.25" cy="35.6406" fill="#ADD1B2" rx="11" ry="11" style="stroke: #A80036; stroke-width: 1.0;"/><path d="M207.0156,31.5156 Q207.1719,31.2969 207.3594,31.1875 Q207.5469,31.0781 207.7656,31.0781 Q208.1406,31.0781 208.375,31.3359 Q208.6094,31.5938 208.6094,32.2031 L208.6094,33.6563 Q208.6094,34.2656 208.375,34.5313 Q208.1406,34.7969 207.7656,34.7969 Q207.4219,34.7969 207.2188,34.5938 Q207.0156,34.4063 206.9063,33.8906 Q206.8594,33.5313 206.6719,33.3438 Q206.3438,32.9688 205.7344,32.75 Q205.125,32.5313 204.5,32.5313 Q203.7344,32.5313 203.1016,32.8594 Q202.4688,33.1875 201.9766,33.9375 Q201.4844,34.6875 201.4844,35.7188 L201.4844,36.8125 Q201.4844,38.0469 202.375,38.8672 Q203.2656,39.6875 204.8594,39.6875 Q205.7969,39.6875 206.4531,39.4375 Q206.8438,39.2813 207.2656,38.8438 Q207.5313,38.5781 207.6797,38.5 Q207.8281,38.4219 208.0313,38.4219 Q208.3594,38.4219 208.6172,38.6797 Q208.875,38.9375 208.875,39.2813 Q208.875,39.625 208.5313,40.0313 Q208.0313,40.6094 207.2344,40.9375 Q206.1563,41.3906 204.8594,41.3906 Q203.3438,41.3906 202.1406,40.7656 Q201.1563,40.2656 200.4688,39.1953 Q199.7813,38.125 199.7813,36.8438 L199.7813,35.6875 Q199.7813,34.3594 200.3984,33.2109 Q201.0156,32.0625 202.1094,31.4453 Q203.2031,30.8281 204.4375,30.8281 Q205.1719,30.8281 205.8203,30.9922 Q206.4688,31.1563 207.0156,31.5156 Z "/><text fill="#000000" font-family="sans-serif" font-size="12" font-style="italic" lengthAdjust="spacingAndGlyphs" textLength="104" x="276.25" y="25.457">«ResponseStatus»</text><text fill="#000000" font-family="sans-serif" font-size="14" font-weight="bold" lengthAdjust="spacingAndGlyphs" textLength="207" x="224.75" y="42.627">ResourceNotFoundException</text><text fill="#000000" font-family="sans-serif" font-size="10" lengthAdjust="spacingAndGlyphs" textLength="114" x="271.25" y="56.084">eapli.framework.services</text><line style="stroke: #A80036; stroke-width: 1.5;" x1="7" x2="617" y1="63.2813" y2="63.2813"/><rect fill="none" height="6" style="stroke: #C82930; stroke-width: 1.0;" width="6" x="14" y="71.2813"/><text fill="#000000" font-family="sans-serif" font-size="11" lengthAdjust="spacingAndGlyphs" text-decoration="underline" textLength="103" x="26" y="78.7002">long serialVersionUID</text><line style="stroke: #A80036; stroke-width: 1.5;" x1="7" x2="617" y1="85.1172" y2="85.1172"/><ellipse cx="17" cy="96.1172" fill="#84BE84" rx="3" ry="3" style="stroke: #038048; stroke-width: 1.0;"/><text fill="#000000" font-family="sans-serif" font-size="11" lengthAdjust="spacingAndGlyphs" textLength="148" x="26" y="100.5361">ResourceNotFoundException()</text><ellipse cx="17" cy="109.9531" fill="#84BE84" rx="3" ry="3" style="stroke: #038048; stroke-width: 1.0;"/><text fill="#000000" font-family="sans-serif" font-size="11" lengthAdjust="spacingAndGlyphs" textLength="586" x="26" y="114.3721">ResourceNotFoundException(String message,Throwable cause,boolean enableSuppression,boolean writableStackTrace)</text><ellipse cx="17" cy="123.7891" fill="#84BE84" rx="3" ry="3" style="stroke: #038048; stroke-width: 1.0;"/><text fill="#000000" font-family="sans-serif" font-size="11" lengthAdjust="spacingAndGlyphs" textLength="311" x="26" y="128.208">ResourceNotFoundException(String message,Throwable cause)</text><ellipse cx="17" cy="137.625" fill="#84BE84" rx="3" ry="3" style="stroke: #038048; stroke-width: 1.0;"/><text fill="#000000" font-family="sans-serif" font-size="11" lengthAdjust="spacingAndGlyphs" textLength="223" x="26" y="142.0439">ResourceNotFoundException(String message)</text><ellipse cx="17" cy="151.4609" fill="#84BE84" rx="3" ry="3" style="stroke: #038048; stroke-width: 1.0;"/><text fill="#000000" font-family="sans-serif" font-size="11" lengthAdjust="spacingAndGlyphs" textLength="233" x="26" y="155.8799">ResourceNotFoundException(Throwable cause)</text></a><!--MD5=[a4d8c85934e7c2286da27481ca2471bd]
class java.lang.RuntimeException--><rect fill="#D3D3D3" filter="url(#f1hcrta4iuiith)" height="40.1875" id="java.lang.RuntimeException" style="stroke: #A80036; stroke-width: 1.5;" width="160" x="232" y="222"/><rect fill="#D3D3D3" height="40.1875" style="stroke: #A80036; stroke-width: 1.5;" width="160" x="232" y="222"/><ellipse cx="247" cy="242.0938" fill="#ADD1B2" rx="11" ry="11" style="stroke: #A80036; stroke-width: 1.0;"/><path d="M249.7656,237.9688 Q249.9219,237.75 250.1094,237.6406 Q250.2969,237.5313 250.5156,237.5313 Q250.8906,237.5313 251.125,237.7891 Q251.3594,238.0469 251.3594,238.6563 L251.3594,240.1094 Q251.3594,240.7188 251.125,240.9844 Q250.8906,241.25 250.5156,241.25 Q250.1719,241.25 249.9688,241.0469 Q249.7656,240.8594 249.6563,240.3438 Q249.6094,239.9844 249.4219,239.7969 Q249.0938,239.4219 248.4844,239.2031 Q247.875,238.9844 247.25,238.9844 Q246.4844,238.9844 245.8516,239.3125 Q245.2188,239.6406 244.7266,240.3906 Q244.2344,241.1406 244.2344,242.1719 L244.2344,243.2656 Q244.2344,244.5 245.125,245.3203 Q246.0156,246.1406 247.6094,246.1406 Q248.5469,246.1406 249.2031,245.8906 Q249.5938,245.7344 250.0156,245.2969 Q250.2813,245.0313 250.4297,244.9531 Q250.5781,244.875 250.7813,244.875 Q251.1094,244.875 251.3672,245.1328 Q251.625,245.3906 251.625,245.7344 Q251.625,246.0781 251.2813,246.4844 Q250.7813,247.0625 249.9844,247.3906 Q248.9063,247.8438 247.6094,247.8438 Q246.0938,247.8438 244.8906,247.2188 Q243.9063,246.7188 243.2188,245.6484 Q242.5313,244.5781 242.5313,243.2969 L242.5313,242.1406 Q242.5313,240.8125 243.1484,239.6641 Q243.7656,238.5156 244.8594,237.8984 Q245.9531,237.2813 247.1875,237.2813 Q247.9219,237.2813 248.5703,237.4453 Q249.2188,237.6094 249.7656,237.9688 Z "/><text fill="#000000" font-family="sans-serif" font-size="14" font-weight="bold" lengthAdjust="spacingAndGlyphs" textLength="128" x="261" y="241.5332">RuntimeException</text><text fill="#000000" font-family="sans-serif" font-size="10" lengthAdjust="spacingAndGlyphs" textLength="44" x="303" y="254.9902">java.lang</text><!--MD5=[8270e7fc769ecb2849a9ca418d0d3d66]
link eapli.framework.services.ResourceNotFoundException to java.lang.RuntimeException--><path d="M312,162.1202 C312,162.1202 312,201.6887 312,201.6887 " fill="none" id="eapli.framework.services.ResourceNotFoundException-&gt;java.lang.RuntimeException" style="stroke: #A80036; stroke-width: 1.0;"/><polygon fill="none" points="319,201.6887,312,221.6887,305,201.6886,319,201.6887" style="stroke: #A80036; stroke-width: 1.0;"/><!--MD5=[ab900589caae007dc5329286b44cd892]
@startuml

skinparam svgLinkTarget _parent
skinparam linetype ortho
set namespaceSeparator none
class "<b><size:14>ResourceNotFoundException</b>\n<size:10>eapli.framework.services" as eapli.framework.services.ResourceNotFoundException <<ResponseStatus>> [[../../../eapli/framework/services/ResourceNotFoundException.html{eapli.framework.services.ResourceNotFoundException}]] {
{static} -long serialVersionUID
+ResourceNotFoundException()
+ResourceNotFoundException(String message,Throwable cause,boolean enableSuppression,boolean writableStackTrace)
+ResourceNotFoundException(String message,Throwable cause)
+ResourceNotFoundException(String message)
+ResourceNotFoundException(Throwable cause)
}


class "<b><size:14>RuntimeException</b>\n<size:10>java.lang" as java.lang.RuntimeException  #lightgrey {
}

hide java.lang.RuntimeException fields
hide java.lang.RuntimeException methods

eapli.framework.services.ResourceNotFoundException - -|> java.lang.RuntimeException


@enduml

PlantUML version 1.2020.04(Thu Mar 19 10:16:49 GMT 2020)
(GPL source distribution)
Java Runtime: Java(TM) SE Runtime Environment
JVM: Java HotSpot(TM) 64-Bit Server VM
Java Version: 1.8.0_202-b08
Operating System: Windows 10
Default Encoding: Cp1252
Language: en
Country: US
--></g></svg>