@startuml

skinparam svgLinkTarget _parent
skinparam linetype ortho
set namespaceSeparator none
interface "<b><size:14>IterableRepository</b>\n<size:10>eapli.framework.infrastructure.repositories" as eapli.framework.infrastructure.repositories.IterableRepository  [[../../../../eapli/framework/infrastructure/repositories/IterableRepository.html{eapli.framework.infrastructure.repositories.IterableRepository}]] {
{abstract} +Iterator<T> iterator(int pagesize)
{abstract} +Optional<T> first()
{abstract} +Iterable<T> first(int n)
}


interface "<b><size:14>Repository<T, K></b>\n<size:10>eapli.framework.infrastructure.repositories" as eapli.framework.infrastructure.repositories.RepositoryObjectObject  [[../../../../eapli/framework/infrastructure/repositories/Repository.html{eapli.framework.infrastructure.repositories.Repository}]] {
}

hide eapli.framework.infrastructure.repositories.RepositoryObjectObject fields
hide eapli.framework.infrastructure.repositories.RepositoryObjectObject methods

eapli.framework.infrastructure.repositories.IterableRepository --|> eapli.framework.infrastructure.repositories.RepositoryObjectObject

class "<b><size:14>Object</b>\n<size:10>java.lang" as java.lang.Object  #lightgrey {
}

hide java.lang.Object fields
hide java.lang.Object methods

eapli.framework.infrastructure.repositories.IterableRepository ..> java.lang.Object

interface "<b><size:14>Iterable<T></b>\n<size:10>java.lang" as java.lang.IterableSerializable  #lightgrey {
}

hide java.lang.IterableSerializable fields
hide java.lang.IterableSerializable methods

eapli.framework.infrastructure.repositories.IterableRepository --|> java.lang.IterableSerializable

interface "<b><size:14>Serializable</b>\n<size:10>java.io" as java.io.Serializable  #lightgrey {
}

hide java.io.Serializable fields
hide java.io.Serializable methods

eapli.framework.infrastructure.repositories.IterableRepository ..> java.io.Serializable



interface "<b><size:14>ActiveRecord</b>\n<size:10>eapli.framework.domain.activerecord" as eapli.framework.domain.activerecord.ActiveRecord  [[../../../../eapli/framework/domain/activerecord/ActiveRecord.html{eapli.framework.domain.activerecord.ActiveRecord}]] #white {
}

hide eapli.framework.domain.activerecord.ActiveRecord fields
hide eapli.framework.domain.activerecord.ActiveRecord methods

eapli.framework.infrastructure.repositories.IterableRepository ..> eapli.framework.domain.activerecord.ActiveRecord


@enduml
