<?xml version="1.0" encoding="UTF-8" standalone="no"?><svg xmlns="http://www.w3.org/2000/svg" xmlns:xlink="http://www.w3.org/1999/xlink" contentScriptType="application/ecmascript" contentStyleType="text/css" height="258px" preserveAspectRatio="none" style="width:333px;height:258px;" version="1.1" viewBox="0 0 333 258" width="333px" zoomAndPan="magnify"><defs><filter height="300%" id="f5prd936069gs" width="300%" x="-1" y="-1"><feGaussianBlur result="blurOut" stdDeviation="2.0"/><feColorMatrix in="blurOut" result="blurOut2" type="matrix" values="0 0 0 0 0 0 0 0 0 0 0 0 0 0 0 0 0 0 .4 0"/><feOffset dx="4.0" dy="4.0" in="blurOut2" result="blurOut3"/><feBlend in="SourceGraphic" in2="blurOut3" mode="normal"/></filter></defs><g><!--MD5=[2662e038bd864d440018fd3baab949e9]
class eapli.framework.infrastructure.repositories.Repository--><a href="../../../../eapli/framework/infrastructure/repositories/Repository.html" target="_parent" title="eapli.framework.infrastructure.repositories.Repository" xlink:actuate="onRequest" xlink:href="../../../../eapli/framework/infrastructure/repositories/Repository.html" xlink:show="new" xlink:title="eapli.framework.infrastructure.repositories.Repository" xlink:type="simple"><rect fill="#FEFECE" filter="url(#f5prd936069gs)" height="139.2031" id="eapli.framework.infrastructure.repositories.Repository" style="stroke: #A80036; stroke-width: 1.5;" width="228" x="19" y="8"/><ellipse cx="34" cy="28.0938" fill="#B4A7E5" rx="11" ry="11" style="stroke: #A80036; stroke-width: 1.0;"/><path d="M34.9531,24.7344 L34.9531,31.3906 L36.6719,31.3906 Q37.2813,31.3906 37.5469,31.625 Q37.8125,31.8594 37.8125,32.25 Q37.8125,32.625 37.5469,32.8594 Q37.2813,33.0938 36.6719,33.0938 L31.5313,33.0938 Q30.9219,33.0938 30.6563,32.8594 Q30.3906,32.625 30.3906,32.2344 Q30.3906,31.8594 30.6563,31.625 Q30.9219,31.3906 31.5313,31.3906 L33.25,31.3906 L33.25,24.7344 L31.5313,24.7344 Q30.9219,24.7344 30.6563,24.5 Q30.3906,24.2656 30.3906,23.875 Q30.3906,23.5 30.6563,23.2656 Q30.9219,23.0313 31.5313,23.0313 L36.6719,23.0313 Q37.2813,23.0313 37.5469,23.2656 Q37.8125,23.5 37.8125,23.875 Q37.8125,24.2656 37.5469,24.5 Q37.2813,24.7344 36.6719,24.7344 L34.9531,24.7344 Z "/><text fill="#000000" font-family="sans-serif" font-size="14" font-style="italic" font-weight="bold" lengthAdjust="spacingAndGlyphs" textLength="71" x="110.5" y="27.5332">Repository</text><text fill="#000000" font-family="sans-serif" font-size="10" font-style="italic" lengthAdjust="spacingAndGlyphs" textLength="196" x="48" y="40.9902">eapli.framework.infrastructure.repositories</text><line style="stroke: #A80036; stroke-width: 1.5;" x1="20" x2="246" y1="48.1875" y2="48.1875"/><line style="stroke: #A80036; stroke-width: 1.5;" x1="20" x2="246" y1="56.1875" y2="56.1875"/><ellipse cx="30" cy="67.1875" fill="#84BE84" rx="3" ry="3" style="stroke: #038048; stroke-width: 1.0;"/><text fill="#000000" font-family="sans-serif" font-size="11" font-style="italic" lengthAdjust="spacingAndGlyphs" textLength="131" x="39" y="71.6064">Object save(Object entity)</text><ellipse cx="30" cy="81.0234" fill="#84BE84" rx="3" ry="3" style="stroke: #038048; stroke-width: 1.0;"/><text fill="#000000" font-family="sans-serif" font-size="11" font-style="italic" lengthAdjust="spacingAndGlyphs" textLength="99" x="39" y="85.4424">Iterable&lt;T&gt; findAll()</text><ellipse cx="30" cy="94.8594" fill="#84BE84" rx="3" ry="3" style="stroke: #038048; stroke-width: 1.0;"/><text fill="#000000" font-family="sans-serif" font-size="11" font-style="italic" lengthAdjust="spacingAndGlyphs" textLength="157" x="39" y="99.2783">Optional&lt;T&gt; findById(Object id)</text><ellipse cx="30" cy="108.6953" fill="#84BE84" rx="3" ry="3" style="stroke: #038048; stroke-width: 1.0;"/><text fill="#000000" font-family="sans-serif" font-size="11" font-style="italic" lengthAdjust="spacingAndGlyphs" textLength="124" x="39" y="113.1143">void delete(Object entity)</text><ellipse cx="30" cy="122.5313" fill="#84BE84" rx="3" ry="3" style="stroke: #038048; stroke-width: 1.0;"/><text fill="#000000" font-family="sans-serif" font-size="11" font-style="italic" lengthAdjust="spacingAndGlyphs" textLength="154" x="39" y="126.9502">void deleteById(Object entityId)</text><ellipse cx="30" cy="136.3672" fill="#84BE84" rx="3" ry="3" style="stroke: #038048; stroke-width: 1.0;"/><text fill="#000000" font-family="sans-serif" font-size="11" font-style="italic" lengthAdjust="spacingAndGlyphs" textLength="59" x="39" y="140.7861">long count()</text></a><!--MD5=[274ad5661286b626a93603d287cbf95a]
class java.lang.Object--><rect fill="#D3D3D3" filter="url(#f5prd936069gs)" height="40.1875" id="java.lang.Object" style="stroke: #A80036; stroke-width: 1.5;" width="78" x="6" y="207"/><rect fill="#D3D3D3" height="40.1875" style="stroke: #A80036; stroke-width: 1.5;" width="78" x="6" y="207"/><ellipse cx="21" cy="227.0938" fill="#ADD1B2" rx="11" ry="11" style="stroke: #A80036; stroke-width: 1.0;"/><path d="M23.7656,222.9688 Q23.9219,222.75 24.1094,222.6406 Q24.2969,222.5313 24.5156,222.5313 Q24.8906,222.5313 25.125,222.7891 Q25.3594,223.0469 25.3594,223.6563 L25.3594,225.1094 Q25.3594,225.7188 25.125,225.9844 Q24.8906,226.25 24.5156,226.25 Q24.1719,226.25 23.9688,226.0469 Q23.7656,225.8594 23.6563,225.3438 Q23.6094,224.9844 23.4219,224.7969 Q23.0938,224.4219 22.4844,224.2031 Q21.875,223.9844 21.25,223.9844 Q20.4844,223.9844 19.8516,224.3125 Q19.2188,224.6406 18.7266,225.3906 Q18.2344,226.1406 18.2344,227.1719 L18.2344,228.2656 Q18.2344,229.5 19.125,230.3203 Q20.0156,231.1406 21.6094,231.1406 Q22.5469,231.1406 23.2031,230.8906 Q23.5938,230.7344 24.0156,230.2969 Q24.2813,230.0313 24.4297,229.9531 Q24.5781,229.875 24.7813,229.875 Q25.1094,229.875 25.3672,230.1328 Q25.625,230.3906 25.625,230.7344 Q25.625,231.0781 25.2813,231.4844 Q24.7813,232.0625 23.9844,232.3906 Q22.9063,232.8438 21.6094,232.8438 Q20.0938,232.8438 18.8906,232.2188 Q17.9063,231.7188 17.2188,230.6484 Q16.5313,229.5781 16.5313,228.2969 L16.5313,227.1406 Q16.5313,225.8125 17.1484,224.6641 Q17.7656,223.5156 18.8594,222.8984 Q19.9531,222.2813 21.1875,222.2813 Q21.9219,222.2813 22.5703,222.4453 Q23.2188,222.6094 23.7656,222.9688 Z "/><text fill="#000000" font-family="sans-serif" font-size="14" font-weight="bold" lengthAdjust="spacingAndGlyphs" textLength="46" x="35" y="226.5332">Object</text><text fill="#000000" font-family="sans-serif" font-size="10" lengthAdjust="spacingAndGlyphs" textLength="44" x="36" y="239.9902">java.lang</text><!--MD5=[8ff66bd4b776a2492940b8a4799dc12d]
class eapli.framework.domain.activerecord.ActiveRecord--><a href="../../../../eapli/framework/domain/activerecord/ActiveRecord.html" target="_parent" title="eapli.framework.domain.activerecord.ActiveRecord" xlink:actuate="onRequest" xlink:href="../../../../eapli/framework/domain/activerecord/ActiveRecord.html" xlink:show="new" xlink:title="eapli.framework.domain.activerecord.ActiveRecord" xlink:type="simple"><rect fill="#FFFFFF" filter="url(#f5prd936069gs)" height="40.1875" id="eapli.framework.domain.activerecord.ActiveRecord" style="stroke: #A80036; stroke-width: 1.5;" width="203" x="119.5" y="207"/><rect fill="#FFFFFF" height="40.1875" style="stroke: #A80036; stroke-width: 1.5;" width="203" x="119.5" y="207"/><ellipse cx="134.5" cy="227.0938" fill="#B4A7E5" rx="11" ry="11" style="stroke: #A80036; stroke-width: 1.0;"/><path d="M135.4531,223.7344 L135.4531,230.3906 L137.1719,230.3906 Q137.7813,230.3906 138.0469,230.625 Q138.3125,230.8594 138.3125,231.25 Q138.3125,231.625 138.0469,231.8594 Q137.7813,232.0938 137.1719,232.0938 L132.0313,232.0938 Q131.4219,232.0938 131.1563,231.8594 Q130.8906,231.625 130.8906,231.2344 Q130.8906,230.8594 131.1563,230.625 Q131.4219,230.3906 132.0313,230.3906 L133.75,230.3906 L133.75,223.7344 L132.0313,223.7344 Q131.4219,223.7344 131.1563,223.5 Q130.8906,223.2656 130.8906,222.875 Q130.8906,222.5 131.1563,222.2656 Q131.4219,222.0313 132.0313,222.0313 L137.1719,222.0313 Q137.7813,222.0313 138.0469,222.2656 Q138.3125,222.5 138.3125,222.875 Q138.3125,223.2656 138.0469,223.5 Q137.7813,223.7344 137.1719,223.7344 L135.4531,223.7344 Z "/><text fill="#000000" font-family="sans-serif" font-size="14" font-style="italic" font-weight="bold" lengthAdjust="spacingAndGlyphs" textLength="91" x="188.5" y="226.5332">ActiveRecord</text><text fill="#000000" font-family="sans-serif" font-size="10" font-style="italic" lengthAdjust="spacingAndGlyphs" textLength="171" x="148.5" y="239.9902">eapli.framework.domain.activerecord</text></a><!--MD5=[c13f2d026da7f9e1fa733aa7400fd192]
link eapli.framework.infrastructure.repositories.Repository to java.lang.Object--><path d="M51.5,147.4351 C51.5,147.4351 51.5,201.8827 51.5,201.8827 " fill="none" id="eapli.framework.infrastructure.repositories.Repository-&gt;java.lang.Object" style="stroke: #A80036; stroke-width: 1.0; stroke-dasharray: 7.0,7.0;"/><polygon fill="#A80036" points="51.5,206.8827,55.5,197.8827,51.5,201.8827,47.5,197.8827,51.5,206.8827" style="stroke: #A80036; stroke-width: 1.0;"/><!--MD5=[754174e05178df3979d196c687e8ab48]
link eapli.framework.infrastructure.repositories.Repository to eapli.framework.domain.activerecord.ActiveRecord--><path d="M183.25,147.4351 C183.25,147.4351 183.25,201.8827 183.25,201.8827 " fill="none" id="eapli.framework.infrastructure.repositories.Repository-&gt;eapli.framework.domain.activerecord.ActiveRecord" style="stroke: #A80036; stroke-width: 1.0; stroke-dasharray: 7.0,7.0;"/><polygon fill="#A80036" points="183.25,206.8827,187.25,197.8827,183.25,201.8827,179.25,197.8827,183.25,206.8827" style="stroke: #A80036; stroke-width: 1.0;"/><!--MD5=[7e7c0a61db2e8cc483b8fd4d1b9d2418]
@startuml

skinparam svgLinkTarget _parent
skinparam linetype ortho
set namespaceSeparator none
interface "<b><size:14>Repository</b>\n<size:10>eapli.framework.infrastructure.repositories" as eapli.framework.infrastructure.repositories.Repository  [[../../../../eapli/framework/infrastructure/repositories/Repository.html{eapli.framework.infrastructure.repositories.Repository}]] {
{abstract} +Object save(Object entity)
{abstract} +Iterable<T> findAll()
{abstract} +Optional<T> findById(Object id)
{abstract} +void delete(Object entity)
{abstract} +void deleteById(Object entityId)
{abstract} +long count()
}


class "<b><size:14>Object</b>\n<size:10>java.lang" as java.lang.Object  #lightgrey {
}

hide java.lang.Object fields
hide java.lang.Object methods

eapli.framework.infrastructure.repositories.Repository ..> java.lang.Object


interface "<b><size:14>ActiveRecord</b>\n<size:10>eapli.framework.domain.activerecord" as eapli.framework.domain.activerecord.ActiveRecord  [[../../../../eapli/framework/domain/activerecord/ActiveRecord.html{eapli.framework.domain.activerecord.ActiveRecord}]] #white {
}

hide eapli.framework.domain.activerecord.ActiveRecord fields
hide eapli.framework.domain.activerecord.ActiveRecord methods

eapli.framework.infrastructure.repositories.Repository ..> eapli.framework.domain.activerecord.ActiveRecord


@enduml

PlantUML version 1.2020.04(Thu Mar 19 10:16:49 GMT 2020)
(GPL source distribution)
Java Runtime: Java(TM) SE Runtime Environment
JVM: Java HotSpot(TM) 64-Bit Server VM
Java Version: 1.8.0_202-b08
Operating System: Windows 10
Default Encoding: Cp1252
Language: en
Country: US
--></g></svg>