@startuml

skinparam svgLinkTarget _parent
skinparam linetype ortho
set namespaceSeparator none
class "<b><size:14>Name</b>\n<size:10>eapli.framework.infrastructure.authz.domain.model" as eapli.framework.infrastructure.authz.domain.model.Name <<Embeddable>> [[../../../../../../eapli/framework/infrastructure/authz/domain/model/Name.html{eapli.framework.infrastructure.authz.domain.model.Name}]] {
{static} -long serialVersionUID
{static} -Pattern VALID_NAME_REGEX
-String firstName
-String lastName
#Name(String firstName,String lastName)
#Name()
{static} +Name valueOf(String firstName,String lastName)
+String firstName()
+String lastName()
+boolean equals(Object o)
+int hashCode()
+String toString()
}


class "<b><size:14>UserManagementService</b>\n<size:10>eapli.framework.infrastructure.authz.application" as eapli.framework.infrastructure.authz.application.UserManagementService <<Component>> [[../../../../../../eapli/framework/infrastructure/authz/application/UserManagementService.html{eapli.framework.infrastructure.authz.application.UserManagementService}]] #white {
}

hide eapli.framework.infrastructure.authz.application.UserManagementService fields
hide eapli.framework.infrastructure.authz.application.UserManagementService methods

eapli.framework.infrastructure.authz.application.UserManagementService ..> eapli.framework.infrastructure.authz.domain.model.Name


interface "<b><size:14>ValueObject</b>\n<size:10>eapli.framework.domain.model" as eapli.framework.domain.model.ValueObject  #lightgrey {
}

hide eapli.framework.domain.model.ValueObject fields
hide eapli.framework.domain.model.ValueObject methods

eapli.framework.infrastructure.authz.domain.model.Name ..|> eapli.framework.domain.model.ValueObject

interface "<b><size:14>Serializable</b>\n<size:10>java.io" as java.io.Serializable  #lightgrey {
}

hide java.io.Serializable fields
hide java.io.Serializable methods

eapli.framework.infrastructure.authz.domain.model.Name ..|> java.io.Serializable

class "<b><size:14>SystemUser</b>\n<size:10>eapli.framework.infrastructure.authz.domain.model" as eapli.framework.infrastructure.authz.domain.model.SystemUser <<Entity>> [[../../../../../../eapli/framework/infrastructure/authz/domain/model/SystemUser.html{eapli.framework.infrastructure.authz.domain.model.SystemUser}]] {
}

hide eapli.framework.infrastructure.authz.domain.model.SystemUser fields
hide eapli.framework.infrastructure.authz.domain.model.SystemUser methods

eapli.framework.infrastructure.authz.domain.model.SystemUser -->  "name" eapli.framework.infrastructure.authz.domain.model.Name

class "<b><size:14>SystemUserBuilder</b>\n<size:10>eapli.framework.infrastructure.authz.domain.model" as eapli.framework.infrastructure.authz.domain.model.SystemUserBuilder  [[../../../../../../eapli/framework/infrastructure/authz/domain/model/SystemUserBuilder.html{eapli.framework.infrastructure.authz.domain.model.SystemUserBuilder}]] {
}

hide eapli.framework.infrastructure.authz.domain.model.SystemUserBuilder fields
hide eapli.framework.infrastructure.authz.domain.model.SystemUserBuilder methods

eapli.framework.infrastructure.authz.domain.model.SystemUserBuilder -->  "name" eapli.framework.infrastructure.authz.domain.model.Name


@enduml
