<?xml version="1.0" encoding="UTF-8" standalone="no"?><svg xmlns="http://www.w3.org/2000/svg" xmlns:xlink="http://www.w3.org/1999/xlink" contentScriptType="application/ecmascript" contentStyleType="text/css" height="370px" preserveAspectRatio="none" style="width:789px;height:370px;" version="1.1" viewBox="0 0 789 370" width="789px" zoomAndPan="magnify"><defs><filter height="300%" id="f1p2uszperk6wk" width="300%" x="-1" y="-1"><feGaussianBlur result="blurOut" stdDeviation="2.0"/><feColorMatrix in="blurOut" result="blurOut2" type="matrix" values="0 0 0 0 0 0 0 0 0 0 0 0 0 0 0 0 0 0 .4 0"/><feOffset dx="4.0" dy="4.0" in="blurOut2" result="blurOut3"/><feBlend in="SourceGraphic" in2="blurOut3" mode="normal"/></filter></defs><g><!--MD5=[0d1ba245f9d31632a0cfebf94b372d8a]
class eapli.framework.infrastructure.authz.domain.model.SystemUserDetails--><a href="../../../../../../eapli/framework/infrastructure/authz/domain/model/SystemUserDetails.html" target="_parent" title="eapli.framework.infrastructure.authz.domain.model.SystemUserDetails" xlink:actuate="onRequest" xlink:href="../../../../../../eapli/framework/infrastructure/authz/domain/model/SystemUserDetails.html" xlink:show="new" xlink:title="eapli.framework.infrastructure.authz.domain.model.SystemUserDetails" xlink:type="simple"><rect fill="#FEFECE" filter="url(#f1p2uszperk6wk)" height="236.0547" id="eapli.framework.infrastructure.authz.domain.model.SystemUserDetails" style="stroke: #A80036; stroke-width: 1.5;" width="271" x="215.5" y="8"/><ellipse cx="230.5" cy="28.0938" fill="#ADD1B2" rx="11" ry="11" style="stroke: #A80036; stroke-width: 1.0;"/><path d="M233.2656,23.9688 Q233.4219,23.75 233.6094,23.6406 Q233.7969,23.5313 234.0156,23.5313 Q234.3906,23.5313 234.625,23.7891 Q234.8594,24.0469 234.8594,24.6563 L234.8594,26.1094 Q234.8594,26.7188 234.625,26.9844 Q234.3906,27.25 234.0156,27.25 Q233.6719,27.25 233.4688,27.0469 Q233.2656,26.8594 233.1563,26.3438 Q233.1094,25.9844 232.9219,25.7969 Q232.5938,25.4219 231.9844,25.2031 Q231.375,24.9844 230.75,24.9844 Q229.9844,24.9844 229.3516,25.3125 Q228.7188,25.6406 228.2266,26.3906 Q227.7344,27.1406 227.7344,28.1719 L227.7344,29.2656 Q227.7344,30.5 228.625,31.3203 Q229.5156,32.1406 231.1094,32.1406 Q232.0469,32.1406 232.7031,31.8906 Q233.0938,31.7344 233.5156,31.2969 Q233.7813,31.0313 233.9297,30.9531 Q234.0781,30.875 234.2813,30.875 Q234.6094,30.875 234.8672,31.1328 Q235.125,31.3906 235.125,31.7344 Q235.125,32.0781 234.7813,32.4844 Q234.2813,33.0625 233.4844,33.3906 Q232.4063,33.8438 231.1094,33.8438 Q229.5938,33.8438 228.3906,33.2188 Q227.4063,32.7188 226.7188,31.6484 Q226.0313,30.5781 226.0313,29.2969 L226.0313,28.1406 Q226.0313,26.8125 226.6484,25.6641 Q227.2656,24.5156 228.3594,23.8984 Q229.4531,23.2813 230.6875,23.2813 Q231.4219,23.2813 232.0703,23.4453 Q232.7188,23.6094 233.2656,23.9688 Z "/><text fill="#000000" font-family="sans-serif" font-size="14" font-weight="bold" lengthAdjust="spacingAndGlyphs" textLength="131" x="298.5" y="27.5332">SystemUserDetails</text><text fill="#000000" font-family="sans-serif" font-size="10" lengthAdjust="spacingAndGlyphs" textLength="239" x="244.5" y="40.9902">eapli.framework.infrastructure.authz.domain.model</text><line style="stroke: #A80036; stroke-width: 1.5;" x1="216.5" x2="485.5" y1="48.1875" y2="48.1875"/><rect fill="none" height="6" style="stroke: #C82930; stroke-width: 1.0;" width="6" x="223.5" y="56.1875"/><text fill="#000000" font-family="sans-serif" font-size="11" lengthAdjust="spacingAndGlyphs" text-decoration="underline" textLength="103" x="235.5" y="63.6064">long serialVersionUID</text><rect fill="none" height="6" style="stroke: #C82930; stroke-width: 1.0;" width="6" x="223.5" y="70.0234"/><text fill="#000000" font-family="sans-serif" font-size="11" lengthAdjust="spacingAndGlyphs" textLength="79" x="235.5" y="77.4424">String username</text><rect fill="none" height="6" style="stroke: #C82930; stroke-width: 1.0;" width="6" x="223.5" y="83.8594"/><text fill="#000000" font-family="sans-serif" font-size="11" lengthAdjust="spacingAndGlyphs" textLength="81" x="235.5" y="91.2783">String password</text><rect fill="none" height="6" style="stroke: #C82930; stroke-width: 1.0;" width="6" x="223.5" y="97.6953"/><text fill="#000000" font-family="sans-serif" font-size="11" lengthAdjust="spacingAndGlyphs" textLength="80" x="235.5" y="105.1143">boolean isActive</text><rect fill="none" height="6" style="stroke: #C82930; stroke-width: 1.0;" width="6" x="223.5" y="111.5313"/><text fill="#000000" font-family="sans-serif" font-size="11" lengthAdjust="spacingAndGlyphs" textLength="165" x="235.5" y="118.9502">List&lt;GrantedAuthority&gt; authorities</text><line style="stroke: #A80036; stroke-width: 1.5;" x1="216.5" x2="485.5" y1="125.3672" y2="125.3672"/><ellipse cx="226.5" cy="136.3672" fill="#84BE84" rx="3" ry="3" style="stroke: #038048; stroke-width: 1.0;"/><text fill="#000000" font-family="sans-serif" font-size="11" lengthAdjust="spacingAndGlyphs" textLength="183" x="235.5" y="140.7861">SystemUserDetails(SystemUser user)</text><ellipse cx="226.5" cy="150.2031" fill="#84BE84" rx="3" ry="3" style="stroke: #038048; stroke-width: 1.0;"/><text fill="#000000" font-family="sans-serif" font-size="11" lengthAdjust="spacingAndGlyphs" textLength="142" x="235.5" y="154.6221">Collection&lt;?&gt; getAuthorities()</text><ellipse cx="226.5" cy="164.0391" fill="#84BE84" rx="3" ry="3" style="stroke: #038048; stroke-width: 1.0;"/><text fill="#000000" font-family="sans-serif" font-size="11" lengthAdjust="spacingAndGlyphs" textLength="104" x="235.5" y="168.458">String getPassword()</text><ellipse cx="226.5" cy="177.875" fill="#84BE84" rx="3" ry="3" style="stroke: #038048; stroke-width: 1.0;"/><text fill="#000000" font-family="sans-serif" font-size="11" lengthAdjust="spacingAndGlyphs" textLength="103" x="235.5" y="182.2939">String getUsername()</text><ellipse cx="226.5" cy="191.7109" fill="#84BE84" rx="3" ry="3" style="stroke: #038048; stroke-width: 1.0;"/><text fill="#000000" font-family="sans-serif" font-size="11" lengthAdjust="spacingAndGlyphs" textLength="153" x="235.5" y="196.1299">boolean isAccountNonExpired()</text><ellipse cx="226.5" cy="205.5469" fill="#84BE84" rx="3" ry="3" style="stroke: #038048; stroke-width: 1.0;"/><text fill="#000000" font-family="sans-serif" font-size="11" lengthAdjust="spacingAndGlyphs" textLength="152" x="235.5" y="209.9658">boolean isAccountNonLocked()</text><ellipse cx="226.5" cy="219.3828" fill="#84BE84" rx="3" ry="3" style="stroke: #038048; stroke-width: 1.0;"/><text fill="#000000" font-family="sans-serif" font-size="11" lengthAdjust="spacingAndGlyphs" textLength="166" x="235.5" y="223.8018">boolean isCredentialsNonExpired()</text><ellipse cx="226.5" cy="233.2188" fill="#84BE84" rx="3" ry="3" style="stroke: #038048; stroke-width: 1.0;"/><text fill="#000000" font-family="sans-serif" font-size="11" lengthAdjust="spacingAndGlyphs" textLength="95" x="235.5" y="237.6377">boolean isEnabled()</text></a><!--MD5=[8f121f7526d24e7b30ee9adbace23e39]
class org.springframework.security.core.GrantedAuthority--><rect fill="#D3D3D3" filter="url(#f1p2uszperk6wk)" height="40.1875" id="org.springframework.security.core.GrantedAuthority" style="stroke: #A80036; stroke-width: 1.5;" width="188" x="6" y="311.5"/><rect fill="#D3D3D3" height="40.1875" style="stroke: #A80036; stroke-width: 1.5;" width="188" x="6" y="311.5"/><ellipse cx="21" cy="331.5938" fill="#B4A7E5" rx="11" ry="11" style="stroke: #A80036; stroke-width: 1.0;"/><path d="M21.9531,328.2344 L21.9531,334.8906 L23.6719,334.8906 Q24.2813,334.8906 24.5469,335.125 Q24.8125,335.3594 24.8125,335.75 Q24.8125,336.125 24.5469,336.3594 Q24.2813,336.5938 23.6719,336.5938 L18.5313,336.5938 Q17.9219,336.5938 17.6563,336.3594 Q17.3906,336.125 17.3906,335.7344 Q17.3906,335.3594 17.6563,335.125 Q17.9219,334.8906 18.5313,334.8906 L20.25,334.8906 L20.25,328.2344 L18.5313,328.2344 Q17.9219,328.2344 17.6563,328 Q17.3906,327.7656 17.3906,327.375 Q17.3906,327 17.6563,326.7656 Q17.9219,326.5313 18.5313,326.5313 L23.6719,326.5313 Q24.2813,326.5313 24.5469,326.7656 Q24.8125,327 24.8125,327.375 Q24.8125,327.7656 24.5469,328 Q24.2813,328.2344 23.6719,328.2344 L21.9531,328.2344 Z "/><text fill="#000000" font-family="sans-serif" font-size="14" font-style="italic" font-weight="bold" lengthAdjust="spacingAndGlyphs" textLength="118" x="54" y="331.0332">GrantedAuthority</text><text fill="#000000" font-family="sans-serif" font-size="10" font-style="italic" lengthAdjust="spacingAndGlyphs" textLength="156" x="35" y="344.4902">org.springframework.security.core</text><!--MD5=[bf8101e45545a57df5e7f70b41677845]
class org.springframework.security.core.userdetails.UserDetails--><rect fill="#D3D3D3" filter="url(#f1p2uszperk6wk)" height="40.1875" id="org.springframework.security.core.userdetails.UserDetails" style="stroke: #A80036; stroke-width: 1.5;" width="243" x="229.5" y="311.5"/><rect fill="#D3D3D3" height="40.1875" style="stroke: #A80036; stroke-width: 1.5;" width="243" x="229.5" y="311.5"/><ellipse cx="244.5" cy="331.5938" fill="#B4A7E5" rx="11" ry="11" style="stroke: #A80036; stroke-width: 1.0;"/><path d="M245.4531,328.2344 L245.4531,334.8906 L247.1719,334.8906 Q247.7813,334.8906 248.0469,335.125 Q248.3125,335.3594 248.3125,335.75 Q248.3125,336.125 248.0469,336.3594 Q247.7813,336.5938 247.1719,336.5938 L242.0313,336.5938 Q241.4219,336.5938 241.1563,336.3594 Q240.8906,336.125 240.8906,335.7344 Q240.8906,335.3594 241.1563,335.125 Q241.4219,334.8906 242.0313,334.8906 L243.75,334.8906 L243.75,328.2344 L242.0313,328.2344 Q241.4219,328.2344 241.1563,328 Q240.8906,327.7656 240.8906,327.375 Q240.8906,327 241.1563,326.7656 Q241.4219,326.5313 242.0313,326.5313 L247.1719,326.5313 Q247.7813,326.5313 248.0469,326.7656 Q248.3125,327 248.3125,327.375 Q248.3125,327.7656 248.0469,328 Q247.7813,328.2344 247.1719,328.2344 L245.4531,328.2344 Z "/><text fill="#000000" font-family="sans-serif" font-size="14" font-style="italic" font-weight="bold" lengthAdjust="spacingAndGlyphs" textLength="76" x="326" y="331.0332">UserDetails</text><text fill="#000000" font-family="sans-serif" font-size="10" font-style="italic" lengthAdjust="spacingAndGlyphs" textLength="211" x="258.5" y="344.4902">org.springframework.security.core.userdetails</text><!--MD5=[9d1258bf87405b8ab48e8caec849a2cc]
class eapli.framework.infrastructure.authz.domain.model.SystemUser--><a href="../../../../../../eapli/framework/infrastructure/authz/domain/model/SystemUser.html" target="_parent" title="eapli.framework.infrastructure.authz.domain.model.SystemUser" xlink:actuate="onRequest" xlink:href="../../../../../../eapli/framework/infrastructure/authz/domain/model/SystemUser.html" xlink:show="new" xlink:title="eapli.framework.infrastructure.authz.domain.model.SystemUser" xlink:type="simple"><rect fill="#FEFECE" filter="url(#f1p2uszperk6wk)" height="55.2813" id="eapli.framework.infrastructure.authz.domain.model.SystemUser" style="stroke: #A80036; stroke-width: 1.5;" width="271" x="507.5" y="304"/><ellipse cx="522.5" cy="331.6406" fill="#ADD1B2" rx="11" ry="11" style="stroke: #A80036; stroke-width: 1.0;"/><path d="M525.2656,327.5156 Q525.4219,327.2969 525.6094,327.1875 Q525.7969,327.0781 526.0156,327.0781 Q526.3906,327.0781 526.625,327.3359 Q526.8594,327.5938 526.8594,328.2031 L526.8594,329.6563 Q526.8594,330.2656 526.625,330.5313 Q526.3906,330.7969 526.0156,330.7969 Q525.6719,330.7969 525.4688,330.5938 Q525.2656,330.4063 525.1563,329.8906 Q525.1094,329.5313 524.9219,329.3438 Q524.5938,328.9688 523.9844,328.75 Q523.375,328.5313 522.75,328.5313 Q521.9844,328.5313 521.3516,328.8594 Q520.7188,329.1875 520.2266,329.9375 Q519.7344,330.6875 519.7344,331.7188 L519.7344,332.8125 Q519.7344,334.0469 520.625,334.8672 Q521.5156,335.6875 523.1094,335.6875 Q524.0469,335.6875 524.7031,335.4375 Q525.0938,335.2813 525.5156,334.8438 Q525.7813,334.5781 525.9297,334.5 Q526.0781,334.4219 526.2813,334.4219 Q526.6094,334.4219 526.8672,334.6797 Q527.125,334.9375 527.125,335.2813 Q527.125,335.625 526.7813,336.0313 Q526.2813,336.6094 525.4844,336.9375 Q524.4063,337.3906 523.1094,337.3906 Q521.5938,337.3906 520.3906,336.7656 Q519.4063,336.2656 518.7188,335.1953 Q518.0313,334.125 518.0313,332.8438 L518.0313,331.6875 Q518.0313,330.3594 518.6484,329.2109 Q519.2656,328.0625 520.3594,327.4453 Q521.4531,326.8281 522.6875,326.8281 Q523.4219,326.8281 524.0703,326.9922 Q524.7188,327.1563 525.2656,327.5156 Z "/><text fill="#000000" font-family="sans-serif" font-size="12" font-style="italic" lengthAdjust="spacingAndGlyphs" textLength="44" x="634" y="321.457">«Entity»</text><text fill="#000000" font-family="sans-serif" font-size="14" font-weight="bold" lengthAdjust="spacingAndGlyphs" textLength="83" x="614.5" y="338.627">SystemUser</text><text fill="#000000" font-family="sans-serif" font-size="10" lengthAdjust="spacingAndGlyphs" textLength="239" x="536.5" y="352.084">eapli.framework.infrastructure.authz.domain.model</text></a><!--MD5=[37d9250b9a7ddcc4194a9aea648aafe5]
link eapli.framework.infrastructure.authz.domain.model.SystemUserDetails to org.springframework.security.core.GrantedAuthority--><path d="M222.5,244.04 C222.5,290.0675 222.5,332 222.5,332 C222.5,332 199.088,332 199.088,332 " fill="none" id="eapli.framework.infrastructure.authz.domain.model.SystemUserDetails-&gt;org.springframework.security.core.GrantedAuthority" style="stroke: #A80036; stroke-width: 1.0;"/><polygon fill="#A80036" points="194.088,332,203.088,336,199.088,332,203.088,328,194.088,332" style="stroke: #A80036; stroke-width: 1.0;"/><text fill="#000000" font-family="sans-serif" font-size="13" lengthAdjust="spacingAndGlyphs" textLength="69" x="151.7968" y="325.6">authorities *</text><!--MD5=[a5c216d1ca7fd3b390662d003c4ea557]
link eapli.framework.infrastructure.authz.domain.model.SystemUserDetails to org.springframework.security.core.userdetails.UserDetails--><path d="M351,244.052 C351,244.052 351,291.4055 351,291.4055 " fill="none" id="eapli.framework.infrastructure.authz.domain.model.SystemUserDetails-&gt;org.springframework.security.core.userdetails.UserDetails" style="stroke: #A80036; stroke-width: 1.0; stroke-dasharray: 7.0,7.0;"/><polygon fill="none" points="358,291.4055,351,311.4055,344,291.4055,358,291.4055" style="stroke: #A80036; stroke-width: 1.0;"/><!--MD5=[78a2530a3076056cddf4be3754921690]
link eapli.framework.infrastructure.authz.domain.model.SystemUserDetails to eapli.framework.infrastructure.authz.domain.model.SystemUser--><path d="M479.5,244.09 C479.5,278.9653 479.5,308 479.5,308 C479.5,308 502.236,308 502.236,308 " fill="none" id="eapli.framework.infrastructure.authz.domain.model.SystemUserDetails-&gt;eapli.framework.infrastructure.authz.domain.model.SystemUser" style="stroke: #A80036; stroke-width: 1.0; stroke-dasharray: 7.0,7.0;"/><polygon fill="#A80036" points="507.236,308,498.236,304,502.236,308,498.236,312,507.236,308" style="stroke: #A80036; stroke-width: 1.0;"/><!--MD5=[07da838e204ff16855da6c34986d5e64]
@startuml

skinparam svgLinkTarget _parent
skinparam linetype ortho
set namespaceSeparator none
class "<b><size:14>SystemUserDetails</b>\n<size:10>eapli.framework.infrastructure.authz.domain.model" as eapli.framework.infrastructure.authz.domain.model.SystemUserDetails  [[../../../../../../eapli/framework/infrastructure/authz/domain/model/SystemUserDetails.html{eapli.framework.infrastructure.authz.domain.model.SystemUserDetails}]] {
{static} -long serialVersionUID
-String username
-String password
-boolean isActive
-List<GrantedAuthority> authorities
+SystemUserDetails(SystemUser user)
+Collection<?> getAuthorities()
+String getPassword()
+String getUsername()
+boolean isAccountNonExpired()
+boolean isAccountNonLocked()
+boolean isCredentialsNonExpired()
+boolean isEnabled()
}



interface "<b><size:14>GrantedAuthority</b>\n<size:10>org.springframework.security.core" as org.springframework.security.core.GrantedAuthority  #lightgrey {
}

hide org.springframework.security.core.GrantedAuthority fields
hide org.springframework.security.core.GrantedAuthority methods

eapli.framework.infrastructure.authz.domain.model.SystemUserDetails - ->  "authorities *" org.springframework.security.core.GrantedAuthority

interface "<b><size:14>UserDetails</b>\n<size:10>org.springframework.security.core.userdetails" as org.springframework.security.core.userdetails.UserDetails  #lightgrey {
}

hide org.springframework.security.core.userdetails.UserDetails fields
hide org.springframework.security.core.userdetails.UserDetails methods

eapli.framework.infrastructure.authz.domain.model.SystemUserDetails ..|> org.springframework.security.core.userdetails.UserDetails

class "<b><size:14>SystemUser</b>\n<size:10>eapli.framework.infrastructure.authz.domain.model" as eapli.framework.infrastructure.authz.domain.model.SystemUser <<Entity>> [[../../../../../../eapli/framework/infrastructure/authz/domain/model/SystemUser.html{eapli.framework.infrastructure.authz.domain.model.SystemUser}]] {
}

hide eapli.framework.infrastructure.authz.domain.model.SystemUser fields
hide eapli.framework.infrastructure.authz.domain.model.SystemUser methods

eapli.framework.infrastructure.authz.domain.model.SystemUserDetails ..> eapli.framework.infrastructure.authz.domain.model.SystemUser



@enduml

PlantUML version 1.2020.04(Thu Mar 19 10:16:49 GMT 2020)
(GPL source distribution)
Java Runtime: Java(TM) SE Runtime Environment
JVM: Java HotSpot(TM) 64-Bit Server VM
Java Version: 1.8.0_202-b08
Operating System: Windows 10
Default Encoding: Cp1252
Language: en
Country: US
--></g></svg>