@startuml

skinparam svgLinkTarget _parent
skinparam linetype ortho
set namespaceSeparator none
class "<b><size:14>Username</b>\n<size:10>eapli.framework.infrastructure.authz.domain.model" as eapli.framework.infrastructure.authz.domain.model.Username <<Embeddable>> [[../../../../../../eapli/framework/infrastructure/authz/domain/model/Username.html{eapli.framework.infrastructure.authz.domain.model.Username}]] {
{static} -long serialVersionUID
-String theUsername
#Username()
#Username(String username)
{static} +Username valueOf(String username)
+boolean equals(Object o)
+String toString()
+int hashCode()
+int compareTo(Username o)
}


class "<b><size:14>UserManagementService</b>\n<size:10>eapli.framework.infrastructure.authz.application" as eapli.framework.infrastructure.authz.application.UserManagementService <<Component>> [[../../../../../../eapli/framework/infrastructure/authz/application/UserManagementService.html{eapli.framework.infrastructure.authz.application.UserManagementService}]] #white {
}

hide eapli.framework.infrastructure.authz.application.UserManagementService fields
hide eapli.framework.infrastructure.authz.application.UserManagementService methods

eapli.framework.infrastructure.authz.application.UserManagementService ..> eapli.framework.infrastructure.authz.domain.model.Username

class "<b><size:14>SystemUser</b>\n<size:10>eapli.framework.infrastructure.authz.domain.model" as eapli.framework.infrastructure.authz.domain.model.SystemUser <<Entity>> [[../../../../../../eapli/framework/infrastructure/authz/domain/model/SystemUser.html{eapli.framework.infrastructure.authz.domain.model.SystemUser}]] {
}

hide eapli.framework.infrastructure.authz.domain.model.SystemUser fields
hide eapli.framework.infrastructure.authz.domain.model.SystemUser methods

eapli.framework.infrastructure.authz.domain.model.SystemUser -->  "username" eapli.framework.infrastructure.authz.domain.model.Username

class "<b><size:14>SystemUserBuilder</b>\n<size:10>eapli.framework.infrastructure.authz.domain.model" as eapli.framework.infrastructure.authz.domain.model.SystemUserBuilder  [[../../../../../../eapli/framework/infrastructure/authz/domain/model/SystemUserBuilder.html{eapli.framework.infrastructure.authz.domain.model.SystemUserBuilder}]] {
}

hide eapli.framework.infrastructure.authz.domain.model.SystemUserBuilder fields
hide eapli.framework.infrastructure.authz.domain.model.SystemUserBuilder methods

eapli.framework.infrastructure.authz.domain.model.SystemUserBuilder -->  "username" eapli.framework.infrastructure.authz.domain.model.Username

interface "<b><size:14>ValueObject</b>\n<size:10>eapli.framework.domain.model" as eapli.framework.domain.model.ValueObject  #lightgrey {
}

hide eapli.framework.domain.model.ValueObject fields
hide eapli.framework.domain.model.ValueObject methods

eapli.framework.infrastructure.authz.domain.model.Username ..|> eapli.framework.domain.model.ValueObject

interface "<b><size:14>Serializable</b>\n<size:10>java.io" as java.io.Serializable  #lightgrey {
}

hide java.io.Serializable fields
hide java.io.Serializable methods

eapli.framework.infrastructure.authz.domain.model.Username ..|> java.io.Serializable

interface "<b><size:14>Comparable<Username></b>\n<size:10>java.lang" as java.lang.ComparableUsername  #lightgrey {
}

hide java.lang.ComparableUsername fields
hide java.lang.ComparableUsername methods

eapli.framework.infrastructure.authz.domain.model.Username ..|> java.lang.ComparableUsername

eapli.framework.infrastructure.authz.domain.model.Username ..> eapli.framework.infrastructure.authz.domain.model.Username

interface "<b><size:14>UserRepository</b>\n<size:10>eapli.framework.infrastructure.authz.domain.repositories" as eapli.framework.infrastructure.authz.domain.repositories.UserRepository  [[../../../../../../eapli/framework/infrastructure/authz/domain/repositories/UserRepository.html{eapli.framework.infrastructure.authz.domain.repositories.UserRepository}]] #white {
}

hide eapli.framework.infrastructure.authz.domain.repositories.UserRepository fields
hide eapli.framework.infrastructure.authz.domain.repositories.UserRepository methods

eapli.framework.infrastructure.authz.domain.repositories.UserRepository ..> eapli.framework.infrastructure.authz.domain.model.Username

class "<b><size:14>InMemoryUserRepository</b>\n<size:10>eapli.framework.infrastructure.authz.repositories.impl" as eapli.framework.infrastructure.authz.repositories.impl.InMemoryUserRepository  [[../../../../../../eapli/framework/infrastructure/authz/repositories/impl/InMemoryUserRepository.html{eapli.framework.infrastructure.authz.repositories.impl.InMemoryUserRepository}]] #white {
}

hide eapli.framework.infrastructure.authz.repositories.impl.InMemoryUserRepository fields
hide eapli.framework.infrastructure.authz.repositories.impl.InMemoryUserRepository methods

eapli.framework.infrastructure.authz.repositories.impl.InMemoryUserRepository ..> eapli.framework.infrastructure.authz.domain.model.Username

class "<b><size:14>JpaAutoTxUserRepository</b>\n<size:10>eapli.framework.infrastructure.authz.repositories.impl" as eapli.framework.infrastructure.authz.repositories.impl.JpaAutoTxUserRepository  [[../../../../../../eapli/framework/infrastructure/authz/repositories/impl/JpaAutoTxUserRepository.html{eapli.framework.infrastructure.authz.repositories.impl.JpaAutoTxUserRepository}]] #white {
}

hide eapli.framework.infrastructure.authz.repositories.impl.JpaAutoTxUserRepository fields
hide eapli.framework.infrastructure.authz.repositories.impl.JpaAutoTxUserRepository methods

eapli.framework.infrastructure.authz.repositories.impl.JpaAutoTxUserRepository ..> eapli.framework.infrastructure.authz.domain.model.Username

interface "<b><size:14>SpringDataUserRepository</b>\n<size:10>eapli.framework.infrastructure.authz.repositories.impl" as eapli.framework.infrastructure.authz.repositories.impl.SpringDataUserRepository  [[../../../../../../eapli/framework/infrastructure/authz/repositories/impl/SpringDataUserRepository.html{eapli.framework.infrastructure.authz.repositories.impl.SpringDataUserRepository}]] #white {
}

hide eapli.framework.infrastructure.authz.repositories.impl.SpringDataUserRepository fields
hide eapli.framework.infrastructure.authz.repositories.impl.SpringDataUserRepository methods

eapli.framework.infrastructure.authz.repositories.impl.SpringDataUserRepository ..> eapli.framework.infrastructure.authz.domain.model.Username


@enduml
