@startuml

skinparam svgLinkTarget _parent
skinparam linetype ortho
set namespaceSeparator none
class "<b><size:14>JpaAutoTxRepository</b>\n<size:10>eapli.framework.infrastructure.repositories.impl.jpa" as eapli.framework.infrastructure.repositories.impl.jpa.JpaAutoTxRepository  [[../../../../../../eapli/framework/infrastructure/repositories/impl/jpa/JpaAutoTxRepository.html{eapli.framework.infrastructure.repositories.impl.jpa.JpaAutoTxRepository}]] {
#JpaBaseRepository<T, K, I> repo
-TransactionalContext autoTx
+JpaAutoTxRepository(String persistenceUnitName,String identityFieldName)
+JpaAutoTxRepository(String persistenceUnitName,Map properties,String identityFieldName)
+JpaAutoTxRepository(TransactionalContext autoTx,String identityFieldName)
{static} +TransactionalContext buildTransactionalContext(String persistenceUnitName)
{static} +TransactionalContext buildTransactionalContext(String persistenceUnitName,Map properties)
+TransactionalContext context()
+boolean isInTransaction()
+void delete(Object entity)
+void deleteById(Object id)
+void deleteOfIdentity(Object entityId)
+Object save(Object entity)
+Iterable<T> findAll()
+Optional<T> findById(Object id)
+Optional<T> ofIdentity(Object id)
+long count()
+long size()
+Iterator<T> iterator()
#List<T> match(String where)
#List<T> match(String whereWithParameters,Map<String, Object> params)
#List<T> match(String where,Object args)
#Optional<T> matchOne(String where)
#Optional<T> matchOne(String whereWithParameters,Map<String, Object> params)
#Optional<T> matchOne(String where,Object args)
#TypedQuery<U> createQuery(String queryString,Class<U> class1)
}


class "<b><size:14>JpaBaseRepository<T, K, I></b>\n<size:10>eapli.framework.infrastructure.repositories.impl.jpa" as eapli.framework.infrastructure.repositories.impl.jpa.JpaBaseRepositoryObjectObjectObject  [[../../../../../../eapli/framework/infrastructure/repositories/impl/jpa/JpaBaseRepository.html{eapli.framework.infrastructure.repositories.impl.jpa.JpaBaseRepository}]] {
}

hide eapli.framework.infrastructure.repositories.impl.jpa.JpaBaseRepositoryObjectObjectObject fields
hide eapli.framework.infrastructure.repositories.impl.jpa.JpaBaseRepositoryObjectObjectObject methods

eapli.framework.infrastructure.repositories.impl.jpa.JpaAutoTxRepository -->  "repo" eapli.framework.infrastructure.repositories.impl.jpa.JpaBaseRepositoryObjectObjectObject

class "<b><size:14>Object</b>\n<size:10>java.lang" as java.lang.Object  #lightgrey {
}

hide java.lang.Object fields
hide java.lang.Object methods

eapli.framework.infrastructure.repositories.impl.jpa.JpaAutoTxRepository ..> java.lang.Object

interface "<b><size:14>TransactionalContext</b>\n<size:10>eapli.framework.domain.repositories" as eapli.framework.domain.repositories.TransactionalContext  [[../../../../../../eapli/framework/domain/repositories/TransactionalContext.html{eapli.framework.domain.repositories.TransactionalContext}]] #white {
}

hide eapli.framework.domain.repositories.TransactionalContext fields
hide eapli.framework.domain.repositories.TransactionalContext methods

eapli.framework.infrastructure.repositories.impl.jpa.JpaAutoTxRepository -->  "autoTx" eapli.framework.domain.repositories.TransactionalContext

interface "<b><size:14>Repository<T, K></b>\n<size:10>eapli.framework.infrastructure.repositories" as eapli.framework.infrastructure.repositories.RepositoryObjectObject  [[../../../../../../eapli/framework/infrastructure/repositories/Repository.html{eapli.framework.infrastructure.repositories.Repository}]] #lightgrey {
}

hide eapli.framework.infrastructure.repositories.RepositoryObjectObject fields
hide eapli.framework.infrastructure.repositories.RepositoryObjectObject methods

eapli.framework.infrastructure.repositories.impl.jpa.JpaAutoTxRepository ..|> eapli.framework.infrastructure.repositories.RepositoryObjectObject



interface "<b><size:14>ActiveRecord</b>\n<size:10>eapli.framework.domain.activerecord" as eapli.framework.domain.activerecord.ActiveRecord  [[../../../../../../eapli/framework/domain/activerecord/ActiveRecord.html{eapli.framework.domain.activerecord.ActiveRecord}]] #white {
}

hide eapli.framework.domain.activerecord.ActiveRecord fields
hide eapli.framework.domain.activerecord.ActiveRecord methods

eapli.framework.infrastructure.repositories.impl.jpa.JpaAutoTxRepository ..> eapli.framework.domain.activerecord.ActiveRecord


interface "<b><size:14>Serializable</b>\n<size:10>java.io" as java.io.Serializable  #lightgrey {
}

hide java.io.Serializable fields
hide java.io.Serializable methods

eapli.framework.infrastructure.repositories.impl.jpa.JpaAutoTxRepository ..> java.io.Serializable





@enduml
