@startuml

skinparam svgLinkTarget _parent
skinparam linetype ortho
set namespaceSeparator none
class "<b><size:14>JpaAbstractRepository</b>\n<size:10>eapli.framework.infrastructure.repositories.impl.jpa" as eapli.framework.infrastructure.repositories.impl.jpa.JpaAbstractRepository  [[../../../../../../eapli/framework/infrastructure/repositories/impl/jpa/JpaAbstractRepository.html{eapli.framework.infrastructure.repositories.impl.jpa.JpaAbstractRepository}]] {
-EntityManagerFactory emFactory
-EntityManager entityManager
+JpaAbstractRepository()
#EntityManagerFactory entityManagerFactory()
#EntityManager entityManager()
#TypedQuery<R> createQuery(String jpql,Class<R> classz)
}


interface "<b><size:14>EntityManagerFactory</b>\n<size:10>javax.persistence" as javax.persistence.EntityManagerFactory  #lightgrey {
}

hide javax.persistence.EntityManagerFactory fields
hide javax.persistence.EntityManagerFactory methods

eapli.framework.infrastructure.repositories.impl.jpa.JpaAbstractRepository -->  "emFactory" javax.persistence.EntityManagerFactory

interface "<b><size:14>EntityManager</b>\n<size:10>javax.persistence" as javax.persistence.EntityManager  #lightgrey {
}

hide javax.persistence.EntityManager fields
hide javax.persistence.EntityManager methods

eapli.framework.infrastructure.repositories.impl.jpa.JpaAbstractRepository -->  "entityManager" javax.persistence.EntityManager


class "<b><size:14>Object</b>\n<size:10>java.lang" as java.lang.Object  #lightgrey {
}

hide java.lang.Object fields
hide java.lang.Object methods

eapli.framework.infrastructure.repositories.impl.jpa.JpaAbstractRepository ..> java.lang.Object

class "<b><size:14>JpaBaseRepository</b>\n<size:10>eapli.framework.infrastructure.repositories.impl.jpa" as eapli.framework.infrastructure.repositories.impl.jpa.JpaBaseRepository  [[../../../../../../eapli/framework/infrastructure/repositories/impl/jpa/JpaBaseRepository.html{eapli.framework.infrastructure.repositories.impl.jpa.JpaBaseRepository}]] {
}

hide eapli.framework.infrastructure.repositories.impl.jpa.JpaBaseRepository fields
hide eapli.framework.infrastructure.repositories.impl.jpa.JpaBaseRepository methods

eapli.framework.infrastructure.repositories.impl.jpa.JpaBaseRepository --|> eapli.framework.infrastructure.repositories.impl.jpa.JpaAbstractRepository


@enduml
