<?xml version="1.0" encoding="UTF-8" standalone="no"?><svg xmlns="http://www.w3.org/2000/svg" xmlns:xlink="http://www.w3.org/1999/xlink" contentScriptType="application/ecmascript" contentStyleType="text/css" height="701px" preserveAspectRatio="none" style="width:1045px;height:701px;" version="1.1" viewBox="0 0 1045 701" width="1045px" zoomAndPan="magnify"><defs><filter height="300%" id="f15cu0h29in12l" width="300%" x="-1" y="-1"><feGaussianBlur result="blurOut" stdDeviation="2.0"/><feColorMatrix in="blurOut" result="blurOut2" type="matrix" values="0 0 0 0 0 0 0 0 0 0 0 0 0 0 0 0 0 0 .4 0"/><feOffset dx="4.0" dy="4.0" in="blurOut2" result="blurOut3"/><feBlend in="SourceGraphic" in2="blurOut3" mode="normal"/></filter></defs><g><!--MD5=[bdef6c682c19afc2d6774fe8ae10a761]
class eapli.framework.infrastructure.repositories.impl.jpa.JpaBaseRepository--><a href="../../../../../../eapli/framework/infrastructure/repositories/impl/jpa/JpaBaseRepository.html" target="_parent" title="eapli.framework.infrastructure.repositories.impl.jpa.JpaBaseRepository" xlink:actuate="onRequest" xlink:href="../../../../../../eapli/framework/infrastructure/repositories/impl/jpa/JpaBaseRepository.html" xlink:show="new" xlink:title="eapli.framework.infrastructure.repositories.impl.jpa.JpaBaseRepository" xlink:type="simple"><rect fill="#FEFECE" filter="url(#f15cu0h29in12l)" height="581.9531" id="eapli.framework.infrastructure.repositories.impl.jpa.JpaBaseRepository" style="stroke: #A80036; stroke-width: 1.5;" width="421" x="400.5" y="8"/><ellipse cx="488.75" cy="28.0938" fill="#ADD1B2" rx="11" ry="11" style="stroke: #A80036; stroke-width: 1.0;"/><path d="M491.5156,23.9688 Q491.6719,23.75 491.8594,23.6406 Q492.0469,23.5313 492.2656,23.5313 Q492.6406,23.5313 492.875,23.7891 Q493.1094,24.0469 493.1094,24.6563 L493.1094,26.1094 Q493.1094,26.7188 492.875,26.9844 Q492.6406,27.25 492.2656,27.25 Q491.9219,27.25 491.7188,27.0469 Q491.5156,26.8594 491.4063,26.3438 Q491.3594,25.9844 491.1719,25.7969 Q490.8438,25.4219 490.2344,25.2031 Q489.625,24.9844 489,24.9844 Q488.2344,24.9844 487.6016,25.3125 Q486.9688,25.6406 486.4766,26.3906 Q485.9844,27.1406 485.9844,28.1719 L485.9844,29.2656 Q485.9844,30.5 486.875,31.3203 Q487.7656,32.1406 489.3594,32.1406 Q490.2969,32.1406 490.9531,31.8906 Q491.3438,31.7344 491.7656,31.2969 Q492.0313,31.0313 492.1797,30.9531 Q492.3281,30.875 492.5313,30.875 Q492.8594,30.875 493.1172,31.1328 Q493.375,31.3906 493.375,31.7344 Q493.375,32.0781 493.0313,32.4844 Q492.5313,33.0625 491.7344,33.3906 Q490.6563,33.8438 489.3594,33.8438 Q487.8438,33.8438 486.6406,33.2188 Q485.6563,32.7188 484.9688,31.6484 Q484.2813,30.5781 484.2813,29.2969 L484.2813,28.1406 Q484.2813,26.8125 484.8984,25.6641 Q485.5156,24.5156 486.6094,23.8984 Q487.7031,23.2813 488.9375,23.2813 Q489.6719,23.2813 490.3203,23.4453 Q490.9688,23.6094 491.5156,23.9688 Z "/><text fill="#000000" font-family="sans-serif" font-size="14" font-weight="bold" lengthAdjust="spacingAndGlyphs" textLength="136" x="559.25" y="27.5332">JpaBaseRepository</text><text fill="#000000" font-family="sans-serif" font-size="10" lengthAdjust="spacingAndGlyphs" textLength="236" x="509.25" y="40.9902">eapli.framework.infrastructure.repositories.impl.jpa</text><line style="stroke: #A80036; stroke-width: 1.5;" x1="401.5" x2="820.5" y1="48.1875" y2="48.1875"/><rect fill="none" height="6" style="stroke: #C82930; stroke-width: 1.0;" width="6" x="408.5" y="56.1875"/><text fill="#000000" font-family="sans-serif" font-size="11" lengthAdjust="spacingAndGlyphs" text-decoration="underline" textLength="116" x="420.5" y="63.6064">String SELECT_E_FROM</text><rect fill="none" height="6" style="stroke: #C82930; stroke-width: 1.0;" width="6" x="408.5" y="70.0234"/><text fill="#000000" font-family="sans-serif" font-size="11" lengthAdjust="spacingAndGlyphs" text-decoration="underline" textLength="248" x="420.5" y="77.4424">String PARAMS_MUST_NOT_BE_NULL_OR_EMPTY</text><rect fill="none" height="6" style="stroke: #C82930; stroke-width: 1.0;" width="6" x="408.5" y="83.8594"/><text fill="#000000" font-family="sans-serif" font-size="11" lengthAdjust="spacingAndGlyphs" text-decoration="underline" textLength="240" x="420.5" y="91.2783">String QUERY_MUST_NOT_BE_NULL_OR_EMPTY</text><rect fill="none" height="6" style="stroke: #C82930; stroke-width: 1.0;" width="6" x="408.5" y="97.6953"/><text fill="#000000" font-family="sans-serif" font-size="11" lengthAdjust="spacingAndGlyphs" text-decoration="underline" textLength="116" x="420.5" y="105.1143">int DEFAULT_PAGESIZE</text><rect fill="none" height="6" style="stroke: #C82930; stroke-width: 1.0;" width="6" x="408.5" y="111.5313"/><text fill="#000000" font-family="sans-serif" font-size="11" lengthAdjust="spacingAndGlyphs" textLength="101" x="420.5" y="118.9502">Class&lt;T&gt; entityClass</text><rect fill="none" height="6" style="stroke: #C82930; stroke-width: 1.0;" width="6" x="408.5" y="125.3672"/><text fill="#000000" font-family="sans-serif" font-size="11" lengthAdjust="spacingAndGlyphs" textLength="114" x="420.5" y="132.7861">String identityFieldName</text><line style="stroke: #A80036; stroke-width: 1.5;" x1="401.5" x2="820.5" y1="139.2031" y2="139.2031"/><ellipse cx="411.5" cy="150.2031" fill="#84BE84" rx="3" ry="3" style="stroke: #038048; stroke-width: 1.0;"/><text fill="#000000" font-family="sans-serif" font-size="11" lengthAdjust="spacingAndGlyphs" textLength="216" x="420.5" y="154.6221">JpaBaseRepository(String identityFieldName)</text><polygon fill="#4177AF" points="411.5,160.0391,407.5,166.0391,415.5,166.0391" style="stroke: #1963A0; stroke-width: 1.0;"/><text fill="#000000" font-family="sans-serif" font-size="11" lengthAdjust="spacingAndGlyphs" textLength="299" x="420.5" y="168.458">JpaBaseRepository(Class&lt;T&gt; classz,String identityFieldName)</text><ellipse cx="411.5" cy="177.875" fill="#84BE84" rx="3" ry="3" style="stroke: #038048; stroke-width: 1.0;"/><text fill="#000000" font-family="sans-serif" font-size="11" lengthAdjust="spacingAndGlyphs" textLength="133" x="420.5" y="182.2939">Object create(Object entity)</text><ellipse cx="411.5" cy="191.7109" fill="#84BE84" rx="3" ry="3" style="stroke: #038048; stroke-width: 1.0;"/><text fill="#000000" font-family="sans-serif" font-size="11" lengthAdjust="spacingAndGlyphs" textLength="149" x="420.5" y="196.1299">Optional&lt;T&gt; findById(Object id)</text><ellipse cx="411.5" cy="205.5469" fill="#84BE84" rx="3" ry="3" style="stroke: #038048; stroke-width: 1.0;"/><text fill="#000000" font-family="sans-serif" font-size="11" lengthAdjust="spacingAndGlyphs" textLength="154" x="420.5" y="209.9658">Optional&lt;T&gt; ofIdentity(Object id)</text><ellipse cx="411.5" cy="219.3828" fill="#84BE84" rx="3" ry="3" style="stroke: #038048; stroke-width: 1.0;"/><text fill="#000000" font-family="sans-serif" font-size="11" lengthAdjust="spacingAndGlyphs" textLength="174" x="420.5" y="223.8018">void deleteOfIdentity(Object entityId)</text><ellipse cx="411.5" cy="233.2188" fill="#84BE84" rx="3" ry="3" style="stroke: #038048; stroke-width: 1.0;"/><text fill="#000000" font-family="sans-serif" font-size="11" lengthAdjust="spacingAndGlyphs" textLength="135" x="420.5" y="237.6377">Object update(Object entity)</text><ellipse cx="411.5" cy="247.0547" fill="#84BE84" rx="3" ry="3" style="stroke: #038048; stroke-width: 1.0;"/><text fill="#000000" font-family="sans-serif" font-size="11" lengthAdjust="spacingAndGlyphs" textLength="120" x="420.5" y="251.4736">void delete(Object entity)</text><ellipse cx="411.5" cy="260.8906" fill="#84BE84" rx="3" ry="3" style="stroke: #038048; stroke-width: 1.0;"/><text fill="#000000" font-family="sans-serif" font-size="11" lengthAdjust="spacingAndGlyphs" textLength="149" x="420.5" y="265.3096">void deleteById(Object entityId)</text><ellipse cx="411.5" cy="274.7266" fill="#84BE84" rx="3" ry="3" style="stroke: #038048; stroke-width: 1.0;"/><text fill="#000000" font-family="sans-serif" font-size="11" lengthAdjust="spacingAndGlyphs" textLength="160" x="420.5" y="279.1455">boolean containsKey(Object key)</text><ellipse cx="411.5" cy="288.5625" fill="#84BE84" rx="3" ry="3" style="stroke: #038048; stroke-width: 1.0;"/><text fill="#000000" font-family="sans-serif" font-size="11" lengthAdjust="spacingAndGlyphs" textLength="126" x="420.5" y="292.9814">Object save(Object entity)</text><ellipse cx="411.5" cy="302.3984" fill="#84BE84" rx="3" ry="3" style="stroke: #038048; stroke-width: 1.0;"/><text fill="#000000" font-family="sans-serif" font-size="11" lengthAdjust="spacingAndGlyphs" textLength="85" x="420.5" y="306.8174">List&lt;T&gt; first(int n)</text><ellipse cx="411.5" cy="316.2344" fill="#84BE84" rx="3" ry="3" style="stroke: #038048; stroke-width: 1.0;"/><text fill="#000000" font-family="sans-serif" font-size="11" lengthAdjust="spacingAndGlyphs" textLength="87" x="420.5" y="320.6533">Optional&lt;T&gt; first()</text><ellipse cx="411.5" cy="330.0703" fill="#84BE84" rx="3" ry="3" style="stroke: #038048; stroke-width: 1.0;"/><text fill="#000000" font-family="sans-serif" font-size="11" lengthAdjust="spacingAndGlyphs" textLength="207" x="420.5" y="334.4893">List&lt;T&gt; page(int pageNumber,int pageSize)</text><ellipse cx="411.5" cy="343.9063" fill="#84BE84" rx="3" ry="3" style="stroke: #038048; stroke-width: 1.0;"/><text fill="#000000" font-family="sans-serif" font-size="11" lengthAdjust="spacingAndGlyphs" textLength="155" x="420.5" y="348.3252">Iterator&lt;T&gt; iterator(int pagesize)</text><ellipse cx="411.5" cy="357.7422" fill="#84BE84" rx="3" ry="3" style="stroke: #038048; stroke-width: 1.0;"/><text fill="#000000" font-family="sans-serif" font-size="11" lengthAdjust="spacingAndGlyphs" textLength="97" x="420.5" y="362.1611">Iterator&lt;T&gt; iterator()</text><ellipse cx="411.5" cy="371.5781" fill="#84BE84" rx="3" ry="3" style="stroke: #038048; stroke-width: 1.0;"/><text fill="#000000" font-family="sans-serif" font-size="11" lengthAdjust="spacingAndGlyphs" textLength="94" x="420.5" y="375.9971">Iterable&lt;T&gt; findAll()</text><ellipse cx="411.5" cy="385.4141" fill="#84BE84" rx="3" ry="3" style="stroke: #038048; stroke-width: 1.0;"/><text fill="#000000" font-family="sans-serif" font-size="11" lengthAdjust="spacingAndGlyphs" textLength="58" x="420.5" y="389.833">long count()</text><ellipse cx="411.5" cy="399.25" fill="#84BE84" rx="3" ry="3" style="stroke: #038048; stroke-width: 1.0;"/><text fill="#000000" font-family="sans-serif" font-size="11" lengthAdjust="spacingAndGlyphs" textLength="51" x="420.5" y="403.6689">long size()</text><polygon fill="#FFFF44" points="411.5,408.0859,415.5,412.0859,411.5,416.0859,407.5,412.0859" style="stroke: #B38D22; stroke-width: 1.0;"/><text fill="#000000" font-family="sans-serif" font-size="11" lengthAdjust="spacingAndGlyphs" textLength="132" x="420.5" y="417.5049">Optional&lt;T&gt; read(Object id)</text><polygon fill="#FFFF44" points="411.5,421.9219,415.5,425.9219,411.5,429.9219,407.5,425.9219" style="stroke: #B38D22; stroke-width: 1.0;"/><text fill="#000000" font-family="sans-serif" font-size="11" lengthAdjust="spacingAndGlyphs" textLength="122" x="420.5" y="431.3408">String identityFieldName()</text><polygon fill="#FFFF44" points="411.5,435.7578,415.5,439.7578,411.5,443.7578,407.5,439.7578" style="stroke: #B38D22; stroke-width: 1.0;"/><text fill="#000000" font-family="sans-serif" font-size="11" lengthAdjust="spacingAndGlyphs" textLength="129" x="420.5" y="445.1768">TypedQuery&lt;T&gt; queryAll()</text><polygon fill="#FFFF44" points="411.5,449.5938,415.5,453.5938,411.5,457.5938,407.5,453.5938" style="stroke: #B38D22; stroke-width: 1.0;"/><text fill="#000000" font-family="sans-serif" font-size="11" lengthAdjust="spacingAndGlyphs" textLength="319" x="420.5" y="459.0127">TypedQuery&lt;T&gt; query(String where,Map&lt;String, Object&gt; params)</text><polygon fill="#FFFF44" points="411.5,463.4297,415.5,467.4297,411.5,471.4297,407.5,467.4297" style="stroke: #B38D22; stroke-width: 1.0;"/><text fill="#000000" font-family="sans-serif" font-size="11" lengthAdjust="spacingAndGlyphs" textLength="239" x="420.5" y="472.8486">TypedQuery&lt;T&gt; query(String where,Object args)</text><polygon fill="#FFFF44" points="411.5,477.2656,415.5,481.2656,411.5,485.2656,407.5,481.2656" style="stroke: #B38D22; stroke-width: 1.0;"/><text fill="#000000" font-family="sans-serif" font-size="11" lengthAdjust="spacingAndGlyphs" textLength="138" x="420.5" y="486.6846">List&lt;T&gt; match(String where)</text><polygon fill="#FFFF44" points="411.5,491.1016,415.5,495.1016,411.5,499.1016,407.5,495.1016" style="stroke: #B38D22; stroke-width: 1.0;"/><text fill="#000000" font-family="sans-serif" font-size="11" lengthAdjust="spacingAndGlyphs" textLength="353" x="420.5" y="500.5205">List&lt;T&gt; match(String whereWithParameters,Map&lt;String, Object&gt; params)</text><polygon fill="#FFFF44" points="411.5,504.9375,415.5,508.9375,411.5,512.9375,407.5,508.9375" style="stroke: #B38D22; stroke-width: 1.0;"/><text fill="#000000" font-family="sans-serif" font-size="11" lengthAdjust="spacingAndGlyphs" textLength="180" x="420.5" y="514.3564">Optional&lt;T&gt; matchOne(String where)</text><polygon fill="#FFFF44" points="411.5,518.7734,415.5,522.7734,411.5,526.7734,407.5,522.7734" style="stroke: #B38D22; stroke-width: 1.0;"/><text fill="#000000" font-family="sans-serif" font-size="11" lengthAdjust="spacingAndGlyphs" textLength="395" x="420.5" y="528.1924">Optional&lt;T&gt; matchOne(String whereWithParameters,Map&lt;String, Object&gt; params)</text><polygon fill="#FFFF44" points="411.5,532.6094,415.5,536.6094,411.5,540.6094,407.5,536.6094" style="stroke: #B38D22; stroke-width: 1.0;"/><text fill="#000000" font-family="sans-serif" font-size="11" lengthAdjust="spacingAndGlyphs" textLength="239" x="420.5" y="542.0283">Optional&lt;T&gt; matchOne(String where,Object args)</text><polygon fill="#FFFF44" points="411.5,546.4453,415.5,550.4453,411.5,554.4453,407.5,550.4453" style="stroke: #B38D22; stroke-width: 1.0;"/><text fill="#000000" font-family="sans-serif" font-size="11" lengthAdjust="spacingAndGlyphs" textLength="197" x="420.5" y="555.8643">List&lt;T&gt; match(String where,Object args)</text><rect fill="#F24D5C" height="6" style="stroke: #C82930; stroke-width: 1.0;" width="6" x="408.5" y="562.2813"/><text fill="#000000" font-family="sans-serif" font-size="11" lengthAdjust="spacingAndGlyphs" textLength="180" x="420.5" y="569.7002">TypedQuery&lt;T&gt; query(String where)</text><rect fill="#F24D5C" height="6" style="stroke: #C82930; stroke-width: 1.0;" width="6" x="408.5" y="576.1172"/><text fill="#000000" font-family="sans-serif" font-size="11" lengthAdjust="spacingAndGlyphs" textLength="239" x="420.5" y="583.5361">Optional&lt;T&gt; getOptionalResult(TypedQuery&lt;T&gt; q)</text></a><!--MD5=[cbf4a979ee5f38452ce7d96303047171]
class eapli.framework.infrastructure.repositories.impl.jpa.JpaAbstractRepository--><a href="../../../../../../eapli/framework/infrastructure/repositories/impl/jpa/JpaAbstractRepository.html" target="_parent" title="eapli.framework.infrastructure.repositories.impl.jpa.JpaAbstractRepository" xlink:actuate="onRequest" xlink:href="../../../../../../eapli/framework/infrastructure/repositories/impl/jpa/JpaAbstractRepository.html" xlink:show="new" xlink:title="eapli.framework.infrastructure.repositories.impl.jpa.JpaAbstractRepository" xlink:type="simple"><rect fill="#FEFECE" filter="url(#f15cu0h29in12l)" height="40.1875" id="eapli.framework.infrastructure.repositories.impl.jpa.JpaAbstractRepository" style="stroke: #A80036; stroke-width: 1.5;" width="268" x="6" y="650"/><ellipse cx="21" cy="670.0938" fill="#ADD1B2" rx="11" ry="11" style="stroke: #A80036; stroke-width: 1.0;"/><path d="M23.7656,665.9688 Q23.9219,665.75 24.1094,665.6406 Q24.2969,665.5313 24.5156,665.5313 Q24.8906,665.5313 25.125,665.7891 Q25.3594,666.0469 25.3594,666.6563 L25.3594,668.1094 Q25.3594,668.7188 25.125,668.9844 Q24.8906,669.25 24.5156,669.25 Q24.1719,669.25 23.9688,669.0469 Q23.7656,668.8594 23.6563,668.3438 Q23.6094,667.9844 23.4219,667.7969 Q23.0938,667.4219 22.4844,667.2031 Q21.875,666.9844 21.25,666.9844 Q20.4844,666.9844 19.8516,667.3125 Q19.2188,667.6406 18.7266,668.3906 Q18.2344,669.1406 18.2344,670.1719 L18.2344,671.2656 Q18.2344,672.5 19.125,673.3203 Q20.0156,674.1406 21.6094,674.1406 Q22.5469,674.1406 23.2031,673.8906 Q23.5938,673.7344 24.0156,673.2969 Q24.2813,673.0313 24.4297,672.9531 Q24.5781,672.875 24.7813,672.875 Q25.1094,672.875 25.3672,673.1328 Q25.625,673.3906 25.625,673.7344 Q25.625,674.0781 25.2813,674.4844 Q24.7813,675.0625 23.9844,675.3906 Q22.9063,675.8438 21.6094,675.8438 Q20.0938,675.8438 18.8906,675.2188 Q17.9063,674.7188 17.2188,673.6484 Q16.5313,672.5781 16.5313,671.2969 L16.5313,670.1406 Q16.5313,668.8125 17.1484,667.6641 Q17.7656,666.5156 18.8594,665.8984 Q19.9531,665.2813 21.1875,665.2813 Q21.9219,665.2813 22.5703,665.4453 Q23.2188,665.6094 23.7656,665.9688 Z "/><text fill="#000000" font-family="sans-serif" font-size="14" font-weight="bold" lengthAdjust="spacingAndGlyphs" textLength="159" x="73.5" y="669.5332">JpaAbstractRepository</text><text fill="#000000" font-family="sans-serif" font-size="10" lengthAdjust="spacingAndGlyphs" textLength="236" x="35" y="682.9902">eapli.framework.infrastructure.repositories.impl.jpa</text></a><!--MD5=[88b0dd6ca0ba9efb9d04f4611461b30c]
class eapli.framework.infrastructure.repositories.IterableRepositoryObjectObject--><a href="../../../../../../eapli/framework/infrastructure/repositories/IterableRepository.html" target="_parent" title="eapli.framework.infrastructure.repositories.IterableRepository" xlink:actuate="onRequest" xlink:href="../../../../../../eapli/framework/infrastructure/repositories/IterableRepository.html" xlink:show="new" xlink:title="eapli.framework.infrastructure.repositories.IterableRepository" xlink:type="simple"><rect fill="#D3D3D3" filter="url(#f15cu0h29in12l)" height="40.1875" id="eapli.framework.infrastructure.repositories.IterableRepositoryObjectObject" style="stroke: #A80036; stroke-width: 1.5;" width="228" x="309" y="650"/><rect fill="#D3D3D3" height="40.1875" style="stroke: #A80036; stroke-width: 1.5;" width="228" x="309" y="650"/><ellipse cx="324" cy="670.0938" fill="#B4A7E5" rx="11" ry="11" style="stroke: #A80036; stroke-width: 1.0;"/><path d="M324.9531,666.7344 L324.9531,673.3906 L326.6719,673.3906 Q327.2813,673.3906 327.5469,673.625 Q327.8125,673.8594 327.8125,674.25 Q327.8125,674.625 327.5469,674.8594 Q327.2813,675.0938 326.6719,675.0938 L321.5313,675.0938 Q320.9219,675.0938 320.6563,674.8594 Q320.3906,674.625 320.3906,674.2344 Q320.3906,673.8594 320.6563,673.625 Q320.9219,673.3906 321.5313,673.3906 L323.25,673.3906 L323.25,666.7344 L321.5313,666.7344 Q320.9219,666.7344 320.6563,666.5 Q320.3906,666.2656 320.3906,665.875 Q320.3906,665.5 320.6563,665.2656 Q320.9219,665.0313 321.5313,665.0313 L326.6719,665.0313 Q327.2813,665.0313 327.5469,665.2656 Q327.8125,665.5 327.8125,665.875 Q327.8125,666.2656 327.5469,666.5 Q327.2813,666.7344 326.6719,666.7344 L324.9531,666.7344 Z "/><text fill="#000000" font-family="sans-serif" font-size="14" font-style="italic" font-weight="bold" lengthAdjust="spacingAndGlyphs" textLength="164" x="354" y="669.5332">IterableRepository&lt;T, K&gt;</text><text fill="#000000" font-family="sans-serif" font-size="10" font-style="italic" lengthAdjust="spacingAndGlyphs" textLength="196" x="338" y="682.9902">eapli.framework.infrastructure.repositories</text></a><!--MD5=[274ad5661286b626a93603d287cbf95a]
class java.lang.Object--><rect fill="#D3D3D3" filter="url(#f15cu0h29in12l)" height="40.1875" id="java.lang.Object" style="stroke: #A80036; stroke-width: 1.5;" width="78" x="572" y="650"/><rect fill="#D3D3D3" height="40.1875" style="stroke: #A80036; stroke-width: 1.5;" width="78" x="572" y="650"/><ellipse cx="587" cy="670.0938" fill="#ADD1B2" rx="11" ry="11" style="stroke: #A80036; stroke-width: 1.0;"/><path d="M589.7656,665.9688 Q589.9219,665.75 590.1094,665.6406 Q590.2969,665.5313 590.5156,665.5313 Q590.8906,665.5313 591.125,665.7891 Q591.3594,666.0469 591.3594,666.6563 L591.3594,668.1094 Q591.3594,668.7188 591.125,668.9844 Q590.8906,669.25 590.5156,669.25 Q590.1719,669.25 589.9688,669.0469 Q589.7656,668.8594 589.6563,668.3438 Q589.6094,667.9844 589.4219,667.7969 Q589.0938,667.4219 588.4844,667.2031 Q587.875,666.9844 587.25,666.9844 Q586.4844,666.9844 585.8516,667.3125 Q585.2188,667.6406 584.7266,668.3906 Q584.2344,669.1406 584.2344,670.1719 L584.2344,671.2656 Q584.2344,672.5 585.125,673.3203 Q586.0156,674.1406 587.6094,674.1406 Q588.5469,674.1406 589.2031,673.8906 Q589.5938,673.7344 590.0156,673.2969 Q590.2813,673.0313 590.4297,672.9531 Q590.5781,672.875 590.7813,672.875 Q591.1094,672.875 591.3672,673.1328 Q591.625,673.3906 591.625,673.7344 Q591.625,674.0781 591.2813,674.4844 Q590.7813,675.0625 589.9844,675.3906 Q588.9063,675.8438 587.6094,675.8438 Q586.0938,675.8438 584.8906,675.2188 Q583.9063,674.7188 583.2188,673.6484 Q582.5313,672.5781 582.5313,671.2969 L582.5313,670.1406 Q582.5313,668.8125 583.1484,667.6641 Q583.7656,666.5156 584.8594,665.8984 Q585.9531,665.2813 587.1875,665.2813 Q587.9219,665.2813 588.5703,665.4453 Q589.2188,665.6094 589.7656,665.9688 Z "/><text fill="#000000" font-family="sans-serif" font-size="14" font-weight="bold" lengthAdjust="spacingAndGlyphs" textLength="46" x="601" y="669.5332">Object</text><text fill="#000000" font-family="sans-serif" font-size="10" lengthAdjust="spacingAndGlyphs" textLength="44" x="602" y="682.9902">java.lang</text><!--MD5=[8ff66bd4b776a2492940b8a4799dc12d]
class eapli.framework.domain.activerecord.ActiveRecord--><a href="../../../../../../eapli/framework/domain/activerecord/ActiveRecord.html" target="_parent" title="eapli.framework.domain.activerecord.ActiveRecord" xlink:actuate="onRequest" xlink:href="../../../../../../eapli/framework/domain/activerecord/ActiveRecord.html" xlink:show="new" xlink:title="eapli.framework.domain.activerecord.ActiveRecord" xlink:type="simple"><rect fill="#FFFFFF" filter="url(#f15cu0h29in12l)" height="40.1875" id="eapli.framework.domain.activerecord.ActiveRecord" style="stroke: #A80036; stroke-width: 1.5;" width="203" x="685.5" y="650"/><rect fill="#FFFFFF" height="40.1875" style="stroke: #A80036; stroke-width: 1.5;" width="203" x="685.5" y="650"/><ellipse cx="700.5" cy="670.0938" fill="#B4A7E5" rx="11" ry="11" style="stroke: #A80036; stroke-width: 1.0;"/><path d="M701.4531,666.7344 L701.4531,673.3906 L703.1719,673.3906 Q703.7813,673.3906 704.0469,673.625 Q704.3125,673.8594 704.3125,674.25 Q704.3125,674.625 704.0469,674.8594 Q703.7813,675.0938 703.1719,675.0938 L698.0313,675.0938 Q697.4219,675.0938 697.1563,674.8594 Q696.8906,674.625 696.8906,674.2344 Q696.8906,673.8594 697.1563,673.625 Q697.4219,673.3906 698.0313,673.3906 L699.75,673.3906 L699.75,666.7344 L698.0313,666.7344 Q697.4219,666.7344 697.1563,666.5 Q696.8906,666.2656 696.8906,665.875 Q696.8906,665.5 697.1563,665.2656 Q697.4219,665.0313 698.0313,665.0313 L703.1719,665.0313 Q703.7813,665.0313 704.0469,665.2656 Q704.3125,665.5 704.3125,665.875 Q704.3125,666.2656 704.0469,666.5 Q703.7813,666.7344 703.1719,666.7344 L701.4531,666.7344 Z "/><text fill="#000000" font-family="sans-serif" font-size="14" font-style="italic" font-weight="bold" lengthAdjust="spacingAndGlyphs" textLength="91" x="754.5" y="669.5332">ActiveRecord</text><text fill="#000000" font-family="sans-serif" font-size="10" font-style="italic" lengthAdjust="spacingAndGlyphs" textLength="171" x="714.5" y="682.9902">eapli.framework.domain.activerecord</text></a><!--MD5=[5a5af9b0547913863cbe0ddf55a9ab5e]
class java.io.Serializable--><rect fill="#D3D3D3" filter="url(#f15cu0h29in12l)" height="40.1875" id="java.io.Serializable" style="stroke: #A80036; stroke-width: 1.5;" width="110" x="924" y="650"/><rect fill="#D3D3D3" height="40.1875" style="stroke: #A80036; stroke-width: 1.5;" width="110" x="924" y="650"/><ellipse cx="939" cy="670.0938" fill="#B4A7E5" rx="11" ry="11" style="stroke: #A80036; stroke-width: 1.0;"/><path d="M939.9531,666.7344 L939.9531,673.3906 L941.6719,673.3906 Q942.2813,673.3906 942.5469,673.625 Q942.8125,673.8594 942.8125,674.25 Q942.8125,674.625 942.5469,674.8594 Q942.2813,675.0938 941.6719,675.0938 L936.5313,675.0938 Q935.9219,675.0938 935.6563,674.8594 Q935.3906,674.625 935.3906,674.2344 Q935.3906,673.8594 935.6563,673.625 Q935.9219,673.3906 936.5313,673.3906 L938.25,673.3906 L938.25,666.7344 L936.5313,666.7344 Q935.9219,666.7344 935.6563,666.5 Q935.3906,666.2656 935.3906,665.875 Q935.3906,665.5 935.6563,665.2656 Q935.9219,665.0313 936.5313,665.0313 L941.6719,665.0313 Q942.2813,665.0313 942.5469,665.2656 Q942.8125,665.5 942.8125,665.875 Q942.8125,666.2656 942.5469,666.5 Q942.2813,666.7344 941.6719,666.7344 L939.9531,666.7344 Z "/><text fill="#000000" font-family="sans-serif" font-size="14" font-style="italic" font-weight="bold" lengthAdjust="spacingAndGlyphs" textLength="78" x="953" y="669.5332">Serializable</text><text fill="#000000" font-family="sans-serif" font-size="10" font-style="italic" lengthAdjust="spacingAndGlyphs" textLength="31" x="976.5" y="682.9902">java.io</text><!--MD5=[8d5c71388e74da12849e1d2db4dc238d]
link eapli.framework.infrastructure.repositories.impl.jpa.JpaBaseRepository to eapli.framework.infrastructure.repositories.impl.jpa.JpaAbstractRepository--><path d="M400.297,299 C274.891,299 140,299 140,299 C140,299 140,629.79 140,629.79 " fill="none" id="eapli.framework.infrastructure.repositories.impl.jpa.JpaBaseRepository-&gt;eapli.framework.infrastructure.repositories.impl.jpa.JpaAbstractRepository" style="stroke: #A80036; stroke-width: 1.0;"/><polygon fill="none" points="147,629.79,140,649.79,133,629.7899,147,629.79" style="stroke: #A80036; stroke-width: 1.0;"/><!--MD5=[ae165491969ab97e223ba94becf1a133]
link eapli.framework.infrastructure.repositories.impl.jpa.JpaBaseRepository to eapli.framework.infrastructure.repositories.IterableRepositoryObjectObject--><path d="M468.75,590.4112 C468.75,590.4112 468.75,629.8869 468.75,629.8869 " fill="none" id="eapli.framework.infrastructure.repositories.impl.jpa.JpaBaseRepository-&gt;eapli.framework.infrastructure.repositories.IterableRepositoryObjectObject" style="stroke: #A80036; stroke-width: 1.0; stroke-dasharray: 7.0,7.0;"/><polygon fill="none" points="475.75,629.8869,468.75,649.8869,461.75,629.8868,475.75,629.8869" style="stroke: #A80036; stroke-width: 1.0;"/><!--MD5=[4d3d61cb12942f5610faa2323c33a01b]
link eapli.framework.infrastructure.repositories.impl.jpa.JpaBaseRepository to java.lang.Object--><path d="M611,590.4112 C611,590.4112 611,644.8869 611,644.8869 " fill="none" id="eapli.framework.infrastructure.repositories.impl.jpa.JpaBaseRepository-&gt;java.lang.Object" style="stroke: #A80036; stroke-width: 1.0; stroke-dasharray: 7.0,7.0;"/><polygon fill="#A80036" points="611,649.8869,615,640.8869,611,644.8869,607,640.8869,611,649.8869" style="stroke: #A80036; stroke-width: 1.0;"/><!--MD5=[b52a1c0123ddcee32428fd5d5703f6ee]
link eapli.framework.infrastructure.repositories.impl.jpa.JpaBaseRepository to eapli.framework.domain.activerecord.ActiveRecord--><path d="M753.5,590.4112 C753.5,590.4112 753.5,644.8869 753.5,644.8869 " fill="none" id="eapli.framework.infrastructure.repositories.impl.jpa.JpaBaseRepository-&gt;eapli.framework.domain.activerecord.ActiveRecord" style="stroke: #A80036; stroke-width: 1.0; stroke-dasharray: 7.0,7.0;"/><polygon fill="#A80036" points="753.5,649.8869,757.5,640.8869,753.5,644.8869,749.5,640.8869,753.5,649.8869" style="stroke: #A80036; stroke-width: 1.0;"/><!--MD5=[7a40a58eaf9f4c94ec2860abd34cd631]
link eapli.framework.infrastructure.repositories.impl.jpa.JpaBaseRepository to java.io.Serializable--><path d="M821.6,299 C903.929,299 979,299 979,299 C979,299 979,644.79 979,644.79 " fill="none" id="eapli.framework.infrastructure.repositories.impl.jpa.JpaBaseRepository-&gt;java.io.Serializable" style="stroke: #A80036; stroke-width: 1.0; stroke-dasharray: 7.0,7.0;"/><polygon fill="#A80036" points="979,649.79,983,640.79,979,644.79,975,640.79,979,649.79" style="stroke: #A80036; stroke-width: 1.0;"/><!--MD5=[b1984f2a7fe0388e2918fcf53fbb54ee]
@startuml

skinparam svgLinkTarget _parent
skinparam linetype ortho
set namespaceSeparator none
class "<b><size:14>JpaBaseRepository</b>\n<size:10>eapli.framework.infrastructure.repositories.impl.jpa" as eapli.framework.infrastructure.repositories.impl.jpa.JpaBaseRepository  [[../../../../../../eapli/framework/infrastructure/repositories/impl/jpa/JpaBaseRepository.html{eapli.framework.infrastructure.repositories.impl.jpa.JpaBaseRepository}]] {
{static} -String SELECT_E_FROM
{static} -String PARAMS_MUST_NOT_BE_NULL_OR_EMPTY
{static} -String QUERY_MUST_NOT_BE_NULL_OR_EMPTY
{static} -int DEFAULT_PAGESIZE
-Class<T> entityClass
-String identityFieldName
+JpaBaseRepository(String identityFieldName)
~JpaBaseRepository(Class<T> classz,String identityFieldName)
+Object create(Object entity)
+Optional<T> findById(Object id)
+Optional<T> ofIdentity(Object id)
+void deleteOfIdentity(Object entityId)
+Object update(Object entity)
+void delete(Object entity)
+void deleteById(Object entityId)
+boolean containsKey(Object key)
+Object save(Object entity)
+List<T> first(int n)
+Optional<T> first()
+List<T> page(int pageNumber,int pageSize)
+Iterator<T> iterator(int pagesize)
+Iterator<T> iterator()
+Iterable<T> findAll()
+long count()
+long size()
#Optional<T> read(Object id)
#String identityFieldName()
#TypedQuery<T> queryAll()
#TypedQuery<T> query(String where,Map<String, Object> params)
#TypedQuery<T> query(String where,Object args)
#List<T> match(String where)
#List<T> match(String whereWithParameters,Map<String, Object> params)
#Optional<T> matchOne(String where)
#Optional<T> matchOne(String whereWithParameters,Map<String, Object> params)
#Optional<T> matchOne(String where,Object args)
#List<T> match(String where,Object args)
-TypedQuery<T> query(String where)
-Optional<T> getOptionalResult(TypedQuery<T> q)
}


class "<b><size:14>JpaAbstractRepository</b>\n<size:10>eapli.framework.infrastructure.repositories.impl.jpa" as eapli.framework.infrastructure.repositories.impl.jpa.JpaAbstractRepository  [[../../../../../../eapli/framework/infrastructure/repositories/impl/jpa/JpaAbstractRepository.html{eapli.framework.infrastructure.repositories.impl.jpa.JpaAbstractRepository}]] {
}

hide eapli.framework.infrastructure.repositories.impl.jpa.JpaAbstractRepository fields
hide eapli.framework.infrastructure.repositories.impl.jpa.JpaAbstractRepository methods

eapli.framework.infrastructure.repositories.impl.jpa.JpaBaseRepository - -|> eapli.framework.infrastructure.repositories.impl.jpa.JpaAbstractRepository

interface "<b><size:14>IterableRepository<T, K></b>\n<size:10>eapli.framework.infrastructure.repositories" as eapli.framework.infrastructure.repositories.IterableRepositoryObjectObject  [[../../../../../../eapli/framework/infrastructure/repositories/IterableRepository.html{eapli.framework.infrastructure.repositories.IterableRepository}]] #lightgrey {
}

hide eapli.framework.infrastructure.repositories.IterableRepositoryObjectObject fields
hide eapli.framework.infrastructure.repositories.IterableRepositoryObjectObject methods

eapli.framework.infrastructure.repositories.impl.jpa.JpaBaseRepository ..|> eapli.framework.infrastructure.repositories.IterableRepositoryObjectObject

class "<b><size:14>Object</b>\n<size:10>java.lang" as java.lang.Object  #lightgrey {
}

hide java.lang.Object fields
hide java.lang.Object methods

eapli.framework.infrastructure.repositories.impl.jpa.JpaBaseRepository ..> java.lang.Object


interface "<b><size:14>ActiveRecord</b>\n<size:10>eapli.framework.domain.activerecord" as eapli.framework.domain.activerecord.ActiveRecord  [[../../../../../../eapli/framework/domain/activerecord/ActiveRecord.html{eapli.framework.domain.activerecord.ActiveRecord}]] #white {
}

hide eapli.framework.domain.activerecord.ActiveRecord fields
hide eapli.framework.domain.activerecord.ActiveRecord methods

eapli.framework.infrastructure.repositories.impl.jpa.JpaBaseRepository ..> eapli.framework.domain.activerecord.ActiveRecord





interface "<b><size:14>Serializable</b>\n<size:10>java.io" as java.io.Serializable  #lightgrey {
}

hide java.io.Serializable fields
hide java.io.Serializable methods

eapli.framework.infrastructure.repositories.impl.jpa.JpaBaseRepository ..> java.io.Serializable


@enduml

PlantUML version 1.2020.04(Thu Mar 19 10:16:49 GMT 2020)
(GPL source distribution)
Java Runtime: Java(TM) SE Runtime Environment
JVM: Java HotSpot(TM) 64-Bit Server VM
Java Version: 1.8.0_202-b08
Operating System: Windows 10
Default Encoding: Cp1252
Language: en
Country: US
--></g></svg>