<?xml version="1.0" encoding="UTF-8" standalone="no"?><svg xmlns="http://www.w3.org/2000/svg" xmlns:xlink="http://www.w3.org/1999/xlink" contentScriptType="application/ecmascript" contentStyleType="text/css" height="272px" preserveAspectRatio="none" style="width:937px;height:272px;" version="1.1" viewBox="0 0 937 272" width="937px" zoomAndPan="magnify"><defs><filter height="300%" id="fd14l3lmbdurv" width="300%" x="-1" y="-1"><feGaussianBlur result="blurOut" stdDeviation="2.0"/><feColorMatrix in="blurOut" result="blurOut2" type="matrix" values="0 0 0 0 0 0 0 0 0 0 0 0 0 0 0 0 0 0 .4 0"/><feOffset dx="4.0" dy="4.0" in="blurOut2" result="blurOut3"/><feBlend in="SourceGraphic" in2="blurOut3" mode="normal"/></filter></defs><g><!--MD5=[9cfbb71e94e2846004a94468b80f30ff]
class eapli.framework.infrastructure.repositories.impl.jpa.JpaWithTransactionalContextRepository--><a href="../../../../../../eapli/framework/infrastructure/repositories/impl/jpa/JpaWithTransactionalContextRepository.html" target="_parent" title="eapli.framework.infrastructure.repositories.impl.jpa.JpaWithTransactionalContextRepository" xlink:actuate="onRequest" xlink:href="../../../../../../eapli/framework/infrastructure/repositories/impl/jpa/JpaWithTransactionalContextRepository.html" xlink:show="new" xlink:title="eapli.framework.infrastructure.repositories.impl.jpa.JpaWithTransactionalContextRepository" xlink:type="simple"><rect fill="#FEFECE" filter="url(#fd14l3lmbdurv)" height="153.0391" id="eapli.framework.infrastructure.repositories.impl.jpa.JpaWithTransactionalContextRepository" style="stroke: #A80036; stroke-width: 1.5;" width="556" x="269" y="8"/><ellipse cx="402.25" cy="28.0938" fill="#ADD1B2" rx="11" ry="11" style="stroke: #A80036; stroke-width: 1.0;"/><path d="M405.0156,23.9688 Q405.1719,23.75 405.3594,23.6406 Q405.5469,23.5313 405.7656,23.5313 Q406.1406,23.5313 406.375,23.7891 Q406.6094,24.0469 406.6094,24.6563 L406.6094,26.1094 Q406.6094,26.7188 406.375,26.9844 Q406.1406,27.25 405.7656,27.25 Q405.4219,27.25 405.2188,27.0469 Q405.0156,26.8594 404.9063,26.3438 Q404.8594,25.9844 404.6719,25.7969 Q404.3438,25.4219 403.7344,25.2031 Q403.125,24.9844 402.5,24.9844 Q401.7344,24.9844 401.1016,25.3125 Q400.4688,25.6406 399.9766,26.3906 Q399.4844,27.1406 399.4844,28.1719 L399.4844,29.2656 Q399.4844,30.5 400.375,31.3203 Q401.2656,32.1406 402.8594,32.1406 Q403.7969,32.1406 404.4531,31.8906 Q404.8438,31.7344 405.2656,31.2969 Q405.5313,31.0313 405.6797,30.9531 Q405.8281,30.875 406.0313,30.875 Q406.3594,30.875 406.6172,31.1328 Q406.875,31.3906 406.875,31.7344 Q406.875,32.0781 406.5313,32.4844 Q406.0313,33.0625 405.2344,33.3906 Q404.1563,33.8438 402.8594,33.8438 Q401.3438,33.8438 400.1406,33.2188 Q399.1563,32.7188 398.4688,31.6484 Q397.7813,30.5781 397.7813,29.2969 L397.7813,28.1406 Q397.7813,26.8125 398.3984,25.6641 Q399.0156,24.5156 400.1094,23.8984 Q401.2031,23.2813 402.4375,23.2813 Q403.1719,23.2813 403.8203,23.4453 Q404.4688,23.6094 405.0156,23.9688 Z "/><text fill="#000000" font-family="sans-serif" font-size="14" font-weight="bold" lengthAdjust="spacingAndGlyphs" textLength="281" x="422.75" y="27.5332">JpaWithTransactionalContextRepository</text><text fill="#000000" font-family="sans-serif" font-size="10" lengthAdjust="spacingAndGlyphs" textLength="236" x="445.25" y="40.9902">eapli.framework.infrastructure.repositories.impl.jpa</text><line style="stroke: #A80036; stroke-width: 1.5;" x1="270" x2="824" y1="48.1875" y2="48.1875"/><rect fill="none" height="6" style="stroke: #C82930; stroke-width: 1.0;" width="6" x="277" y="56.1875"/><text fill="#000000" font-family="sans-serif" font-size="11" lengthAdjust="spacingAndGlyphs" textLength="168" x="289" y="63.6064">JpaTransactionalContext txContext</text><line style="stroke: #A80036; stroke-width: 1.5;" x1="270" x2="824" y1="70.0234" y2="70.0234"/><ellipse cx="280" cy="81.0234" fill="#84BE84" rx="3" ry="3" style="stroke: #038048; stroke-width: 1.0;"/><text fill="#000000" font-family="sans-serif" font-size="11" lengthAdjust="spacingAndGlyphs" textLength="447" x="289" y="85.4424">JpaWithTransactionalContextRepository(TransactionalContext txCtx,String identityFieldName)</text><polygon fill="#4177AF" points="280,90.8594,276,96.8594,284,96.8594" style="stroke: #1963A0; stroke-width: 1.0;"/><text fill="#000000" font-family="sans-serif" font-size="11" lengthAdjust="spacingAndGlyphs" textLength="530" x="289" y="99.2783">JpaWithTransactionalContextRepository(TransactionalContext txCtx,Class&lt;T&gt; classz,String identityFieldName)</text><polygon fill="#FFFF44" points="280,103.6953,284,107.6953,280,111.6953,276,107.6953" style="stroke: #B38D22; stroke-width: 1.0;"/><text fill="#000000" font-family="sans-serif" font-size="11" lengthAdjust="spacingAndGlyphs" textLength="221" x="289" y="113.1143">EntityManagerFactory entityManagerFactory()</text><polygon fill="#FFFF44" points="280,117.5313,284,121.5313,280,125.5313,276,121.5313" style="stroke: #B38D22; stroke-width: 1.0;"/><text fill="#000000" font-family="sans-serif" font-size="11" lengthAdjust="spacingAndGlyphs" textLength="147" x="289" y="126.9502">EntityManager entityManager()</text><polygon fill="#FFFF44" points="280,131.3672,284,135.3672,280,139.3672,276,135.3672" style="stroke: #B38D22; stroke-width: 1.0;"/><text fill="#000000" font-family="sans-serif" font-size="11" lengthAdjust="spacingAndGlyphs" textLength="149" x="289" y="140.7861">TransactionalContext context()</text><rect fill="#F24D5C" height="6" style="stroke: #C82930; stroke-width: 1.0;" width="6" x="277" y="147.2031"/><text fill="#000000" font-family="sans-serif" font-size="11" lengthAdjust="spacingAndGlyphs" textLength="204" x="289" y="154.6221">void setTxCtx(TransactionalContext txCtx)</text></a><!--MD5=[505300acf3517e872ec2c50c8bfb2cca]
class eapli.framework.infrastructure.repositories.impl.jpa.JpaTransactionalContext--><a href="../../../../../../eapli/framework/infrastructure/repositories/impl/jpa/JpaTransactionalContext.html" target="_parent" title="eapli.framework.infrastructure.repositories.impl.jpa.JpaTransactionalContext" xlink:actuate="onRequest" xlink:href="../../../../../../eapli/framework/infrastructure/repositories/impl/jpa/JpaTransactionalContext.html" xlink:show="new" xlink:title="eapli.framework.infrastructure.repositories.impl.jpa.JpaTransactionalContext" xlink:type="simple"><rect fill="#FEFECE" filter="url(#fd14l3lmbdurv)" height="40.1875" id="eapli.framework.infrastructure.repositories.impl.jpa.JpaTransactionalContext" style="stroke: #A80036; stroke-width: 1.5;" width="268" x="6" y="221"/><ellipse cx="21" cy="241.0938" fill="#ADD1B2" rx="11" ry="11" style="stroke: #A80036; stroke-width: 1.0;"/><path d="M23.7656,236.9688 Q23.9219,236.75 24.1094,236.6406 Q24.2969,236.5313 24.5156,236.5313 Q24.8906,236.5313 25.125,236.7891 Q25.3594,237.0469 25.3594,237.6563 L25.3594,239.1094 Q25.3594,239.7188 25.125,239.9844 Q24.8906,240.25 24.5156,240.25 Q24.1719,240.25 23.9688,240.0469 Q23.7656,239.8594 23.6563,239.3438 Q23.6094,238.9844 23.4219,238.7969 Q23.0938,238.4219 22.4844,238.2031 Q21.875,237.9844 21.25,237.9844 Q20.4844,237.9844 19.8516,238.3125 Q19.2188,238.6406 18.7266,239.3906 Q18.2344,240.1406 18.2344,241.1719 L18.2344,242.2656 Q18.2344,243.5 19.125,244.3203 Q20.0156,245.1406 21.6094,245.1406 Q22.5469,245.1406 23.2031,244.8906 Q23.5938,244.7344 24.0156,244.2969 Q24.2813,244.0313 24.4297,243.9531 Q24.5781,243.875 24.7813,243.875 Q25.1094,243.875 25.3672,244.1328 Q25.625,244.3906 25.625,244.7344 Q25.625,245.0781 25.2813,245.4844 Q24.7813,246.0625 23.9844,246.3906 Q22.9063,246.8438 21.6094,246.8438 Q20.0938,246.8438 18.8906,246.2188 Q17.9063,245.7188 17.2188,244.6484 Q16.5313,243.5781 16.5313,242.2969 L16.5313,241.1406 Q16.5313,239.8125 17.1484,238.6641 Q17.7656,237.5156 18.8594,236.8984 Q19.9531,236.2813 21.1875,236.2813 Q21.9219,236.2813 22.5703,236.4453 Q23.2188,236.6094 23.7656,236.9688 Z "/><text fill="#000000" font-family="sans-serif" font-size="14" font-weight="bold" lengthAdjust="spacingAndGlyphs" textLength="174" x="66" y="240.5332">JpaTransactionalContext</text><text fill="#000000" font-family="sans-serif" font-size="10" lengthAdjust="spacingAndGlyphs" textLength="236" x="35" y="253.9902">eapli.framework.infrastructure.repositories.impl.jpa</text></a><!--MD5=[5db0710c6b318ba46b4c2c348d56006f]
class eapli.framework.infrastructure.repositories.impl.jpa.JpaBaseRepositoryObjectObjectObject--><a href="../../../../../../eapli/framework/infrastructure/repositories/impl/jpa/JpaBaseRepository.html" target="_parent" title="eapli.framework.infrastructure.repositories.impl.jpa.JpaBaseRepository" xlink:actuate="onRequest" xlink:href="../../../../../../eapli/framework/infrastructure/repositories/impl/jpa/JpaBaseRepository.html" xlink:show="new" xlink:title="eapli.framework.infrastructure.repositories.impl.jpa.JpaBaseRepository" xlink:type="simple"><rect fill="#FEFECE" filter="url(#fd14l3lmbdurv)" height="40.1875" id="eapli.framework.infrastructure.repositories.impl.jpa.JpaBaseRepositoryObjectObjectObject" style="stroke: #A80036; stroke-width: 1.5;" width="268" x="309" y="221"/><ellipse cx="324" cy="241.0938" fill="#ADD1B2" rx="11" ry="11" style="stroke: #A80036; stroke-width: 1.0;"/><path d="M326.7656,236.9688 Q326.9219,236.75 327.1094,236.6406 Q327.2969,236.5313 327.5156,236.5313 Q327.8906,236.5313 328.125,236.7891 Q328.3594,237.0469 328.3594,237.6563 L328.3594,239.1094 Q328.3594,239.7188 328.125,239.9844 Q327.8906,240.25 327.5156,240.25 Q327.1719,240.25 326.9688,240.0469 Q326.7656,239.8594 326.6563,239.3438 Q326.6094,238.9844 326.4219,238.7969 Q326.0938,238.4219 325.4844,238.2031 Q324.875,237.9844 324.25,237.9844 Q323.4844,237.9844 322.8516,238.3125 Q322.2188,238.6406 321.7266,239.3906 Q321.2344,240.1406 321.2344,241.1719 L321.2344,242.2656 Q321.2344,243.5 322.125,244.3203 Q323.0156,245.1406 324.6094,245.1406 Q325.5469,245.1406 326.2031,244.8906 Q326.5938,244.7344 327.0156,244.2969 Q327.2813,244.0313 327.4297,243.9531 Q327.5781,243.875 327.7813,243.875 Q328.1094,243.875 328.3672,244.1328 Q328.625,244.3906 328.625,244.7344 Q328.625,245.0781 328.2813,245.4844 Q327.7813,246.0625 326.9844,246.3906 Q325.9063,246.8438 324.6094,246.8438 Q323.0938,246.8438 321.8906,246.2188 Q320.9063,245.7188 320.2188,244.6484 Q319.5313,243.5781 319.5313,242.2969 L319.5313,241.1406 Q319.5313,239.8125 320.1484,238.6641 Q320.7656,237.5156 321.8594,236.8984 Q322.9531,236.2813 324.1875,236.2813 Q324.9219,236.2813 325.5703,236.4453 Q326.2188,236.6094 326.7656,236.9688 Z "/><text fill="#000000" font-family="sans-serif" font-size="14" font-weight="bold" lengthAdjust="spacingAndGlyphs" textLength="190" x="361" y="240.5332">JpaBaseRepository&lt;T, K, I&gt;</text><text fill="#000000" font-family="sans-serif" font-size="10" lengthAdjust="spacingAndGlyphs" textLength="236" x="338" y="253.9902">eapli.framework.infrastructure.repositories.impl.jpa</text></a><!--MD5=[274ad5661286b626a93603d287cbf95a]
class java.lang.Object--><rect fill="#D3D3D3" filter="url(#fd14l3lmbdurv)" height="40.1875" id="java.lang.Object" style="stroke: #A80036; stroke-width: 1.5;" width="78" x="612" y="221"/><rect fill="#D3D3D3" height="40.1875" style="stroke: #A80036; stroke-width: 1.5;" width="78" x="612" y="221"/><ellipse cx="627" cy="241.0938" fill="#ADD1B2" rx="11" ry="11" style="stroke: #A80036; stroke-width: 1.0;"/><path d="M629.7656,236.9688 Q629.9219,236.75 630.1094,236.6406 Q630.2969,236.5313 630.5156,236.5313 Q630.8906,236.5313 631.125,236.7891 Q631.3594,237.0469 631.3594,237.6563 L631.3594,239.1094 Q631.3594,239.7188 631.125,239.9844 Q630.8906,240.25 630.5156,240.25 Q630.1719,240.25 629.9688,240.0469 Q629.7656,239.8594 629.6563,239.3438 Q629.6094,238.9844 629.4219,238.7969 Q629.0938,238.4219 628.4844,238.2031 Q627.875,237.9844 627.25,237.9844 Q626.4844,237.9844 625.8516,238.3125 Q625.2188,238.6406 624.7266,239.3906 Q624.2344,240.1406 624.2344,241.1719 L624.2344,242.2656 Q624.2344,243.5 625.125,244.3203 Q626.0156,245.1406 627.6094,245.1406 Q628.5469,245.1406 629.2031,244.8906 Q629.5938,244.7344 630.0156,244.2969 Q630.2813,244.0313 630.4297,243.9531 Q630.5781,243.875 630.7813,243.875 Q631.1094,243.875 631.3672,244.1328 Q631.625,244.3906 631.625,244.7344 Q631.625,245.0781 631.2813,245.4844 Q630.7813,246.0625 629.9844,246.3906 Q628.9063,246.8438 627.6094,246.8438 Q626.0938,246.8438 624.8906,246.2188 Q623.9063,245.7188 623.2188,244.6484 Q622.5313,243.5781 622.5313,242.2969 L622.5313,241.1406 Q622.5313,239.8125 623.1484,238.6641 Q623.7656,237.5156 624.8594,236.8984 Q625.9531,236.2813 627.1875,236.2813 Q627.9219,236.2813 628.5703,236.4453 Q629.2188,236.6094 629.7656,236.9688 Z "/><text fill="#000000" font-family="sans-serif" font-size="14" font-weight="bold" lengthAdjust="spacingAndGlyphs" textLength="46" x="641" y="240.5332">Object</text><text fill="#000000" font-family="sans-serif" font-size="10" lengthAdjust="spacingAndGlyphs" textLength="44" x="642" y="253.9902">java.lang</text><!--MD5=[d4c3418e4b9f7728a57dfa43ed99deb9]
class eapli.framework.domain.repositories.TransactionalContext--><a href="../../../../../../eapli/framework/domain/repositories/TransactionalContext.html" target="_parent" title="eapli.framework.domain.repositories.TransactionalContext" xlink:actuate="onRequest" xlink:href="../../../../../../eapli/framework/domain/repositories/TransactionalContext.html" xlink:show="new" xlink:title="eapli.framework.domain.repositories.TransactionalContext" xlink:type="simple"><rect fill="#FFFFFF" filter="url(#fd14l3lmbdurv)" height="40.1875" id="eapli.framework.domain.repositories.TransactionalContext" style="stroke: #A80036; stroke-width: 1.5;" width="201" x="725.5" y="221"/><rect fill="#FFFFFF" height="40.1875" style="stroke: #A80036; stroke-width: 1.5;" width="201" x="725.5" y="221"/><ellipse cx="740.5" cy="241.0938" fill="#B4A7E5" rx="11" ry="11" style="stroke: #A80036; stroke-width: 1.0;"/><path d="M741.4531,237.7344 L741.4531,244.3906 L743.1719,244.3906 Q743.7813,244.3906 744.0469,244.625 Q744.3125,244.8594 744.3125,245.25 Q744.3125,245.625 744.0469,245.8594 Q743.7813,246.0938 743.1719,246.0938 L738.0313,246.0938 Q737.4219,246.0938 737.1563,245.8594 Q736.8906,245.625 736.8906,245.2344 Q736.8906,244.8594 737.1563,244.625 Q737.4219,244.3906 738.0313,244.3906 L739.75,244.3906 L739.75,237.7344 L738.0313,237.7344 Q737.4219,237.7344 737.1563,237.5 Q736.8906,237.2656 736.8906,236.875 Q736.8906,236.5 737.1563,236.2656 Q737.4219,236.0313 738.0313,236.0313 L743.1719,236.0313 Q743.7813,236.0313 744.0469,236.2656 Q744.3125,236.5 744.3125,236.875 Q744.3125,237.2656 744.0469,237.5 Q743.7813,237.7344 743.1719,237.7344 L741.4531,237.7344 Z "/><text fill="#000000" font-family="sans-serif" font-size="14" font-style="italic" font-weight="bold" lengthAdjust="spacingAndGlyphs" textLength="146" x="766" y="240.5332">TransactionalContext</text><text fill="#000000" font-family="sans-serif" font-size="10" font-style="italic" lengthAdjust="spacingAndGlyphs" textLength="169" x="754.5" y="253.9902">eapli.framework.domain.repositories</text></a><!--MD5=[07896ac122cf0348c3b5aa3fcfe2d221]
link eapli.framework.infrastructure.repositories.impl.jpa.JpaWithTransactionalContextRepository to eapli.framework.infrastructure.repositories.impl.jpa.JpaTransactionalContext--><path d="M291.5,161.3746 C291.5,200.9526 291.5,241 291.5,241 C291.5,241 279.121,241 279.121,241 " fill="none" id="eapli.framework.infrastructure.repositories.impl.jpa.JpaWithTransactionalContextRepository-&gt;eapli.framework.infrastructure.repositories.impl.jpa.JpaTransactionalContext" style="stroke: #A80036; stroke-width: 1.0;"/><polygon fill="#A80036" points="274.121,241,283.121,245,279.121,241,283.121,237,274.121,241" style="stroke: #A80036; stroke-width: 1.0;"/><text fill="#000000" font-family="sans-serif" font-size="13" lengthAdjust="spacingAndGlyphs" textLength="56" x="244.4352" y="258.2891">txContext</text><!--MD5=[8afa617f0d5c6b19d4edcf698e7593ed]
link eapli.framework.infrastructure.repositories.impl.jpa.JpaWithTransactionalContextRepository to eapli.framework.infrastructure.repositories.impl.jpa.JpaBaseRepositoryObjectObjectObject--><path d="M443,161.3746 C443,161.3746 443,200.7533 443,200.7533 " fill="none" id="eapli.framework.infrastructure.repositories.impl.jpa.JpaWithTransactionalContextRepository-&gt;eapli.framework.infrastructure.repositories.impl.jpa.JpaBaseRepositoryObjectObjectObject" style="stroke: #A80036; stroke-width: 1.0;"/><polygon fill="none" points="450,200.7534,443,220.7533,436,200.7533,450,200.7534" style="stroke: #A80036; stroke-width: 1.0;"/><!--MD5=[1d6a458a72ee593b74f5076eb0a5bcc6]
link eapli.framework.infrastructure.repositories.impl.jpa.JpaWithTransactionalContextRepository to java.lang.Object--><path d="M651,161.3746 C651,161.3746 651,215.7533 651,215.7533 " fill="none" id="eapli.framework.infrastructure.repositories.impl.jpa.JpaWithTransactionalContextRepository-&gt;java.lang.Object" style="stroke: #A80036; stroke-width: 1.0; stroke-dasharray: 7.0,7.0;"/><polygon fill="#A80036" points="651,220.7533,655,211.7533,651,215.7533,647,211.7533,651,220.7533" style="stroke: #A80036; stroke-width: 1.0;"/><!--MD5=[a267991e616c3cd486eefa1d90cb8334]
link eapli.framework.infrastructure.repositories.impl.jpa.JpaWithTransactionalContextRepository to eapli.framework.domain.repositories.TransactionalContext--><path d="M775.25,161.3746 C775.25,161.3746 775.25,215.7533 775.25,215.7533 " fill="none" id="eapli.framework.infrastructure.repositories.impl.jpa.JpaWithTransactionalContextRepository-&gt;eapli.framework.domain.repositories.TransactionalContext" style="stroke: #A80036; stroke-width: 1.0; stroke-dasharray: 7.0,7.0;"/><polygon fill="#A80036" points="775.25,220.7533,779.25,211.7533,775.25,215.7533,771.25,211.7533,775.25,220.7533" style="stroke: #A80036; stroke-width: 1.0;"/><!--MD5=[bef4dd2180a454d2836926f55de23ac0]
@startuml

skinparam svgLinkTarget _parent
skinparam linetype ortho
set namespaceSeparator none
class "<b><size:14>JpaWithTransactionalContextRepository</b>\n<size:10>eapli.framework.infrastructure.repositories.impl.jpa" as eapli.framework.infrastructure.repositories.impl.jpa.JpaWithTransactionalContextRepository  [[../../../../../../eapli/framework/infrastructure/repositories/impl/jpa/JpaWithTransactionalContextRepository.html{eapli.framework.infrastructure.repositories.impl.jpa.JpaWithTransactionalContextRepository}]] {
-JpaTransactionalContext txContext
+JpaWithTransactionalContextRepository(TransactionalContext txCtx,String identityFieldName)
~JpaWithTransactionalContextRepository(TransactionalContext txCtx,Class<T> classz,String identityFieldName)
#EntityManagerFactory entityManagerFactory()
#EntityManager entityManager()
#TransactionalContext context()
-void setTxCtx(TransactionalContext txCtx)
}


class "<b><size:14>JpaTransactionalContext</b>\n<size:10>eapli.framework.infrastructure.repositories.impl.jpa" as eapli.framework.infrastructure.repositories.impl.jpa.JpaTransactionalContext  [[../../../../../../eapli/framework/infrastructure/repositories/impl/jpa/JpaTransactionalContext.html{eapli.framework.infrastructure.repositories.impl.jpa.JpaTransactionalContext}]] {
}

hide eapli.framework.infrastructure.repositories.impl.jpa.JpaTransactionalContext fields
hide eapli.framework.infrastructure.repositories.impl.jpa.JpaTransactionalContext methods

eapli.framework.infrastructure.repositories.impl.jpa.JpaWithTransactionalContextRepository - ->  "txContext" eapli.framework.infrastructure.repositories.impl.jpa.JpaTransactionalContext

class "<b><size:14>JpaBaseRepository<T, K, I></b>\n<size:10>eapli.framework.infrastructure.repositories.impl.jpa" as eapli.framework.infrastructure.repositories.impl.jpa.JpaBaseRepositoryObjectObjectObject  [[../../../../../../eapli/framework/infrastructure/repositories/impl/jpa/JpaBaseRepository.html{eapli.framework.infrastructure.repositories.impl.jpa.JpaBaseRepository}]] {
}

hide eapli.framework.infrastructure.repositories.impl.jpa.JpaBaseRepositoryObjectObjectObject fields
hide eapli.framework.infrastructure.repositories.impl.jpa.JpaBaseRepositoryObjectObjectObject methods

eapli.framework.infrastructure.repositories.impl.jpa.JpaWithTransactionalContextRepository - -|> eapli.framework.infrastructure.repositories.impl.jpa.JpaBaseRepositoryObjectObjectObject

class "<b><size:14>Object</b>\n<size:10>java.lang" as java.lang.Object  #lightgrey {
}

hide java.lang.Object fields
hide java.lang.Object methods

eapli.framework.infrastructure.repositories.impl.jpa.JpaWithTransactionalContextRepository ..> java.lang.Object

interface "<b><size:14>TransactionalContext</b>\n<size:10>eapli.framework.domain.repositories" as eapli.framework.domain.repositories.TransactionalContext  [[../../../../../../eapli/framework/domain/repositories/TransactionalContext.html{eapli.framework.domain.repositories.TransactionalContext}]] #white {
}

hide eapli.framework.domain.repositories.TransactionalContext fields
hide eapli.framework.domain.repositories.TransactionalContext methods

eapli.framework.infrastructure.repositories.impl.jpa.JpaWithTransactionalContextRepository ..> eapli.framework.domain.repositories.TransactionalContext




@enduml

PlantUML version 1.2020.04(Thu Mar 19 10:16:49 GMT 2020)
(GPL source distribution)
Java Runtime: Java(TM) SE Runtime Environment
JVM: Java HotSpot(TM) 64-Bit Server VM
Java Version: 1.8.0_202-b08
Operating System: Windows 10
Default Encoding: Cp1252
Language: en
Country: US
--></g></svg>