@startuml

skinparam svgLinkTarget _parent
skinparam linetype ortho
set namespaceSeparator none
class "<b><size:14>JpaWithTransactionalContextRepository</b>\n<size:10>eapli.framework.infrastructure.repositories.impl.jpa" as eapli.framework.infrastructure.repositories.impl.jpa.JpaWithTransactionalContextRepository  [[../../../../../../eapli/framework/infrastructure/repositories/impl/jpa/JpaWithTransactionalContextRepository.html{eapli.framework.infrastructure.repositories.impl.jpa.JpaWithTransactionalContextRepository}]] {
-JpaTransactionalContext txContext
+JpaWithTransactionalContextRepository(TransactionalContext txCtx,String identityFieldName)
~JpaWithTransactionalContextRepository(TransactionalContext txCtx,Class<T> classz,String identityFieldName)
#EntityManagerFactory entityManagerFactory()
#EntityManager entityManager()
#TransactionalContext context()
-void setTxCtx(TransactionalContext txCtx)
}


class "<b><size:14>JpaTransactionalContext</b>\n<size:10>eapli.framework.infrastructure.repositories.impl.jpa" as eapli.framework.infrastructure.repositories.impl.jpa.JpaTransactionalContext  [[../../../../../../eapli/framework/infrastructure/repositories/impl/jpa/JpaTransactionalContext.html{eapli.framework.infrastructure.repositories.impl.jpa.JpaTransactionalContext}]] {
}

hide eapli.framework.infrastructure.repositories.impl.jpa.JpaTransactionalContext fields
hide eapli.framework.infrastructure.repositories.impl.jpa.JpaTransactionalContext methods

eapli.framework.infrastructure.repositories.impl.jpa.JpaWithTransactionalContextRepository -->  "txContext" eapli.framework.infrastructure.repositories.impl.jpa.JpaTransactionalContext

class "<b><size:14>JpaBaseRepository<T, K, I></b>\n<size:10>eapli.framework.infrastructure.repositories.impl.jpa" as eapli.framework.infrastructure.repositories.impl.jpa.JpaBaseRepositoryObjectObjectObject  [[../../../../../../eapli/framework/infrastructure/repositories/impl/jpa/JpaBaseRepository.html{eapli.framework.infrastructure.repositories.impl.jpa.JpaBaseRepository}]] {
}

hide eapli.framework.infrastructure.repositories.impl.jpa.JpaBaseRepositoryObjectObjectObject fields
hide eapli.framework.infrastructure.repositories.impl.jpa.JpaBaseRepositoryObjectObjectObject methods

eapli.framework.infrastructure.repositories.impl.jpa.JpaWithTransactionalContextRepository --|> eapli.framework.infrastructure.repositories.impl.jpa.JpaBaseRepositoryObjectObjectObject

class "<b><size:14>Object</b>\n<size:10>java.lang" as java.lang.Object  #lightgrey {
}

hide java.lang.Object fields
hide java.lang.Object methods

eapli.framework.infrastructure.repositories.impl.jpa.JpaWithTransactionalContextRepository ..> java.lang.Object

interface "<b><size:14>TransactionalContext</b>\n<size:10>eapli.framework.domain.repositories" as eapli.framework.domain.repositories.TransactionalContext  [[../../../../../../eapli/framework/domain/repositories/TransactionalContext.html{eapli.framework.domain.repositories.TransactionalContext}]] #white {
}

hide eapli.framework.domain.repositories.TransactionalContext fields
hide eapli.framework.domain.repositories.TransactionalContext methods

eapli.framework.infrastructure.repositories.impl.jpa.JpaWithTransactionalContextRepository ..> eapli.framework.domain.repositories.TransactionalContext




@enduml
