@startuml

skinparam svgLinkTarget _parent
skinparam linetype ortho
set namespaceSeparator none
class "<b><size:14>DiscreteDomain</b>\n<size:10>eapli.framework.domain.model.domains" as eapli.framework.domain.model.domains.DiscreteDomain <<Embeddable>> [[../../../../../eapli/framework/domain/model/domains/DiscreteDomain.html{eapli.framework.domain.model.domains.DiscreteDomain}]] {
{static} -long serialVersionUID
-Set<T> elements
{static} -DiscreteDomain EMPTY
~DiscreteDomain(Iterable<T> from)
~DiscreteDomain(Stream<T> from)
{static} +DiscreteDomain<T> empty()
{static} +DiscreteDomain<R> from(Stream<R> data)
{static} +DiscreteDomain<R> of(Serializable elements)
+boolean equals(Object o)
+int hashCode()
+boolean contains(Serializable e)
+boolean isEmpty()
+boolean intersects(DiscreteDomain<T> other)
+DiscreteDomain<T> intersection(DiscreteDomain<T> other)
+DiscreteDomain<T> union(DiscreteDomain<T> other)
+DiscreteDomain<T> without(DiscreteDomain<T> other)
+DiscreteDomain<T> without(Serializable someElement)
+Iterator<T> iterator()
+Stream<T> stream()
+Stream<T> parallelStream()
+DiscreteDomain<R> map(Function<T, R> mapper)
+DiscreteDomain<R> flatMap(Function<?, ?> mapper)
}



interface "<b><size:14>Serializable</b>\n<size:10>java.io" as java.io.Serializable  #lightgrey {
}

hide java.io.Serializable fields
hide java.io.Serializable methods

eapli.framework.domain.model.domains.DiscreteDomain ..> java.io.Serializable

eapli.framework.domain.model.domains.DiscreteDomain -->  "EMPTY" eapli.framework.domain.model.domains.DiscreteDomain

interface "<b><size:14>Iterable<T></b>\n<size:10>java.lang" as java.lang.IterableSerializable  #lightgrey {
}

hide java.lang.IterableSerializable fields
hide java.lang.IterableSerializable methods

eapli.framework.domain.model.domains.DiscreteDomain ..|> java.lang.IterableSerializable

interface "<b><size:14>ValueObject</b>\n<size:10>eapli.framework.domain.model" as eapli.framework.domain.model.ValueObject  [[../../../../../eapli/framework/domain/model/ValueObject.html{eapli.framework.domain.model.ValueObject}]] #white {
}

hide eapli.framework.domain.model.ValueObject fields
hide eapli.framework.domain.model.ValueObject methods

eapli.framework.domain.model.domains.DiscreteDomain ..|> eapli.framework.domain.model.ValueObject


class "<b><size:14>DiscreteDomain<T></b>\n<size:10>eapli.framework.domain.model.domains" as eapli.framework.domain.model.domains.DiscreteDomainSerializable <<Embeddable>> [[../../../../../eapli/framework/domain/model/domains/DiscreteDomain.html{eapli.framework.domain.model.domains.DiscreteDomain}]] {
}

hide eapli.framework.domain.model.domains.DiscreteDomainSerializable fields
hide eapli.framework.domain.model.domains.DiscreteDomainSerializable methods

eapli.framework.domain.model.domains.DiscreteDomain ..> eapli.framework.domain.model.domains.DiscreteDomainSerializable


class "<b><size:14>DiscreteDomain<R></b>\n<size:10>eapli.framework.domain.model.domains" as eapli.framework.domain.model.domains.DiscreteDomainSerializable <<Embeddable>> [[../../../../../eapli/framework/domain/model/domains/DiscreteDomain.html{eapli.framework.domain.model.domains.DiscreteDomain}]] {
}

hide eapli.framework.domain.model.domains.DiscreteDomainSerializable fields
hide eapli.framework.domain.model.domains.DiscreteDomainSerializable methods

eapli.framework.domain.model.domains.DiscreteDomain ..> eapli.framework.domain.model.domains.DiscreteDomainSerializable




class "<b><size:14>Object</b>\n<size:10>java.lang" as java.lang.Object  #lightgrey {
}

hide java.lang.Object fields
hide java.lang.Object methods

eapli.framework.domain.model.domains.DiscreteDomain ..> java.lang.Object



@enduml
