<?xml version="1.0" encoding="UTF-8" standalone="no"?><svg xmlns="http://www.w3.org/2000/svg" xmlns:xlink="http://www.w3.org/1999/xlink" contentScriptType="application/ecmascript" contentStyleType="text/css" height="778px" preserveAspectRatio="none" style="width:1214px;height:778px;" version="1.1" viewBox="0 0 1214 778" width="1214px" zoomAndPan="magnify"><defs><filter height="300%" id="f10urv66q9jxvk" width="300%" x="-1" y="-1"><feGaussianBlur result="blurOut" stdDeviation="2.0"/><feColorMatrix in="blurOut" result="blurOut2" type="matrix" values="0 0 0 0 0 0 0 0 0 0 0 0 0 0 0 0 0 0 .4 0"/><feOffset dx="4.0" dy="4.0" in="blurOut2" result="blurOut3"/><feBlend in="SourceGraphic" in2="blurOut3" mode="normal"/></filter></defs><g><!--cluster domain--><polygon fill="#FFFFFF" filter="url(#f10urv66q9jxvk)" points="22,470,79,470,86,493.6094,763,493.6094,763,766,22,766,22,470" style="stroke: #000000; stroke-width: 2.0;"/><line style="stroke: #000000; stroke-width: 2.0;" x1="22" x2="86" y1="493.6094" y2="493.6094"/><text fill="#000000" font-family="sans-serif" font-size="14" font-weight="bold" lengthAdjust="spacingAndGlyphs" textLength="51" x="26" y="486.5332">domain</text><!--cluster repositories--><polygon fill="#FFFFFF" filter="url(#f10urv66q9jxvk)" points="241,240,333,240,340,263.6094,661,263.6094,661,437,241,437,241,240" style="stroke: #000000; stroke-width: 2.0;"/><line style="stroke: #000000; stroke-width: 2.0;" x1="241" x2="340" y1="263.6094" y2="263.6094"/><text fill="#000000" font-family="sans-serif" font-size="14" font-weight="bold" lengthAdjust="spacingAndGlyphs" textLength="86" x="245" y="256.5332">repositories</text><!--cluster repositories.impl.jpa--><polygon fill="#FFFFFF" filter="url(#f10urv66q9jxvk)" points="241,24,391,24,398,47.6094,1192,47.6094,1192,207,241,207,241,24" style="stroke: #000000; stroke-width: 2.0;"/><line style="stroke: #000000; stroke-width: 2.0;" x1="241" x2="398" y1="47.6094" y2="47.6094"/><text fill="#000000" font-family="sans-serif" font-size="14" font-weight="bold" lengthAdjust="spacingAndGlyphs" textLength="144" x="245" y="40.5332">repositories.impl.jpa</text><!--class Vehicle--><rect fill="#FEFECE" filter="url(#f10urv66q9jxvk)" height="112.7891" id="Vehicle" style="stroke: #A80036; stroke-width: 1.5;" width="80" x="309" y="506"/><ellipse cx="327.15" cy="533.6406" fill="#A9DCDF" rx="11" ry="11" style="stroke: #A80036; stroke-width: 1.0;"/><path d="M329.3375,535.4063 L325.1969,535.4063 L324.775,536.4375 L325.1969,536.4375 Q325.8063,536.4375 326.0719,536.6719 Q326.3375,536.9063 326.3375,537.2969 Q326.3375,537.6719 326.0719,537.9063 Q325.8063,538.1406 325.1969,538.1406 L322.9,538.1406 Q322.2906,538.1406 322.0328,537.9063 Q321.775,537.6719 321.775,537.2813 Q321.775,536.9063 322.0484,536.6641 Q322.3219,536.4219 322.9469,536.4375 L325.6188,529.7813 L324.5094,529.7813 Q323.9,529.7813 323.6344,529.5469 Q323.3688,529.3125 323.3688,528.9219 Q323.3688,528.5469 323.6344,528.3125 Q323.9,528.0781 324.5094,528.0781 L328.1813,528.0781 L331.5719,536.4375 Q332.1656,536.4375 332.3531,536.5781 Q332.7438,536.8438 332.7438,537.2969 Q332.7438,537.6719 332.4859,537.9063 Q332.2281,538.1406 331.6188,538.1406 L329.3219,538.1406 Q328.7125,538.1406 328.4469,537.9063 Q328.1813,537.6719 328.1813,537.2813 Q328.1813,536.9063 328.4469,536.6719 Q328.7125,536.4375 329.3219,536.4375 L329.7438,536.4375 L329.3375,535.4063 Z M328.6188,533.7031 L327.2594,530.3281 L325.8844,533.7031 L328.6188,533.7031 Z "/><text fill="#000000" font-family="sans-serif" font-size="12" font-style="italic" lengthAdjust="spacingAndGlyphs" textLength="43" x="340.85" y="523.457">«entity»</text><text fill="#000000" font-family="sans-serif" font-size="12" font-style="italic" lengthAdjust="spacingAndGlyphs" textLength="35" x="344.85" y="538.5508">«root»</text><text fill="#000000" font-family="sans-serif" font-size="12" font-style="italic" lengthAdjust="spacingAndGlyphs" textLength="41" x="341.85" y="553.6445">Vehicle</text><line style="stroke: #A80036; stroke-width: 1.5;" x1="310" x2="388" y1="561.2813" y2="561.2813"/><rect fill="none" height="6" style="stroke: #C82930; stroke-width: 1.0;" width="6" x="317" y="570.6992"/><text fill="#000000" font-family="sans-serif" font-size="11" lengthAdjust="spacingAndGlyphs" textLength="45" x="329" y="576.7002">vehiclepk</text><line style="stroke: #A80036; stroke-width: 1.5;" x1="310" x2="388" y1="583.1172" y2="583.1172"/><text fill="#000000" font-family="sans-serif" font-size="11" lengthAdjust="spacingAndGlyphs" textLength="65" x="315" y="598.5361">licensePlate()</text><text fill="#000000" font-family="sans-serif" font-size="11" lengthAdjust="spacingAndGlyphs" textLength="68" x="315" y="612.3721">horsePower()</text><!--class LicensePlate--><rect fill="#FEFECE" filter="url(#f10urv66q9jxvk)" height="56.1875" id="LicensePlate" style="stroke: #A80036; stroke-width: 1.5;" width="109" x="637.5" y="534.5"/><ellipse cx="652.5" cy="554.5938" fill="#ADD1B2" rx="11" ry="11" style="stroke: #A80036; stroke-width: 1.0;"/><path d="M655.2656,550.4688 Q655.4219,550.25 655.6094,550.1406 Q655.7969,550.0313 656.0156,550.0313 Q656.3906,550.0313 656.625,550.2891 Q656.8594,550.5469 656.8594,551.1563 L656.8594,552.6094 Q656.8594,553.2188 656.625,553.4844 Q656.3906,553.75 656.0156,553.75 Q655.6719,553.75 655.4688,553.5469 Q655.2656,553.3594 655.1563,552.8438 Q655.1094,552.4844 654.9219,552.2969 Q654.5938,551.9219 653.9844,551.7031 Q653.375,551.4844 652.75,551.4844 Q651.9844,551.4844 651.3516,551.8125 Q650.7188,552.1406 650.2266,552.8906 Q649.7344,553.6406 649.7344,554.6719 L649.7344,555.7656 Q649.7344,557 650.625,557.8203 Q651.5156,558.6406 653.1094,558.6406 Q654.0469,558.6406 654.7031,558.3906 Q655.0938,558.2344 655.5156,557.7969 Q655.7813,557.5313 655.9297,557.4531 Q656.0781,557.375 656.2813,557.375 Q656.6094,557.375 656.8672,557.6328 Q657.125,557.8906 657.125,558.2344 Q657.125,558.5781 656.7813,558.9844 Q656.2813,559.5625 655.4844,559.8906 Q654.4063,560.3438 653.1094,560.3438 Q651.5938,560.3438 650.3906,559.7188 Q649.4063,559.2188 648.7188,558.1484 Q648.0313,557.0781 648.0313,555.7969 L648.0313,554.6406 Q648.0313,553.3125 648.6484,552.1641 Q649.2656,551.0156 650.3594,550.3984 Q651.4531,549.7813 652.6875,549.7813 Q653.4219,549.7813 654.0703,549.9453 Q654.7188,550.1094 655.2656,550.4688 Z "/><text fill="#000000" font-family="sans-serif" font-size="12" font-style="italic" lengthAdjust="spacingAndGlyphs" textLength="81" x="664.5" y="551.957">«value object»</text><text fill="#000000" font-family="sans-serif" font-size="12" lengthAdjust="spacingAndGlyphs" textLength="72" x="669" y="567.0508">LicensePlate</text><line style="stroke: #A80036; stroke-width: 1.5;" x1="638.5" x2="745.5" y1="574.6875" y2="574.6875"/><line style="stroke: #A80036; stroke-width: 1.5;" x1="638.5" x2="745.5" y1="582.6875" y2="582.6875"/><!--class Power--><rect fill="#FEFECE" filter="url(#f10urv66q9jxvk)" height="56.1875" id="Power" style="stroke: #A80036; stroke-width: 1.5;" width="109" x="493.5" y="534.5"/><ellipse cx="508.5" cy="554.5938" fill="#ADD1B2" rx="11" ry="11" style="stroke: #A80036; stroke-width: 1.0;"/><path d="M511.2656,550.4688 Q511.4219,550.25 511.6094,550.1406 Q511.7969,550.0313 512.0156,550.0313 Q512.3906,550.0313 512.625,550.2891 Q512.8594,550.5469 512.8594,551.1563 L512.8594,552.6094 Q512.8594,553.2188 512.625,553.4844 Q512.3906,553.75 512.0156,553.75 Q511.6719,553.75 511.4688,553.5469 Q511.2656,553.3594 511.1563,552.8438 Q511.1094,552.4844 510.9219,552.2969 Q510.5938,551.9219 509.9844,551.7031 Q509.375,551.4844 508.75,551.4844 Q507.9844,551.4844 507.3516,551.8125 Q506.7188,552.1406 506.2266,552.8906 Q505.7344,553.6406 505.7344,554.6719 L505.7344,555.7656 Q505.7344,557 506.625,557.8203 Q507.5156,558.6406 509.1094,558.6406 Q510.0469,558.6406 510.7031,558.3906 Q511.0938,558.2344 511.5156,557.7969 Q511.7813,557.5313 511.9297,557.4531 Q512.0781,557.375 512.2813,557.375 Q512.6094,557.375 512.8672,557.6328 Q513.125,557.8906 513.125,558.2344 Q513.125,558.5781 512.7813,558.9844 Q512.2813,559.5625 511.4844,559.8906 Q510.4063,560.3438 509.1094,560.3438 Q507.5938,560.3438 506.3906,559.7188 Q505.4063,559.2188 504.7188,558.1484 Q504.0313,557.0781 504.0313,555.7969 L504.0313,554.6406 Q504.0313,553.3125 504.6484,552.1641 Q505.2656,551.0156 506.3594,550.3984 Q507.4531,549.7813 508.6875,549.7813 Q509.4219,549.7813 510.0703,549.9453 Q510.7188,550.1094 511.2656,550.4688 Z "/><text fill="#000000" font-family="sans-serif" font-size="12" font-style="italic" lengthAdjust="spacingAndGlyphs" textLength="81" x="520.5" y="551.957">«value object»</text><text fill="#000000" font-family="sans-serif" font-size="12" lengthAdjust="spacingAndGlyphs" textLength="35" x="543.5" y="567.0508">Power</text><line style="stroke: #A80036; stroke-width: 1.5;" x1="494.5" x2="601.5" y1="574.6875" y2="574.6875"/><line style="stroke: #A80036; stroke-width: 1.5;" x1="494.5" x2="601.5" y1="582.6875" y2="582.6875"/><polygon fill="#FBFB77" filter="url(#f10urv66q9jxvk)" points="38.5,541,38.5,583.7031,273.5,583.7031,273.5,551,263.5,541,38.5,541" style="stroke: #A80036; stroke-width: 1.0;"/><polygon fill="#FBFB77" points="38.5,541,38.5,583.7031,273.5,583.7031,273.5,566.5,308.949,562.5,273.5,558.5,273.5,551,263.5,541,38.5,541" style="stroke: #A80036; stroke-width: 1.0;"/><line style="stroke: #A80036; stroke-width: 1.0;" x1="263.5" x2="263.5" y1="541" y2="551"/><line style="stroke: #A80036; stroke-width: 1.0;" x1="273.5" x2="263.5" y1="551" y2="551"/><text fill="#000000" font-family="sans-serif" font-size="13" font-style="italic" lengthAdjust="spacingAndGlyphs" textLength="55" x="44.5" y="559.4951">vehiclepk</text><text fill="#000000" font-family="sans-serif" font-size="13" lengthAdjust="spacingAndGlyphs" textLength="155" x="103.5" y="559.4951">is an implementation detail</text><text fill="#000000" font-family="sans-serif" font-size="13" lengthAdjust="spacingAndGlyphs" textLength="76" x="44.5" y="575.8467">(primary key)</text><!--class Automobile--><rect fill="#FEFECE" filter="url(#f10urv66q9jxvk)" height="70.0234" id="Automobile" style="stroke: #A80036; stroke-width: 1.5;" width="103" x="262.5" y="680"/><ellipse cx="281.55" cy="700.0938" fill="#ADD1B2" rx="11" ry="11" style="stroke: #A80036; stroke-width: 1.0;"/><path d="M284.3156,695.9688 Q284.4719,695.75 284.6594,695.6406 Q284.8469,695.5313 285.0656,695.5313 Q285.4406,695.5313 285.675,695.7891 Q285.9094,696.0469 285.9094,696.6563 L285.9094,698.1094 Q285.9094,698.7188 285.675,698.9844 Q285.4406,699.25 285.0656,699.25 Q284.7219,699.25 284.5188,699.0469 Q284.3156,698.8594 284.2063,698.3438 Q284.1594,697.9844 283.9719,697.7969 Q283.6438,697.4219 283.0344,697.2031 Q282.425,696.9844 281.8,696.9844 Q281.0344,696.9844 280.4016,697.3125 Q279.7688,697.6406 279.2766,698.3906 Q278.7844,699.1406 278.7844,700.1719 L278.7844,701.2656 Q278.7844,702.5 279.675,703.3203 Q280.5656,704.1406 282.1594,704.1406 Q283.0969,704.1406 283.7531,703.8906 Q284.1438,703.7344 284.5656,703.2969 Q284.8313,703.0313 284.9797,702.9531 Q285.1281,702.875 285.3313,702.875 Q285.6594,702.875 285.9172,703.1328 Q286.175,703.3906 286.175,703.7344 Q286.175,704.0781 285.8313,704.4844 Q285.3313,705.0625 284.5344,705.3906 Q283.4563,705.8438 282.1594,705.8438 Q280.6438,705.8438 279.4406,705.2188 Q278.4563,704.7188 277.7688,703.6484 Q277.0813,702.5781 277.0813,701.2969 L277.0813,700.1406 Q277.0813,698.8125 277.6984,697.6641 Q278.3156,696.5156 279.4094,695.8984 Q280.5031,695.2813 281.7375,695.2813 Q282.4719,695.2813 283.1203,695.4453 Q283.7688,695.6094 284.3156,695.9688 Z "/><text fill="#000000" font-family="sans-serif" font-size="12" font-style="italic" lengthAdjust="spacingAndGlyphs" textLength="43" x="305.95" y="697.457">«entity»</text><text fill="#000000" font-family="sans-serif" font-size="12" lengthAdjust="spacingAndGlyphs" textLength="62" x="296.45" y="712.5508">Automobile</text><line style="stroke: #A80036; stroke-width: 1.5;" x1="263.5" x2="364.5" y1="720.1875" y2="720.1875"/><rect fill="none" height="6" style="stroke: #C82930; stroke-width: 1.0;" width="6" x="270.5" y="729.6055"/><text fill="#000000" font-family="sans-serif" font-size="11" lengthAdjust="spacingAndGlyphs" textLength="77" x="282.5" y="735.6064">numberOfDoors</text><line style="stroke: #A80036; stroke-width: 1.5;" x1="263.5" x2="364.5" y1="742.0234" y2="742.0234"/><!--class MotorBike--><rect fill="#FEFECE" filter="url(#f10urv66q9jxvk)" height="70.0234" id="MotorBike" style="stroke: #A80036; stroke-width: 1.5;" width="86" x="401" y="680"/><ellipse cx="416" cy="700.0938" fill="#ADD1B2" rx="11" ry="11" style="stroke: #A80036; stroke-width: 1.0;"/><path d="M418.7656,695.9688 Q418.9219,695.75 419.1094,695.6406 Q419.2969,695.5313 419.5156,695.5313 Q419.8906,695.5313 420.125,695.7891 Q420.3594,696.0469 420.3594,696.6563 L420.3594,698.1094 Q420.3594,698.7188 420.125,698.9844 Q419.8906,699.25 419.5156,699.25 Q419.1719,699.25 418.9688,699.0469 Q418.7656,698.8594 418.6563,698.3438 Q418.6094,697.9844 418.4219,697.7969 Q418.0938,697.4219 417.4844,697.2031 Q416.875,696.9844 416.25,696.9844 Q415.4844,696.9844 414.8516,697.3125 Q414.2188,697.6406 413.7266,698.3906 Q413.2344,699.1406 413.2344,700.1719 L413.2344,701.2656 Q413.2344,702.5 414.125,703.3203 Q415.0156,704.1406 416.6094,704.1406 Q417.5469,704.1406 418.2031,703.8906 Q418.5938,703.7344 419.0156,703.2969 Q419.2813,703.0313 419.4297,702.9531 Q419.5781,702.875 419.7813,702.875 Q420.1094,702.875 420.3672,703.1328 Q420.625,703.3906 420.625,703.7344 Q420.625,704.0781 420.2813,704.4844 Q419.7813,705.0625 418.9844,705.3906 Q417.9063,705.8438 416.6094,705.8438 Q415.0938,705.8438 413.8906,705.2188 Q412.9063,704.7188 412.2188,703.6484 Q411.5313,702.5781 411.5313,701.2969 L411.5313,700.1406 Q411.5313,698.8125 412.1484,697.6641 Q412.7656,696.5156 413.8594,695.8984 Q414.9531,695.2813 416.1875,695.2813 Q416.9219,695.2813 417.5703,695.4453 Q418.2188,695.6094 418.7656,695.9688 Z "/><text fill="#000000" font-family="sans-serif" font-size="12" font-style="italic" lengthAdjust="spacingAndGlyphs" textLength="43" x="435.5" y="697.457">«entity»</text><text fill="#000000" font-family="sans-serif" font-size="12" lengthAdjust="spacingAndGlyphs" textLength="54" x="430" y="712.5508">MotorBike</text><line style="stroke: #A80036; stroke-width: 1.5;" x1="402" x2="486" y1="720.1875" y2="720.1875"/><rect fill="none" height="6" style="stroke: #C82930; stroke-width: 1.0;" width="6" x="409" y="729.6055"/><text fill="#000000" font-family="sans-serif" font-size="11" lengthAdjust="spacingAndGlyphs" textLength="56" x="421" y="735.6064">hasSideCar</text><line style="stroke: #A80036; stroke-width: 1.5;" x1="402" x2="486" y1="742.0234" y2="742.0234"/><!--class VehicleRepository--><rect fill="#FEFECE" filter="url(#f10urv66q9jxvk)" height="144.8516" id="VehicleRepository" style="stroke: #A80036; stroke-width: 1.5;" width="183" x="257.5" y="276"/><ellipse cx="295.45" cy="292" fill="#B4A7E5" rx="11" ry="11" style="stroke: #A80036; stroke-width: 1.0;"/><path d="M296.4031,288.6406 L296.4031,295.2969 L298.1219,295.2969 Q298.7313,295.2969 298.9969,295.5313 Q299.2625,295.7656 299.2625,296.1563 Q299.2625,296.5313 298.9969,296.7656 Q298.7313,297 298.1219,297 L292.9813,297 Q292.3719,297 292.1063,296.7656 Q291.8406,296.5313 291.8406,296.1406 Q291.8406,295.7656 292.1063,295.5313 Q292.3719,295.2969 292.9813,295.2969 L294.7,295.2969 L294.7,288.6406 L292.9813,288.6406 Q292.3719,288.6406 292.1063,288.4063 Q291.8406,288.1719 291.8406,287.7813 Q291.8406,287.4063 292.1063,287.1719 Q292.3719,286.9375 292.9813,286.9375 L298.1219,286.9375 Q298.7313,286.9375 298.9969,287.1719 Q299.2625,287.4063 299.2625,287.7813 Q299.2625,288.1719 298.9969,288.4063 Q298.7313,288.6406 298.1219,288.6406 L296.4031,288.6406 Z "/><text fill="#000000" font-family="sans-serif" font-size="12" font-style="italic" lengthAdjust="spacingAndGlyphs" textLength="100" x="314.55" y="296.9102">VehicleRepository</text><line style="stroke: #A80036; stroke-width: 1.5;" x1="258.5" x2="439.5" y1="308" y2="308"/><line style="stroke: #A80036; stroke-width: 1.5;" x1="258.5" x2="439.5" y1="316" y2="316"/><ellipse cx="268.5" cy="328.418" fill="#84BE84" rx="3" ry="3" style="stroke: #038048; stroke-width: 1.0;"/><text fill="#000000" font-family="sans-serif" font-size="11" lengthAdjust="spacingAndGlyphs" textLength="32" x="277.5" y="331.4189">save()</text><ellipse cx="268.5" cy="342.2539" fill="#84BE84" rx="3" ry="3" style="stroke: #038048; stroke-width: 1.0;"/><text fill="#000000" font-family="sans-serif" font-size="11" lengthAdjust="spacingAndGlyphs" textLength="100" x="277.5" y="345.2549">findByLicensePlate()</text><ellipse cx="268.5" cy="356.0898" fill="#84BE84" rx="3" ry="3" style="stroke: #038048; stroke-width: 1.0;"/><text fill="#000000" font-family="sans-serif" font-size="11" lengthAdjust="spacingAndGlyphs" textLength="97" x="277.5" y="359.0908">findAllAutomobiles()</text><ellipse cx="268.5" cy="369.9258" fill="#84BE84" rx="3" ry="3" style="stroke: #038048; stroke-width: 1.0;"/><text fill="#000000" font-family="sans-serif" font-size="11" lengthAdjust="spacingAndGlyphs" textLength="91" x="277.5" y="372.9268">findAllMotorBikes()</text><ellipse cx="268.5" cy="383.7617" fill="#84BE84" rx="3" ry="3" style="stroke: #038048; stroke-width: 1.0;"/><text fill="#000000" font-family="sans-serif" font-size="11" lengthAdjust="spacingAndGlyphs" textLength="141" x="277.5" y="386.7627">findAutomobilesWith5Doors()</text><ellipse cx="268.5" cy="397.5977" fill="#84BE84" rx="3" ry="3" style="stroke: #038048; stroke-width: 1.0;"/><text fill="#000000" font-family="sans-serif" font-size="11" lengthAdjust="spacingAndGlyphs" textLength="157" x="277.5" y="400.5986">countOfMotorbikeswithSidecar()</text><ellipse cx="268.5" cy="411.4336" fill="#84BE84" rx="3" ry="3" style="stroke: #038048; stroke-width: 1.0;"/><text fill="#000000" font-family="sans-serif" font-size="11" lengthAdjust="spacingAndGlyphs" textLength="89" x="277.5" y="414.4346">totalHorsePower()</text><polygon fill="#FBFB77" filter="url(#f10urv66q9jxvk)" points="475.5,311,475.5,386.4063,644.5,386.4063,644.5,321,634.5,311,475.5,311" style="stroke: #A80036; stroke-width: 1.0;"/><polygon fill="#FBFB77" points="475.5,311,475.5,344.5,440.9,348.5,475.5,352.5,475.5,386.4063,644.5,386.4063,644.5,321,634.5,311,475.5,311" style="stroke: #A80036; stroke-width: 1.0;"/><line style="stroke: #A80036; stroke-width: 1.0;" x1="634.5" x2="634.5" y1="311" y2="321"/><line style="stroke: #A80036; stroke-width: 1.0;" x1="644.5" x2="634.5" y1="321" y2="321"/><text fill="#000000" font-family="sans-serif" font-size="13" lengthAdjust="spacingAndGlyphs" textLength="49" x="481.5" y="329.4951">The fleet</text><text fill="#000000" font-family="sans-serif" font-size="13" lengthAdjust="spacingAndGlyphs" textLength="0" x="485.5" y="345.8467"/><text fill="#000000" font-family="sans-serif" font-size="13" lengthAdjust="spacingAndGlyphs" textLength="147" x="481.5" y="362.1982">finder methods to support</text><text fill="#000000" font-family="sans-serif" font-size="13" lengthAdjust="spacingAndGlyphs" textLength="148" x="481.5" y="378.5498">the application use cases</text><!--class VehicleRepositoryJpaImpl--><rect fill="#FEFECE" filter="url(#f10urv66q9jxvk)" height="131.0156" id="VehicleRepositoryJpaImpl" style="stroke: #A80036; stroke-width: 1.5;" width="183" x="257.5" y="60"/><ellipse cx="276.1" cy="76" fill="#ADD1B2" rx="11" ry="11" style="stroke: #A80036; stroke-width: 1.0;"/><path d="M278.8656,71.875 Q279.0219,71.6563 279.2094,71.5469 Q279.3969,71.4375 279.6156,71.4375 Q279.9906,71.4375 280.225,71.6953 Q280.4594,71.9531 280.4594,72.5625 L280.4594,74.0156 Q280.4594,74.625 280.225,74.8906 Q279.9906,75.1563 279.6156,75.1563 Q279.2719,75.1563 279.0688,74.9531 Q278.8656,74.7656 278.7563,74.25 Q278.7094,73.8906 278.5219,73.7031 Q278.1938,73.3281 277.5844,73.1094 Q276.975,72.8906 276.35,72.8906 Q275.5844,72.8906 274.9516,73.2188 Q274.3188,73.5469 273.8266,74.2969 Q273.3344,75.0469 273.3344,76.0781 L273.3344,77.1719 Q273.3344,78.4063 274.225,79.2266 Q275.1156,80.0469 276.7094,80.0469 Q277.6469,80.0469 278.3031,79.7969 Q278.6938,79.6406 279.1156,79.2031 Q279.3813,78.9375 279.5297,78.8594 Q279.6781,78.7813 279.8813,78.7813 Q280.2094,78.7813 280.4672,79.0391 Q280.725,79.2969 280.725,79.6406 Q280.725,79.9844 280.3813,80.3906 Q279.8813,80.9688 279.0844,81.2969 Q278.0063,81.75 276.7094,81.75 Q275.1938,81.75 273.9906,81.125 Q273.0063,80.625 272.3188,79.5547 Q271.6313,78.4844 271.6313,77.2031 L271.6313,76.0469 Q271.6313,74.7188 272.2484,73.5703 Q272.8656,72.4219 273.9594,71.8047 Q275.0531,71.1875 276.2875,71.1875 Q277.0219,71.1875 277.6703,71.3516 Q278.3188,71.5156 278.8656,71.875 Z "/><text fill="#000000" font-family="sans-serif" font-size="12" lengthAdjust="spacingAndGlyphs" textLength="143" x="290.9" y="80.9102">VehicleRepositoryJpaImpl</text><line style="stroke: #A80036; stroke-width: 1.5;" x1="258.5" x2="439.5" y1="92" y2="92"/><line style="stroke: #A80036; stroke-width: 1.5;" x1="258.5" x2="439.5" y1="100" y2="100"/><ellipse cx="268.5" cy="112.418" fill="#84BE84" rx="3" ry="3" style="stroke: #038048; stroke-width: 1.0;"/><text fill="#000000" font-family="sans-serif" font-size="11" lengthAdjust="spacingAndGlyphs" textLength="32" x="277.5" y="115.4189">save()</text><ellipse cx="268.5" cy="126.2539" fill="#84BE84" rx="3" ry="3" style="stroke: #038048; stroke-width: 1.0;"/><text fill="#000000" font-family="sans-serif" font-size="11" lengthAdjust="spacingAndGlyphs" textLength="97" x="277.5" y="129.2549">findAllAutomobiles()</text><ellipse cx="268.5" cy="140.0898" fill="#84BE84" rx="3" ry="3" style="stroke: #038048; stroke-width: 1.0;"/><text fill="#000000" font-family="sans-serif" font-size="11" lengthAdjust="spacingAndGlyphs" textLength="91" x="277.5" y="143.0908">findAllMotorBikes()</text><ellipse cx="268.5" cy="153.9258" fill="#84BE84" rx="3" ry="3" style="stroke: #038048; stroke-width: 1.0;"/><text fill="#000000" font-family="sans-serif" font-size="11" lengthAdjust="spacingAndGlyphs" textLength="141" x="277.5" y="156.9268">findAutomobilesWith5Doors()</text><ellipse cx="268.5" cy="167.7617" fill="#84BE84" rx="3" ry="3" style="stroke: #038048; stroke-width: 1.0;"/><text fill="#000000" font-family="sans-serif" font-size="11" lengthAdjust="spacingAndGlyphs" textLength="157" x="277.5" y="170.7627">countOfMotorbikeswithSidecar()</text><ellipse cx="268.5" cy="181.5977" fill="#84BE84" rx="3" ry="3" style="stroke: #038048; stroke-width: 1.0;"/><text fill="#000000" font-family="sans-serif" font-size="11" lengthAdjust="spacingAndGlyphs" textLength="89" x="277.5" y="184.5986">totalHorsePower()</text><polygon fill="#FBFB77" filter="url(#f10urv66q9jxvk)" points="476,79.5,476,171.2578,1176,171.2578,1176,89.5,1166,79.5,476,79.5" style="stroke: #A80036; stroke-width: 1.0;"/><polygon fill="#FBFB77" points="476,79.5,476,121.5,440.767,125.5,476,129.5,476,171.2578,1176,171.2578,1176,89.5,1166,79.5,476,79.5" style="stroke: #A80036; stroke-width: 1.0;"/><line style="stroke: #A80036; stroke-width: 1.0;" x1="1166" x2="1166" y1="79.5" y2="89.5"/><line style="stroke: #A80036; stroke-width: 1.0;" x1="1176" x2="1166" y1="89.5" y2="89.5"/><text fill="#000000" font-family="sans-serif" font-size="13" lengthAdjust="spacingAndGlyphs" textLength="466" x="482" y="97.9951">findAllAutomobiles: "SELECT e FROM Automobile e ORDER BY e.licensePlate"</text><text fill="#000000" font-family="sans-serif" font-size="13" lengthAdjust="spacingAndGlyphs" textLength="454" x="482" y="114.3467">findAllMotorBikes: "SELECT e FROM MotorBike e ORDER BY e.licensePlate"</text><text fill="#000000" font-family="sans-serif" font-size="13" lengthAdjust="spacingAndGlyphs" textLength="679" x="482" y="130.6982">findAutomobilesWith5Doors: "SELECT e from Automobile e WHERE e.numberOfDoors=5 ORDER BY e.licensePlate"</text><text fill="#000000" font-family="sans-serif" font-size="13" lengthAdjust="spacingAndGlyphs" textLength="588" x="482" y="147.0498">countOfMotorbikeswithSidecar: "SELECT COUNT(e) FROM MotorBike e WHERE e.hasSideCar=true"</text><text fill="#000000" font-family="sans-serif" font-size="13" lengthAdjust="spacingAndGlyphs" textLength="383" x="482" y="163.4014">totalHorsePower: "SELECT SUM(e.horsePower) FROM Vehicle e"</text><!--link Vehicle to LicensePlate--><path d="M389.111,517.389 C415.64,491.705 452.923,462.833 493.5,453.5 C540.712,442.641 555.288,442.641 602.5,453.5 C610.927,455.438 613.39,456.425 620,462 C642.517,480.991 661.584,508.503 674.429,529.942 " fill="none" id="Vehicle-LicensePlate" style="stroke: #A80036; stroke-width: 1.0;"/><polygon fill="#A80036" points="677.074,534.419,675.9377,524.6359,674.5297,530.1147,669.0509,528.7067,677.074,534.419" style="stroke: #A80036; stroke-width: 1.0;"/><!--link Vehicle to Power--><path d="M389.271,562.5 C417.731,562.5 456.356,562.5 488.378,562.5 " fill="none" id="Vehicle-Power" style="stroke: #A80036; stroke-width: 1.0;"/><polygon fill="#A80036" points="493.458,562.5,484.458,558.5,488.458,562.5,484.458,566.5,493.458,562.5" style="stroke: #A80036; stroke-width: 1.0;"/><text fill="#000000" font-family="sans-serif" font-size="13" lengthAdjust="spacingAndGlyphs" textLength="68" x="407.25" y="555.9951">horsePower</text><!--link Vehicle to Automobile--><path d="M331.441,639.002 C328.136,653.214 324.834,667.414 322.006,679.574 " fill="none" id="Vehicle-Automobile" style="stroke: #A80036; stroke-width: 1.0;"/><polygon fill="none" points="324.718,637.008,336.067,619.113,338.354,640.179,324.718,637.008" style="stroke: #A80036; stroke-width: 1.0;"/><!--link Vehicle to MotorBike--><path d="M394.803,636.062 C404.387,651.245 414.064,666.575 422.269,679.574 " fill="none" id="Vehicle-MotorBike" style="stroke: #A80036; stroke-width: 1.0;"/><polygon fill="none" points="388.861,639.762,384.105,619.113,400.7,632.289,388.861,639.762" style="stroke: #A80036; stroke-width: 1.0;"/><!--link VehicleRepository to Vehicle--><path d="M349,421.274 C349,447.067 349,475.89 349,500.664 " fill="none" id="VehicleRepository-Vehicle" style="stroke: #A80036; stroke-width: 1.0; stroke-dasharray: 7.0,7.0;"/><polygon fill="#A80036" points="349,505.886,353,496.886,349,500.886,345,496.886,349,505.886" style="stroke: #A80036; stroke-width: 1.0;"/><!--link VehicleRepositoryJpaImpl to VehicleRepository--><path d="M349,191.016 C349,211.299 349,234.098 349,255.886 " fill="none" id="VehicleRepositoryJpaImpl-VehicleRepository" style="stroke: #A80036; stroke-width: 1.0; stroke-dasharray: 7.0,7.0;"/><polygon fill="none" points="356,255.93,349,275.93,342,255.93,356,255.93" style="stroke: #A80036; stroke-width: 1.0;"/><!--
@startuml
package domain{

           abstract class Vehicle <<entity>><<root>>{
           -vehiclepk
           licensePlate()
           horsePower()
           }

           class LicensePlate<<value object>>
           Vehicle -> LicensePlate

           class Power<<value object>>
           Vehicle ->Power:horsePower

           note left of Vehicle: <i>vehiclepk</i> is an implementation detail\n(primary key)

           class Automobile <<entity>>{
           -numberOfDoors
           }

           class MotorBike <<entity>> {
           -hasSideCar
           }

           Vehicle <|-down- Automobile
           Vehicle <|-down- MotorBike
           }

           package repositories{

           interface VehicleRepository {
           +save()
           +findByLicensePlate()
           +findAllAutomobiles()
           +findAllMotorBikes()
           +findAutomobilesWith5Doors()
           +countOfMotorbikeswithSidecar()
           +totalHorsePower()
           }

           note right of VehicleRepository
           The fleet

           finder methods to support
           the application use cases
           end note

           VehicleRepository ..> Vehicle

           }


           package repositories.impl.jpa{
           class VehicleRepositoryJpaImpl{
           +save()
           +findAllAutomobiles()
           +findAllMotorBikes()
           +findAutomobilesWith5Doors()
           +countOfMotorbikeswithSidecar()
           +totalHorsePower()
           }
           VehicleRepositoryJpaImpl ..|> VehicleRepository

           note right of VehicleRepositoryJpaImpl
           findAllAutomobiles: "SELECT e FROM Automobile e ORDER BY e.licensePlate"
           findAllMotorBikes: "SELECT e FROM MotorBike e ORDER BY e.licensePlate"
           findAutomobilesWith5Doors: "SELECT e from Automobile e WHERE e.numberOfDoors=5 ORDER BY e.licensePlate"
           countOfMotorbikeswithSidecar: "SELECT COUNT(e) FROM MotorBike e WHERE e.hasSideCar=true"
           totalHorsePower: "SELECT SUM(e.horsePower) FROM Vehicle e"
           end note

           }
@enduml

PlantUML version 1.2017.18(Fri Oct 06 17:56:32 BST 2017)
(GPL source distribution)
Java Runtime: Java(TM) SE Runtime Environment
JVM: Java HotSpot(TM) 64-Bit Server VM
Java Version: 1.8.0_202-b08
Operating System: Windows 10
OS Version: 10.0
Default Encoding: Cp1252
Language: en
Country: US
--></g></svg>