<?xml version="1.0" encoding="UTF-8" standalone="no"?><svg xmlns="http://www.w3.org/2000/svg" xmlns:xlink="http://www.w3.org/1999/xlink" contentScriptType="application/ecmascript" contentStyleType="text/css" height="462px" preserveAspectRatio="none" style="width:908px;height:462px;" version="1.1" viewBox="0 0 908 462" width="908px" zoomAndPan="magnify"><defs><filter height="300%" id="f1oj09hsk1nzkr" width="300%" x="-1" y="-1"><feGaussianBlur result="blurOut" stdDeviation="2.0"/><feColorMatrix in="blurOut" result="blurOut2" type="matrix" values="0 0 0 0 0 0 0 0 0 0 0 0 0 0 0 0 0 0 .4 0"/><feOffset dx="4.0" dy="4.0" in="blurOut2" result="blurOut3"/><feBlend in="SourceGraphic" in2="blurOut3" mode="normal"/></filter></defs><g><!--cluster domain--><polygon fill="#FFFFFF" filter="url(#f1oj09hsk1nzkr)" points="575,24,632,24,639,47.6094,886,47.6094,886,262,575,262,575,24" style="stroke: #000000; stroke-width: 2.0;"/><line style="stroke: #000000; stroke-width: 2.0;" x1="575" x2="639" y1="47.6094" y2="47.6094"/><text fill="#000000" font-family="sans-serif" font-size="14" font-weight="bold" lengthAdjust="spacingAndGlyphs" textLength="51" x="579" y="40.5332">domain</text><!--cluster dto--><polygon fill="#FFFFFF" filter="url(#f1oj09hsk1nzkr)" points="135,300,164,300,171,323.6094,702,323.6094,702,450,135,450,135,300" style="stroke: #000000; stroke-width: 2.0;"/><line style="stroke: #000000; stroke-width: 2.0;" x1="135" x2="171" y1="323.6094" y2="323.6094"/><text fill="#000000" font-family="sans-serif" font-size="14" font-weight="bold" lengthAdjust="spacingAndGlyphs" textLength="23" x="139" y="316.5332">dto</text><!--cluster repositories--><polygon fill="#FFFFFF" filter="url(#f1oj09hsk1nzkr)" points="22,148,114,148,121,171.6094,551,171.6094,551,276,22,276,22,148" style="stroke: #000000; stroke-width: 2.0;"/><line style="stroke: #000000; stroke-width: 2.0;" x1="22" x2="121" y1="171.6094" y2="171.6094"/><text fill="#000000" font-family="sans-serif" font-size="14" font-weight="bold" lengthAdjust="spacingAndGlyphs" textLength="86" x="26" y="164.5332">repositories</text><!--cluster repositories.impl.jpa--><polygon fill="#FFFFFF" filter="url(#f1oj09hsk1nzkr)" points="276,24,426,24,433,47.6094,538,47.6094,538,124,276,124,276,24" style="stroke: #000000; stroke-width: 2.0;"/><line style="stroke: #000000; stroke-width: 2.0;" x1="276" x2="433" y1="47.6094" y2="47.6094"/><text fill="#000000" font-family="sans-serif" font-size="14" font-weight="bold" lengthAdjust="spacingAndGlyphs" textLength="144" x="280" y="40.5332">repositories.impl.jpa</text><polygon fill="#FBFB77" filter="url(#f1oj09hsk1nzkr)" points="698.5,62.5,698.5,105.2031,869.5,105.2031,869.5,72.5,859.5,62.5,698.5,62.5" style="stroke: #A80036; stroke-width: 1.0;"/><line style="stroke: #A80036; stroke-width: 1.0;" x1="859.5" x2="859.5" y1="62.5" y2="72.5"/><line style="stroke: #A80036; stroke-width: 1.0;" x1="869.5" x2="859.5" y1="72.5" y2="72.5"/><text fill="#000000" font-family="sans-serif" font-size="13" lengthAdjust="spacingAndGlyphs" textLength="146" x="704.5" y="80.9951">the domain is not needed</text><text fill="#000000" font-family="sans-serif" font-size="13" lengthAdjust="spacingAndGlyphs" textLength="68" x="704.5" y="97.3467">for reporting</text><!--class Vehicle--><rect fill="#FEFECE" filter="url(#f1oj09hsk1nzkr)" height="48" id="Vehicle" style="stroke: #A80036; stroke-width: 1.5;" width="72" x="591" y="60"/><ellipse cx="606" cy="76" fill="#ADD1B2" rx="11" ry="11" style="stroke: #A80036; stroke-width: 1.0;"/><path d="M608.7656,71.875 Q608.9219,71.6563 609.1094,71.5469 Q609.2969,71.4375 609.5156,71.4375 Q609.8906,71.4375 610.125,71.6953 Q610.3594,71.9531 610.3594,72.5625 L610.3594,74.0156 Q610.3594,74.625 610.125,74.8906 Q609.8906,75.1563 609.5156,75.1563 Q609.1719,75.1563 608.9688,74.9531 Q608.7656,74.7656 608.6563,74.25 Q608.6094,73.8906 608.4219,73.7031 Q608.0938,73.3281 607.4844,73.1094 Q606.875,72.8906 606.25,72.8906 Q605.4844,72.8906 604.8516,73.2188 Q604.2188,73.5469 603.7266,74.2969 Q603.2344,75.0469 603.2344,76.0781 L603.2344,77.1719 Q603.2344,78.4063 604.125,79.2266 Q605.0156,80.0469 606.6094,80.0469 Q607.5469,80.0469 608.2031,79.7969 Q608.5938,79.6406 609.0156,79.2031 Q609.2813,78.9375 609.4297,78.8594 Q609.5781,78.7813 609.7813,78.7813 Q610.1094,78.7813 610.3672,79.0391 Q610.625,79.2969 610.625,79.6406 Q610.625,79.9844 610.2813,80.3906 Q609.7813,80.9688 608.9844,81.2969 Q607.9063,81.75 606.6094,81.75 Q605.0938,81.75 603.8906,81.125 Q602.9063,80.625 602.2188,79.5547 Q601.5313,78.4844 601.5313,77.2031 L601.5313,76.0469 Q601.5313,74.7188 602.1484,73.5703 Q602.7656,72.4219 603.8594,71.8047 Q604.9531,71.1875 606.1875,71.1875 Q606.9219,71.1875 607.5703,71.3516 Q608.2188,71.5156 608.7656,71.875 Z "/><text fill="#000000" font-family="sans-serif" font-size="12" lengthAdjust="spacingAndGlyphs" textLength="40" x="620" y="80.9102">Vehicle</text><line style="stroke: #A80036; stroke-width: 1.5;" x1="592" x2="662" y1="92" y2="92"/><line style="stroke: #A80036; stroke-width: 1.5;" x1="592" x2="662" y1="100" y2="100"/><!--class Automobile--><rect fill="#FEFECE" filter="url(#f1oj09hsk1nzkr)" height="48" id="Automobile" style="stroke: #A80036; stroke-width: 1.5;" width="94" x="591" y="198"/><ellipse cx="606" cy="214" fill="#ADD1B2" rx="11" ry="11" style="stroke: #A80036; stroke-width: 1.0;"/><path d="M608.7656,209.875 Q608.9219,209.6563 609.1094,209.5469 Q609.2969,209.4375 609.5156,209.4375 Q609.8906,209.4375 610.125,209.6953 Q610.3594,209.9531 610.3594,210.5625 L610.3594,212.0156 Q610.3594,212.625 610.125,212.8906 Q609.8906,213.1563 609.5156,213.1563 Q609.1719,213.1563 608.9688,212.9531 Q608.7656,212.7656 608.6563,212.25 Q608.6094,211.8906 608.4219,211.7031 Q608.0938,211.3281 607.4844,211.1094 Q606.875,210.8906 606.25,210.8906 Q605.4844,210.8906 604.8516,211.2188 Q604.2188,211.5469 603.7266,212.2969 Q603.2344,213.0469 603.2344,214.0781 L603.2344,215.1719 Q603.2344,216.4063 604.125,217.2266 Q605.0156,218.0469 606.6094,218.0469 Q607.5469,218.0469 608.2031,217.7969 Q608.5938,217.6406 609.0156,217.2031 Q609.2813,216.9375 609.4297,216.8594 Q609.5781,216.7813 609.7813,216.7813 Q610.1094,216.7813 610.3672,217.0391 Q610.625,217.2969 610.625,217.6406 Q610.625,217.9844 610.2813,218.3906 Q609.7813,218.9688 608.9844,219.2969 Q607.9063,219.75 606.6094,219.75 Q605.0938,219.75 603.8906,219.125 Q602.9063,218.625 602.2188,217.5547 Q601.5313,216.4844 601.5313,215.2031 L601.5313,214.0469 Q601.5313,212.7188 602.1484,211.5703 Q602.7656,210.4219 603.8594,209.8047 Q604.9531,209.1875 606.1875,209.1875 Q606.9219,209.1875 607.5703,209.3516 Q608.2188,209.5156 608.7656,209.875 Z "/><text fill="#000000" font-family="sans-serif" font-size="12" lengthAdjust="spacingAndGlyphs" textLength="62" x="620" y="218.9102">Automobile</text><line style="stroke: #A80036; stroke-width: 1.5;" x1="592" x2="684" y1="230" y2="230"/><line style="stroke: #A80036; stroke-width: 1.5;" x1="592" x2="684" y1="238" y2="238"/><!--class MotorBike--><rect fill="#FEFECE" filter="url(#f1oj09hsk1nzkr)" height="48" id="MotorBike" style="stroke: #A80036; stroke-width: 1.5;" width="86" x="720" y="198"/><ellipse cx="735" cy="214" fill="#ADD1B2" rx="11" ry="11" style="stroke: #A80036; stroke-width: 1.0;"/><path d="M737.7656,209.875 Q737.9219,209.6563 738.1094,209.5469 Q738.2969,209.4375 738.5156,209.4375 Q738.8906,209.4375 739.125,209.6953 Q739.3594,209.9531 739.3594,210.5625 L739.3594,212.0156 Q739.3594,212.625 739.125,212.8906 Q738.8906,213.1563 738.5156,213.1563 Q738.1719,213.1563 737.9688,212.9531 Q737.7656,212.7656 737.6563,212.25 Q737.6094,211.8906 737.4219,211.7031 Q737.0938,211.3281 736.4844,211.1094 Q735.875,210.8906 735.25,210.8906 Q734.4844,210.8906 733.8516,211.2188 Q733.2188,211.5469 732.7266,212.2969 Q732.2344,213.0469 732.2344,214.0781 L732.2344,215.1719 Q732.2344,216.4063 733.125,217.2266 Q734.0156,218.0469 735.6094,218.0469 Q736.5469,218.0469 737.2031,217.7969 Q737.5938,217.6406 738.0156,217.2031 Q738.2813,216.9375 738.4297,216.8594 Q738.5781,216.7813 738.7813,216.7813 Q739.1094,216.7813 739.3672,217.0391 Q739.625,217.2969 739.625,217.6406 Q739.625,217.9844 739.2813,218.3906 Q738.7813,218.9688 737.9844,219.2969 Q736.9063,219.75 735.6094,219.75 Q734.0938,219.75 732.8906,219.125 Q731.9063,218.625 731.2188,217.5547 Q730.5313,216.4844 730.5313,215.2031 L730.5313,214.0469 Q730.5313,212.7188 731.1484,211.5703 Q731.7656,210.4219 732.8594,209.8047 Q733.9531,209.1875 735.1875,209.1875 Q735.9219,209.1875 736.5703,209.3516 Q737.2188,209.5156 737.7656,209.875 Z "/><text fill="#000000" font-family="sans-serif" font-size="12" lengthAdjust="spacingAndGlyphs" textLength="54" x="749" y="218.9102">MotorBike</text><line style="stroke: #A80036; stroke-width: 1.5;" x1="721" x2="805" y1="230" y2="230"/><line style="stroke: #A80036; stroke-width: 1.5;" x1="721" x2="805" y1="238" y2="238"/><!--class AutomobilesGroupedByNumberOfDoors--><rect fill="#FEFECE" filter="url(#f1oj09hsk1nzkr)" height="97.6953" id="AutomobilesGroupedByNumberOfDoors" style="stroke: #A80036; stroke-width: 1.5;" width="253" x="432.5" y="336"/><ellipse cx="447.5" cy="356.0938" fill="#ADD1B2" rx="11" ry="11" style="stroke: #A80036; stroke-width: 1.0;"/><path d="M450.2656,351.9688 Q450.4219,351.75 450.6094,351.6406 Q450.7969,351.5313 451.0156,351.5313 Q451.3906,351.5313 451.625,351.7891 Q451.8594,352.0469 451.8594,352.6563 L451.8594,354.1094 Q451.8594,354.7188 451.625,354.9844 Q451.3906,355.25 451.0156,355.25 Q450.6719,355.25 450.4688,355.0469 Q450.2656,354.8594 450.1563,354.3438 Q450.1094,353.9844 449.9219,353.7969 Q449.5938,353.4219 448.9844,353.2031 Q448.375,352.9844 447.75,352.9844 Q446.9844,352.9844 446.3516,353.3125 Q445.7188,353.6406 445.2266,354.3906 Q444.7344,355.1406 444.7344,356.1719 L444.7344,357.2656 Q444.7344,358.5 445.625,359.3203 Q446.5156,360.1406 448.1094,360.1406 Q449.0469,360.1406 449.7031,359.8906 Q450.0938,359.7344 450.5156,359.2969 Q450.7813,359.0313 450.9297,358.9531 Q451.0781,358.875 451.2813,358.875 Q451.6094,358.875 451.8672,359.1328 Q452.125,359.3906 452.125,359.7344 Q452.125,360.0781 451.7813,360.4844 Q451.2813,361.0625 450.4844,361.3906 Q449.4063,361.8438 448.1094,361.8438 Q446.5938,361.8438 445.3906,361.2188 Q444.4063,360.7188 443.7188,359.6484 Q443.0313,358.5781 443.0313,357.2969 L443.0313,356.1406 Q443.0313,354.8125 443.6484,353.6641 Q444.2656,352.5156 445.3594,351.8984 Q446.4531,351.2813 447.6875,351.2813 Q448.4219,351.2813 449.0703,351.4453 Q449.7188,351.6094 450.2656,351.9688 Z "/><text fill="#000000" font-family="sans-serif" font-size="12" font-style="italic" lengthAdjust="spacingAndGlyphs" textLength="39" x="552.5" y="353.457">«DTO»</text><text fill="#000000" font-family="sans-serif" font-size="12" lengthAdjust="spacingAndGlyphs" textLength="221" x="461.5" y="368.5508">AutomobilesGroupedByNumberOfDoors</text><line style="stroke: #A80036; stroke-width: 1.5;" x1="433.5" x2="684.5" y1="376.1875" y2="376.1875"/><ellipse cx="443.5" cy="388.6055" fill="none" rx="3" ry="3" style="stroke: #038048; stroke-width: 1.0;"/><text fill="#000000" font-family="sans-serif" font-size="11" lengthAdjust="spacingAndGlyphs" textLength="77" x="452.5" y="391.6064">numberOfDoors</text><ellipse cx="443.5" cy="402.4414" fill="none" rx="3" ry="3" style="stroke: #038048; stroke-width: 1.0;"/><text fill="#000000" font-family="sans-serif" font-size="11" lengthAdjust="spacingAndGlyphs" textLength="57" x="452.5" y="405.4424">licensePlate</text><text fill="#000000" font-family="sans-serif" font-size="11" lengthAdjust="spacingAndGlyphs" textLength="15" x="452.5" y="419.2783">. . .</text><line style="stroke: #A80036; stroke-width: 1.5;" x1="433.5" x2="684.5" y1="425.6953" y2="425.6953"/><!--class VehiclesGroupedByHorsePowerRange--><rect fill="#FEFECE" filter="url(#f1oj09hsk1nzkr)" height="97.6953" id="VehiclesGroupedByHorsePowerRange" style="stroke: #A80036; stroke-width: 1.5;" width="246" x="151" y="336"/><ellipse cx="166" cy="356.0938" fill="#ADD1B2" rx="11" ry="11" style="stroke: #A80036; stroke-width: 1.0;"/><path d="M168.7656,351.9688 Q168.9219,351.75 169.1094,351.6406 Q169.2969,351.5313 169.5156,351.5313 Q169.8906,351.5313 170.125,351.7891 Q170.3594,352.0469 170.3594,352.6563 L170.3594,354.1094 Q170.3594,354.7188 170.125,354.9844 Q169.8906,355.25 169.5156,355.25 Q169.1719,355.25 168.9688,355.0469 Q168.7656,354.8594 168.6563,354.3438 Q168.6094,353.9844 168.4219,353.7969 Q168.0938,353.4219 167.4844,353.2031 Q166.875,352.9844 166.25,352.9844 Q165.4844,352.9844 164.8516,353.3125 Q164.2188,353.6406 163.7266,354.3906 Q163.2344,355.1406 163.2344,356.1719 L163.2344,357.2656 Q163.2344,358.5 164.125,359.3203 Q165.0156,360.1406 166.6094,360.1406 Q167.5469,360.1406 168.2031,359.8906 Q168.5938,359.7344 169.0156,359.2969 Q169.2813,359.0313 169.4297,358.9531 Q169.5781,358.875 169.7813,358.875 Q170.1094,358.875 170.3672,359.1328 Q170.625,359.3906 170.625,359.7344 Q170.625,360.0781 170.2813,360.4844 Q169.7813,361.0625 168.9844,361.3906 Q167.9063,361.8438 166.6094,361.8438 Q165.0938,361.8438 163.8906,361.2188 Q162.9063,360.7188 162.2188,359.6484 Q161.5313,358.5781 161.5313,357.2969 L161.5313,356.1406 Q161.5313,354.8125 162.1484,353.6641 Q162.7656,352.5156 163.8594,351.8984 Q164.9531,351.2813 166.1875,351.2813 Q166.9219,351.2813 167.5703,351.4453 Q168.2188,351.6094 168.7656,351.9688 Z "/><text fill="#000000" font-family="sans-serif" font-size="12" font-style="italic" lengthAdjust="spacingAndGlyphs" textLength="39" x="267.5" y="353.457">«DTO»</text><text fill="#000000" font-family="sans-serif" font-size="12" lengthAdjust="spacingAndGlyphs" textLength="214" x="180" y="368.5508">VehiclesGroupedByHorsePowerRange</text><line style="stroke: #A80036; stroke-width: 1.5;" x1="152" x2="396" y1="376.1875" y2="376.1875"/><ellipse cx="162" cy="388.6055" fill="none" rx="3" ry="3" style="stroke: #038048; stroke-width: 1.0;"/><text fill="#000000" font-family="sans-serif" font-size="11" lengthAdjust="spacingAndGlyphs" textLength="91" x="171" y="391.6064">horsePowerRange</text><ellipse cx="162" cy="402.4414" fill="none" rx="3" ry="3" style="stroke: #038048; stroke-width: 1.0;"/><text fill="#000000" font-family="sans-serif" font-size="11" lengthAdjust="spacingAndGlyphs" textLength="57" x="171" y="405.4424">licensePlate</text><text fill="#000000" font-family="sans-serif" font-size="11" lengthAdjust="spacingAndGlyphs" textLength="15" x="171" y="419.2783">. . .</text><line style="stroke: #A80036; stroke-width: 1.5;" x1="152" x2="396" y1="425.6953" y2="425.6953"/><!--class VehicleReportingRepository--><rect fill="#FEFECE" filter="url(#f1oj09hsk1nzkr)" height="75.6719" id="VehicleReportingRepository" style="stroke: #A80036; stroke-width: 1.5;" width="256" x="279" y="184"/><ellipse cx="325.75" cy="200" fill="#B4A7E5" rx="11" ry="11" style="stroke: #A80036; stroke-width: 1.0;"/><path d="M326.7031,196.6406 L326.7031,203.2969 L328.4219,203.2969 Q329.0313,203.2969 329.2969,203.5313 Q329.5625,203.7656 329.5625,204.1563 Q329.5625,204.5313 329.2969,204.7656 Q329.0313,205 328.4219,205 L323.2813,205 Q322.6719,205 322.4063,204.7656 Q322.1406,204.5313 322.1406,204.1406 Q322.1406,203.7656 322.4063,203.5313 Q322.6719,203.2969 323.2813,203.2969 L325,203.2969 L325,196.6406 L323.2813,196.6406 Q322.6719,196.6406 322.4063,196.4063 Q322.1406,196.1719 322.1406,195.7813 Q322.1406,195.4063 322.4063,195.1719 Q322.6719,194.9375 323.2813,194.9375 L328.4219,194.9375 Q329.0313,194.9375 329.2969,195.1719 Q329.5625,195.4063 329.5625,195.7813 Q329.5625,196.1719 329.2969,196.4063 Q329.0313,196.6406 328.4219,196.6406 L326.7031,196.6406 Z "/><text fill="#000000" font-family="sans-serif" font-size="12" font-style="italic" lengthAdjust="spacingAndGlyphs" textLength="154" x="346.25" y="204.9102">VehicleReportingRepository</text><line style="stroke: #A80036; stroke-width: 1.5;" x1="280" x2="534" y1="216" y2="216"/><line style="stroke: #A80036; stroke-width: 1.5;" x1="280" x2="534" y1="224" y2="224"/><ellipse cx="290" cy="236.418" fill="#84BE84" rx="3" ry="3" style="stroke: #038048; stroke-width: 1.0;"/><text fill="#000000" font-family="sans-serif" font-size="11" lengthAdjust="spacingAndGlyphs" textLength="230" x="299" y="239.4189">findAllAutomobilesGroupedByNumberOfDoors()</text><ellipse cx="290" cy="250.2539" fill="#84BE84" rx="3" ry="3" style="stroke: #038048; stroke-width: 1.0;"/><text fill="#000000" font-family="sans-serif" font-size="11" lengthAdjust="spacingAndGlyphs" textLength="227" x="299" y="253.2549">findAllVehiclesGroupedByHorsePowerRange()</text><polygon fill="#FBFB77" filter="url(#f1oj09hsk1nzkr)" points="38.5,184.5,38.5,259.9063,243.5,259.9063,243.5,194.5,233.5,184.5,38.5,184.5" style="stroke: #A80036; stroke-width: 1.0;"/><polygon fill="#FBFB77" points="38.5,184.5,38.5,259.9063,243.5,259.9063,243.5,226,278.711,222,243.5,218,243.5,194.5,233.5,184.5,38.5,184.5" style="stroke: #A80036; stroke-width: 1.0;"/><line style="stroke: #A80036; stroke-width: 1.0;" x1="233.5" x2="233.5" y1="184.5" y2="194.5"/><line style="stroke: #A80036; stroke-width: 1.0;" x1="243.5" x2="233.5" y1="194.5" y2="194.5"/><text fill="#000000" font-family="sans-serif" font-size="13" lengthAdjust="spacingAndGlyphs" textLength="147" x="44.5" y="202.9951">finder methods to support</text><text fill="#000000" font-family="sans-serif" font-size="13" lengthAdjust="spacingAndGlyphs" textLength="122" x="44.5" y="219.3467">the reporting features</text><text fill="#000000" font-family="sans-serif" font-size="13" lengthAdjust="spacingAndGlyphs" textLength="0" x="48.5" y="235.6982"/><text fill="#000000" font-family="sans-serif" font-size="13" lengthAdjust="spacingAndGlyphs" textLength="184" x="44.5" y="252.0498">return of these finders are DTOs</text><!--class VehicleReportingRepositoryJpaImpl--><rect fill="#FEFECE" filter="url(#f1oj09hsk1nzkr)" height="48" id="VehicleReportingRepositoryJpaImpl" style="stroke: #A80036; stroke-width: 1.5;" width="229" x="292.5" y="60"/><ellipse cx="307.5" cy="76" fill="#ADD1B2" rx="11" ry="11" style="stroke: #A80036; stroke-width: 1.0;"/><path d="M310.2656,71.875 Q310.4219,71.6563 310.6094,71.5469 Q310.7969,71.4375 311.0156,71.4375 Q311.3906,71.4375 311.625,71.6953 Q311.8594,71.9531 311.8594,72.5625 L311.8594,74.0156 Q311.8594,74.625 311.625,74.8906 Q311.3906,75.1563 311.0156,75.1563 Q310.6719,75.1563 310.4688,74.9531 Q310.2656,74.7656 310.1563,74.25 Q310.1094,73.8906 309.9219,73.7031 Q309.5938,73.3281 308.9844,73.1094 Q308.375,72.8906 307.75,72.8906 Q306.9844,72.8906 306.3516,73.2188 Q305.7188,73.5469 305.2266,74.2969 Q304.7344,75.0469 304.7344,76.0781 L304.7344,77.1719 Q304.7344,78.4063 305.625,79.2266 Q306.5156,80.0469 308.1094,80.0469 Q309.0469,80.0469 309.7031,79.7969 Q310.0938,79.6406 310.5156,79.2031 Q310.7813,78.9375 310.9297,78.8594 Q311.0781,78.7813 311.2813,78.7813 Q311.6094,78.7813 311.8672,79.0391 Q312.125,79.2969 312.125,79.6406 Q312.125,79.9844 311.7813,80.3906 Q311.2813,80.9688 310.4844,81.2969 Q309.4063,81.75 308.1094,81.75 Q306.5938,81.75 305.3906,81.125 Q304.4063,80.625 303.7188,79.5547 Q303.0313,78.4844 303.0313,77.2031 L303.0313,76.0469 Q303.0313,74.7188 303.6484,73.5703 Q304.2656,72.4219 305.3594,71.8047 Q306.4531,71.1875 307.6875,71.1875 Q308.4219,71.1875 309.0703,71.3516 Q309.7188,71.5156 310.2656,71.875 Z "/><text fill="#000000" font-family="sans-serif" font-size="12" lengthAdjust="spacingAndGlyphs" textLength="197" x="321.5" y="80.9102">VehicleReportingRepositoryJpaImpl</text><line style="stroke: #A80036; stroke-width: 1.5;" x1="293.5" x2="520.5" y1="92" y2="92"/><line style="stroke: #A80036; stroke-width: 1.5;" x1="293.5" x2="520.5" y1="100" y2="100"/><!--link Vehicle to Automobile--><path d="M630.482,128.051 C632.351,151.16 634.581,178.733 636.125,197.816 " fill="none" id="Vehicle-Automobile" style="stroke: #A80036; stroke-width: 1.0;"/><polygon fill="none" points="623.501,128.57,628.866,108.071,637.456,127.441,623.501,128.57" style="stroke: #A80036; stroke-width: 1.0;"/><!--link Vehicle to MotorBike--><path d="M665.11,121.104 C670.244,125.074 675.606,128.821 681,132 C689.964,137.282 694.661,133.778 703,140 C723.619,155.384 740.342,179.808 750.845,197.818 " fill="none" id="Vehicle-MotorBike" style="stroke: #A80036; stroke-width: 1.0;"/><polygon fill="none" points="660.475,126.353,649.727,108.092,669.517,115.664,660.475,126.353" style="stroke: #A80036; stroke-width: 1.0;"/><!--link VehicleReportingRepository to AutomobilesGroupedByNumberOfDoors--><path d="M442.254,260.341 C462.4,281.68 487.968,308.762 510.039,332.14 " fill="none" id="VehicleReportingRepository-AutomobilesGroupedByNumberOfDoors" style="stroke: #A80036; stroke-width: 1.0; stroke-dasharray: 7.0,7.0;"/><polygon fill="#A80036" points="513.549,335.858,510.2786,326.568,510.1163,332.2225,504.4618,332.0602,513.549,335.858" style="stroke: #A80036; stroke-width: 1.0;"/><!--link VehicleReportingRepository to VehiclesGroupedByHorsePowerRange--><path d="M376.153,260.341 C358.598,281.592 336.337,308.54 317.08,331.851 " fill="none" id="VehicleReportingRepository-VehiclesGroupedByHorsePowerRange" style="stroke: #A80036; stroke-width: 1.0; stroke-dasharray: 7.0,7.0;"/><polygon fill="#A80036" points="313.769,335.858,322.585,331.4673,316.9536,332.0033,316.4175,326.3719,313.769,335.858" style="stroke: #A80036; stroke-width: 1.0;"/><!--link VehicleReportingRepositoryJpaImpl to VehicleReportingRepository--><path d="M407,108.071 C407,123.401 407,144.246 407,163.854 " fill="none" id="VehicleReportingRepositoryJpaImpl-VehicleReportingRepository" style="stroke: #A80036; stroke-width: 1.0; stroke-dasharray: 7.0,7.0;"/><polygon fill="none" points="414,163.941,407,183.941,400,163.941,414,163.941" style="stroke: #A80036; stroke-width: 1.0;"/><!--
@startuml
package domain{
           note "the domain is not needed \nfor reporting" as N1

           Vehicle <|-down- Automobile
           Vehicle <|-down- MotorBike
           }

           package dto{
           class AutomobilesGroupedByNumberOfDoors <<DTO>> {
           +numberOfDoors
           +licensePlate
           . . .
           }
           class VehiclesGroupedByHorsePowerRange <<DTO>>{
           +horsePowerRange
           +licensePlate
           . . .
           }
           }

           package repositories{

           interface VehicleReportingRepository{
           +findAllAutomobilesGroupedByNumberOfDoors()
           +findAllVehiclesGroupedByHorsePowerRange()
           }

           VehicleReportingRepository ..> AutomobilesGroupedByNumberOfDoors
           VehicleReportingRepository ..> VehiclesGroupedByHorsePowerRange

           note left of VehicleReportingRepository
           finder methods to support
           the reporting features

           return of these finders are DTOs
           end note
           }


           package repositories.impl.jpa{
           class VehicleReportingRepositoryJpaImpl
           VehicleReportingRepositoryJpaImpl ..|> VehicleReportingRepository
           }
@enduml

PlantUML version 1.2017.18(Fri Oct 06 17:56:32 BST 2017)
(GPL source distribution)
Java Runtime: Java(TM) SE Runtime Environment
JVM: Java HotSpot(TM) 64-Bit Server VM
Java Version: 1.8.0_202-b08
Operating System: Windows 10
OS Version: 10.0
Default Encoding: Cp1252
Language: en
Country: US
--></g></svg>