@startuml

skinparam svgLinkTarget _parent
skinparam linetype ortho
set namespaceSeparator none
enum "<b><size:14>JsonRepresentationBuilderState.JsonDocumentType</b>\n<size:10>eapli.framework.representations.builders" as eapli.framework.representations.builders.JsonRepresentationBuilderState.JsonDocumentType  [[../../../../eapli/framework/representations/builders/JsonRepresentationBuilderState.JsonDocumentType.html{eapli.framework.representations.builders.JsonRepresentationBuilderState.JsonDocumentType}]] {
-JsonDocumentType()
{static} +JsonRepresentationBuilderState.JsonDocumentType values()
{static} +JsonRepresentationBuilderState.JsonDocumentType valueOf(String name)
}


class "<b><size:14>JsonRepresentationBuilderState</b>\n<size:10>eapli.framework.representations.builders" as eapli.framework.representations.builders.JsonRepresentationBuilderState  [[../../../../eapli/framework/representations/builders/JsonRepresentationBuilderState.html{eapli.framework.representations.builders.JsonRepresentationBuilderState}]] {
}

hide eapli.framework.representations.builders.JsonRepresentationBuilderState fields
hide eapli.framework.representations.builders.JsonRepresentationBuilderState methods

eapli.framework.representations.builders.JsonRepresentationBuilderState -->  "type" eapli.framework.representations.builders.JsonRepresentationBuilderState.JsonDocumentType


@enduml
