@startuml

skinparam svgLinkTarget _parent
skinparam linetype ortho
set namespaceSeparator none
interface "<b><size:14>Visitor</b>\n<size:10>eapli.framework.visitor" as eapli.framework.visitor.Visitor <<FunctionalInterface>> [[../../../eapli/framework/visitor/Visitor.html{eapli.framework.visitor.Visitor}]] {
{abstract} +void visit(Object visitee)
}


class "<b><size:14>Object</b>\n<size:10>java.lang" as java.lang.Object  #lightgrey {
}

hide java.lang.Object fields
hide java.lang.Object methods

eapli.framework.visitor.Visitor ..> java.lang.Object


@enduml
