<?xml version="1.0" encoding="UTF-8" standalone="no"?><svg xmlns="http://www.w3.org/2000/svg" xmlns:xlink="http://www.w3.org/1999/xlink" contentScriptType="application/ecmascript" contentStyleType="text/css" height="219px" preserveAspectRatio="none" style="width:277px;height:219px;" version="1.1" viewBox="0 0 277 219" width="277px" zoomAndPan="magnify"><defs><filter height="300%" id="f143vhm0ruvn15" width="300%" x="-1" y="-1"><feGaussianBlur result="blurOut" stdDeviation="2.0"/><feColorMatrix in="blurOut" result="blurOut2" type="matrix" values="0 0 0 0 0 0 0 0 0 0 0 0 0 0 0 0 0 0 .4 0"/><feOffset dx="4.0" dy="4.0" in="blurOut2" result="blurOut3"/><feBlend in="SourceGraphic" in2="blurOut3" mode="normal"/></filter></defs><g><!--MD5=[31bef833fb73a8c0f2850405b16a0d66]
class eapli.framework.visitor.Visitable--><a href="../../../eapli/framework/visitor/Visitable.html" target="_parent" title="eapli.framework.visitor.Visitable" xlink:actuate="onRequest" xlink:href="../../../eapli/framework/visitor/Visitable.html" xlink:show="new" xlink:title="eapli.framework.visitor.Visitable" xlink:type="simple"><rect fill="#FEFECE" filter="url(#f143vhm0ruvn15)" height="85.1172" id="eapli.framework.visitor.Visitable" style="stroke: #A80036; stroke-width: 1.5;" width="174" x="66.5" y="8"/><ellipse cx="93.65" cy="35.6406" fill="#B4A7E5" rx="11" ry="11" style="stroke: #A80036; stroke-width: 1.0;"/><path d="M94.6031,32.2813 L94.6031,38.9375 L96.3219,38.9375 Q96.9313,38.9375 97.1969,39.1719 Q97.4625,39.4063 97.4625,39.7969 Q97.4625,40.1719 97.1969,40.4063 Q96.9313,40.6406 96.3219,40.6406 L91.1813,40.6406 Q90.5719,40.6406 90.3063,40.4063 Q90.0406,40.1719 90.0406,39.7813 Q90.0406,39.4063 90.3063,39.1719 Q90.5719,38.9375 91.1813,38.9375 L92.9,38.9375 L92.9,32.2813 L91.1813,32.2813 Q90.5719,32.2813 90.3063,32.0469 Q90.0406,31.8125 90.0406,31.4219 Q90.0406,31.0469 90.3063,30.8125 Q90.5719,30.5781 91.1813,30.5781 L96.3219,30.5781 Q96.9313,30.5781 97.1969,30.8125 Q97.4625,31.0469 97.4625,31.4219 Q97.4625,31.8125 97.1969,32.0469 Q96.9313,32.2813 96.3219,32.2813 L94.6031,32.2813 Z "/><text fill="#000000" font-family="sans-serif" font-size="12" font-style="italic" lengthAdjust="spacingAndGlyphs" textLength="119" x="108.35" y="25.457">«FunctionalInterface»</text><text fill="#000000" font-family="sans-serif" font-size="14" font-style="italic" font-weight="bold" lengthAdjust="spacingAndGlyphs" textLength="59" x="138.35" y="42.627">Visitable</text><text fill="#000000" font-family="sans-serif" font-size="10" font-style="italic" lengthAdjust="spacingAndGlyphs" textLength="105" x="115.35" y="56.084">eapli.framework.visitor</text><line style="stroke: #A80036; stroke-width: 1.5;" x1="67.5" x2="239.5" y1="63.2813" y2="63.2813"/><line style="stroke: #A80036; stroke-width: 1.5;" x1="67.5" x2="239.5" y1="71.2813" y2="71.2813"/><ellipse cx="77.5" cy="82.2813" fill="#84BE84" rx="3" ry="3" style="stroke: #038048; stroke-width: 1.0;"/><text fill="#000000" font-family="sans-serif" font-size="11" font-style="italic" lengthAdjust="spacingAndGlyphs" textLength="148" x="86.5" y="86.7002">void accept(Visitor&lt;T&gt; visitor)</text></a><!--MD5=[419303423064200ab96191f2f6184a76]
class eapli.framework.visitor.VisitorObject--><a href="../../../eapli/framework/visitor/Visitor.html" target="_parent" title="eapli.framework.visitor.Visitor" xlink:actuate="onRequest" xlink:href="../../../eapli/framework/visitor/Visitor.html" xlink:show="new" xlink:title="eapli.framework.visitor.Visitor" xlink:type="simple"><rect fill="#FEFECE" filter="url(#f143vhm0ruvn15)" height="55.2813" id="eapli.framework.visitor.VisitorObject" style="stroke: #A80036; stroke-width: 1.5;" width="147" x="6" y="153"/><ellipse cx="21" cy="180.6406" fill="#B4A7E5" rx="11" ry="11" style="stroke: #A80036; stroke-width: 1.0;"/><path d="M21.9531,177.2813 L21.9531,183.9375 L23.6719,183.9375 Q24.2813,183.9375 24.5469,184.1719 Q24.8125,184.4063 24.8125,184.7969 Q24.8125,185.1719 24.5469,185.4063 Q24.2813,185.6406 23.6719,185.6406 L18.5313,185.6406 Q17.9219,185.6406 17.6563,185.4063 Q17.3906,185.1719 17.3906,184.7813 Q17.3906,184.4063 17.6563,184.1719 Q17.9219,183.9375 18.5313,183.9375 L20.25,183.9375 L20.25,177.2813 L18.5313,177.2813 Q17.9219,177.2813 17.6563,177.0469 Q17.3906,176.8125 17.3906,176.4219 Q17.3906,176.0469 17.6563,175.8125 Q17.9219,175.5781 18.5313,175.5781 L23.6719,175.5781 Q24.2813,175.5781 24.5469,175.8125 Q24.8125,176.0469 24.8125,176.4219 Q24.8125,176.8125 24.5469,177.0469 Q24.2813,177.2813 23.6719,177.2813 L21.9531,177.2813 Z "/><text fill="#000000" font-family="sans-serif" font-size="12" font-style="italic" lengthAdjust="spacingAndGlyphs" textLength="119" x="33" y="170.457">«FunctionalInterface»</text><text fill="#000000" font-family="sans-serif" font-size="14" font-style="italic" font-weight="bold" lengthAdjust="spacingAndGlyphs" textLength="69" x="58" y="187.627">Visitor&lt;T&gt;</text><text fill="#000000" font-family="sans-serif" font-size="10" font-style="italic" lengthAdjust="spacingAndGlyphs" textLength="105" x="40" y="201.084">eapli.framework.visitor</text></a><!--MD5=[274ad5661286b626a93603d287cbf95a]
class java.lang.Object--><rect fill="#D3D3D3" filter="url(#f143vhm0ruvn15)" height="40.1875" id="java.lang.Object" style="stroke: #A80036; stroke-width: 1.5;" width="78" x="188.5" y="160.5"/><rect fill="#D3D3D3" height="40.1875" style="stroke: #A80036; stroke-width: 1.5;" width="78" x="188.5" y="160.5"/><ellipse cx="203.5" cy="180.5938" fill="#ADD1B2" rx="11" ry="11" style="stroke: #A80036; stroke-width: 1.0;"/><path d="M206.2656,176.4688 Q206.4219,176.25 206.6094,176.1406 Q206.7969,176.0313 207.0156,176.0313 Q207.3906,176.0313 207.625,176.2891 Q207.8594,176.5469 207.8594,177.1563 L207.8594,178.6094 Q207.8594,179.2188 207.625,179.4844 Q207.3906,179.75 207.0156,179.75 Q206.6719,179.75 206.4688,179.5469 Q206.2656,179.3594 206.1563,178.8438 Q206.1094,178.4844 205.9219,178.2969 Q205.5938,177.9219 204.9844,177.7031 Q204.375,177.4844 203.75,177.4844 Q202.9844,177.4844 202.3516,177.8125 Q201.7188,178.1406 201.2266,178.8906 Q200.7344,179.6406 200.7344,180.6719 L200.7344,181.7656 Q200.7344,183 201.625,183.8203 Q202.5156,184.6406 204.1094,184.6406 Q205.0469,184.6406 205.7031,184.3906 Q206.0938,184.2344 206.5156,183.7969 Q206.7813,183.5313 206.9297,183.4531 Q207.0781,183.375 207.2813,183.375 Q207.6094,183.375 207.8672,183.6328 Q208.125,183.8906 208.125,184.2344 Q208.125,184.5781 207.7813,184.9844 Q207.2813,185.5625 206.4844,185.8906 Q205.4063,186.3438 204.1094,186.3438 Q202.5938,186.3438 201.3906,185.7188 Q200.4063,185.2188 199.7188,184.1484 Q199.0313,183.0781 199.0313,181.7969 L199.0313,180.6406 Q199.0313,179.3125 199.6484,178.1641 Q200.2656,177.0156 201.3594,176.3984 Q202.4531,175.7813 203.6875,175.7813 Q204.4219,175.7813 205.0703,175.9453 Q205.7188,176.1094 206.2656,176.4688 Z "/><text fill="#000000" font-family="sans-serif" font-size="14" font-weight="bold" lengthAdjust="spacingAndGlyphs" textLength="46" x="217.5" y="180.0332">Object</text><text fill="#000000" font-family="sans-serif" font-size="10" lengthAdjust="spacingAndGlyphs" textLength="44" x="218.5" y="193.4902">java.lang</text><!--MD5=[cbf00ea5ef684b44f8d821bd85b580ea]
link eapli.framework.visitor.Visitable to eapli.framework.visitor.VisitorObject--><path d="M109.75,93.067 C109.75,93.067 109.75,147.985 109.75,147.985 " fill="none" id="eapli.framework.visitor.Visitable-&gt;eapli.framework.visitor.VisitorObject" style="stroke: #A80036; stroke-width: 1.0; stroke-dasharray: 7.0,7.0;"/><polygon fill="#A80036" points="109.75,152.985,113.75,143.985,109.75,147.985,105.75,143.985,109.75,152.985" style="stroke: #A80036; stroke-width: 1.0;"/><!--MD5=[33772d0522f199ee6b36da9b4686d127]
link eapli.framework.visitor.Visitable to java.lang.Object--><path d="M214.5,93.067 C214.5,93.067 214.5,155.4324 214.5,155.4324 " fill="none" id="eapli.framework.visitor.Visitable-&gt;java.lang.Object" style="stroke: #A80036; stroke-width: 1.0; stroke-dasharray: 7.0,7.0;"/><polygon fill="#A80036" points="214.5,160.4324,218.5,151.4324,214.5,155.4324,210.5,151.4324,214.5,160.4324" style="stroke: #A80036; stroke-width: 1.0;"/><!--MD5=[54e6d7102f1cf512bf9fc179f78596d0]
@startuml

skinparam svgLinkTarget _parent
skinparam linetype ortho
set namespaceSeparator none
interface "<b><size:14>Visitable</b>\n<size:10>eapli.framework.visitor" as eapli.framework.visitor.Visitable <<FunctionalInterface>> [[../../../eapli/framework/visitor/Visitable.html{eapli.framework.visitor.Visitable}]] {
{abstract} +void accept(Visitor<T> visitor)
}


interface "<b><size:14>Visitor<T></b>\n<size:10>eapli.framework.visitor" as eapli.framework.visitor.VisitorObject <<FunctionalInterface>> [[../../../eapli/framework/visitor/Visitor.html{eapli.framework.visitor.Visitor}]] {
}

hide eapli.framework.visitor.VisitorObject fields
hide eapli.framework.visitor.VisitorObject methods

eapli.framework.visitor.Visitable ..> eapli.framework.visitor.VisitorObject

class "<b><size:14>Object</b>\n<size:10>java.lang" as java.lang.Object  #lightgrey {
}

hide java.lang.Object fields
hide java.lang.Object methods

eapli.framework.visitor.Visitable ..> java.lang.Object


@enduml

PlantUML version 1.2020.04(Thu Mar 19 10:16:49 GMT 2020)
(GPL source distribution)
Java Runtime: Java(TM) SE Runtime Environment
JVM: Java HotSpot(TM) 64-Bit Server VM
Java Version: 1.8.0_202-b08
Operating System: Windows 10
Default Encoding: Cp1252
Language: en
Country: US
--></g></svg>