@startuml

skinparam svgLinkTarget _parent
skinparam linetype ortho
set namespaceSeparator none
interface "<b><size:14>UseCaseController</b>\n<size:10>eapli.framework.application" as eapli.framework.application.UseCaseController  [[../../../eapli/framework/application/UseCaseController.html{eapli.framework.application.UseCaseController}]] {
}



@enduml
