@startuml

skinparam svgLinkTarget _parent
skinparam linetype ortho
set namespaceSeparator none
class "<b><size:14>IdentityGenerators</b>\n<size:10>eapli.framework.domain.model.identities" as eapli.framework.domain.model.identities.IdentityGenerators <<Singleton>> [[../../../../../eapli/framework/domain/model/identities/IdentityGenerators.html{eapli.framework.domain.model.identities.IdentityGenerators}]] {
-Map<String, IdentityGenerator> generators
-IdentityGenerators()
{static} +IdentityGenerators instance()
+IdentityGenerators with(String context,IdentityGenerator<?> gen)
+Object newId(String context)
}



interface "<b><size:14>IdentityGenerator<?></b>\n<size:10>eapli.framework.domain.model.identities" as eapli.framework.domain.model.identities.IdentityGeneratorObject <<FunctionalInterface>> [[../../../../../eapli/framework/domain/model/identities/IdentityGenerator.html{eapli.framework.domain.model.identities.IdentityGenerator}]] {
}

hide eapli.framework.domain.model.identities.IdentityGeneratorObject fields
hide eapli.framework.domain.model.identities.IdentityGeneratorObject methods

eapli.framework.domain.model.identities.IdentityGenerators -->  "generators *" eapli.framework.domain.model.identities.IdentityGeneratorObject

class "<b><size:14>Object</b>\n<size:10>java.lang" as java.lang.Object  #lightgrey {
}

hide java.lang.Object fields
hide java.lang.Object methods

eapli.framework.domain.model.identities.IdentityGenerators ..> java.lang.Object


@enduml
