@startuml

skinparam svgLinkTarget _parent
skinparam linetype ortho
set namespaceSeparator none
interface "<b><size:14>IdentityGenerator</b>\n<size:10>eapli.framework.domain.model.identities" as eapli.framework.domain.model.identities.IdentityGenerator <<FunctionalInterface>> [[../../../../../eapli/framework/domain/model/identities/IdentityGenerator.html{eapli.framework.domain.model.identities.IdentityGenerator}]] {
{abstract} +Object newId()
}


class "<b><size:14>Object</b>\n<size:10>java.lang" as java.lang.Object  #lightgrey {
}

hide java.lang.Object fields
hide java.lang.Object methods

eapli.framework.domain.model.identities.IdentityGenerator ..> java.lang.Object


@enduml
