@startuml

skinparam svgLinkTarget _parent
skinparam linetype ortho
set namespaceSeparator none
interface "<b><size:14>Identifiable</b>\n<size:10>eapli.framework.domain.model.identities" as eapli.framework.domain.model.identities.Identifiable  [[../../../../../eapli/framework/domain/model/identities/Identifiable.html{eapli.framework.domain.model.identities.Identifiable}]] {
{abstract} +Object identity()
+boolean hasIdentity(Object otherId)
}


class "<b><size:14>Object</b>\n<size:10>java.lang" as java.lang.Object  #lightgrey {
}

hide java.lang.Object fields
hide java.lang.Object methods

eapli.framework.domain.model.identities.Identifiable ..> java.lang.Object


@enduml
