@startuml

skinparam svgLinkTarget _parent
skinparam linetype ortho
package eapli.framework.domain.model.identities [[../../../../../eapli/framework/domain/model/identities/package-summary.html{eapli.framework.domain.model.identities}]] #lightyellow {
}

interface "<b><size:14>Identifiable</b>" as eapli.framework.domain.model.identities.Identifiable  [[../../../../../eapli/framework/domain/model/identities/Identifiable.html{eapli.framework.domain.model.identities.Identifiable}]] {
}

hide eapli.framework.domain.model.identities.Identifiable fields
hide eapli.framework.domain.model.identities.Identifiable methods

interface "<b><size:14>IdentityGenerator</b>" as eapli.framework.domain.model.identities.IdentityGenerator <<FunctionalInterface>> [[../../../../../eapli/framework/domain/model/identities/IdentityGenerator.html{eapli.framework.domain.model.identities.IdentityGenerator}]] {
}

hide eapli.framework.domain.model.identities.IdentityGenerator fields
hide eapli.framework.domain.model.identities.IdentityGenerator methods

class "<b><size:14>IdentityGenerators</b>" as eapli.framework.domain.model.identities.IdentityGenerators <<Singleton>> [[../../../../../eapli/framework/domain/model/identities/IdentityGenerators.html{eapli.framework.domain.model.identities.IdentityGenerators}]] {
}

hide eapli.framework.domain.model.identities.IdentityGenerators fields
hide eapli.framework.domain.model.identities.IdentityGenerators methods

eapli.framework.domain.model.identities.IdentityGenerators -->  "generators *" eapli.framework.domain.model.identities.IdentityGeneratorObject
package eapli.framework.domain.model.identities.impl [[../../../../../eapli/framework/domain/model/identities/impl/package-summary.html{eapli.framework.domain.model.identities.impl}]] {
}

class "<b><size:14>HexSequenceGenerator</b>" as eapli.framework.domain.model.identities.impl.HexSequenceGenerator  [[../../../../../eapli/framework/domain/model/identities/impl/HexSequenceGenerator.html{eapli.framework.domain.model.identities.impl.HexSequenceGenerator}]] {
}

hide eapli.framework.domain.model.identities.impl.HexSequenceGenerator fields
hide eapli.framework.domain.model.identities.impl.HexSequenceGenerator methods

class "<b><size:14>NumberSequenceGenerator</b>" as eapli.framework.domain.model.identities.impl.NumberSequenceGenerator  [[../../../../../eapli/framework/domain/model/identities/impl/NumberSequenceGenerator.html{eapli.framework.domain.model.identities.impl.NumberSequenceGenerator}]] {
}

hide eapli.framework.domain.model.identities.impl.NumberSequenceGenerator fields
hide eapli.framework.domain.model.identities.impl.NumberSequenceGenerator methods

class "<b><size:14>PrefixedNumberSequenceGenerator</b>" as eapli.framework.domain.model.identities.impl.PrefixedNumberSequenceGenerator  [[../../../../../eapli/framework/domain/model/identities/impl/PrefixedNumberSequenceGenerator.html{eapli.framework.domain.model.identities.impl.PrefixedNumberSequenceGenerator}]] {
}

hide eapli.framework.domain.model.identities.impl.PrefixedNumberSequenceGenerator fields
hide eapli.framework.domain.model.identities.impl.PrefixedNumberSequenceGenerator methods

class "<b><size:14>UUIDGenerator</b>" as eapli.framework.domain.model.identities.impl.UUIDGenerator  [[../../../../../eapli/framework/domain/model/identities/impl/UUIDGenerator.html{eapli.framework.domain.model.identities.impl.UUIDGenerator}]] {
}

hide eapli.framework.domain.model.identities.impl.UUIDGenerator fields
hide eapli.framework.domain.model.identities.impl.UUIDGenerator methods


@enduml
