@startuml

skinparam svgLinkTarget _parent
skinparam linetype ortho
set namespaceSeparator none
class "<b><size:14>ChainedAction</b>\n<size:10>eapli.framework.actions" as eapli.framework.actions.ChainedAction  [[../../../eapli/framework/actions/ChainedAction.html{eapli.framework.actions.ChainedAction}]] {
-Action current
-Action next
+ChainedAction(Action current,Action next)
+boolean execute()
{static} +ChainedAction first(Action firstAction)
+ChainedAction then(Action next)
#boolean next()
}


interface "<b><size:14>Action</b>\n<size:10>eapli.framework.actions" as eapli.framework.actions.Action <<FunctionalInterface>> [[../../../eapli/framework/actions/Action.html{eapli.framework.actions.Action}]] {
}

hide eapli.framework.actions.Action fields
hide eapli.framework.actions.Action methods

eapli.framework.actions.ChainedAction -->  "current" eapli.framework.actions.Action

eapli.framework.actions.ChainedAction -->  "next" eapli.framework.actions.Action

eapli.framework.actions.ChainedAction ..|> eapli.framework.actions.Action


@enduml
