<?xml version="1.0" encoding="UTF-8" standalone="no"?><svg xmlns="http://www.w3.org/2000/svg" xmlns:xlink="http://www.w3.org/1999/xlink" contentScriptType="application/ecmascript" contentStyleType="text/css" height="287px" preserveAspectRatio="none" style="width:248px;height:287px;" version="1.1" viewBox="0 0 248 287" width="248px" zoomAndPan="magnify"><defs><filter height="300%" id="f18icwgmkg4pio" width="300%" x="-1" y="-1"><feGaussianBlur result="blurOut" stdDeviation="2.0"/><feColorMatrix in="blurOut" result="blurOut2" type="matrix" values="0 0 0 0 0 0 0 0 0 0 0 0 0 0 0 0 0 0 .4 0"/><feOffset dx="4.0" dy="4.0" in="blurOut2" result="blurOut3"/><feBlend in="SourceGraphic" in2="blurOut3" mode="normal"/></filter></defs><g><!--MD5=[20f2363d03c105e02bc4c2765b66aff0]
class eapli.framework.actions.ChainedAction--><a href="../../../eapli/framework/actions/ChainedAction.html" target="_parent" title="eapli.framework.actions.ChainedAction" xlink:actuate="onRequest" xlink:href="../../../eapli/framework/actions/ChainedAction.html" xlink:show="new" xlink:title="eapli.framework.actions.ChainedAction" xlink:type="simple"><rect fill="#FEFECE" filter="url(#f18icwgmkg4pio)" height="153.0391" id="eapli.framework.actions.ChainedAction" style="stroke: #A80036; stroke-width: 1.5;" width="231" x="6" y="8"/><ellipse cx="61.75" cy="28.0938" fill="#ADD1B2" rx="11" ry="11" style="stroke: #A80036; stroke-width: 1.0;"/><path d="M64.5156,23.9688 Q64.6719,23.75 64.8594,23.6406 Q65.0469,23.5313 65.2656,23.5313 Q65.6406,23.5313 65.875,23.7891 Q66.1094,24.0469 66.1094,24.6563 L66.1094,26.1094 Q66.1094,26.7188 65.875,26.9844 Q65.6406,27.25 65.2656,27.25 Q64.9219,27.25 64.7188,27.0469 Q64.5156,26.8594 64.4063,26.3438 Q64.3594,25.9844 64.1719,25.7969 Q63.8438,25.4219 63.2344,25.2031 Q62.625,24.9844 62,24.9844 Q61.2344,24.9844 60.6016,25.3125 Q59.9688,25.6406 59.4766,26.3906 Q58.9844,27.1406 58.9844,28.1719 L58.9844,29.2656 Q58.9844,30.5 59.875,31.3203 Q60.7656,32.1406 62.3594,32.1406 Q63.2969,32.1406 63.9531,31.8906 Q64.3438,31.7344 64.7656,31.2969 Q65.0313,31.0313 65.1797,30.9531 Q65.3281,30.875 65.5313,30.875 Q65.8594,30.875 66.1172,31.1328 Q66.375,31.3906 66.375,31.7344 Q66.375,32.0781 66.0313,32.4844 Q65.5313,33.0625 64.7344,33.3906 Q63.6563,33.8438 62.3594,33.8438 Q60.8438,33.8438 59.6406,33.2188 Q58.6563,32.7188 57.9688,31.6484 Q57.2813,30.5781 57.2813,29.2969 L57.2813,28.1406 Q57.2813,26.8125 57.8984,25.6641 Q58.5156,24.5156 59.6094,23.8984 Q60.7031,23.2813 61.9375,23.2813 Q62.6719,23.2813 63.3203,23.4453 Q63.9688,23.6094 64.5156,23.9688 Z "/><text fill="#000000" font-family="sans-serif" font-size="14" font-weight="bold" lengthAdjust="spacingAndGlyphs" textLength="102" x="86.75" y="27.5332">ChainedAction</text><text fill="#000000" font-family="sans-serif" font-size="10" lengthAdjust="spacingAndGlyphs" textLength="111" x="82.25" y="40.9902">eapli.framework.actions</text><line style="stroke: #A80036; stroke-width: 1.5;" x1="7" x2="236" y1="48.1875" y2="48.1875"/><rect fill="none" height="6" style="stroke: #C82930; stroke-width: 1.0;" width="6" x="14" y="56.1875"/><text fill="#000000" font-family="sans-serif" font-size="11" lengthAdjust="spacingAndGlyphs" textLength="69" x="26" y="63.6064">Action current</text><rect fill="none" height="6" style="stroke: #C82930; stroke-width: 1.0;" width="6" x="14" y="70.0234"/><text fill="#000000" font-family="sans-serif" font-size="11" lengthAdjust="spacingAndGlyphs" textLength="55" x="26" y="77.4424">Action next</text><line style="stroke: #A80036; stroke-width: 1.5;" x1="7" x2="236" y1="83.8594" y2="83.8594"/><ellipse cx="17" cy="94.8594" fill="#84BE84" rx="3" ry="3" style="stroke: #038048; stroke-width: 1.0;"/><text fill="#000000" font-family="sans-serif" font-size="11" lengthAdjust="spacingAndGlyphs" textLength="205" x="26" y="99.2783">ChainedAction(Action current,Action next)</text><ellipse cx="17" cy="108.6953" fill="#84BE84" rx="3" ry="3" style="stroke: #038048; stroke-width: 1.0;"/><text fill="#000000" font-family="sans-serif" font-size="11" lengthAdjust="spacingAndGlyphs" textLength="88" x="26" y="113.1143">boolean execute()</text><ellipse cx="17" cy="122.5313" fill="#84BE84" rx="3" ry="3" style="stroke: #038048; stroke-width: 1.0;"/><text fill="#000000" font-family="sans-serif" font-size="11" lengthAdjust="spacingAndGlyphs" text-decoration="underline" textLength="184" x="26" y="126.9502">ChainedAction first(Action firstAction)</text><ellipse cx="17" cy="136.3672" fill="#84BE84" rx="3" ry="3" style="stroke: #038048; stroke-width: 1.0;"/><text fill="#000000" font-family="sans-serif" font-size="11" lengthAdjust="spacingAndGlyphs" textLength="157" x="26" y="140.7861">ChainedAction then(Action next)</text><polygon fill="#FFFF44" points="17,145.2031,21,149.2031,17,153.2031,13,149.2031" style="stroke: #B38D22; stroke-width: 1.0;"/><text fill="#000000" font-family="sans-serif" font-size="11" lengthAdjust="spacingAndGlyphs" textLength="70" x="26" y="154.6221">boolean next()</text></a><!--MD5=[ef8b130fed61c1e1b3c1a2a618d68bbd]
class eapli.framework.actions.Action--><a href="../../../eapli/framework/actions/Action.html" target="_parent" title="eapli.framework.actions.Action" xlink:actuate="onRequest" xlink:href="../../../eapli/framework/actions/Action.html" xlink:show="new" xlink:title="eapli.framework.actions.Action" xlink:type="simple"><rect fill="#FEFECE" filter="url(#f18icwgmkg4pio)" height="55.2813" id="eapli.framework.actions.Action" style="stroke: #A80036; stroke-width: 1.5;" width="147" x="48" y="221"/><ellipse cx="63" cy="248.6406" fill="#B4A7E5" rx="11" ry="11" style="stroke: #A80036; stroke-width: 1.0;"/><path d="M63.9531,245.2813 L63.9531,251.9375 L65.6719,251.9375 Q66.2813,251.9375 66.5469,252.1719 Q66.8125,252.4063 66.8125,252.7969 Q66.8125,253.1719 66.5469,253.4063 Q66.2813,253.6406 65.6719,253.6406 L60.5313,253.6406 Q59.9219,253.6406 59.6563,253.4063 Q59.3906,253.1719 59.3906,252.7813 Q59.3906,252.4063 59.6563,252.1719 Q59.9219,251.9375 60.5313,251.9375 L62.25,251.9375 L62.25,245.2813 L60.5313,245.2813 Q59.9219,245.2813 59.6563,245.0469 Q59.3906,244.8125 59.3906,244.4219 Q59.3906,244.0469 59.6563,243.8125 Q59.9219,243.5781 60.5313,243.5781 L65.6719,243.5781 Q66.2813,243.5781 66.5469,243.8125 Q66.8125,244.0469 66.8125,244.4219 Q66.8125,244.8125 66.5469,245.0469 Q66.2813,245.2813 65.6719,245.2813 L63.9531,245.2813 Z "/><text fill="#000000" font-family="sans-serif" font-size="12" font-style="italic" lengthAdjust="spacingAndGlyphs" textLength="119" x="75" y="238.457">«FunctionalInterface»</text><text fill="#000000" font-family="sans-serif" font-size="14" font-style="italic" font-weight="bold" lengthAdjust="spacingAndGlyphs" textLength="44" x="112.5" y="255.627">Action</text><text fill="#000000" font-family="sans-serif" font-size="10" font-style="italic" lengthAdjust="spacingAndGlyphs" textLength="111" x="79" y="269.084">eapli.framework.actions</text></a><!--MD5=[130686d0626c6be403e55c8ad676fdb2]
link eapli.framework.actions.ChainedAction to eapli.framework.actions.Action--><path d="M158.25,161.218 C158.25,161.218 158.25,215.8651 158.25,215.8651 " fill="none" id="eapli.framework.actions.ChainedAction-&gt;eapli.framework.actions.Action" style="stroke: #A80036; stroke-width: 1.0;"/><polygon fill="#A80036" points="158.25,220.8651,162.25,211.8651,158.25,215.8651,154.25,211.8651,158.25,220.8651" style="stroke: #A80036; stroke-width: 1.0;"/><text fill="#000000" font-family="sans-serif" font-size="13" lengthAdjust="spacingAndGlyphs" textLength="40" x="122.1234" y="210.1278">current</text><!--MD5=[130686d0626c6be403e55c8ad676fdb2]
link eapli.framework.actions.ChainedAction to eapli.framework.actions.Action--><path d="M84.75,161.218 C84.75,161.218 84.75,215.8651 84.75,215.8651 " fill="none" id="eapli.framework.actions.ChainedAction-&gt;eapli.framework.actions.Action-1" style="stroke: #A80036; stroke-width: 1.0;"/><polygon fill="#A80036" points="84.75,220.8651,88.75,211.8651,84.75,215.8651,80.75,211.8651,84.75,220.8651" style="stroke: #A80036; stroke-width: 1.0;"/><text fill="#000000" font-family="sans-serif" font-size="13" lengthAdjust="spacingAndGlyphs" textLength="25" x="48.3609" y="210.1278">next</text><!--MD5=[130686d0626c6be403e55c8ad676fdb2]
link eapli.framework.actions.ChainedAction to eapli.framework.actions.Action--><path d="M121.5,161.218 C121.5,161.218 121.5,200.8651 121.5,200.8651 " fill="none" id="eapli.framework.actions.ChainedAction-&gt;eapli.framework.actions.Action-2" style="stroke: #A80036; stroke-width: 1.0; stroke-dasharray: 7.0,7.0;"/><polygon fill="none" points="128.5,200.8651,121.5,220.8651,114.5,200.8651,128.5,200.8651" style="stroke: #A80036; stroke-width: 1.0;"/><!--MD5=[74efac81a4caa0d79e43a39c809d8a2f]
@startuml

skinparam svgLinkTarget _parent
skinparam linetype ortho
set namespaceSeparator none
class "<b><size:14>ChainedAction</b>\n<size:10>eapli.framework.actions" as eapli.framework.actions.ChainedAction  [[../../../eapli/framework/actions/ChainedAction.html{eapli.framework.actions.ChainedAction}]] {
-Action current
-Action next
+ChainedAction(Action current,Action next)
+boolean execute()
{static} +ChainedAction first(Action firstAction)
+ChainedAction then(Action next)
#boolean next()
}


interface "<b><size:14>Action</b>\n<size:10>eapli.framework.actions" as eapli.framework.actions.Action <<FunctionalInterface>> [[../../../eapli/framework/actions/Action.html{eapli.framework.actions.Action}]] {
}

hide eapli.framework.actions.Action fields
hide eapli.framework.actions.Action methods

eapli.framework.actions.ChainedAction - ->  "current" eapli.framework.actions.Action

eapli.framework.actions.ChainedAction - ->  "next" eapli.framework.actions.Action

eapli.framework.actions.ChainedAction ..|> eapli.framework.actions.Action


@enduml

PlantUML version 1.2020.04(Thu Mar 19 10:16:49 GMT 2020)
(GPL source distribution)
Java Runtime: Java(TM) SE Runtime Environment
JVM: Java HotSpot(TM) 64-Bit Server VM
Java Version: 1.8.0_202-b08
Operating System: Windows 10
Default Encoding: Cp1252
Language: en
Country: US
--></g></svg>