@startuml

skinparam svgLinkTarget _parent
skinparam linetype ortho
set namespaceSeparator none
class "<b><size:14>Macro</b>\n<size:10>eapli.framework.actions" as eapli.framework.actions.Macro  [[../../../eapli/framework/actions/Macro.html{eapli.framework.actions.Macro}]] {
-List<Action> actions
-Action errorCause
+Macro()
+Macro(Action actions)
+void record(Action action)
+Optional<Action> errorCause()
+boolean execute()
}



interface "<b><size:14>Action</b>\n<size:10>eapli.framework.actions" as eapli.framework.actions.Action <<FunctionalInterface>> [[../../../eapli/framework/actions/Action.html{eapli.framework.actions.Action}]] {
}

hide eapli.framework.actions.Action fields
hide eapli.framework.actions.Action methods

eapli.framework.actions.Macro -->  "actions *" eapli.framework.actions.Action

eapli.framework.actions.Macro -->  "errorCause" eapli.framework.actions.Action

eapli.framework.actions.Macro ..|> eapli.framework.actions.Action



@enduml
