<?xml version="1.0" encoding="UTF-8" standalone="no"?><svg xmlns="http://www.w3.org/2000/svg" xmlns:xlink="http://www.w3.org/1999/xlink" contentScriptType="application/ecmascript" contentStyleType="text/css" height="326px" preserveAspectRatio="none" style="width:1041px;height:326px;" version="1.1" viewBox="0 0 1041 326" width="1041px" zoomAndPan="magnify"><defs><filter height="300%" id="fyeivkxncxdna" width="300%" x="-1" y="-1"><feGaussianBlur result="blurOut" stdDeviation="2.0"/><feColorMatrix in="blurOut" result="blurOut2" type="matrix" values="0 0 0 0 0 0 0 0 0 0 0 0 0 0 0 0 0 0 .4 0"/><feOffset dx="4.0" dy="4.0" in="blurOut2" result="blurOut3"/><feBlend in="SourceGraphic" in2="blurOut3" mode="normal"/></filter></defs><g><!--MD5=[3e1dc6d1226c4a5a59de1def0ef52edd]
cluster eapli.framework.actions--><a href="../../../eapli/framework/actions/package-summary.html" target="_parent" title="eapli.framework.actions" xlink:actuate="onRequest" xlink:href="../../../eapli/framework/actions/package-summary.html" xlink:show="new" xlink:title="eapli.framework.actions" xlink:type="simple"><polygon fill="#FFFFE0" filter="url(#fyeivkxncxdna)" points="22,24,195,24,202,47.6094,754,47.6094,754,314,22,314,22,24" style="stroke: #000000; stroke-width: 1.5;"/><line style="stroke: #000000; stroke-width: 1.5;" x1="22" x2="202" y1="47.6094" y2="47.6094"/><text fill="#000000" font-family="sans-serif" font-size="14" font-weight="bold" lengthAdjust="spacingAndGlyphs" textLength="167" x="26" y="40.5332">eapli.framework.actions</text></a><!--MD5=[6cb11ec05bfac1eebe7536464bca8881]
cluster eapli.framework.actions.menu--><a href="../../../eapli/framework/actions/menu/package-summary.html" target="_parent" title="eapli.framework.actions.menu" xlink:actuate="onRequest" xlink:href="../../../eapli/framework/actions/menu/package-summary.html" xlink:show="new" xlink:title="eapli.framework.actions.menu" xlink:type="simple"><polygon fill="#FFFFFF" filter="url(#fyeivkxncxdna)" points="778,24,994,24,1001,47.6094,1019,47.6094,1019,108,778,108,778,24" style="stroke: #000000; stroke-width: 1.5;"/><line style="stroke: #000000; stroke-width: 1.5;" x1="778" x2="1001" y1="47.6094" y2="47.6094"/><text fill="#000000" font-family="sans-serif" font-size="14" font-weight="bold" lengthAdjust="spacingAndGlyphs" textLength="210" x="782" y="40.5332">eapli.framework.actions.menu</text></a><!--MD5=[ef8b130fed61c1e1b3c1a2a618d68bbd]
class eapli.framework.actions.Action--><a href="../../../eapli/framework/actions/Action.html" target="_parent" title="eapli.framework.actions.Action" xlink:actuate="onRequest" xlink:href="../../../eapli/framework/actions/Action.html" xlink:show="new" xlink:title="eapli.framework.actions.Action" xlink:type="simple"><rect fill="#FEFECE" filter="url(#fyeivkxncxdna)" height="42.7031" id="eapli.framework.actions.Action" style="stroke: #A80036; stroke-width: 1.5;" width="147" x="303.5" y="255"/><ellipse cx="318.5" cy="276.3516" fill="#B4A7E5" rx="11" ry="11" style="stroke: #A80036; stroke-width: 1.0;"/><path d="M319.4531,272.9922 L319.4531,279.6484 L321.1719,279.6484 Q321.7813,279.6484 322.0469,279.8828 Q322.3125,280.1172 322.3125,280.5078 Q322.3125,280.8828 322.0469,281.1172 Q321.7813,281.3516 321.1719,281.3516 L316.0313,281.3516 Q315.4219,281.3516 315.1563,281.1172 Q314.8906,280.8828 314.8906,280.4922 Q314.8906,280.1172 315.1563,279.8828 Q315.4219,279.6484 316.0313,279.6484 L317.75,279.6484 L317.75,272.9922 L316.0313,272.9922 Q315.4219,272.9922 315.1563,272.7578 Q314.8906,272.5234 314.8906,272.1328 Q314.8906,271.7578 315.1563,271.5234 Q315.4219,271.2891 316.0313,271.2891 L321.1719,271.2891 Q321.7813,271.2891 322.0469,271.5234 Q322.3125,271.7578 322.3125,272.1328 Q322.3125,272.5234 322.0469,272.7578 Q321.7813,272.9922 321.1719,272.9922 L319.4531,272.9922 Z "/><text fill="#000000" font-family="sans-serif" font-size="12" font-style="italic" lengthAdjust="spacingAndGlyphs" textLength="119" x="330.5" y="272.457">«FunctionalInterface»</text><text fill="#000000" font-family="sans-serif" font-size="14" font-style="italic" font-weight="bold" lengthAdjust="spacingAndGlyphs" textLength="44" x="368" y="289.627">Action</text></a><!--MD5=[bfc923066c88746d7d46cdcddab6404e]
class eapli.framework.actions.ActionHistoryKeeper--><a href="../../../eapli/framework/actions/ActionHistoryKeeper.html" target="_parent" title="eapli.framework.actions.ActionHistoryKeeper" xlink:actuate="onRequest" xlink:href="../../../eapli/framework/actions/ActionHistoryKeeper.html" xlink:show="new" xlink:title="eapli.framework.actions.ActionHistoryKeeper" xlink:type="simple"><rect fill="#FEFECE" filter="url(#fyeivkxncxdna)" height="32" id="eapli.framework.actions.ActionHistoryKeeper" style="stroke: #A80036; stroke-width: 1.5;" width="177" x="560.5" y="60"/><ellipse cx="575.5" cy="76" fill="#ADD1B2" rx="11" ry="11" style="stroke: #A80036; stroke-width: 1.0;"/><path d="M578.2656,71.875 Q578.4219,71.6563 578.6094,71.5469 Q578.7969,71.4375 579.0156,71.4375 Q579.3906,71.4375 579.625,71.6953 Q579.8594,71.9531 579.8594,72.5625 L579.8594,74.0156 Q579.8594,74.625 579.625,74.8906 Q579.3906,75.1563 579.0156,75.1563 Q578.6719,75.1563 578.4688,74.9531 Q578.2656,74.7656 578.1563,74.25 Q578.1094,73.8906 577.9219,73.7031 Q577.5938,73.3281 576.9844,73.1094 Q576.375,72.8906 575.75,72.8906 Q574.9844,72.8906 574.3516,73.2188 Q573.7188,73.5469 573.2266,74.2969 Q572.7344,75.0469 572.7344,76.0781 L572.7344,77.1719 Q572.7344,78.4063 573.625,79.2266 Q574.5156,80.0469 576.1094,80.0469 Q577.0469,80.0469 577.7031,79.7969 Q578.0938,79.6406 578.5156,79.2031 Q578.7813,78.9375 578.9297,78.8594 Q579.0781,78.7813 579.2813,78.7813 Q579.6094,78.7813 579.8672,79.0391 Q580.125,79.2969 580.125,79.6406 Q580.125,79.9844 579.7813,80.3906 Q579.2813,80.9688 578.4844,81.2969 Q577.4063,81.75 576.1094,81.75 Q574.5938,81.75 573.3906,81.125 Q572.4063,80.625 571.7188,79.5547 Q571.0313,78.4844 571.0313,77.2031 L571.0313,76.0469 Q571.0313,74.7188 571.6484,73.5703 Q572.2656,72.4219 573.3594,71.8047 Q574.4531,71.1875 575.6875,71.1875 Q576.4219,71.1875 577.0703,71.3516 Q577.7188,71.5156 578.2656,71.875 Z "/><text fill="#000000" font-family="sans-serif" font-size="14" font-weight="bold" lengthAdjust="spacingAndGlyphs" textLength="145" x="589.5" y="81.7285">ActionHistoryKeeper</text></a><!--MD5=[8ea44241c674e7ffebc8e051d71de533]
class eapli.framework.actions.Actions--><a href="../../../eapli/framework/actions/Actions.html" target="_parent" title="eapli.framework.actions.Actions" xlink:actuate="onRequest" xlink:href="../../../eapli/framework/actions/Actions.html" xlink:show="new" xlink:title="eapli.framework.actions.Actions" xlink:type="simple"><rect fill="#FEFECE" filter="url(#fyeivkxncxdna)" height="42.7031" id="eapli.framework.actions.Actions" style="stroke: #A80036; stroke-width: 1.5;" width="84" x="479" y="152"/><ellipse cx="494" cy="173.3516" fill="#ADD1B2" rx="11" ry="11" style="stroke: #A80036; stroke-width: 1.0;"/><path d="M496.7656,169.2266 Q496.9219,169.0078 497.1094,168.8984 Q497.2969,168.7891 497.5156,168.7891 Q497.8906,168.7891 498.125,169.0469 Q498.3594,169.3047 498.3594,169.9141 L498.3594,171.3672 Q498.3594,171.9766 498.125,172.2422 Q497.8906,172.5078 497.5156,172.5078 Q497.1719,172.5078 496.9688,172.3047 Q496.7656,172.1172 496.6563,171.6016 Q496.6094,171.2422 496.4219,171.0547 Q496.0938,170.6797 495.4844,170.4609 Q494.875,170.2422 494.25,170.2422 Q493.4844,170.2422 492.8516,170.5703 Q492.2188,170.8984 491.7266,171.6484 Q491.2344,172.3984 491.2344,173.4297 L491.2344,174.5234 Q491.2344,175.7578 492.125,176.5781 Q493.0156,177.3984 494.6094,177.3984 Q495.5469,177.3984 496.2031,177.1484 Q496.5938,176.9922 497.0156,176.5547 Q497.2813,176.2891 497.4297,176.2109 Q497.5781,176.1328 497.7813,176.1328 Q498.1094,176.1328 498.3672,176.3906 Q498.625,176.6484 498.625,176.9922 Q498.625,177.3359 498.2813,177.7422 Q497.7813,178.3203 496.9844,178.6484 Q495.9063,179.1016 494.6094,179.1016 Q493.0938,179.1016 491.8906,178.4766 Q490.9063,177.9766 490.2188,176.9063 Q489.5313,175.8359 489.5313,174.5547 L489.5313,173.3984 Q489.5313,172.0703 490.1484,170.9219 Q490.7656,169.7734 491.8594,169.1563 Q492.9531,168.5391 494.1875,168.5391 Q494.9219,168.5391 495.5703,168.7031 Q496.2188,168.8672 496.7656,169.2266 Z "/><text fill="#000000" font-family="sans-serif" font-size="12" font-style="italic" lengthAdjust="spacingAndGlyphs" textLength="44" x="512" y="169.457">«Utility»</text><text fill="#000000" font-family="sans-serif" font-size="14" font-weight="bold" lengthAdjust="spacingAndGlyphs" textLength="52" x="508" y="186.627">Actions</text></a><!--MD5=[20f2363d03c105e02bc4c2765b66aff0]
class eapli.framework.actions.ChainedAction--><a href="../../../eapli/framework/actions/ChainedAction.html" target="_parent" title="eapli.framework.actions.ChainedAction" xlink:actuate="onRequest" xlink:href="../../../eapli/framework/actions/ChainedAction.html" xlink:show="new" xlink:title="eapli.framework.actions.ChainedAction" xlink:type="simple"><rect fill="#FEFECE" filter="url(#fyeivkxncxdna)" height="32" id="eapli.framework.actions.ChainedAction" style="stroke: #A80036; stroke-width: 1.5;" width="134" x="310" y="157.5"/><ellipse cx="325" cy="173.5" fill="#ADD1B2" rx="11" ry="11" style="stroke: #A80036; stroke-width: 1.0;"/><path d="M327.7656,169.375 Q327.9219,169.1563 328.1094,169.0469 Q328.2969,168.9375 328.5156,168.9375 Q328.8906,168.9375 329.125,169.1953 Q329.3594,169.4531 329.3594,170.0625 L329.3594,171.5156 Q329.3594,172.125 329.125,172.3906 Q328.8906,172.6563 328.5156,172.6563 Q328.1719,172.6563 327.9688,172.4531 Q327.7656,172.2656 327.6563,171.75 Q327.6094,171.3906 327.4219,171.2031 Q327.0938,170.8281 326.4844,170.6094 Q325.875,170.3906 325.25,170.3906 Q324.4844,170.3906 323.8516,170.7188 Q323.2188,171.0469 322.7266,171.7969 Q322.2344,172.5469 322.2344,173.5781 L322.2344,174.6719 Q322.2344,175.9063 323.125,176.7266 Q324.0156,177.5469 325.6094,177.5469 Q326.5469,177.5469 327.2031,177.2969 Q327.5938,177.1406 328.0156,176.7031 Q328.2813,176.4375 328.4297,176.3594 Q328.5781,176.2813 328.7813,176.2813 Q329.1094,176.2813 329.3672,176.5391 Q329.625,176.7969 329.625,177.1406 Q329.625,177.4844 329.2813,177.8906 Q328.7813,178.4688 327.9844,178.7969 Q326.9063,179.25 325.6094,179.25 Q324.0938,179.25 322.8906,178.625 Q321.9063,178.125 321.2188,177.0547 Q320.5313,175.9844 320.5313,174.7031 L320.5313,173.5469 Q320.5313,172.2188 321.1484,171.0703 Q321.7656,169.9219 322.8594,169.3047 Q323.9531,168.6875 325.1875,168.6875 Q325.9219,168.6875 326.5703,168.8516 Q327.2188,169.0156 327.7656,169.375 Z "/><text fill="#000000" font-family="sans-serif" font-size="14" font-weight="bold" lengthAdjust="spacingAndGlyphs" textLength="102" x="339" y="179.2285">ChainedAction</text></a><!--MD5=[645ec3fc626b05b7ed78c6a6ad5ce17a]
class eapli.framework.actions.Macro--><a href="../../../eapli/framework/actions/Macro.html" target="_parent" title="eapli.framework.actions.Macro" xlink:actuate="onRequest" xlink:href="../../../eapli/framework/actions/Macro.html" xlink:show="new" xlink:title="eapli.framework.actions.Macro" xlink:type="simple"><rect fill="#FEFECE" filter="url(#fyeivkxncxdna)" height="32" id="eapli.framework.actions.Macro" style="stroke: #A80036; stroke-width: 1.5;" width="76" x="199" y="157.5"/><ellipse cx="214" cy="173.5" fill="#ADD1B2" rx="11" ry="11" style="stroke: #A80036; stroke-width: 1.0;"/><path d="M216.7656,169.375 Q216.9219,169.1563 217.1094,169.0469 Q217.2969,168.9375 217.5156,168.9375 Q217.8906,168.9375 218.125,169.1953 Q218.3594,169.4531 218.3594,170.0625 L218.3594,171.5156 Q218.3594,172.125 218.125,172.3906 Q217.8906,172.6563 217.5156,172.6563 Q217.1719,172.6563 216.9688,172.4531 Q216.7656,172.2656 216.6563,171.75 Q216.6094,171.3906 216.4219,171.2031 Q216.0938,170.8281 215.4844,170.6094 Q214.875,170.3906 214.25,170.3906 Q213.4844,170.3906 212.8516,170.7188 Q212.2188,171.0469 211.7266,171.7969 Q211.2344,172.5469 211.2344,173.5781 L211.2344,174.6719 Q211.2344,175.9063 212.125,176.7266 Q213.0156,177.5469 214.6094,177.5469 Q215.5469,177.5469 216.2031,177.2969 Q216.5938,177.1406 217.0156,176.7031 Q217.2813,176.4375 217.4297,176.3594 Q217.5781,176.2813 217.7813,176.2813 Q218.1094,176.2813 218.3672,176.5391 Q218.625,176.7969 218.625,177.1406 Q218.625,177.4844 218.2813,177.8906 Q217.7813,178.4688 216.9844,178.7969 Q215.9063,179.25 214.6094,179.25 Q213.0938,179.25 211.8906,178.625 Q210.9063,178.125 210.2188,177.0547 Q209.5313,175.9844 209.5313,174.7031 L209.5313,173.5469 Q209.5313,172.2188 210.1484,171.0703 Q210.7656,169.9219 211.8594,169.3047 Q212.9531,168.6875 214.1875,168.6875 Q214.9219,168.6875 215.5703,168.8516 Q216.2188,169.0156 216.7656,169.375 Z "/><text fill="#000000" font-family="sans-serif" font-size="14" font-weight="bold" lengthAdjust="spacingAndGlyphs" textLength="44" x="228" y="179.2285">Macro</text></a><!--MD5=[14cb7398f38eef2fee2522fa92e051f9]
class eapli.framework.actions.TimedActions--><a href="../../../eapli/framework/actions/TimedActions.html" target="_parent" title="eapli.framework.actions.TimedActions" xlink:actuate="onRequest" xlink:href="../../../eapli/framework/actions/TimedActions.html" xlink:show="new" xlink:title="eapli.framework.actions.TimedActions" xlink:type="simple"><rect fill="#FEFECE" filter="url(#fyeivkxncxdna)" height="42.7031" id="eapli.framework.actions.TimedActions" style="stroke: #A80036; stroke-width: 1.5;" width="126" x="38" y="152"/><ellipse cx="53" cy="173.3516" fill="#ADD1B2" rx="11" ry="11" style="stroke: #A80036; stroke-width: 1.0;"/><path d="M55.7656,169.2266 Q55.9219,169.0078 56.1094,168.8984 Q56.2969,168.7891 56.5156,168.7891 Q56.8906,168.7891 57.125,169.0469 Q57.3594,169.3047 57.3594,169.9141 L57.3594,171.3672 Q57.3594,171.9766 57.125,172.2422 Q56.8906,172.5078 56.5156,172.5078 Q56.1719,172.5078 55.9688,172.3047 Q55.7656,172.1172 55.6563,171.6016 Q55.6094,171.2422 55.4219,171.0547 Q55.0938,170.6797 54.4844,170.4609 Q53.875,170.2422 53.25,170.2422 Q52.4844,170.2422 51.8516,170.5703 Q51.2188,170.8984 50.7266,171.6484 Q50.2344,172.3984 50.2344,173.4297 L50.2344,174.5234 Q50.2344,175.7578 51.125,176.5781 Q52.0156,177.3984 53.6094,177.3984 Q54.5469,177.3984 55.2031,177.1484 Q55.5938,176.9922 56.0156,176.5547 Q56.2813,176.2891 56.4297,176.2109 Q56.5781,176.1328 56.7813,176.1328 Q57.1094,176.1328 57.3672,176.3906 Q57.625,176.6484 57.625,176.9922 Q57.625,177.3359 57.2813,177.7422 Q56.7813,178.3203 55.9844,178.6484 Q54.9063,179.1016 53.6094,179.1016 Q52.0938,179.1016 50.8906,178.4766 Q49.9063,177.9766 49.2188,176.9063 Q48.5313,175.8359 48.5313,174.5547 L48.5313,173.3984 Q48.5313,172.0703 49.1484,170.9219 Q49.7656,169.7734 50.8594,169.1563 Q51.9531,168.5391 53.1875,168.5391 Q53.9219,168.5391 54.5703,168.7031 Q55.2188,168.8672 55.7656,169.2266 Z "/><text fill="#000000" font-family="sans-serif" font-size="12" font-style="italic" lengthAdjust="spacingAndGlyphs" textLength="44" x="92" y="169.457">«Utility»</text><text fill="#000000" font-family="sans-serif" font-size="14" font-weight="bold" lengthAdjust="spacingAndGlyphs" textLength="94" x="67" y="186.627">TimedActions</text></a><!--MD5=[44e7160be42743deb083cdc97d578917]
class eapli.framework.actions.UndoableAction--><a href="../../../eapli/framework/actions/UndoableAction.html" target="_parent" title="eapli.framework.actions.UndoableAction" xlink:actuate="onRequest" xlink:href="../../../eapli/framework/actions/UndoableAction.html" xlink:show="new" xlink:title="eapli.framework.actions.UndoableAction" xlink:type="simple"><rect fill="#FEFECE" filter="url(#fyeivkxncxdna)" height="32" id="eapli.framework.actions.UndoableAction" style="stroke: #A80036; stroke-width: 1.5;" width="139" x="598.5" y="157.5"/><ellipse cx="613.5" cy="173.5" fill="#B4A7E5" rx="11" ry="11" style="stroke: #A80036; stroke-width: 1.0;"/><path d="M614.4531,170.1406 L614.4531,176.7969 L616.1719,176.7969 Q616.7813,176.7969 617.0469,177.0313 Q617.3125,177.2656 617.3125,177.6563 Q617.3125,178.0313 617.0469,178.2656 Q616.7813,178.5 616.1719,178.5 L611.0313,178.5 Q610.4219,178.5 610.1563,178.2656 Q609.8906,178.0313 609.8906,177.6406 Q609.8906,177.2656 610.1563,177.0313 Q610.4219,176.7969 611.0313,176.7969 L612.75,176.7969 L612.75,170.1406 L611.0313,170.1406 Q610.4219,170.1406 610.1563,169.9063 Q609.8906,169.6719 609.8906,169.2813 Q609.8906,168.9063 610.1563,168.6719 Q610.4219,168.4375 611.0313,168.4375 L616.1719,168.4375 Q616.7813,168.4375 617.0469,168.6719 Q617.3125,168.9063 617.3125,169.2813 Q617.3125,169.6719 617.0469,169.9063 Q616.7813,170.1406 616.1719,170.1406 L614.4531,170.1406 Z "/><text fill="#000000" font-family="sans-serif" font-size="14" font-style="italic" font-weight="bold" lengthAdjust="spacingAndGlyphs" textLength="107" x="627.5" y="179.2285">UndoableAction</text></a><!--MD5=[e26dd25449c1bb2fa7a2d2d66898429b]
class eapli.framework.actions.menu.Menu--><a href="../../../eapli/framework/actions/menu/Menu.html" target="_parent" title="eapli.framework.actions.menu.Menu" xlink:actuate="onRequest" xlink:href="../../../eapli/framework/actions/menu/Menu.html" xlink:show="new" xlink:title="eapli.framework.actions.menu.Menu" xlink:type="simple"><rect fill="#FEFECE" filter="url(#fyeivkxncxdna)" height="32" id="eapli.framework.actions.menu.Menu" style="stroke: #A80036; stroke-width: 1.5;" width="72" x="931" y="60"/><ellipse cx="946" cy="76" fill="#ADD1B2" rx="11" ry="11" style="stroke: #A80036; stroke-width: 1.0;"/><path d="M948.7656,71.875 Q948.9219,71.6563 949.1094,71.5469 Q949.2969,71.4375 949.5156,71.4375 Q949.8906,71.4375 950.125,71.6953 Q950.3594,71.9531 950.3594,72.5625 L950.3594,74.0156 Q950.3594,74.625 950.125,74.8906 Q949.8906,75.1563 949.5156,75.1563 Q949.1719,75.1563 948.9688,74.9531 Q948.7656,74.7656 948.6563,74.25 Q948.6094,73.8906 948.4219,73.7031 Q948.0938,73.3281 947.4844,73.1094 Q946.875,72.8906 946.25,72.8906 Q945.4844,72.8906 944.8516,73.2188 Q944.2188,73.5469 943.7266,74.2969 Q943.2344,75.0469 943.2344,76.0781 L943.2344,77.1719 Q943.2344,78.4063 944.125,79.2266 Q945.0156,80.0469 946.6094,80.0469 Q947.5469,80.0469 948.2031,79.7969 Q948.5938,79.6406 949.0156,79.2031 Q949.2813,78.9375 949.4297,78.8594 Q949.5781,78.7813 949.7813,78.7813 Q950.1094,78.7813 950.3672,79.0391 Q950.625,79.2969 950.625,79.6406 Q950.625,79.9844 950.2813,80.3906 Q949.7813,80.9688 948.9844,81.2969 Q947.9063,81.75 946.6094,81.75 Q945.0938,81.75 943.8906,81.125 Q942.9063,80.625 942.2188,79.5547 Q941.5313,78.4844 941.5313,77.2031 L941.5313,76.0469 Q941.5313,74.7188 942.1484,73.5703 Q942.7656,72.4219 943.8594,71.8047 Q944.9531,71.1875 946.1875,71.1875 Q946.9219,71.1875 947.5703,71.3516 Q948.2188,71.5156 948.7656,71.875 Z "/><text fill="#000000" font-family="sans-serif" font-size="14" font-weight="bold" lengthAdjust="spacingAndGlyphs" textLength="40" x="960" y="81.7285">Menu</text></a><!--MD5=[997e9759af51b6bb0b155e6901c74880]
class eapli.framework.actions.menu.MenuItem--><a href="../../../eapli/framework/actions/menu/MenuItem.html" target="_parent" title="eapli.framework.actions.menu.MenuItem" xlink:actuate="onRequest" xlink:href="../../../eapli/framework/actions/menu/MenuItem.html" xlink:show="new" xlink:title="eapli.framework.actions.menu.MenuItem" xlink:type="simple"><rect fill="#FEFECE" filter="url(#fyeivkxncxdna)" height="32" id="eapli.framework.actions.menu.MenuItem" style="stroke: #A80036; stroke-width: 1.5;" width="102" x="794" y="60"/><ellipse cx="809" cy="76" fill="#ADD1B2" rx="11" ry="11" style="stroke: #A80036; stroke-width: 1.0;"/><path d="M811.7656,71.875 Q811.9219,71.6563 812.1094,71.5469 Q812.2969,71.4375 812.5156,71.4375 Q812.8906,71.4375 813.125,71.6953 Q813.3594,71.9531 813.3594,72.5625 L813.3594,74.0156 Q813.3594,74.625 813.125,74.8906 Q812.8906,75.1563 812.5156,75.1563 Q812.1719,75.1563 811.9688,74.9531 Q811.7656,74.7656 811.6563,74.25 Q811.6094,73.8906 811.4219,73.7031 Q811.0938,73.3281 810.4844,73.1094 Q809.875,72.8906 809.25,72.8906 Q808.4844,72.8906 807.8516,73.2188 Q807.2188,73.5469 806.7266,74.2969 Q806.2344,75.0469 806.2344,76.0781 L806.2344,77.1719 Q806.2344,78.4063 807.125,79.2266 Q808.0156,80.0469 809.6094,80.0469 Q810.5469,80.0469 811.2031,79.7969 Q811.5938,79.6406 812.0156,79.2031 Q812.2813,78.9375 812.4297,78.8594 Q812.5781,78.7813 812.7813,78.7813 Q813.1094,78.7813 813.3672,79.0391 Q813.625,79.2969 813.625,79.6406 Q813.625,79.9844 813.2813,80.3906 Q812.7813,80.9688 811.9844,81.2969 Q810.9063,81.75 809.6094,81.75 Q808.0938,81.75 806.8906,81.125 Q805.9063,80.625 805.2188,79.5547 Q804.5313,78.4844 804.5313,77.2031 L804.5313,76.0469 Q804.5313,74.7188 805.1484,73.5703 Q805.7656,72.4219 806.8594,71.8047 Q807.9531,71.1875 809.1875,71.1875 Q809.9219,71.1875 810.5703,71.3516 Q811.2188,71.5156 811.7656,71.875 Z "/><text fill="#000000" font-family="sans-serif" font-size="14" font-weight="bold" lengthAdjust="spacingAndGlyphs" textLength="70" x="823" y="81.7285">MenuItem</text></a><!--MD5=[cfcef0d37189bcd9ada7120e851ec790]
link eapli.framework.actions.ActionHistoryKeeper to eapli.framework.actions.UndoableAction--><path d="M668,92.1 C668,92.1 668,152.376 668,152.376 " fill="none" id="eapli.framework.actions.ActionHistoryKeeper-&gt;eapli.framework.actions.UndoableAction" style="stroke: #A80036; stroke-width: 1.0; stroke-dasharray: 7.0,7.0;"/><polygon fill="#A80036" points="668,157.376,672,148.376,668,152.376,664,148.376,668,157.376" style="stroke: #A80036; stroke-width: 1.0;"/><!--MD5=[f3e5f4610a992f6288e40fdd8f460018]
link eapli.framework.actions.Actions to eapli.framework.actions.Action--><path d="M512.6,195.397 C512.6,223.869 512.6,270 512.6,270 C512.6,270 455.752,270 455.752,270 " fill="none" id="eapli.framework.actions.Actions-&gt;eapli.framework.actions.Action" style="stroke: #A80036; stroke-width: 1.0;"/><polygon fill="#A80036" points="450.752,270,459.752,274,455.752,270,459.752,266,450.752,270" style="stroke: #A80036; stroke-width: 1.0;"/><text fill="#000000" font-family="sans-serif" font-size="13" lengthAdjust="spacingAndGlyphs" textLength="128" x="458.2853" y="266.7199">THROW_ARGUMENT</text><!--MD5=[f3e5f4610a992f6288e40fdd8f460018]
link eapli.framework.actions.Actions to eapli.framework.actions.Action--><path d="M529.4,195.197 C529.4,225.547 529.4,277 529.4,277 C529.4,277 455.522,277 455.522,277 " fill="none" id="eapli.framework.actions.Actions-&gt;eapli.framework.actions.Action-1" style="stroke: #A80036; stroke-width: 1.0;"/><polygon fill="#A80036" points="450.522,277,459.522,281,455.522,277,459.522,273,450.522,277" style="stroke: #A80036; stroke-width: 1.0;"/><text fill="#000000" font-family="sans-serif" font-size="13" lengthAdjust="spacingAndGlyphs" textLength="96" x="458.6868" y="291.088">THROW_STATE</text><!--MD5=[f3e5f4610a992f6288e40fdd8f460018]
link eapli.framework.actions.Actions to eapli.framework.actions.Action--><path d="M546.2,195.068 C546.2,227.225 546.2,284 546.2,284 C546.2,284 455.721,284 455.721,284 " fill="none" id="eapli.framework.actions.Actions-&gt;eapli.framework.actions.Action-2" style="stroke: #A80036; stroke-width: 1.0;"/><polygon fill="#A80036" points="450.721,284,459.721,288,455.721,284,459.721,280,450.721,284" style="stroke: #A80036; stroke-width: 1.0;"/><text fill="#000000" font-family="sans-serif" font-size="13" lengthAdjust="spacingAndGlyphs" textLength="63" x="458.4482" y="298.6572">SUCCESS</text><!--MD5=[f3e5f4610a992f6288e40fdd8f460018]
link eapli.framework.actions.Actions to eapli.framework.actions.Action--><path d="M495.8,195.165 C495.8,221.653 495.8,263 495.8,263 C495.8,263 455.548,263 455.548,263 " fill="none" id="eapli.framework.actions.Actions-&gt;eapli.framework.actions.Action-3" style="stroke: #A80036; stroke-width: 1.0;"/><polygon fill="#A80036" points="450.548,263,459.548,267,455.548,263,459.548,259,450.548,263" style="stroke: #A80036; stroke-width: 1.0;"/><text fill="#000000" font-family="sans-serif" font-size="13" lengthAdjust="spacingAndGlyphs" textLength="27" x="458.8262" y="248.0543">FAIL</text><!--MD5=[130686d0626c6be403e55c8ad676fdb2]
link eapli.framework.actions.ChainedAction to eapli.framework.actions.Action--><path d="M410.5,189.594 C410.5,189.594 410.5,249.7822 410.5,249.7822 " fill="none" id="eapli.framework.actions.ChainedAction-&gt;eapli.framework.actions.Action" style="stroke: #A80036; stroke-width: 1.0;"/><polygon fill="#A80036" points="410.5,254.7822,414.5,245.7822,410.5,249.7822,406.5,245.7822,410.5,254.7822" style="stroke: #A80036; stroke-width: 1.0;"/><text fill="#000000" font-family="sans-serif" font-size="13" lengthAdjust="spacingAndGlyphs" textLength="40" x="374.2969" y="244.0104">current</text><!--MD5=[130686d0626c6be403e55c8ad676fdb2]
link eapli.framework.actions.ChainedAction to eapli.framework.actions.Action--><path d="M377,189.594 C377,189.594 377,249.7822 377,249.7822 " fill="none" id="eapli.framework.actions.ChainedAction-&gt;eapli.framework.actions.Action-1" style="stroke: #A80036; stroke-width: 1.0;"/><polygon fill="#A80036" points="377,254.7822,381,245.7822,377,249.7822,373,245.7822,377,254.7822" style="stroke: #A80036; stroke-width: 1.0;"/><text fill="#000000" font-family="sans-serif" font-size="13" lengthAdjust="spacingAndGlyphs" textLength="25" x="348.4844" y="244.0104">next</text><!--MD5=[130686d0626c6be403e55c8ad676fdb2]
link eapli.framework.actions.ChainedAction to eapli.framework.actions.Action--><path d="M343.5,189.594 C343.5,189.594 343.5,234.7822 343.5,234.7822 " fill="none" id="eapli.framework.actions.ChainedAction-&gt;eapli.framework.actions.Action-2" style="stroke: #A80036; stroke-width: 1.0; stroke-dasharray: 7.0,7.0;"/><polygon fill="none" points="350.5,234.7822,343.5,254.7822,336.5,234.7822,350.5,234.7822" style="stroke: #A80036; stroke-width: 1.0;"/><!--MD5=[cb7c85cad4efff4f749bb370e7ddab31]
link eapli.framework.actions.Macro to eapli.framework.actions.Action--><path d="M218,189.827 C218,219.9 218,281 218,281 C218,281 298.086,281 298.086,281 " fill="none" id="eapli.framework.actions.Macro-&gt;eapli.framework.actions.Action" style="stroke: #A80036; stroke-width: 1.0;"/><polygon fill="#A80036" points="303.086,281,294.086,277,298.086,281,294.086,285,303.086,281" style="stroke: #A80036; stroke-width: 1.0;"/><text fill="#000000" font-family="sans-serif" font-size="13" lengthAdjust="spacingAndGlyphs" textLength="51" x="244.4746" y="278.252">actions *</text><!--MD5=[cb7c85cad4efff4f749bb370e7ddab31]
link eapli.framework.actions.Macro to eapli.framework.actions.Action--><path d="M237,189.93 C237,218.191 237,273 237,273 C237,273 298.31,273 298.31,273 " fill="none" id="eapli.framework.actions.Macro-&gt;eapli.framework.actions.Action-1" style="stroke: #A80036; stroke-width: 1.0;"/><polygon fill="#A80036" points="303.31,273,294.31,269,298.31,273,294.31,277,303.31,273" style="stroke: #A80036; stroke-width: 1.0;"/><text fill="#000000" font-family="sans-serif" font-size="13" lengthAdjust="spacingAndGlyphs" textLength="63" x="232.5851" y="269.6744">errorCause</text><!--MD5=[cb7c85cad4efff4f749bb370e7ddab31]
link eapli.framework.actions.Macro to eapli.framework.actions.Action--><path d="M256,189.68 C256,215.711 256,264 256,264 C256,264 283.475,264 283.475,264 " fill="none" id="eapli.framework.actions.Macro-&gt;eapli.framework.actions.Action-2" style="stroke: #A80036; stroke-width: 1.0; stroke-dasharray: 7.0,7.0;"/><polygon fill="none" points="283.475,256.9999,303.475,264,283.475,270.9999,283.475,256.9999" style="stroke: #A80036; stroke-width: 1.0;"/><!--MD5=[14d92bb68ceb0d81ceb1fb1f9e9c64f1]
link eapli.framework.actions.TimedActions to eapli.framework.actions.Action--><path d="M101,195.14 C101,228.831 101,290 101,290 C101,290 298.4,290 298.4,290 " fill="none" id="eapli.framework.actions.TimedActions-&gt;eapli.framework.actions.Action" style="stroke: #A80036; stroke-width: 1.0; stroke-dasharray: 7.0,7.0;"/><polygon fill="#A80036" points="303.4,290,294.4,286,298.4,290,294.4,294,303.4,290" style="stroke: #A80036; stroke-width: 1.0;"/><!--MD5=[8edd4ef89d44f259abebd40def143304]
link eapli.framework.actions.UndoableAction to eapli.framework.actions.Action--><path d="M668,189.838 C668,222.124 668,291 668,291 C668,291 470.808,291 470.808,291 " fill="none" id="eapli.framework.actions.UndoableAction-&gt;eapli.framework.actions.Action" style="stroke: #A80036; stroke-width: 1.0;"/><polygon fill="none" points="470.808,297.9999,450.808,291,470.808,283.9999,470.808,297.9999" style="stroke: #A80036; stroke-width: 1.0;"/><!--MD5=[ce63420d61a09b1dc343368c1a1c7224]
@startuml

skinparam svgLinkTarget _parent
skinparam linetype ortho
package eapli.framework.actions [[../../../eapli/framework/actions/package-summary.html{eapli.framework.actions}]] #lightyellow {
}

interface "<b><size:14>Action</b>" as eapli.framework.actions.Action <<FunctionalInterface>> [[../../../eapli/framework/actions/Action.html{eapli.framework.actions.Action}]] {
}

hide eapli.framework.actions.Action fields
hide eapli.framework.actions.Action methods

class "<b><size:14>ActionHistoryKeeper</b>" as eapli.framework.actions.ActionHistoryKeeper  [[../../../eapli/framework/actions/ActionHistoryKeeper.html{eapli.framework.actions.ActionHistoryKeeper}]] {
}

hide eapli.framework.actions.ActionHistoryKeeper fields
hide eapli.framework.actions.ActionHistoryKeeper methods

class "<b><size:14>Actions</b>" as eapli.framework.actions.Actions <<Utility>> [[../../../eapli/framework/actions/Actions.html{eapli.framework.actions.Actions}]] {
}

hide eapli.framework.actions.Actions fields
hide eapli.framework.actions.Actions methods

class "<b><size:14>ChainedAction</b>" as eapli.framework.actions.ChainedAction  [[../../../eapli/framework/actions/ChainedAction.html{eapli.framework.actions.ChainedAction}]] {
}

hide eapli.framework.actions.ChainedAction fields
hide eapli.framework.actions.ChainedAction methods

class "<b><size:14>Macro</b>" as eapli.framework.actions.Macro  [[../../../eapli/framework/actions/Macro.html{eapli.framework.actions.Macro}]] {
}

hide eapli.framework.actions.Macro fields
hide eapli.framework.actions.Macro methods

class "<b><size:14>TimedActions</b>" as eapli.framework.actions.TimedActions <<Utility>> [[../../../eapli/framework/actions/TimedActions.html{eapli.framework.actions.TimedActions}]] {
}

hide eapli.framework.actions.TimedActions fields
hide eapli.framework.actions.TimedActions methods

interface "<b><size:14>UndoableAction</b>" as eapli.framework.actions.UndoableAction  [[../../../eapli/framework/actions/UndoableAction.html{eapli.framework.actions.UndoableAction}]] {
}

hide eapli.framework.actions.UndoableAction fields
hide eapli.framework.actions.UndoableAction methods

eapli.framework.actions.ActionHistoryKeeper ..> eapli.framework.actions.UndoableAction
eapli.framework.actions.Actions - ->  "THROW_ARGUMENT" eapli.framework.actions.Action
eapli.framework.actions.Actions - ->  "THROW_STATE" eapli.framework.actions.Action
eapli.framework.actions.Actions - ->  "SUCCESS" eapli.framework.actions.Action
eapli.framework.actions.Actions - ->  "FAIL" eapli.framework.actions.Action
eapli.framework.actions.ChainedAction - ->  "current" eapli.framework.actions.Action
eapli.framework.actions.ChainedAction - ->  "next" eapli.framework.actions.Action
eapli.framework.actions.ChainedAction ..|> eapli.framework.actions.Action
eapli.framework.actions.Macro - ->  "actions *" eapli.framework.actions.Action
eapli.framework.actions.Macro - ->  "errorCause" eapli.framework.actions.Action
eapli.framework.actions.Macro ..|> eapli.framework.actions.Action
eapli.framework.actions.TimedActions ..> eapli.framework.actions.Action
eapli.framework.actions.UndoableAction - -|> eapli.framework.actions.Action
package eapli.framework.actions.menu [[../../../eapli/framework/actions/menu/package-summary.html{eapli.framework.actions.menu}]] {
}

class "<b><size:14>Menu</b>" as eapli.framework.actions.menu.Menu  [[../../../eapli/framework/actions/menu/Menu.html{eapli.framework.actions.menu.Menu}]] {
}

hide eapli.framework.actions.menu.Menu fields
hide eapli.framework.actions.menu.Menu methods

class "<b><size:14>MenuItem</b>" as eapli.framework.actions.menu.MenuItem  [[../../../eapli/framework/actions/menu/MenuItem.html{eapli.framework.actions.menu.MenuItem}]] {
}

hide eapli.framework.actions.menu.MenuItem fields
hide eapli.framework.actions.menu.MenuItem methods


@enduml

PlantUML version 1.2020.04(Thu Mar 19 10:16:49 GMT 2020)
(GPL source distribution)
Java Runtime: Java(TM) SE Runtime Environment
JVM: Java HotSpot(TM) 64-Bit Server VM
Java Version: 1.8.0_202-b08
Operating System: Windows 10
Default Encoding: Cp1252
Language: en
Country: US
--></g></svg>