<?xml version="1.0" encoding="UTF-8" standalone="no"?><svg xmlns="http://www.w3.org/2000/svg" xmlns:xlink="http://www.w3.org/1999/xlink" contentScriptType="application/ecmascript" contentStyleType="text/css" height="232px" preserveAspectRatio="none" style="width:249px;height:232px;" version="1.1" viewBox="0 0 249 232" width="249px" zoomAndPan="magnify"><defs><filter height="300%" id="f16j1rr0znxi4n" width="300%" x="-1" y="-1"><feGaussianBlur result="blurOut" stdDeviation="2.0"/><feColorMatrix in="blurOut" result="blurOut2" type="matrix" values="0 0 0 0 0 0 0 0 0 0 0 0 0 0 0 0 0 0 .4 0"/><feOffset dx="4.0" dy="4.0" in="blurOut2" result="blurOut3"/><feBlend in="SourceGraphic" in2="blurOut3" mode="normal"/></filter></defs><g><!--MD5=[a20618fc992d3aabb638a69cd1f38b06]
class eapli.framework.actions.TimedActions.RecurringTask--><a href="../../../eapli/framework/actions/TimedActions.RecurringTask.html" target="_parent" title="eapli.framework.actions.TimedActions.RecurringTask" xlink:actuate="onRequest" xlink:href="../../../eapli/framework/actions/TimedActions.RecurringTask.html" xlink:show="new" xlink:title="eapli.framework.actions.TimedActions.RecurringTask" xlink:type="simple"><rect fill="#FEFECE" filter="url(#f16j1rr0znxi4n)" height="97.6953" id="eapli.framework.actions.TimedActions.RecurringTask" style="stroke: #A80036; stroke-width: 1.5;" width="232" x="6" y="8"/><ellipse cx="21" cy="28.0938" fill="#ADD1B2" rx="11" ry="11" style="stroke: #A80036; stroke-width: 1.0;"/><path d="M23.7656,23.9688 Q23.9219,23.75 24.1094,23.6406 Q24.2969,23.5313 24.5156,23.5313 Q24.8906,23.5313 25.125,23.7891 Q25.3594,24.0469 25.3594,24.6563 L25.3594,26.1094 Q25.3594,26.7188 25.125,26.9844 Q24.8906,27.25 24.5156,27.25 Q24.1719,27.25 23.9688,27.0469 Q23.7656,26.8594 23.6563,26.3438 Q23.6094,25.9844 23.4219,25.7969 Q23.0938,25.4219 22.4844,25.2031 Q21.875,24.9844 21.25,24.9844 Q20.4844,24.9844 19.8516,25.3125 Q19.2188,25.6406 18.7266,26.3906 Q18.2344,27.1406 18.2344,28.1719 L18.2344,29.2656 Q18.2344,30.5 19.125,31.3203 Q20.0156,32.1406 21.6094,32.1406 Q22.5469,32.1406 23.2031,31.8906 Q23.5938,31.7344 24.0156,31.2969 Q24.2813,31.0313 24.4297,30.9531 Q24.5781,30.875 24.7813,30.875 Q25.1094,30.875 25.3672,31.1328 Q25.625,31.3906 25.625,31.7344 Q25.625,32.0781 25.2813,32.4844 Q24.7813,33.0625 23.9844,33.3906 Q22.9063,33.8438 21.6094,33.8438 Q20.0938,33.8438 18.8906,33.2188 Q17.9063,32.7188 17.2188,31.6484 Q16.5313,30.5781 16.5313,29.2969 L16.5313,28.1406 Q16.5313,26.8125 17.1484,25.6641 Q17.7656,24.5156 18.8594,23.8984 Q19.9531,23.2813 21.1875,23.2813 Q21.9219,23.2813 22.5703,23.4453 Q23.2188,23.6094 23.7656,23.9688 Z "/><text fill="#000000" font-family="sans-serif" font-size="14" font-weight="bold" lengthAdjust="spacingAndGlyphs" textLength="200" x="35" y="27.5332">TimedActions.RecurringTask</text><text fill="#000000" font-family="sans-serif" font-size="10" lengthAdjust="spacingAndGlyphs" textLength="111" x="79.5" y="40.9902">eapli.framework.actions</text><line style="stroke: #A80036; stroke-width: 1.5;" x1="7" x2="237" y1="48.1875" y2="48.1875"/><rect fill="none" height="6" style="stroke: #C82930; stroke-width: 1.0;" width="6" x="14" y="56.1875"/><text fill="#000000" font-family="sans-serif" font-size="11" lengthAdjust="spacingAndGlyphs" textLength="54" x="26" y="63.6064">Action cmd</text><line style="stroke: #A80036; stroke-width: 1.5;" x1="7" x2="237" y1="70.0234" y2="70.0234"/><ellipse cx="17" cy="81.0234" fill="#84BE84" rx="3" ry="3" style="stroke: #038048; stroke-width: 1.0;"/><text fill="#000000" font-family="sans-serif" font-size="11" lengthAdjust="spacingAndGlyphs" textLength="132" x="26" y="85.4424">RecurringTask(Action cmd)</text><ellipse cx="17" cy="94.8594" fill="#84BE84" rx="3" ry="3" style="stroke: #038048; stroke-width: 1.0;"/><text fill="#000000" font-family="sans-serif" font-size="11" lengthAdjust="spacingAndGlyphs" textLength="47" x="26" y="99.2783">void run()</text></a><!--MD5=[ef8b130fed61c1e1b3c1a2a618d68bbd]
class eapli.framework.actions.Action--><a href="../../../eapli/framework/actions/Action.html" target="_parent" title="eapli.framework.actions.Action" xlink:actuate="onRequest" xlink:href="../../../eapli/framework/actions/Action.html" xlink:show="new" xlink:title="eapli.framework.actions.Action" xlink:type="simple"><rect fill="#FEFECE" filter="url(#f16j1rr0znxi4n)" height="55.2813" id="eapli.framework.actions.Action" style="stroke: #A80036; stroke-width: 1.5;" width="147" x="48.5" y="166"/><ellipse cx="63.5" cy="193.6406" fill="#B4A7E5" rx="11" ry="11" style="stroke: #A80036; stroke-width: 1.0;"/><path d="M64.4531,190.2813 L64.4531,196.9375 L66.1719,196.9375 Q66.7813,196.9375 67.0469,197.1719 Q67.3125,197.4063 67.3125,197.7969 Q67.3125,198.1719 67.0469,198.4063 Q66.7813,198.6406 66.1719,198.6406 L61.0313,198.6406 Q60.4219,198.6406 60.1563,198.4063 Q59.8906,198.1719 59.8906,197.7813 Q59.8906,197.4063 60.1563,197.1719 Q60.4219,196.9375 61.0313,196.9375 L62.75,196.9375 L62.75,190.2813 L61.0313,190.2813 Q60.4219,190.2813 60.1563,190.0469 Q59.8906,189.8125 59.8906,189.4219 Q59.8906,189.0469 60.1563,188.8125 Q60.4219,188.5781 61.0313,188.5781 L66.1719,188.5781 Q66.7813,188.5781 67.0469,188.8125 Q67.3125,189.0469 67.3125,189.4219 Q67.3125,189.8125 67.0469,190.0469 Q66.7813,190.2813 66.1719,190.2813 L64.4531,190.2813 Z "/><text fill="#000000" font-family="sans-serif" font-size="12" font-style="italic" lengthAdjust="spacingAndGlyphs" textLength="119" x="75.5" y="183.457">«FunctionalInterface»</text><text fill="#000000" font-family="sans-serif" font-size="14" font-style="italic" font-weight="bold" lengthAdjust="spacingAndGlyphs" textLength="44" x="113" y="200.627">Action</text><text fill="#000000" font-family="sans-serif" font-size="10" font-style="italic" lengthAdjust="spacingAndGlyphs" textLength="111" x="79.5" y="214.084">eapli.framework.actions</text></a><!--MD5=[f3722afcc74a628ccdbf257744c6edb3]
link eapli.framework.actions.TimedActions.RecurringTask to eapli.framework.actions.Action--><path d="M122,106.28 C122,106.28 122,160.7332 122,160.7332 " fill="none" id="eapli.framework.actions.TimedActions.RecurringTask-&gt;eapli.framework.actions.Action" style="stroke: #A80036; stroke-width: 1.0;"/><polygon fill="#A80036" points="122,165.7332,126,156.7332,122,160.7332,118,156.7332,122,165.7332" style="stroke: #A80036; stroke-width: 1.0;"/><text fill="#000000" font-family="sans-serif" font-size="13" lengthAdjust="spacingAndGlyphs" textLength="25" x="94.1094" y="154.9654">cmd</text><!--MD5=[e21fce6c4529933384dce4aa9539dc5d]
@startuml

skinparam svgLinkTarget _parent
skinparam linetype ortho
set namespaceSeparator none
class "<b><size:14>TimedActions.RecurringTask</b>\n<size:10>eapli.framework.actions" as eapli.framework.actions.TimedActions.RecurringTask  [[../../../eapli/framework/actions/TimedActions.RecurringTask.html{eapli.framework.actions.TimedActions.RecurringTask}]] {
-Action cmd
+RecurringTask(Action cmd)
+void run()
}


interface "<b><size:14>Action</b>\n<size:10>eapli.framework.actions" as eapli.framework.actions.Action <<FunctionalInterface>> [[../../../eapli/framework/actions/Action.html{eapli.framework.actions.Action}]] {
}

hide eapli.framework.actions.Action fields
hide eapli.framework.actions.Action methods

eapli.framework.actions.TimedActions.RecurringTask - ->  "cmd" eapli.framework.actions.Action



@enduml

PlantUML version 1.2020.04(Thu Mar 19 10:16:49 GMT 2020)
(GPL source distribution)
Java Runtime: Java(TM) SE Runtime Environment
JVM: Java HotSpot(TM) 64-Bit Server VM
Java Version: 1.8.0_202-b08
Operating System: Windows 10
Default Encoding: Cp1252
Language: en
Country: US
--></g></svg>