@startuml

skinparam svgLinkTarget _parent
skinparam linetype ortho
set namespaceSeparator none
interface "<b><size:14>UndoableAction</b>\n<size:10>eapli.framework.actions" as eapli.framework.actions.UndoableAction  [[../../../eapli/framework/actions/UndoableAction.html{eapli.framework.actions.UndoableAction}]] {
{abstract} +void undo()
}


class "<b><size:14>ActionHistoryKeeper</b>\n<size:10>eapli.framework.actions" as eapli.framework.actions.ActionHistoryKeeper  [[../../../eapli/framework/actions/ActionHistoryKeeper.html{eapli.framework.actions.ActionHistoryKeeper}]] {
}

hide eapli.framework.actions.ActionHistoryKeeper fields
hide eapli.framework.actions.ActionHistoryKeeper methods

eapli.framework.actions.ActionHistoryKeeper ..> eapli.framework.actions.UndoableAction

interface "<b><size:14>Action</b>\n<size:10>eapli.framework.actions" as eapli.framework.actions.Action <<FunctionalInterface>> [[../../../eapli/framework/actions/Action.html{eapli.framework.actions.Action}]] {
}

hide eapli.framework.actions.Action fields
hide eapli.framework.actions.Action methods

eapli.framework.actions.UndoableAction --|> eapli.framework.actions.Action


@enduml
