@startuml

skinparam svgLinkTarget _parent
skinparam linetype ortho
set namespaceSeparator none
class "<b><size:14>Calendars</b>\n<size:10>eapli.framework.util" as eapli.framework.util.Calendars <<Utility>> [[../../../eapli/framework/util/Calendars.html{eapli.framework.util.Calendars}]] {
{static} -Logger LOGGER
{static} -int DAYS_TILL_END_OF_WEEK
{static} -Calendar frozenTime
{static} -Supplier<Calendar> nowFunction
-Calendars()
{static} +Calendar now()
{static} +int weekNumber(Calendar date)
{static} +Calendar calendarFromDate(Date date)
{static} +int currentWeekNumber()
{static} +Calendar beginningOfWeek(int year,int week)
{static} +Calendar endOfWeek(int year,int week)
{static} +Calendar endOfCurrentMonth()
{static} +Calendar endOfMonth(Calendar reference)
{static} +Calendar endOfMonth(int year,int month)
{static} +int currentYear()
{static} +int currentMonth()
{static} +Calendar of(int year,int month,int day)
{static} +Calendar dateOf(Calendar source)
{static} +Calendar parse(String aDateString,String format)
{static} +Calendar parse(String aDateString)
{static} +String format(Calendar ocurrs)
{static} +String iso8601(Calendar when)
{static} +LocalDateTime toLocalDateTime(Calendar calendar)
{static} +String iso8601()
{static} +String format(Calendar ocurrs,String dateFormat)
{static} +String format(Calendar calendar,DateFormat dateFormat)
{static} +String weekdayName(Calendar calendar)
{static} +Calendar yesterday()
{static} +Calendar tomorrow()
{static} +Calendar parse(String value,DateFormat dateFormat)
{static} +Calendar setToEndOfTheDay(Calendar calendar)
{static} +Calendar getStartOfTheDay(Calendar calendar)
{static} ~void setNow(Calendar frozenTime)
{static} -Calendar fakeNow()
{static} -Calendar realNow()
}


interface "<b><size:14>Logger</b>\n<size:10>org.apache.logging.log4j" as org.apache.logging.log4j.Logger  #lightgrey {
}

hide org.apache.logging.log4j.Logger fields
hide org.apache.logging.log4j.Logger methods

eapli.framework.util.Calendars -->  "LOGGER" org.apache.logging.log4j.Logger




class "<b><size:14>LocalDateTime</b>\n<size:10>java.time" as java.time.LocalDateTime  #lightgrey {
}

hide java.time.LocalDateTime fields
hide java.time.LocalDateTime methods

eapli.framework.util.Calendars ..> java.time.LocalDateTime

class "<b><size:14>DateFormat</b>\n<size:10>java.text" as java.text.DateFormat  #lightgrey {
}

hide java.text.DateFormat fields
hide java.text.DateFormat methods

eapli.framework.util.Calendars ..> java.text.DateFormat


@enduml
