<?xml version="1.0" encoding="UTF-8" standalone="no"?><svg xmlns="http://www.w3.org/2000/svg" xmlns:xlink="http://www.w3.org/1999/xlink" contentScriptType="application/ecmascript" contentStyleType="text/css" height="515px" preserveAspectRatio="none" style="width:743px;height:515px;" version="1.1" viewBox="0 0 743 515" width="743px" zoomAndPan="magnify"><defs><filter height="300%" id="fzdhzczfiu1yj" width="300%" x="-1" y="-1"><feGaussianBlur result="blurOut" stdDeviation="2.0"/><feColorMatrix in="blurOut" result="blurOut2" type="matrix" values="0 0 0 0 0 0 0 0 0 0 0 0 0 0 0 0 0 0 .4 0"/><feOffset dx="4.0" dy="4.0" in="blurOut2" result="blurOut3"/><feBlend in="SourceGraphic" in2="blurOut3" mode="normal"/></filter></defs><g><!--MD5=[cb92b8b01a7788154b695f7b820f7431]
cluster eapli.framework.util--><a href="../../../eapli/framework/util/package-summary.html" target="_parent" title="eapli.framework.util" xlink:actuate="onRequest" xlink:href="../../../eapli/framework/util/package-summary.html" xlink:show="new" xlink:title="eapli.framework.util" xlink:type="simple"><polygon fill="#FFFFE0" filter="url(#fzdhzczfiu1yj)" points="22,24,166,24,173,47.6094,721,47.6094,721,503,22,503,22,24" style="stroke: #000000; stroke-width: 1.5;"/><line style="stroke: #000000; stroke-width: 1.5;" x1="22" x2="173" y1="47.6094" y2="47.6094"/><text fill="#000000" font-family="sans-serif" font-size="14" font-weight="bold" lengthAdjust="spacingAndGlyphs" textLength="138" x="26" y="40.5332">eapli.framework.util</text></a><!--MD5=[dfebd7193a448c8994b1c2f8888d1ece]
class eapli.framework.util.Arrays--><a href="../../../eapli/framework/util/Arrays.html" target="_parent" title="eapli.framework.util.Arrays" xlink:actuate="onRequest" xlink:href="../../../eapli/framework/util/Arrays.html" xlink:show="new" xlink:title="eapli.framework.util.Arrays" xlink:type="simple"><rect fill="#FEFECE" filter="url(#fzdhzczfiu1yj)" height="42.7031" id="eapli.framework.util.Arrays" style="stroke: #A80036; stroke-width: 1.5;" width="76" x="76" y="67.5"/><ellipse cx="91" cy="88.8516" fill="#ADD1B2" rx="11" ry="11" style="stroke: #A80036; stroke-width: 1.0;"/><path d="M93.7656,84.7266 Q93.9219,84.5078 94.1094,84.3984 Q94.2969,84.2891 94.5156,84.2891 Q94.8906,84.2891 95.125,84.5469 Q95.3594,84.8047 95.3594,85.4141 L95.3594,86.8672 Q95.3594,87.4766 95.125,87.7422 Q94.8906,88.0078 94.5156,88.0078 Q94.1719,88.0078 93.9688,87.8047 Q93.7656,87.6172 93.6563,87.1016 Q93.6094,86.7422 93.4219,86.5547 Q93.0938,86.1797 92.4844,85.9609 Q91.875,85.7422 91.25,85.7422 Q90.4844,85.7422 89.8516,86.0703 Q89.2188,86.3984 88.7266,87.1484 Q88.2344,87.8984 88.2344,88.9297 L88.2344,90.0234 Q88.2344,91.2578 89.125,92.0781 Q90.0156,92.8984 91.6094,92.8984 Q92.5469,92.8984 93.2031,92.6484 Q93.5938,92.4922 94.0156,92.0547 Q94.2813,91.7891 94.4297,91.7109 Q94.5781,91.6328 94.7813,91.6328 Q95.1094,91.6328 95.3672,91.8906 Q95.625,92.1484 95.625,92.4922 Q95.625,92.8359 95.2813,93.2422 Q94.7813,93.8203 93.9844,94.1484 Q92.9063,94.6016 91.6094,94.6016 Q90.0938,94.6016 88.8906,93.9766 Q87.9063,93.4766 87.2188,92.4063 Q86.5313,91.3359 86.5313,90.0547 L86.5313,88.8984 Q86.5313,87.5703 87.1484,86.4219 Q87.7656,85.2734 88.8594,84.6563 Q89.9531,84.0391 91.1875,84.0391 Q91.9219,84.0391 92.5703,84.2031 Q93.2188,84.3672 93.7656,84.7266 Z "/><text fill="#000000" font-family="sans-serif" font-size="12" font-style="italic" lengthAdjust="spacingAndGlyphs" textLength="44" x="105" y="84.957">«Utility»</text><text fill="#000000" font-family="sans-serif" font-size="14" font-weight="bold" lengthAdjust="spacingAndGlyphs" textLength="44" x="105" y="102.127">Arrays</text></a><!--MD5=[67208f6d71c5bde5621a14626d28a67f]
class eapli.framework.util.Calendars--><a href="../../../eapli/framework/util/Calendars.html" target="_parent" title="eapli.framework.util.Calendars" xlink:actuate="onRequest" xlink:href="../../../eapli/framework/util/Calendars.html" xlink:show="new" xlink:title="eapli.framework.util.Calendars" xlink:type="simple"><rect fill="#FEFECE" filter="url(#fzdhzczfiu1yj)" height="42.7031" id="eapli.framework.util.Calendars" style="stroke: #A80036; stroke-width: 1.5;" width="103" x="187.5" y="67.5"/><ellipse cx="202.5" cy="88.8516" fill="#ADD1B2" rx="11" ry="11" style="stroke: #A80036; stroke-width: 1.0;"/><path d="M205.2656,84.7266 Q205.4219,84.5078 205.6094,84.3984 Q205.7969,84.2891 206.0156,84.2891 Q206.3906,84.2891 206.625,84.5469 Q206.8594,84.8047 206.8594,85.4141 L206.8594,86.8672 Q206.8594,87.4766 206.625,87.7422 Q206.3906,88.0078 206.0156,88.0078 Q205.6719,88.0078 205.4688,87.8047 Q205.2656,87.6172 205.1563,87.1016 Q205.1094,86.7422 204.9219,86.5547 Q204.5938,86.1797 203.9844,85.9609 Q203.375,85.7422 202.75,85.7422 Q201.9844,85.7422 201.3516,86.0703 Q200.7188,86.3984 200.2266,87.1484 Q199.7344,87.8984 199.7344,88.9297 L199.7344,90.0234 Q199.7344,91.2578 200.625,92.0781 Q201.5156,92.8984 203.1094,92.8984 Q204.0469,92.8984 204.7031,92.6484 Q205.0938,92.4922 205.5156,92.0547 Q205.7813,91.7891 205.9297,91.7109 Q206.0781,91.6328 206.2813,91.6328 Q206.6094,91.6328 206.8672,91.8906 Q207.125,92.1484 207.125,92.4922 Q207.125,92.8359 206.7813,93.2422 Q206.2813,93.8203 205.4844,94.1484 Q204.4063,94.6016 203.1094,94.6016 Q201.5938,94.6016 200.3906,93.9766 Q199.4063,93.4766 198.7188,92.4063 Q198.0313,91.3359 198.0313,90.0547 L198.0313,88.8984 Q198.0313,87.5703 198.6484,86.4219 Q199.2656,85.2734 200.3594,84.6563 Q201.4531,84.0391 202.6875,84.0391 Q203.4219,84.0391 204.0703,84.2031 Q204.7188,84.3672 205.2656,84.7266 Z "/><text fill="#000000" font-family="sans-serif" font-size="12" font-style="italic" lengthAdjust="spacingAndGlyphs" textLength="44" x="230" y="84.957">«Utility»</text><text fill="#000000" font-family="sans-serif" font-size="14" font-weight="bold" lengthAdjust="spacingAndGlyphs" textLength="71" x="216.5" y="102.127">Calendars</text></a><!--MD5=[d60a5afe996a728da2bcf59f4dea231e]
class eapli.framework.util.Collections--><a href="../../../eapli/framework/util/Collections.html" target="_parent" title="eapli.framework.util.Collections" xlink:actuate="onRequest" xlink:href="../../../eapli/framework/util/Collections.html" xlink:show="new" xlink:title="eapli.framework.util.Collections" xlink:type="simple"><rect fill="#FEFECE" filter="url(#fzdhzczfiu1yj)" height="42.7031" id="eapli.framework.util.Collections" style="stroke: #A80036; stroke-width: 1.5;" width="111" x="325.5" y="67.5"/><ellipse cx="340.5" cy="88.8516" fill="#ADD1B2" rx="11" ry="11" style="stroke: #A80036; stroke-width: 1.0;"/><path d="M343.2656,84.7266 Q343.4219,84.5078 343.6094,84.3984 Q343.7969,84.2891 344.0156,84.2891 Q344.3906,84.2891 344.625,84.5469 Q344.8594,84.8047 344.8594,85.4141 L344.8594,86.8672 Q344.8594,87.4766 344.625,87.7422 Q344.3906,88.0078 344.0156,88.0078 Q343.6719,88.0078 343.4688,87.8047 Q343.2656,87.6172 343.1563,87.1016 Q343.1094,86.7422 342.9219,86.5547 Q342.5938,86.1797 341.9844,85.9609 Q341.375,85.7422 340.75,85.7422 Q339.9844,85.7422 339.3516,86.0703 Q338.7188,86.3984 338.2266,87.1484 Q337.7344,87.8984 337.7344,88.9297 L337.7344,90.0234 Q337.7344,91.2578 338.625,92.0781 Q339.5156,92.8984 341.1094,92.8984 Q342.0469,92.8984 342.7031,92.6484 Q343.0938,92.4922 343.5156,92.0547 Q343.7813,91.7891 343.9297,91.7109 Q344.0781,91.6328 344.2813,91.6328 Q344.6094,91.6328 344.8672,91.8906 Q345.125,92.1484 345.125,92.4922 Q345.125,92.8359 344.7813,93.2422 Q344.2813,93.8203 343.4844,94.1484 Q342.4063,94.6016 341.1094,94.6016 Q339.5938,94.6016 338.3906,93.9766 Q337.4063,93.4766 336.7188,92.4063 Q336.0313,91.3359 336.0313,90.0547 L336.0313,88.8984 Q336.0313,87.5703 336.6484,86.4219 Q337.2656,85.2734 338.3594,84.6563 Q339.4531,84.0391 340.6875,84.0391 Q341.4219,84.0391 342.0703,84.2031 Q342.7188,84.3672 343.2656,84.7266 Z "/><text fill="#000000" font-family="sans-serif" font-size="12" font-style="italic" lengthAdjust="spacingAndGlyphs" textLength="44" x="372" y="84.957">«Utility»</text><text fill="#000000" font-family="sans-serif" font-size="14" font-weight="bold" lengthAdjust="spacingAndGlyphs" textLength="79" x="354.5" y="102.127">Collections</text></a><!--MD5=[7a08e9b3d97cf081d96621c5ad36cb84]
class eapli.framework.util.Console--><a href="../../../eapli/framework/util/Console.html" target="_parent" title="eapli.framework.util.Console" xlink:actuate="onRequest" xlink:href="../../../eapli/framework/util/Console.html" xlink:show="new" xlink:title="eapli.framework.util.Console" xlink:type="simple"><rect fill="#FEFECE" filter="url(#fzdhzczfiu1yj)" height="57.7969" id="eapli.framework.util.Console" style="stroke: #A80036; stroke-width: 1.5;" width="146" x="472" y="60"/><ellipse cx="487" cy="88.8984" fill="#ADD1B2" rx="11" ry="11" style="stroke: #A80036; stroke-width: 1.0;"/><path d="M489.7656,84.7734 Q489.9219,84.5547 490.1094,84.4453 Q490.2969,84.3359 490.5156,84.3359 Q490.8906,84.3359 491.125,84.5938 Q491.3594,84.8516 491.3594,85.4609 L491.3594,86.9141 Q491.3594,87.5234 491.125,87.7891 Q490.8906,88.0547 490.5156,88.0547 Q490.1719,88.0547 489.9688,87.8516 Q489.7656,87.6641 489.6563,87.1484 Q489.6094,86.7891 489.4219,86.6016 Q489.0938,86.2266 488.4844,86.0078 Q487.875,85.7891 487.25,85.7891 Q486.4844,85.7891 485.8516,86.1172 Q485.2188,86.4453 484.7266,87.1953 Q484.2344,87.9453 484.2344,88.9766 L484.2344,90.0703 Q484.2344,91.3047 485.125,92.125 Q486.0156,92.9453 487.6094,92.9453 Q488.5469,92.9453 489.2031,92.6953 Q489.5938,92.5391 490.0156,92.1016 Q490.2813,91.8359 490.4297,91.7578 Q490.5781,91.6797 490.7813,91.6797 Q491.1094,91.6797 491.3672,91.9375 Q491.625,92.1953 491.625,92.5391 Q491.625,92.8828 491.2813,93.2891 Q490.7813,93.8672 489.9844,94.1953 Q488.9063,94.6484 487.6094,94.6484 Q486.0938,94.6484 484.8906,94.0234 Q483.9063,93.5234 483.2188,92.4531 Q482.5313,91.3828 482.5313,90.1016 L482.5313,88.9453 Q482.5313,87.6172 483.1484,86.4688 Q483.7656,85.3203 484.8594,84.7031 Q485.9531,84.0859 487.1875,84.0859 Q487.9219,84.0859 488.5703,84.25 Q489.2188,84.4141 489.7656,84.7734 Z "/><text fill="#000000" font-family="sans-serif" font-size="12" font-style="italic" lengthAdjust="spacingAndGlyphs" textLength="44" x="536" y="77.457">«Utility»</text><text fill="#000000" font-family="sans-serif" font-size="12" font-style="italic" lengthAdjust="spacingAndGlyphs" textLength="118" x="499" y="92.5508">«SuppressWarnings»</text><text fill="#000000" font-family="sans-serif" font-size="14" font-weight="bold" lengthAdjust="spacingAndGlyphs" textLength="58" x="529" y="109.7207">Console</text></a><!--MD5=[f21e203946db8569fceabf7bb428ce60]
class eapli.framework.util.Factory--><a href="../../../eapli/framework/util/Factory.html" target="_parent" title="eapli.framework.util.Factory" xlink:actuate="onRequest" xlink:href="../../../eapli/framework/util/Factory.html" xlink:show="new" xlink:title="eapli.framework.util.Factory" xlink:type="simple"><rect fill="#FEFECE" filter="url(#fzdhzczfiu1yj)" height="42.7031" id="eapli.framework.util.Factory" style="stroke: #A80036; stroke-width: 1.5;" width="147" x="40.5" y="178"/><ellipse cx="55.5" cy="199.3516" fill="#B4A7E5" rx="11" ry="11" style="stroke: #A80036; stroke-width: 1.0;"/><path d="M56.4531,195.9922 L56.4531,202.6484 L58.1719,202.6484 Q58.7813,202.6484 59.0469,202.8828 Q59.3125,203.1172 59.3125,203.5078 Q59.3125,203.8828 59.0469,204.1172 Q58.7813,204.3516 58.1719,204.3516 L53.0313,204.3516 Q52.4219,204.3516 52.1563,204.1172 Q51.8906,203.8828 51.8906,203.4922 Q51.8906,203.1172 52.1563,202.8828 Q52.4219,202.6484 53.0313,202.6484 L54.75,202.6484 L54.75,195.9922 L53.0313,195.9922 Q52.4219,195.9922 52.1563,195.7578 Q51.8906,195.5234 51.8906,195.1328 Q51.8906,194.7578 52.1563,194.5234 Q52.4219,194.2891 53.0313,194.2891 L58.1719,194.2891 Q58.7813,194.2891 59.0469,194.5234 Q59.3125,194.7578 59.3125,195.1328 Q59.3125,195.5234 59.0469,195.7578 Q58.7813,195.9922 58.1719,195.9922 L56.4531,195.9922 Z "/><text fill="#000000" font-family="sans-serif" font-size="12" font-style="italic" lengthAdjust="spacingAndGlyphs" textLength="119" x="67.5" y="195.457">«FunctionalInterface»</text><text fill="#000000" font-family="sans-serif" font-size="14" font-style="italic" font-weight="bold" lengthAdjust="spacingAndGlyphs" textLength="50" x="102" y="212.627">Factory</text></a><!--MD5=[f9449f84a913af629470c92bdb7d5930]
class eapli.framework.util.Files--><a href="../../../eapli/framework/util/Files.html" target="_parent" title="eapli.framework.util.Files" xlink:actuate="onRequest" xlink:href="../../../eapli/framework/util/Files.html" xlink:show="new" xlink:title="eapli.framework.util.Files" xlink:type="simple"><rect fill="#FEFECE" filter="url(#fzdhzczfiu1yj)" height="42.7031" id="eapli.framework.util.Files" style="stroke: #A80036; stroke-width: 1.5;" width="72" x="223" y="178"/><ellipse cx="238" cy="199.3516" fill="#ADD1B2" rx="11" ry="11" style="stroke: #A80036; stroke-width: 1.0;"/><path d="M240.7656,195.2266 Q240.9219,195.0078 241.1094,194.8984 Q241.2969,194.7891 241.5156,194.7891 Q241.8906,194.7891 242.125,195.0469 Q242.3594,195.3047 242.3594,195.9141 L242.3594,197.3672 Q242.3594,197.9766 242.125,198.2422 Q241.8906,198.5078 241.5156,198.5078 Q241.1719,198.5078 240.9688,198.3047 Q240.7656,198.1172 240.6563,197.6016 Q240.6094,197.2422 240.4219,197.0547 Q240.0938,196.6797 239.4844,196.4609 Q238.875,196.2422 238.25,196.2422 Q237.4844,196.2422 236.8516,196.5703 Q236.2188,196.8984 235.7266,197.6484 Q235.2344,198.3984 235.2344,199.4297 L235.2344,200.5234 Q235.2344,201.7578 236.125,202.5781 Q237.0156,203.3984 238.6094,203.3984 Q239.5469,203.3984 240.2031,203.1484 Q240.5938,202.9922 241.0156,202.5547 Q241.2813,202.2891 241.4297,202.2109 Q241.5781,202.1328 241.7813,202.1328 Q242.1094,202.1328 242.3672,202.3906 Q242.625,202.6484 242.625,202.9922 Q242.625,203.3359 242.2813,203.7422 Q241.7813,204.3203 240.9844,204.6484 Q239.9063,205.1016 238.6094,205.1016 Q237.0938,205.1016 235.8906,204.4766 Q234.9063,203.9766 234.2188,202.9063 Q233.5313,201.8359 233.5313,200.5547 L233.5313,199.3984 Q233.5313,198.0703 234.1484,196.9219 Q234.7656,195.7734 235.8594,195.1563 Q236.9531,194.5391 238.1875,194.5391 Q238.9219,194.5391 239.5703,194.7031 Q240.2188,194.8672 240.7656,195.2266 Z "/><text fill="#000000" font-family="sans-serif" font-size="12" font-style="italic" lengthAdjust="spacingAndGlyphs" textLength="44" x="250" y="195.457">«Utility»</text><text fill="#000000" font-family="sans-serif" font-size="14" font-weight="bold" lengthAdjust="spacingAndGlyphs" textLength="34" x="255" y="212.627">Files</text></a><!--MD5=[3d940cccddfb44185b3eea56404bb6c1]
class eapli.framework.util.HashCoder--><a href="../../../eapli/framework/util/HashCoder.html" target="_parent" title="eapli.framework.util.HashCoder" xlink:actuate="onRequest" xlink:href="../../../eapli/framework/util/HashCoder.html" xlink:show="new" xlink:title="eapli.framework.util.HashCoder" xlink:type="simple"><rect fill="#FEFECE" filter="url(#fzdhzczfiu1yj)" height="32" id="eapli.framework.util.HashCoder" style="stroke: #A80036; stroke-width: 1.5;" width="110" x="330" y="183.5"/><ellipse cx="345" cy="199.5" fill="#ADD1B2" rx="11" ry="11" style="stroke: #A80036; stroke-width: 1.0;"/><path d="M347.7656,195.375 Q347.9219,195.1563 348.1094,195.0469 Q348.2969,194.9375 348.5156,194.9375 Q348.8906,194.9375 349.125,195.1953 Q349.3594,195.4531 349.3594,196.0625 L349.3594,197.5156 Q349.3594,198.125 349.125,198.3906 Q348.8906,198.6563 348.5156,198.6563 Q348.1719,198.6563 347.9688,198.4531 Q347.7656,198.2656 347.6563,197.75 Q347.6094,197.3906 347.4219,197.2031 Q347.0938,196.8281 346.4844,196.6094 Q345.875,196.3906 345.25,196.3906 Q344.4844,196.3906 343.8516,196.7188 Q343.2188,197.0469 342.7266,197.7969 Q342.2344,198.5469 342.2344,199.5781 L342.2344,200.6719 Q342.2344,201.9063 343.125,202.7266 Q344.0156,203.5469 345.6094,203.5469 Q346.5469,203.5469 347.2031,203.2969 Q347.5938,203.1406 348.0156,202.7031 Q348.2813,202.4375 348.4297,202.3594 Q348.5781,202.2813 348.7813,202.2813 Q349.1094,202.2813 349.3672,202.5391 Q349.625,202.7969 349.625,203.1406 Q349.625,203.4844 349.2813,203.8906 Q348.7813,204.4688 347.9844,204.7969 Q346.9063,205.25 345.6094,205.25 Q344.0938,205.25 342.8906,204.625 Q341.9063,204.125 341.2188,203.0547 Q340.5313,201.9844 340.5313,200.7031 L340.5313,199.5469 Q340.5313,198.2188 341.1484,197.0703 Q341.7656,195.9219 342.8594,195.3047 Q343.9531,194.6875 345.1875,194.6875 Q345.9219,194.6875 346.5703,194.8516 Q347.2188,195.0156 347.7656,195.375 Z "/><text fill="#000000" font-family="sans-serif" font-size="14" font-weight="bold" lengthAdjust="spacingAndGlyphs" textLength="78" x="359" y="205.2285">HashCoder</text></a><!--MD5=[92c5a49c07df51452d5568ec43f33186]
class eapli.framework.util.Math--><a href="../../../eapli/framework/util/Math.html" target="_parent" title="eapli.framework.util.Math" xlink:actuate="onRequest" xlink:href="../../../eapli/framework/util/Math.html" xlink:show="new" xlink:title="eapli.framework.util.Math" xlink:type="simple"><rect fill="#FEFECE" filter="url(#fzdhzczfiu1yj)" height="42.7031" id="eapli.framework.util.Math" style="stroke: #A80036; stroke-width: 1.5;" width="72" x="475" y="178"/><ellipse cx="490" cy="199.3516" fill="#ADD1B2" rx="11" ry="11" style="stroke: #A80036; stroke-width: 1.0;"/><path d="M492.7656,195.2266 Q492.9219,195.0078 493.1094,194.8984 Q493.2969,194.7891 493.5156,194.7891 Q493.8906,194.7891 494.125,195.0469 Q494.3594,195.3047 494.3594,195.9141 L494.3594,197.3672 Q494.3594,197.9766 494.125,198.2422 Q493.8906,198.5078 493.5156,198.5078 Q493.1719,198.5078 492.9688,198.3047 Q492.7656,198.1172 492.6563,197.6016 Q492.6094,197.2422 492.4219,197.0547 Q492.0938,196.6797 491.4844,196.4609 Q490.875,196.2422 490.25,196.2422 Q489.4844,196.2422 488.8516,196.5703 Q488.2188,196.8984 487.7266,197.6484 Q487.2344,198.3984 487.2344,199.4297 L487.2344,200.5234 Q487.2344,201.7578 488.125,202.5781 Q489.0156,203.3984 490.6094,203.3984 Q491.5469,203.3984 492.2031,203.1484 Q492.5938,202.9922 493.0156,202.5547 Q493.2813,202.2891 493.4297,202.2109 Q493.5781,202.1328 493.7813,202.1328 Q494.1094,202.1328 494.3672,202.3906 Q494.625,202.6484 494.625,202.9922 Q494.625,203.3359 494.2813,203.7422 Q493.7813,204.3203 492.9844,204.6484 Q491.9063,205.1016 490.6094,205.1016 Q489.0938,205.1016 487.8906,204.4766 Q486.9063,203.9766 486.2188,202.9063 Q485.5313,201.8359 485.5313,200.5547 L485.5313,199.3984 Q485.5313,198.0703 486.1484,196.9219 Q486.7656,195.7734 487.8594,195.1563 Q488.9531,194.5391 490.1875,194.5391 Q490.9219,194.5391 491.5703,194.7031 Q492.2188,194.8672 492.7656,195.2266 Z "/><text fill="#000000" font-family="sans-serif" font-size="12" font-style="italic" lengthAdjust="spacingAndGlyphs" textLength="44" x="502" y="195.457">«Utility»</text><text fill="#000000" font-family="sans-serif" font-size="14" font-weight="bold" lengthAdjust="spacingAndGlyphs" textLength="35" x="506.5" y="212.627">Math</text></a><!--MD5=[0c07b0ee8e7550f905eab086294ca23b]
class eapli.framework.util.NumberFormater--><a href="../../../eapli/framework/util/NumberFormater.html" target="_parent" title="eapli.framework.util.NumberFormater" xlink:actuate="onRequest" xlink:href="../../../eapli/framework/util/NumberFormater.html" xlink:show="new" xlink:title="eapli.framework.util.NumberFormater" xlink:type="simple"><rect fill="#FEFECE" filter="url(#fzdhzczfiu1yj)" height="42.7031" id="eapli.framework.util.NumberFormater" style="stroke: #A80036; stroke-width: 1.5;" width="151" x="38.5" y="296"/><ellipse cx="53.5" cy="317.3516" fill="#ADD1B2" rx="11" ry="11" style="stroke: #A80036; stroke-width: 1.0;"/><path d="M56.2656,313.2266 Q56.4219,313.0078 56.6094,312.8984 Q56.7969,312.7891 57.0156,312.7891 Q57.3906,312.7891 57.625,313.0469 Q57.8594,313.3047 57.8594,313.9141 L57.8594,315.3672 Q57.8594,315.9766 57.625,316.2422 Q57.3906,316.5078 57.0156,316.5078 Q56.6719,316.5078 56.4688,316.3047 Q56.2656,316.1172 56.1563,315.6016 Q56.1094,315.2422 55.9219,315.0547 Q55.5938,314.6797 54.9844,314.4609 Q54.375,314.2422 53.75,314.2422 Q52.9844,314.2422 52.3516,314.5703 Q51.7188,314.8984 51.2266,315.6484 Q50.7344,316.3984 50.7344,317.4297 L50.7344,318.5234 Q50.7344,319.7578 51.625,320.5781 Q52.5156,321.3984 54.1094,321.3984 Q55.0469,321.3984 55.7031,321.1484 Q56.0938,320.9922 56.5156,320.5547 Q56.7813,320.2891 56.9297,320.2109 Q57.0781,320.1328 57.2813,320.1328 Q57.6094,320.1328 57.8672,320.3906 Q58.125,320.6484 58.125,320.9922 Q58.125,321.3359 57.7813,321.7422 Q57.2813,322.3203 56.4844,322.6484 Q55.4063,323.1016 54.1094,323.1016 Q52.5938,323.1016 51.3906,322.4766 Q50.4063,321.9766 49.7188,320.9063 Q49.0313,319.8359 49.0313,318.5547 L49.0313,317.3984 Q49.0313,316.0703 49.6484,314.9219 Q50.2656,313.7734 51.3594,313.1563 Q52.4531,312.5391 53.6875,312.5391 Q54.4219,312.5391 55.0703,312.7031 Q55.7188,312.8672 56.2656,313.2266 Z "/><text fill="#000000" font-family="sans-serif" font-size="12" font-style="italic" lengthAdjust="spacingAndGlyphs" textLength="44" x="105" y="313.457">«Utility»</text><text fill="#000000" font-family="sans-serif" font-size="14" font-weight="bold" lengthAdjust="spacingAndGlyphs" textLength="119" x="67.5" y="330.627">NumberFormater</text></a><!--MD5=[2a1c0404f80218495b9c4517abd66a9f]
class eapli.framework.util.NumberGenerator--><a href="../../../eapli/framework/util/NumberGenerator.html" target="_parent" title="eapli.framework.util.NumberGenerator" xlink:actuate="onRequest" xlink:href="../../../eapli/framework/util/NumberGenerator.html" xlink:show="new" xlink:title="eapli.framework.util.NumberGenerator" xlink:type="simple"><rect fill="#FEFECE" filter="url(#fzdhzczfiu1yj)" height="42.7031" id="eapli.framework.util.NumberGenerator" style="stroke: #A80036; stroke-width: 1.5;" width="159" x="224.5" y="296"/><ellipse cx="239.5" cy="317.3516" fill="#ADD1B2" rx="11" ry="11" style="stroke: #A80036; stroke-width: 1.0;"/><path d="M242.2656,313.2266 Q242.4219,313.0078 242.6094,312.8984 Q242.7969,312.7891 243.0156,312.7891 Q243.3906,312.7891 243.625,313.0469 Q243.8594,313.3047 243.8594,313.9141 L243.8594,315.3672 Q243.8594,315.9766 243.625,316.2422 Q243.3906,316.5078 243.0156,316.5078 Q242.6719,316.5078 242.4688,316.3047 Q242.2656,316.1172 242.1563,315.6016 Q242.1094,315.2422 241.9219,315.0547 Q241.5938,314.6797 240.9844,314.4609 Q240.375,314.2422 239.75,314.2422 Q238.9844,314.2422 238.3516,314.5703 Q237.7188,314.8984 237.2266,315.6484 Q236.7344,316.3984 236.7344,317.4297 L236.7344,318.5234 Q236.7344,319.7578 237.625,320.5781 Q238.5156,321.3984 240.1094,321.3984 Q241.0469,321.3984 241.7031,321.1484 Q242.0938,320.9922 242.5156,320.5547 Q242.7813,320.2891 242.9297,320.2109 Q243.0781,320.1328 243.2813,320.1328 Q243.6094,320.1328 243.8672,320.3906 Q244.125,320.6484 244.125,320.9922 Q244.125,321.3359 243.7813,321.7422 Q243.2813,322.3203 242.4844,322.6484 Q241.4063,323.1016 240.1094,323.1016 Q238.5938,323.1016 237.3906,322.4766 Q236.4063,321.9766 235.7188,320.9063 Q235.0313,319.8359 235.0313,318.5547 L235.0313,317.3984 Q235.0313,316.0703 235.6484,314.9219 Q236.2656,313.7734 237.3594,313.1563 Q238.4531,312.5391 239.6875,312.5391 Q240.4219,312.5391 241.0703,312.7031 Q241.7188,312.8672 242.2656,313.2266 Z "/><text fill="#000000" font-family="sans-serif" font-size="12" font-style="italic" lengthAdjust="spacingAndGlyphs" textLength="44" x="295" y="313.457">«Utility»</text><text fill="#000000" font-family="sans-serif" font-size="14" font-weight="bold" lengthAdjust="spacingAndGlyphs" textLength="127" x="253.5" y="330.627">NumberGenerator</text></a><!--MD5=[073209516524a214384154cb545b3cae]
class eapli.framework.util.Singleton--><a href="../../../eapli/framework/util/Singleton.html" target="_parent" title="eapli.framework.util.Singleton" xlink:actuate="onRequest" xlink:href="../../../eapli/framework/util/Singleton.html" xlink:show="new" xlink:title="eapli.framework.util.Singleton" xlink:type="simple"><rect fill="#FEFECE" filter="url(#fzdhzczfiu1yj)" height="72.8906" id="eapli.framework.util.Singleton" style="stroke: #A80036; stroke-width: 1.5;" width="113" x="418.5" y="281"/><ellipse cx="433.5" cy="317.4453" fill="#ADD1B2" rx="11" ry="11" style="stroke: #A80036; stroke-width: 1.0;"/><path d="M436.2656,313.3203 Q436.4219,313.1016 436.6094,312.9922 Q436.7969,312.8828 437.0156,312.8828 Q437.3906,312.8828 437.625,313.1406 Q437.8594,313.3984 437.8594,314.0078 L437.8594,315.4609 Q437.8594,316.0703 437.625,316.3359 Q437.3906,316.6016 437.0156,316.6016 Q436.6719,316.6016 436.4688,316.3984 Q436.2656,316.2109 436.1563,315.6953 Q436.1094,315.3359 435.9219,315.1484 Q435.5938,314.7734 434.9844,314.5547 Q434.375,314.3359 433.75,314.3359 Q432.9844,314.3359 432.3516,314.6641 Q431.7188,314.9922 431.2266,315.7422 Q430.7344,316.4922 430.7344,317.5234 L430.7344,318.6172 Q430.7344,319.8516 431.625,320.6719 Q432.5156,321.4922 434.1094,321.4922 Q435.0469,321.4922 435.7031,321.2422 Q436.0938,321.0859 436.5156,320.6484 Q436.7813,320.3828 436.9297,320.3047 Q437.0781,320.2266 437.2813,320.2266 Q437.6094,320.2266 437.8672,320.4844 Q438.125,320.7422 438.125,321.0859 Q438.125,321.4297 437.7813,321.8359 Q437.2813,322.4141 436.4844,322.7422 Q435.4063,323.1953 434.1094,323.1953 Q432.5938,323.1953 431.3906,322.5703 Q430.4063,322.0703 429.7188,321 Q429.0313,319.9297 429.0313,318.6484 L429.0313,317.4922 Q429.0313,316.1641 429.6484,315.0156 Q430.2656,313.8672 431.3594,313.25 Q432.4531,312.6328 433.6875,312.6328 Q434.4219,312.6328 435.0703,312.7969 Q435.7188,312.9609 436.2656,313.3203 Z "/><text fill="#000000" font-family="sans-serif" font-size="12" font-style="italic" lengthAdjust="spacingAndGlyphs" textLength="85" x="445.5" y="298.457">«Documented»</text><text fill="#000000" font-family="sans-serif" font-size="12" font-style="italic" lengthAdjust="spacingAndGlyphs" textLength="67" x="454.5" y="313.5508">«Retention»</text><text fill="#000000" font-family="sans-serif" font-size="12" font-style="italic" lengthAdjust="spacingAndGlyphs" textLength="49" x="463.5" y="328.6445">«Target»</text><text fill="#000000" font-family="sans-serif" font-size="14" font-weight="bold" lengthAdjust="spacingAndGlyphs" textLength="67" x="454.5" y="345.8145">Singleton</text></a><!--MD5=[6a4b2bee9e6ae21f2b5d5cd615f7537a]
class eapli.framework.util.StringFormater--><a href="../../../eapli/framework/util/StringFormater.html" target="_parent" title="eapli.framework.util.StringFormater" xlink:actuate="onRequest" xlink:href="../../../eapli/framework/util/StringFormater.html" xlink:show="new" xlink:title="eapli.framework.util.StringFormater" xlink:type="simple"><rect fill="#FEFECE" filter="url(#fzdhzczfiu1yj)" height="42.7031" id="eapli.framework.util.StringFormater" style="stroke: #A80036; stroke-width: 1.5;" width="138" x="567" y="296"/><ellipse cx="582" cy="317.3516" fill="#ADD1B2" rx="11" ry="11" style="stroke: #A80036; stroke-width: 1.0;"/><path d="M584.7656,313.2266 Q584.9219,313.0078 585.1094,312.8984 Q585.2969,312.7891 585.5156,312.7891 Q585.8906,312.7891 586.125,313.0469 Q586.3594,313.3047 586.3594,313.9141 L586.3594,315.3672 Q586.3594,315.9766 586.125,316.2422 Q585.8906,316.5078 585.5156,316.5078 Q585.1719,316.5078 584.9688,316.3047 Q584.7656,316.1172 584.6563,315.6016 Q584.6094,315.2422 584.4219,315.0547 Q584.0938,314.6797 583.4844,314.4609 Q582.875,314.2422 582.25,314.2422 Q581.4844,314.2422 580.8516,314.5703 Q580.2188,314.8984 579.7266,315.6484 Q579.2344,316.3984 579.2344,317.4297 L579.2344,318.5234 Q579.2344,319.7578 580.125,320.5781 Q581.0156,321.3984 582.6094,321.3984 Q583.5469,321.3984 584.2031,321.1484 Q584.5938,320.9922 585.0156,320.5547 Q585.2813,320.2891 585.4297,320.2109 Q585.5781,320.1328 585.7813,320.1328 Q586.1094,320.1328 586.3672,320.3906 Q586.625,320.6484 586.625,320.9922 Q586.625,321.3359 586.2813,321.7422 Q585.7813,322.3203 584.9844,322.6484 Q583.9063,323.1016 582.6094,323.1016 Q581.0938,323.1016 579.8906,322.4766 Q578.9063,321.9766 578.2188,320.9063 Q577.5313,319.8359 577.5313,318.5547 L577.5313,317.3984 Q577.5313,316.0703 578.1484,314.9219 Q578.7656,313.7734 579.8594,313.1563 Q580.9531,312.5391 582.1875,312.5391 Q582.9219,312.5391 583.5703,312.7031 Q584.2188,312.8672 584.7656,313.2266 Z "/><text fill="#000000" font-family="sans-serif" font-size="12" font-style="italic" lengthAdjust="spacingAndGlyphs" textLength="44" x="627" y="313.457">«Utility»</text><text fill="#000000" font-family="sans-serif" font-size="14" font-weight="bold" lengthAdjust="spacingAndGlyphs" textLength="106" x="596" y="330.627">StringFormater</text></a><!--MD5=[07ac715decb97e07d0e0a42daa9814c6]
class eapli.framework.util.StringMixin--><a href="../../../eapli/framework/util/StringMixin.html" target="_parent" title="eapli.framework.util.StringMixin" xlink:actuate="onRequest" xlink:href="../../../eapli/framework/util/StringMixin.html" xlink:show="new" xlink:title="eapli.framework.util.StringMixin" xlink:type="simple"><rect fill="#FEFECE" filter="url(#fzdhzczfiu1yj)" height="32" id="eapli.framework.util.StringMixin" style="stroke: #A80036; stroke-width: 1.5;" width="109" x="59.5" y="434.5"/><ellipse cx="74.5" cy="450.5" fill="#B4A7E5" rx="11" ry="11" style="stroke: #A80036; stroke-width: 1.0;"/><path d="M75.4531,447.1406 L75.4531,453.7969 L77.1719,453.7969 Q77.7813,453.7969 78.0469,454.0313 Q78.3125,454.2656 78.3125,454.6563 Q78.3125,455.0313 78.0469,455.2656 Q77.7813,455.5 77.1719,455.5 L72.0313,455.5 Q71.4219,455.5 71.1563,455.2656 Q70.8906,455.0313 70.8906,454.6406 Q70.8906,454.2656 71.1563,454.0313 Q71.4219,453.7969 72.0313,453.7969 L73.75,453.7969 L73.75,447.1406 L72.0313,447.1406 Q71.4219,447.1406 71.1563,446.9063 Q70.8906,446.6719 70.8906,446.2813 Q70.8906,445.9063 71.1563,445.6719 Q71.4219,445.4375 72.0313,445.4375 L77.1719,445.4375 Q77.7813,445.4375 78.0469,445.6719 Q78.3125,445.9063 78.3125,446.2813 Q78.3125,446.6719 78.0469,446.9063 Q77.7813,447.1406 77.1719,447.1406 L75.4531,447.1406 Z "/><text fill="#000000" font-family="sans-serif" font-size="14" font-style="italic" font-weight="bold" lengthAdjust="spacingAndGlyphs" textLength="77" x="88.5" y="456.2285">StringMixin</text></a><!--MD5=[ace78677062a8ac40d792b1df40ebaa7]
class eapli.framework.util.Strings--><a href="../../../eapli/framework/util/Strings.html" target="_parent" title="eapli.framework.util.Strings" xlink:actuate="onRequest" xlink:href="../../../eapli/framework/util/Strings.html" xlink:show="new" xlink:title="eapli.framework.util.Strings" xlink:type="simple"><rect fill="#FEFECE" filter="url(#fzdhzczfiu1yj)" height="42.7031" id="eapli.framework.util.Strings" style="stroke: #A80036; stroke-width: 1.5;" width="82" x="204" y="429"/><ellipse cx="219" cy="450.3516" fill="#ADD1B2" rx="11" ry="11" style="stroke: #A80036; stroke-width: 1.0;"/><path d="M221.7656,446.2266 Q221.9219,446.0078 222.1094,445.8984 Q222.2969,445.7891 222.5156,445.7891 Q222.8906,445.7891 223.125,446.0469 Q223.3594,446.3047 223.3594,446.9141 L223.3594,448.3672 Q223.3594,448.9766 223.125,449.2422 Q222.8906,449.5078 222.5156,449.5078 Q222.1719,449.5078 221.9688,449.3047 Q221.7656,449.1172 221.6563,448.6016 Q221.6094,448.2422 221.4219,448.0547 Q221.0938,447.6797 220.4844,447.4609 Q219.875,447.2422 219.25,447.2422 Q218.4844,447.2422 217.8516,447.5703 Q217.2188,447.8984 216.7266,448.6484 Q216.2344,449.3984 216.2344,450.4297 L216.2344,451.5234 Q216.2344,452.7578 217.125,453.5781 Q218.0156,454.3984 219.6094,454.3984 Q220.5469,454.3984 221.2031,454.1484 Q221.5938,453.9922 222.0156,453.5547 Q222.2813,453.2891 222.4297,453.2109 Q222.5781,453.1328 222.7813,453.1328 Q223.1094,453.1328 223.3672,453.3906 Q223.625,453.6484 223.625,453.9922 Q223.625,454.3359 223.2813,454.7422 Q222.7813,455.3203 221.9844,455.6484 Q220.9063,456.1016 219.6094,456.1016 Q218.0938,456.1016 216.8906,455.4766 Q215.9063,454.9766 215.2188,453.9063 Q214.5313,452.8359 214.5313,451.5547 L214.5313,450.3984 Q214.5313,449.0703 215.1484,447.9219 Q215.7656,446.7734 216.8594,446.1563 Q217.9531,445.5391 219.1875,445.5391 Q219.9219,445.5391 220.5703,445.7031 Q221.2188,445.8672 221.7656,446.2266 Z "/><text fill="#000000" font-family="sans-serif" font-size="12" font-style="italic" lengthAdjust="spacingAndGlyphs" textLength="44" x="236" y="446.457">«Utility»</text><text fill="#000000" font-family="sans-serif" font-size="14" font-weight="bold" lengthAdjust="spacingAndGlyphs" textLength="50" x="233" y="463.627">Strings</text></a><!--MD5=[f0a5b5680018cf9a500f333f42931e4d]
class eapli.framework.util.Utility--><a href="../../../eapli/framework/util/Utility.html" target="_parent" title="eapli.framework.util.Utility" xlink:actuate="onRequest" xlink:href="../../../eapli/framework/util/Utility.html" xlink:show="new" xlink:title="eapli.framework.util.Utility" xlink:type="simple"><rect fill="#FEFECE" filter="url(#fzdhzczfiu1yj)" height="72.8906" id="eapli.framework.util.Utility" style="stroke: #A80036; stroke-width: 1.5;" width="113" x="321.5" y="414"/><ellipse cx="336.5" cy="450.4453" fill="#ADD1B2" rx="11" ry="11" style="stroke: #A80036; stroke-width: 1.0;"/><path d="M339.2656,446.3203 Q339.4219,446.1016 339.6094,445.9922 Q339.7969,445.8828 340.0156,445.8828 Q340.3906,445.8828 340.625,446.1406 Q340.8594,446.3984 340.8594,447.0078 L340.8594,448.4609 Q340.8594,449.0703 340.625,449.3359 Q340.3906,449.6016 340.0156,449.6016 Q339.6719,449.6016 339.4688,449.3984 Q339.2656,449.2109 339.1563,448.6953 Q339.1094,448.3359 338.9219,448.1484 Q338.5938,447.7734 337.9844,447.5547 Q337.375,447.3359 336.75,447.3359 Q335.9844,447.3359 335.3516,447.6641 Q334.7188,447.9922 334.2266,448.7422 Q333.7344,449.4922 333.7344,450.5234 L333.7344,451.6172 Q333.7344,452.8516 334.625,453.6719 Q335.5156,454.4922 337.1094,454.4922 Q338.0469,454.4922 338.7031,454.2422 Q339.0938,454.0859 339.5156,453.6484 Q339.7813,453.3828 339.9297,453.3047 Q340.0781,453.2266 340.2813,453.2266 Q340.6094,453.2266 340.8672,453.4844 Q341.125,453.7422 341.125,454.0859 Q341.125,454.4297 340.7813,454.8359 Q340.2813,455.4141 339.4844,455.7422 Q338.4063,456.1953 337.1094,456.1953 Q335.5938,456.1953 334.3906,455.5703 Q333.4063,455.0703 332.7188,454 Q332.0313,452.9297 332.0313,451.6484 L332.0313,450.4922 Q332.0313,449.1641 332.6484,448.0156 Q333.2656,446.8672 334.3594,446.25 Q335.4531,445.6328 336.6875,445.6328 Q337.4219,445.6328 338.0703,445.7969 Q338.7188,445.9609 339.2656,446.3203 Z "/><text fill="#000000" font-family="sans-serif" font-size="12" font-style="italic" lengthAdjust="spacingAndGlyphs" textLength="85" x="348.5" y="431.457">«Documented»</text><text fill="#000000" font-family="sans-serif" font-size="12" font-style="italic" lengthAdjust="spacingAndGlyphs" textLength="67" x="357.5" y="446.5508">«Retention»</text><text fill="#000000" font-family="sans-serif" font-size="12" font-style="italic" lengthAdjust="spacingAndGlyphs" textLength="49" x="366.5" y="461.6445">«Target»</text><text fill="#000000" font-family="sans-serif" font-size="14" font-weight="bold" lengthAdjust="spacingAndGlyphs" textLength="39" x="371.5" y="478.8145">Utility</text></a><!--MD5=[b1caf798619e762bd3e98fea340f4478]
link eapli.framework.util.Arrays to eapli.framework.util.Calendars--><!--MD5=[542506a9cc6727c1704ac40c04baf65b]
link eapli.framework.util.Calendars to eapli.framework.util.Collections--><!--MD5=[7b497d29d30a33a553a656990a6ce8ba]
link eapli.framework.util.Collections to eapli.framework.util.Console--><!--MD5=[b029ff264be2c8953c1aefc924c46704]
link eapli.framework.util.Arrays to eapli.framework.util.Factory--><!--MD5=[da496c5b2524c6183fed61531decea52]
link eapli.framework.util.Factory to eapli.framework.util.Files--><!--MD5=[7b26112fd0a7458beca1443c7442f189]
link eapli.framework.util.Files to eapli.framework.util.HashCoder--><!--MD5=[a257da155dc01c278ccf9c8f60cb6817]
link eapli.framework.util.HashCoder to eapli.framework.util.Math--><!--MD5=[efae91716346b6b4a0290223c8f5ca29]
link eapli.framework.util.Factory to eapli.framework.util.NumberFormater--><!--MD5=[c2da85780cf2edd58ac0c56afa552e4b]
link eapli.framework.util.NumberFormater to eapli.framework.util.NumberGenerator--><!--MD5=[8d0f19af39e8ae568523f52b0d9c6878]
link eapli.framework.util.NumberGenerator to eapli.framework.util.Singleton--><!--MD5=[d914da583531759230bedaf3132484ce]
link eapli.framework.util.Singleton to eapli.framework.util.StringFormater--><!--MD5=[d65a2df45b901256506f3945e2af5c51]
link eapli.framework.util.NumberFormater to eapli.framework.util.StringMixin--><!--MD5=[fef0f8ffd66e1a3c01bc0f06f949205d]
link eapli.framework.util.StringMixin to eapli.framework.util.Strings--><!--MD5=[28b02561bc341436317508612eb4a0fd]
link eapli.framework.util.Strings to eapli.framework.util.Utility--><!--MD5=[53184a3ab77db44ec4bff64177d98733]
@startuml

skinparam svgLinkTarget _parent
skinparam linetype ortho
package eapli.framework.util [[../../../eapli/framework/util/package-summary.html{eapli.framework.util}]] #lightyellow {
}

class "<b><size:14>Arrays</b>" as eapli.framework.util.Arrays <<Utility>> [[../../../eapli/framework/util/Arrays.html{eapli.framework.util.Arrays}]] {
}

hide eapli.framework.util.Arrays fields
hide eapli.framework.util.Arrays methods

class "<b><size:14>Calendars</b>" as eapli.framework.util.Calendars <<Utility>> [[../../../eapli/framework/util/Calendars.html{eapli.framework.util.Calendars}]] {
}

hide eapli.framework.util.Calendars fields
hide eapli.framework.util.Calendars methods

class "<b><size:14>Collections</b>" as eapli.framework.util.Collections <<Utility>> [[../../../eapli/framework/util/Collections.html{eapli.framework.util.Collections}]] {
}

hide eapli.framework.util.Collections fields
hide eapli.framework.util.Collections methods

class "<b><size:14>Console</b>" as eapli.framework.util.Console <<Utility>><<SuppressWarnings>> [[../../../eapli/framework/util/Console.html{eapli.framework.util.Console}]] {
}

hide eapli.framework.util.Console fields
hide eapli.framework.util.Console methods

interface "<b><size:14>Factory</b>" as eapli.framework.util.Factory <<FunctionalInterface>> [[../../../eapli/framework/util/Factory.html{eapli.framework.util.Factory}]] {
}

hide eapli.framework.util.Factory fields
hide eapli.framework.util.Factory methods

class "<b><size:14>Files</b>" as eapli.framework.util.Files <<Utility>> [[../../../eapli/framework/util/Files.html{eapli.framework.util.Files}]] {
}

hide eapli.framework.util.Files fields
hide eapli.framework.util.Files methods

class "<b><size:14>HashCoder</b>" as eapli.framework.util.HashCoder  [[../../../eapli/framework/util/HashCoder.html{eapli.framework.util.HashCoder}]] {
}

hide eapli.framework.util.HashCoder fields
hide eapli.framework.util.HashCoder methods

class "<b><size:14>Math</b>" as eapli.framework.util.Math <<Utility>> [[../../../eapli/framework/util/Math.html{eapli.framework.util.Math}]] {
}

hide eapli.framework.util.Math fields
hide eapli.framework.util.Math methods

class "<b><size:14>NumberFormater</b>" as eapli.framework.util.NumberFormater <<Utility>> [[../../../eapli/framework/util/NumberFormater.html{eapli.framework.util.NumberFormater}]] {
}

hide eapli.framework.util.NumberFormater fields
hide eapli.framework.util.NumberFormater methods

class "<b><size:14>NumberGenerator</b>" as eapli.framework.util.NumberGenerator <<Utility>> [[../../../eapli/framework/util/NumberGenerator.html{eapli.framework.util.NumberGenerator}]] {
}

hide eapli.framework.util.NumberGenerator fields
hide eapli.framework.util.NumberGenerator methods

class "<b><size:14>Singleton</b>" as eapli.framework.util.Singleton <<Documented>><<Retention>><<Target>> [[../../../eapli/framework/util/Singleton.html{eapli.framework.util.Singleton}]] {
}

hide eapli.framework.util.Singleton fields
hide eapli.framework.util.Singleton methods

class "<b><size:14>StringFormater</b>" as eapli.framework.util.StringFormater <<Utility>> [[../../../eapli/framework/util/StringFormater.html{eapli.framework.util.StringFormater}]] {
}

hide eapli.framework.util.StringFormater fields
hide eapli.framework.util.StringFormater methods

interface "<b><size:14>StringMixin</b>" as eapli.framework.util.StringMixin  [[../../../eapli/framework/util/StringMixin.html{eapli.framework.util.StringMixin}]] {
}

hide eapli.framework.util.StringMixin fields
hide eapli.framework.util.StringMixin methods

class "<b><size:14>Strings</b>" as eapli.framework.util.Strings <<Utility>> [[../../../eapli/framework/util/Strings.html{eapli.framework.util.Strings}]] {
}

hide eapli.framework.util.Strings fields
hide eapli.framework.util.Strings methods

class "<b><size:14>Utility</b>" as eapli.framework.util.Utility <<Documented>><<Retention>><<Target>> [[../../../eapli/framework/util/Utility.html{eapli.framework.util.Utility}]] {
}

hide eapli.framework.util.Utility fields
hide eapli.framework.util.Utility methods


@enduml

PlantUML version 1.2020.04(Thu Mar 19 10:16:49 GMT 2020)
(GPL source distribution)
Java Runtime: Java(TM) SE Runtime Environment
JVM: Java HotSpot(TM) 64-Bit Server VM
Java Version: 1.8.0_202-b08
Operating System: Windows 10
Default Encoding: Cp1252
Language: en
Country: US
--></g></svg>