@startuml

skinparam svgLinkTarget _parent
skinparam linetype ortho
set namespaceSeparator none
interface "<b><size:14>StringMixin</b>\n<size:10>eapli.framework.util" as eapli.framework.util.StringMixin  [[../../../eapli/framework/util/StringMixin.html{eapli.framework.util.StringMixin}]] {
+int length()
+boolean isEmpty()
+boolean matches(String regex)
}


class "<b><size:14>Description</b>\n<size:10>eapli.framework.domain.model.general" as eapli.framework.domain.model.general.Description <<Embeddable>><<JsonAutoDetect>> [[../../../eapli/framework/domain/model/general/Description.html{eapli.framework.domain.model.general.Description}]] #white {
}

hide eapli.framework.domain.model.general.Description fields
hide eapli.framework.domain.model.general.Description methods

eapli.framework.domain.model.general.Description ..|> eapli.framework.util.StringMixin

class "<b><size:14>Designation</b>\n<size:10>eapli.framework.domain.model.general" as eapli.framework.domain.model.general.Designation <<Embeddable>><<JsonAutoDetect>> [[../../../eapli/framework/domain/model/general/Designation.html{eapli.framework.domain.model.general.Designation}]] #white {
}

hide eapli.framework.domain.model.general.Designation fields
hide eapli.framework.domain.model.general.Designation methods

eapli.framework.domain.model.general.Designation ..|> eapli.framework.util.StringMixin

class "<b><size:14>EmailAddress</b>\n<size:10>eapli.framework.domain.model.general" as eapli.framework.domain.model.general.EmailAddress <<Embeddable>><<JsonAutoDetect>> [[../../../eapli/framework/domain/model/general/EmailAddress.html{eapli.framework.domain.model.general.EmailAddress}]] #white {
}

hide eapli.framework.domain.model.general.EmailAddress fields
hide eapli.framework.domain.model.general.EmailAddress methods

eapli.framework.domain.model.general.EmailAddress ..|> eapli.framework.util.StringMixin

class "<b><size:14>Text</b>\n<size:10>eapli.framework.domain.model.general" as eapli.framework.domain.model.general.Text <<Embeddable>><<JsonAutoDetect>> [[../../../eapli/framework/domain/model/general/Text.html{eapli.framework.domain.model.general.Text}]] #white {
}

hide eapli.framework.domain.model.general.Text fields
hide eapli.framework.domain.model.general.Text methods

eapli.framework.domain.model.general.Text ..|> eapli.framework.util.StringMixin


@enduml
