<?xml version="1.0" encoding="UTF-8" standalone="no"?><svg xmlns="http://www.w3.org/2000/svg" xmlns:xlink="http://www.w3.org/1999/xlink" contentScriptType="application/ecmascript" contentStyleType="text/css" height="220px" preserveAspectRatio="none" style="width:146px;height:220px;" version="1.1" viewBox="0 0 146 220" width="146px" zoomAndPan="magnify"><defs><filter height="300%" id="fckg0rbaij894" width="300%" x="-1" y="-1"><feGaussianBlur result="blurOut" stdDeviation="2.0"/><feColorMatrix in="blurOut" result="blurOut2" type="matrix" values="0 0 0 0 0 0 0 0 0 0 0 0 0 0 0 0 0 0 .4 0"/><feOffset dx="4.0" dy="4.0" in="blurOut2" result="blurOut3"/><feBlend in="SourceGraphic" in2="blurOut3" mode="normal"/></filter></defs><g><!--MD5=[f0a5b5680018cf9a500f333f42931e4d]
class eapli.framework.util.Utility--><a href="../../../eapli/framework/util/Utility.html" target="_parent" title="eapli.framework.util.Utility" xlink:actuate="onRequest" xlink:href="../../../eapli/framework/util/Utility.html" xlink:show="new" xlink:title="eapli.framework.util.Utility" xlink:type="simple"><rect fill="#FEFECE" filter="url(#fckg0rbaij894)" height="101.4688" id="eapli.framework.util.Utility" style="stroke: #A80036; stroke-width: 1.5;" width="124" x="8.5" y="8"/><ellipse cx="23.5" cy="50.7344" fill="#ADD1B2" rx="11" ry="11" style="stroke: #A80036; stroke-width: 1.0;"/><path d="M26.2656,46.6094 Q26.4219,46.3906 26.6094,46.2813 Q26.7969,46.1719 27.0156,46.1719 Q27.3906,46.1719 27.625,46.4297 Q27.8594,46.6875 27.8594,47.2969 L27.8594,48.75 Q27.8594,49.3594 27.625,49.625 Q27.3906,49.8906 27.0156,49.8906 Q26.6719,49.8906 26.4688,49.6875 Q26.2656,49.5 26.1563,48.9844 Q26.1094,48.625 25.9219,48.4375 Q25.5938,48.0625 24.9844,47.8438 Q24.375,47.625 23.75,47.625 Q22.9844,47.625 22.3516,47.9531 Q21.7188,48.2813 21.2266,49.0313 Q20.7344,49.7813 20.7344,50.8125 L20.7344,51.9063 Q20.7344,53.1406 21.625,53.9609 Q22.5156,54.7813 24.1094,54.7813 Q25.0469,54.7813 25.7031,54.5313 Q26.0938,54.375 26.5156,53.9375 Q26.7813,53.6719 26.9297,53.5938 Q27.0781,53.5156 27.2813,53.5156 Q27.6094,53.5156 27.8672,53.7734 Q28.125,54.0313 28.125,54.375 Q28.125,54.7188 27.7813,55.125 Q27.2813,55.7031 26.4844,56.0313 Q25.4063,56.4844 24.1094,56.4844 Q22.5938,56.4844 21.3906,55.8594 Q20.4063,55.3594 19.7188,54.2891 Q19.0313,53.2188 19.0313,51.9375 L19.0313,50.7813 Q19.0313,49.4531 19.6484,48.3047 Q20.2656,47.1563 21.3594,46.5391 Q22.4531,45.9219 23.6875,45.9219 Q24.4219,45.9219 25.0703,46.0859 Q25.7188,46.25 26.2656,46.6094 Z "/><text fill="#000000" font-family="sans-serif" font-size="12" font-style="italic" lengthAdjust="spacingAndGlyphs" textLength="85" x="41" y="25.457">«Documented»</text><text fill="#000000" font-family="sans-serif" font-size="12" font-style="italic" lengthAdjust="spacingAndGlyphs" textLength="67" x="50" y="40.5508">«Retention»</text><text fill="#000000" font-family="sans-serif" font-size="12" font-style="italic" lengthAdjust="spacingAndGlyphs" textLength="49" x="59" y="55.6445">«Target»</text><text fill="#000000" font-family="sans-serif" font-size="14" font-weight="bold" lengthAdjust="spacingAndGlyphs" textLength="39" x="64" y="72.8145">Utility</text><text fill="#000000" font-family="sans-serif" font-size="10" lengthAdjust="spacingAndGlyphs" textLength="92" x="37.5" y="86.2715">eapli.framework.util</text><line style="stroke: #A80036; stroke-width: 1.5;" x1="9.5" x2="131.5" y1="93.4688" y2="93.4688"/><line style="stroke: #A80036; stroke-width: 1.5;" x1="9.5" x2="131.5" y1="101.4688" y2="101.4688"/></a><!--MD5=[56a45df6946e4556829eb48fafd040fa]
class java.lang.annotation.Annotation--><rect fill="#D3D3D3" filter="url(#fckg0rbaij894)" height="40.1875" id="java.lang.annotation.Annotation" style="stroke: #A80036; stroke-width: 1.5;" width="129" x="6" y="169"/><rect fill="#D3D3D3" height="40.1875" style="stroke: #A80036; stroke-width: 1.5;" width="129" x="6" y="169"/><ellipse cx="21" cy="189.0938" fill="#B4A7E5" rx="11" ry="11" style="stroke: #A80036; stroke-width: 1.0;"/><path d="M21.9531,185.7344 L21.9531,192.3906 L23.6719,192.3906 Q24.2813,192.3906 24.5469,192.625 Q24.8125,192.8594 24.8125,193.25 Q24.8125,193.625 24.5469,193.8594 Q24.2813,194.0938 23.6719,194.0938 L18.5313,194.0938 Q17.9219,194.0938 17.6563,193.8594 Q17.3906,193.625 17.3906,193.2344 Q17.3906,192.8594 17.6563,192.625 Q17.9219,192.3906 18.5313,192.3906 L20.25,192.3906 L20.25,185.7344 L18.5313,185.7344 Q17.9219,185.7344 17.6563,185.5 Q17.3906,185.2656 17.3906,184.875 Q17.3906,184.5 17.6563,184.2656 Q17.9219,184.0313 18.5313,184.0313 L23.6719,184.0313 Q24.2813,184.0313 24.5469,184.2656 Q24.8125,184.5 24.8125,184.875 Q24.8125,185.2656 24.5469,185.5 Q24.2813,185.7344 23.6719,185.7344 L21.9531,185.7344 Z "/><text fill="#000000" font-family="sans-serif" font-size="14" font-style="italic" font-weight="bold" lengthAdjust="spacingAndGlyphs" textLength="75" x="46" y="188.5332">Annotation</text><text fill="#000000" font-family="sans-serif" font-size="10" font-style="italic" lengthAdjust="spacingAndGlyphs" textLength="97" x="35" y="201.9902">java.lang.annotation</text><!--MD5=[340add14a45aa3f50a08e3a3f288bd13]
link eapli.framework.util.Utility to java.lang.annotation.Annotation--><path d="M70.5,109.3284 C70.5,109.3284 70.5,148.7593 70.5,148.7593 " fill="none" id="eapli.framework.util.Utility-&gt;java.lang.annotation.Annotation" style="stroke: #A80036; stroke-width: 1.0; stroke-dasharray: 7.0,7.0;"/><polygon fill="none" points="77.5001,148.7593,70.5,168.7593,63.5001,148.7592,77.5001,148.7593" style="stroke: #A80036; stroke-width: 1.0;"/><!--MD5=[251c52263da022650221cb8bd0a931c2]
@startuml

skinparam svgLinkTarget _parent
skinparam linetype ortho
set namespaceSeparator none
class "<b><size:14>Utility</b>\n<size:10>eapli.framework.util" as eapli.framework.util.Utility <<Documented>><<Retention>><<Target>> [[../../../eapli/framework/util/Utility.html{eapli.framework.util.Utility}]] {
}


interface "<b><size:14>Annotation</b>\n<size:10>java.lang.annotation" as java.lang.annotation.Annotation  #lightgrey {
}

hide java.lang.annotation.Annotation fields
hide java.lang.annotation.Annotation methods

eapli.framework.util.Utility ..|> java.lang.annotation.Annotation


@enduml

PlantUML version 1.2020.04(Thu Mar 19 10:16:49 GMT 2020)
(GPL source distribution)
Java Runtime: Java(TM) SE Runtime Environment
JVM: Java HotSpot(TM) 64-Bit Server VM
Java Version: 1.8.0_202-b08
Operating System: Windows 10
Default Encoding: Cp1252
Language: en
Country: US
--></g></svg>