<?xml version="1.0" encoding="UTF-8" standalone="no"?><svg xmlns="http://www.w3.org/2000/svg" xmlns:xlink="http://www.w3.org/1999/xlink" contentScriptType="application/ecmascript" contentStyleType="text/css" height="247px" preserveAspectRatio="none" style="width:239px;height:247px;" version="1.1" viewBox="0 0 239 247" width="239px" zoomAndPan="magnify"><defs><filter height="300%" id="fe1l7t886ct4t" width="300%" x="-1" y="-1"><feGaussianBlur result="blurOut" stdDeviation="2.0"/><feColorMatrix in="blurOut" result="blurOut2" type="matrix" values="0 0 0 0 0 0 0 0 0 0 0 0 0 0 0 0 0 0 .4 0"/><feOffset dx="4.0" dy="4.0" in="blurOut2" result="blurOut3"/><feBlend in="SourceGraphic" in2="blurOut3" mode="normal"/></filter></defs><g><!--MD5=[5a7e92e821fc3cdb2ab9e6da4807be37]
class eapli.framework.presentation.console.ExitWithMessageAction--><a href="../../../../eapli/framework/presentation/console/ExitWithMessageAction.html" target="_parent" title="eapli.framework.presentation.console.ExitWithMessageAction" xlink:actuate="onRequest" xlink:href="../../../../eapli/framework/presentation/console/ExitWithMessageAction.html" xlink:show="new" xlink:title="eapli.framework.presentation.console.ExitWithMessageAction" xlink:type="simple"><rect fill="#FEFECE" filter="url(#fe1l7t886ct4t)" height="112.7891" id="eapli.framework.presentation.console.ExitWithMessageAction" style="stroke: #A80036; stroke-width: 1.5;" width="222" x="6" y="8"/><ellipse cx="27.75" cy="35.6406" fill="#ADD1B2" rx="11" ry="11" style="stroke: #A80036; stroke-width: 1.0;"/><path d="M30.5156,31.5156 Q30.6719,31.2969 30.8594,31.1875 Q31.0469,31.0781 31.2656,31.0781 Q31.6406,31.0781 31.875,31.3359 Q32.1094,31.5938 32.1094,32.2031 L32.1094,33.6563 Q32.1094,34.2656 31.875,34.5313 Q31.6406,34.7969 31.2656,34.7969 Q30.9219,34.7969 30.7188,34.5938 Q30.5156,34.4063 30.4063,33.8906 Q30.3594,33.5313 30.1719,33.3438 Q29.8438,32.9688 29.2344,32.75 Q28.625,32.5313 28,32.5313 Q27.2344,32.5313 26.6016,32.8594 Q25.9688,33.1875 25.4766,33.9375 Q24.9844,34.6875 24.9844,35.7188 L24.9844,36.8125 Q24.9844,38.0469 25.875,38.8672 Q26.7656,39.6875 28.3594,39.6875 Q29.2969,39.6875 29.9531,39.4375 Q30.3438,39.2813 30.7656,38.8438 Q31.0313,38.5781 31.1797,38.5 Q31.3281,38.4219 31.5313,38.4219 Q31.8594,38.4219 32.1172,38.6797 Q32.375,38.9375 32.375,39.2813 Q32.375,39.625 32.0313,40.0313 Q31.5313,40.6094 30.7344,40.9375 Q29.6563,41.3906 28.3594,41.3906 Q26.8438,41.3906 25.6406,40.7656 Q24.6563,40.2656 23.9688,39.1953 Q23.2813,38.125 23.2813,36.8438 L23.2813,35.6875 Q23.2813,34.3594 23.8984,33.2109 Q24.5156,32.0625 25.6094,31.4453 Q26.7031,30.8281 27.9375,30.8281 Q28.6719,30.8281 29.3203,30.9922 Q29.9688,31.1563 30.5156,31.5156 Z "/><text fill="#000000" font-family="sans-serif" font-size="12" font-style="italic" lengthAdjust="spacingAndGlyphs" textLength="118" x="71.75" y="25.457">«SuppressWarnings»</text><text fill="#000000" font-family="sans-serif" font-size="14" font-weight="bold" lengthAdjust="spacingAndGlyphs" textLength="165" x="48.25" y="42.627">ExitWithMessageAction</text><text fill="#000000" font-family="sans-serif" font-size="10" lengthAdjust="spacingAndGlyphs" textLength="175" x="43.25" y="56.084">eapli.framework.presentation.console</text><line style="stroke: #A80036; stroke-width: 1.5;" x1="7" x2="227" y1="63.2813" y2="63.2813"/><rect fill="none" height="6" style="stroke: #C82930; stroke-width: 1.0;" width="6" x="14" y="71.2813"/><text fill="#000000" font-family="sans-serif" font-size="11" lengthAdjust="spacingAndGlyphs" textLength="75" x="26" y="78.7002">String message</text><line style="stroke: #A80036; stroke-width: 1.5;" x1="7" x2="227" y1="85.1172" y2="85.1172"/><ellipse cx="17" cy="96.1172" fill="#84BE84" rx="3" ry="3" style="stroke: #038048; stroke-width: 1.0;"/><text fill="#000000" font-family="sans-serif" font-size="11" lengthAdjust="spacingAndGlyphs" textLength="196" x="26" y="100.5361">ExitWithMessageAction(String message)</text><ellipse cx="17" cy="109.9531" fill="#84BE84" rx="3" ry="3" style="stroke: #038048; stroke-width: 1.0;"/><text fill="#000000" font-family="sans-serif" font-size="11" lengthAdjust="spacingAndGlyphs" textLength="88" x="26" y="114.3721">boolean execute()</text></a><!--MD5=[ef8b130fed61c1e1b3c1a2a618d68bbd]
class eapli.framework.actions.Action--><a href="../../../../eapli/framework/actions/Action.html" target="_parent" title="eapli.framework.actions.Action" xlink:actuate="onRequest" xlink:href="../../../../eapli/framework/actions/Action.html" xlink:show="new" xlink:title="eapli.framework.actions.Action" xlink:type="simple"><rect fill="#FFFFFF" filter="url(#fe1l7t886ct4t)" height="55.2813" id="eapli.framework.actions.Action" style="stroke: #A80036; stroke-width: 1.5;" width="147" x="43.5" y="181"/><rect fill="#FFFFFF" height="55.2813" style="stroke: #A80036; stroke-width: 1.5;" width="147" x="43.5" y="181"/><ellipse cx="58.5" cy="208.6406" fill="#B4A7E5" rx="11" ry="11" style="stroke: #A80036; stroke-width: 1.0;"/><path d="M59.4531,205.2813 L59.4531,211.9375 L61.1719,211.9375 Q61.7813,211.9375 62.0469,212.1719 Q62.3125,212.4063 62.3125,212.7969 Q62.3125,213.1719 62.0469,213.4063 Q61.7813,213.6406 61.1719,213.6406 L56.0313,213.6406 Q55.4219,213.6406 55.1563,213.4063 Q54.8906,213.1719 54.8906,212.7813 Q54.8906,212.4063 55.1563,212.1719 Q55.4219,211.9375 56.0313,211.9375 L57.75,211.9375 L57.75,205.2813 L56.0313,205.2813 Q55.4219,205.2813 55.1563,205.0469 Q54.8906,204.8125 54.8906,204.4219 Q54.8906,204.0469 55.1563,203.8125 Q55.4219,203.5781 56.0313,203.5781 L61.1719,203.5781 Q61.7813,203.5781 62.0469,203.8125 Q62.3125,204.0469 62.3125,204.4219 Q62.3125,204.8125 62.0469,205.0469 Q61.7813,205.2813 61.1719,205.2813 L59.4531,205.2813 Z "/><text fill="#000000" font-family="sans-serif" font-size="12" font-style="italic" lengthAdjust="spacingAndGlyphs" textLength="119" x="70.5" y="198.457">«FunctionalInterface»</text><text fill="#000000" font-family="sans-serif" font-size="14" font-style="italic" font-weight="bold" lengthAdjust="spacingAndGlyphs" textLength="44" x="108" y="215.627">Action</text><text fill="#000000" font-family="sans-serif" font-size="10" font-style="italic" lengthAdjust="spacingAndGlyphs" textLength="111" x="74.5" y="229.084">eapli.framework.actions</text></a><!--MD5=[3b02badc86b65eba4de4fa7a14e2917f]
link eapli.framework.presentation.console.ExitWithMessageAction to eapli.framework.actions.Action--><path d="M117,121.413 C117,121.413 117,160.8312 117,160.8312 " fill="none" id="eapli.framework.presentation.console.ExitWithMessageAction-&gt;eapli.framework.actions.Action" style="stroke: #A80036; stroke-width: 1.0; stroke-dasharray: 7.0,7.0;"/><polygon fill="none" points="124,160.8313,117,180.8312,110,160.8312,124,160.8313" style="stroke: #A80036; stroke-width: 1.0;"/><!--MD5=[b216326b70dfdad2914967e73c9730e8]
@startuml

skinparam svgLinkTarget _parent
skinparam linetype ortho
set namespaceSeparator none
class "<b><size:14>ExitWithMessageAction</b>\n<size:10>eapli.framework.presentation.console" as eapli.framework.presentation.console.ExitWithMessageAction <<SuppressWarnings>> [[../../../../eapli/framework/presentation/console/ExitWithMessageAction.html{eapli.framework.presentation.console.ExitWithMessageAction}]] {
-String message
+ExitWithMessageAction(String message)
+boolean execute()
}


interface "<b><size:14>Action</b>\n<size:10>eapli.framework.actions" as eapli.framework.actions.Action <<FunctionalInterface>> [[../../../../eapli/framework/actions/Action.html{eapli.framework.actions.Action}]] #white {
}

hide eapli.framework.actions.Action fields
hide eapli.framework.actions.Action methods

eapli.framework.presentation.console.ExitWithMessageAction ..|> eapli.framework.actions.Action


@enduml

PlantUML version 1.2020.04(Thu Mar 19 10:16:49 GMT 2020)
(GPL source distribution)
Java Runtime: Java(TM) SE Runtime Environment
JVM: Java HotSpot(TM) 64-Bit Server VM
Java Version: 1.8.0_202-b08
Operating System: Windows 10
Default Encoding: Cp1252
Language: en
Country: US
--></g></svg>