<?xml version="1.0" encoding="UTF-8" standalone="no"?><svg xmlns="http://www.w3.org/2000/svg" xmlns:xlink="http://www.w3.org/1999/xlink" contentScriptType="application/ecmascript" contentStyleType="text/css" height="330px" preserveAspectRatio="none" style="width:520px;height:330px;" version="1.1" viewBox="0 0 520 330" width="520px" zoomAndPan="magnify"><defs><filter height="300%" id="fovt0eui9j4wz" width="300%" x="-1" y="-1"><feGaussianBlur result="blurOut" stdDeviation="2.0"/><feColorMatrix in="blurOut" result="blurOut2" type="matrix" values="0 0 0 0 0 0 0 0 0 0 0 0 0 0 0 0 0 0 .4 0"/><feOffset dx="4.0" dy="4.0" in="blurOut2" result="blurOut3"/><feBlend in="SourceGraphic" in2="blurOut3" mode="normal"/></filter></defs><g><!--MD5=[8e1deb7022e2698ed8910c78b8a790bd]
class eapli.framework.presentation.console.SelectWidget--><a href="../../../../eapli/framework/presentation/console/SelectWidget.html" target="_parent" title="eapli.framework.presentation.console.SelectWidget" xlink:actuate="onRequest" xlink:href="../../../../eapli/framework/presentation/console/SelectWidget.html" xlink:show="new" xlink:title="eapli.framework.presentation.console.SelectWidget" xlink:type="simple"><rect fill="#FEFECE" filter="url(#fovt0eui9j4wz)" height="195.8047" id="eapli.framework.presentation.console.SelectWidget" style="stroke: #A80036; stroke-width: 1.5;" width="350" x="112.5" y="8"/><ellipse cx="195.75" cy="35.6406" fill="#ADD1B2" rx="11" ry="11" style="stroke: #A80036; stroke-width: 1.0;"/><path d="M198.5156,31.5156 Q198.6719,31.2969 198.8594,31.1875 Q199.0469,31.0781 199.2656,31.0781 Q199.6406,31.0781 199.875,31.3359 Q200.1094,31.5938 200.1094,32.2031 L200.1094,33.6563 Q200.1094,34.2656 199.875,34.5313 Q199.6406,34.7969 199.2656,34.7969 Q198.9219,34.7969 198.7188,34.5938 Q198.5156,34.4063 198.4063,33.8906 Q198.3594,33.5313 198.1719,33.3438 Q197.8438,32.9688 197.2344,32.75 Q196.625,32.5313 196,32.5313 Q195.2344,32.5313 194.6016,32.8594 Q193.9688,33.1875 193.4766,33.9375 Q192.9844,34.6875 192.9844,35.7188 L192.9844,36.8125 Q192.9844,38.0469 193.875,38.8672 Q194.7656,39.6875 196.3594,39.6875 Q197.2969,39.6875 197.9531,39.4375 Q198.3438,39.2813 198.7656,38.8438 Q199.0313,38.5781 199.1797,38.5 Q199.3281,38.4219 199.5313,38.4219 Q199.8594,38.4219 200.1172,38.6797 Q200.375,38.9375 200.375,39.2813 Q200.375,39.625 200.0313,40.0313 Q199.5313,40.6094 198.7344,40.9375 Q197.6563,41.3906 196.3594,41.3906 Q194.8438,41.3906 193.6406,40.7656 Q192.6563,40.2656 191.9688,39.1953 Q191.2813,38.125 191.2813,36.8438 L191.2813,35.6875 Q191.2813,34.3594 191.8984,33.2109 Q192.5156,32.0625 193.6094,31.4453 Q194.7031,30.8281 195.9375,30.8281 Q196.6719,30.8281 197.3203,30.9922 Q197.9688,31.1563 198.5156,31.5156 Z "/><text fill="#000000" font-family="sans-serif" font-size="12" font-style="italic" lengthAdjust="spacingAndGlyphs" textLength="118" x="244.75" y="25.457">«SuppressWarnings»</text><text fill="#000000" font-family="sans-serif" font-size="14" font-weight="bold" lengthAdjust="spacingAndGlyphs" textLength="93" x="257.25" y="42.627">SelectWidget</text><text fill="#000000" font-family="sans-serif" font-size="10" lengthAdjust="spacingAndGlyphs" textLength="175" x="216.25" y="56.084">eapli.framework.presentation.console</text><line style="stroke: #A80036; stroke-width: 1.5;" x1="113.5" x2="461.5" y1="63.2813" y2="63.2813"/><rect fill="none" height="6" style="stroke: #C82930; stroke-width: 1.0;" width="6" x="120.5" y="71.2813"/><text fill="#000000" font-family="sans-serif" font-size="11" lengthAdjust="spacingAndGlyphs" textLength="43" x="132.5" y="78.7002">int option</text><line style="stroke: #A80036; stroke-width: 1.5;" x1="113.5" x2="461.5" y1="85.1172" y2="85.1172"/><ellipse cx="123.5" cy="96.1172" fill="#84BE84" rx="3" ry="3" style="stroke: #038048; stroke-width: 1.0;"/><text fill="#000000" font-family="sans-serif" font-size="11" lengthAdjust="spacingAndGlyphs" textLength="240" x="132.5" y="100.5361">SelectWidget(String header,Collection&lt;T&gt; source)</text><ellipse cx="123.5" cy="109.9531" fill="#84BE84" rx="3" ry="3" style="stroke: #038048; stroke-width: 1.0;"/><text fill="#000000" font-family="sans-serif" font-size="11" lengthAdjust="spacingAndGlyphs" textLength="229" x="132.5" y="114.3721">SelectWidget(String header,Iterable&lt;T&gt; source)</text><ellipse cx="123.5" cy="123.7891" fill="#84BE84" rx="3" ry="3" style="stroke: #038048; stroke-width: 1.0;"/><text fill="#000000" font-family="sans-serif" font-size="11" lengthAdjust="spacingAndGlyphs" textLength="324" x="132.5" y="128.208">SelectWidget(String header,Collection&lt;T&gt; source,Visitor&lt;T&gt; visitor)</text><ellipse cx="123.5" cy="137.625" fill="#84BE84" rx="3" ry="3" style="stroke: #038048; stroke-width: 1.0;"/><text fill="#000000" font-family="sans-serif" font-size="11" lengthAdjust="spacingAndGlyphs" textLength="313" x="132.5" y="142.0439">SelectWidget(String header,Iterable&lt;T&gt; source,Visitor&lt;T&gt; visitor)</text><ellipse cx="123.5" cy="151.4609" fill="#84BE84" rx="3" ry="3" style="stroke: #038048; stroke-width: 1.0;"/><text fill="#000000" font-family="sans-serif" font-size="11" lengthAdjust="spacingAndGlyphs" textLength="59" x="132.5" y="155.8799">void show()</text><ellipse cx="123.5" cy="165.2969" fill="#84BE84" rx="3" ry="3" style="stroke: #038048; stroke-width: 1.0;"/><text fill="#000000" font-family="sans-serif" font-size="11" lengthAdjust="spacingAndGlyphs" textLength="94" x="132.5" y="169.7158">int selectedOption()</text><ellipse cx="123.5" cy="179.1328" fill="#84BE84" rx="3" ry="3" style="stroke: #038048; stroke-width: 1.0;"/><text fill="#000000" font-family="sans-serif" font-size="11" lengthAdjust="spacingAndGlyphs" textLength="120" x="132.5" y="183.5518">Object selectedElement()</text><rect fill="#F24D5C" height="6" style="stroke: #C82930; stroke-width: 1.0;" width="6" x="120.5" y="189.9688"/><text fill="#000000" font-family="sans-serif" font-size="11" lengthAdjust="spacingAndGlyphs" textLength="90" x="132.5" y="197.3877">Object fromIndex()</text></a><!--MD5=[a678c9cffc5e9e726c1a825d490cd4d5]
class eapli.framework.presentation.console.ListWidgetObject--><a href="../../../../eapli/framework/presentation/console/ListWidget.html" target="_parent" title="eapli.framework.presentation.console.ListWidget" xlink:actuate="onRequest" xlink:href="../../../../eapli/framework/presentation/console/ListWidget.html" xlink:show="new" xlink:title="eapli.framework.presentation.console.ListWidget" xlink:type="simple"><rect fill="#FEFECE" filter="url(#fovt0eui9j4wz)" height="55.2813" id="eapli.framework.presentation.console.ListWidgetObject" style="stroke: #A80036; stroke-width: 1.5;" width="207" x="6" y="264"/><ellipse cx="21" cy="291.6406" fill="#ADD1B2" rx="11" ry="11" style="stroke: #A80036; stroke-width: 1.0;"/><path d="M23.7656,287.5156 Q23.9219,287.2969 24.1094,287.1875 Q24.2969,287.0781 24.5156,287.0781 Q24.8906,287.0781 25.125,287.3359 Q25.3594,287.5938 25.3594,288.2031 L25.3594,289.6563 Q25.3594,290.2656 25.125,290.5313 Q24.8906,290.7969 24.5156,290.7969 Q24.1719,290.7969 23.9688,290.5938 Q23.7656,290.4063 23.6563,289.8906 Q23.6094,289.5313 23.4219,289.3438 Q23.0938,288.9688 22.4844,288.75 Q21.875,288.5313 21.25,288.5313 Q20.4844,288.5313 19.8516,288.8594 Q19.2188,289.1875 18.7266,289.9375 Q18.2344,290.6875 18.2344,291.7188 L18.2344,292.8125 Q18.2344,294.0469 19.125,294.8672 Q20.0156,295.6875 21.6094,295.6875 Q22.5469,295.6875 23.2031,295.4375 Q23.5938,295.2813 24.0156,294.8438 Q24.2813,294.5781 24.4297,294.5 Q24.5781,294.4219 24.7813,294.4219 Q25.1094,294.4219 25.3672,294.6797 Q25.625,294.9375 25.625,295.2813 Q25.625,295.625 25.2813,296.0313 Q24.7813,296.6094 23.9844,296.9375 Q22.9063,297.3906 21.6094,297.3906 Q20.0938,297.3906 18.8906,296.7656 Q17.9063,296.2656 17.2188,295.1953 Q16.5313,294.125 16.5313,292.8438 L16.5313,291.6875 Q16.5313,290.3594 17.1484,289.2109 Q17.7656,288.0625 18.8594,287.4453 Q19.9531,286.8281 21.1875,286.8281 Q21.9219,286.8281 22.5703,286.9922 Q23.2188,287.1563 23.7656,287.5156 Z "/><text fill="#000000" font-family="sans-serif" font-size="12" font-style="italic" lengthAdjust="spacingAndGlyphs" textLength="118" x="63.5" y="281.457">«SuppressWarnings»</text><text fill="#000000" font-family="sans-serif" font-size="14" font-weight="bold" lengthAdjust="spacingAndGlyphs" textLength="98" x="73.5" y="298.627">ListWidget&lt;T&gt;</text><text fill="#000000" font-family="sans-serif" font-size="10" lengthAdjust="spacingAndGlyphs" textLength="175" x="35" y="312.084">eapli.framework.presentation.console</text></a><!--MD5=[274ad5661286b626a93603d287cbf95a]
class java.lang.Object--><rect fill="#D3D3D3" filter="url(#fovt0eui9j4wz)" height="40.1875" id="java.lang.Object" style="stroke: #A80036; stroke-width: 1.5;" width="78" x="248.5" y="271.5"/><rect fill="#D3D3D3" height="40.1875" style="stroke: #A80036; stroke-width: 1.5;" width="78" x="248.5" y="271.5"/><ellipse cx="263.5" cy="291.5938" fill="#ADD1B2" rx="11" ry="11" style="stroke: #A80036; stroke-width: 1.0;"/><path d="M266.2656,287.4688 Q266.4219,287.25 266.6094,287.1406 Q266.7969,287.0313 267.0156,287.0313 Q267.3906,287.0313 267.625,287.2891 Q267.8594,287.5469 267.8594,288.1563 L267.8594,289.6094 Q267.8594,290.2188 267.625,290.4844 Q267.3906,290.75 267.0156,290.75 Q266.6719,290.75 266.4688,290.5469 Q266.2656,290.3594 266.1563,289.8438 Q266.1094,289.4844 265.9219,289.2969 Q265.5938,288.9219 264.9844,288.7031 Q264.375,288.4844 263.75,288.4844 Q262.9844,288.4844 262.3516,288.8125 Q261.7188,289.1406 261.2266,289.8906 Q260.7344,290.6406 260.7344,291.6719 L260.7344,292.7656 Q260.7344,294 261.625,294.8203 Q262.5156,295.6406 264.1094,295.6406 Q265.0469,295.6406 265.7031,295.3906 Q266.0938,295.2344 266.5156,294.7969 Q266.7813,294.5313 266.9297,294.4531 Q267.0781,294.375 267.2813,294.375 Q267.6094,294.375 267.8672,294.6328 Q268.125,294.8906 268.125,295.2344 Q268.125,295.5781 267.7813,295.9844 Q267.2813,296.5625 266.4844,296.8906 Q265.4063,297.3438 264.1094,297.3438 Q262.5938,297.3438 261.3906,296.7188 Q260.4063,296.2188 259.7188,295.1484 Q259.0313,294.0781 259.0313,292.7969 L259.0313,291.6406 Q259.0313,290.3125 259.6484,289.1641 Q260.2656,288.0156 261.3594,287.3984 Q262.4531,286.7813 263.6875,286.7813 Q264.4219,286.7813 265.0703,286.9453 Q265.7188,287.1094 266.2656,287.4688 Z "/><text fill="#000000" font-family="sans-serif" font-size="14" font-weight="bold" lengthAdjust="spacingAndGlyphs" textLength="46" x="277.5" y="291.0332">Object</text><text fill="#000000" font-family="sans-serif" font-size="10" lengthAdjust="spacingAndGlyphs" textLength="44" x="278.5" y="304.4902">java.lang</text><!--MD5=[419303423064200ab96191f2f6184a76]
class eapli.framework.visitor.VisitorObject--><a href="../../../../eapli/framework/visitor/Visitor.html" target="_parent" title="eapli.framework.visitor.Visitor" xlink:actuate="onRequest" xlink:href="../../../../eapli/framework/visitor/Visitor.html" xlink:show="new" xlink:title="eapli.framework.visitor.Visitor" xlink:type="simple"><rect fill="#D3D3D3" filter="url(#fovt0eui9j4wz)" height="55.2813" id="eapli.framework.visitor.VisitorObject" style="stroke: #A80036; stroke-width: 1.5;" width="147" x="362" y="264"/><rect fill="#D3D3D3" height="55.2813" style="stroke: #A80036; stroke-width: 1.5;" width="147" x="362" y="264"/><ellipse cx="377" cy="291.6406" fill="#B4A7E5" rx="11" ry="11" style="stroke: #A80036; stroke-width: 1.0;"/><path d="M377.9531,288.2813 L377.9531,294.9375 L379.6719,294.9375 Q380.2813,294.9375 380.5469,295.1719 Q380.8125,295.4063 380.8125,295.7969 Q380.8125,296.1719 380.5469,296.4063 Q380.2813,296.6406 379.6719,296.6406 L374.5313,296.6406 Q373.9219,296.6406 373.6563,296.4063 Q373.3906,296.1719 373.3906,295.7813 Q373.3906,295.4063 373.6563,295.1719 Q373.9219,294.9375 374.5313,294.9375 L376.25,294.9375 L376.25,288.2813 L374.5313,288.2813 Q373.9219,288.2813 373.6563,288.0469 Q373.3906,287.8125 373.3906,287.4219 Q373.3906,287.0469 373.6563,286.8125 Q373.9219,286.5781 374.5313,286.5781 L379.6719,286.5781 Q380.2813,286.5781 380.5469,286.8125 Q380.8125,287.0469 380.8125,287.4219 Q380.8125,287.8125 380.5469,288.0469 Q380.2813,288.2813 379.6719,288.2813 L377.9531,288.2813 Z "/><text fill="#000000" font-family="sans-serif" font-size="12" font-style="italic" lengthAdjust="spacingAndGlyphs" textLength="119" x="389" y="281.457">«FunctionalInterface»</text><text fill="#000000" font-family="sans-serif" font-size="14" font-style="italic" font-weight="bold" lengthAdjust="spacingAndGlyphs" textLength="69" x="414" y="298.627">Visitor&lt;T&gt;</text><text fill="#000000" font-family="sans-serif" font-size="10" font-style="italic" lengthAdjust="spacingAndGlyphs" textLength="105" x="396" y="312.084">eapli.framework.visitor</text></a><!--MD5=[99eb5a2706dfc22c07a8a175924ed54d]
link eapli.framework.presentation.console.SelectWidget to eapli.framework.presentation.console.ListWidgetObject--><path d="M162.75,204.182 C162.75,204.182 162.75,243.7601 162.75,243.7601 " fill="none" id="eapli.framework.presentation.console.SelectWidget-&gt;eapli.framework.presentation.console.ListWidgetObject" style="stroke: #A80036; stroke-width: 1.0;"/><polygon fill="none" points="169.75,243.7601,162.75,263.7601,155.75,243.7601,169.75,243.7601" style="stroke: #A80036; stroke-width: 1.0;"/><!--MD5=[a7d848ccf2f4ba0fceda9d74c5259821]
link eapli.framework.presentation.console.SelectWidget to java.lang.Object--><path d="M287.5,204.182 C287.5,204.182 287.5,266.3864 287.5,266.3864 " fill="none" id="eapli.framework.presentation.console.SelectWidget-&gt;java.lang.Object" style="stroke: #A80036; stroke-width: 1.0; stroke-dasharray: 7.0,7.0;"/><polygon fill="#A80036" points="287.5,271.3864,291.5,262.3864,287.5,266.3864,283.5,262.3864,287.5,271.3864" style="stroke: #A80036; stroke-width: 1.0;"/><!--MD5=[bb2c6b45cf0009663bb03e1258eabcd9]
link eapli.framework.presentation.console.SelectWidget to eapli.framework.visitor.VisitorObject--><path d="M412.25,204.182 C412.25,204.182 412.25,258.7601 412.25,258.7601 " fill="none" id="eapli.framework.presentation.console.SelectWidget-&gt;eapli.framework.visitor.VisitorObject" style="stroke: #A80036; stroke-width: 1.0; stroke-dasharray: 7.0,7.0;"/><polygon fill="#A80036" points="412.25,263.7601,416.25,254.7601,412.25,258.7601,408.25,254.7601,412.25,263.7601" style="stroke: #A80036; stroke-width: 1.0;"/><!--MD5=[edca61edf00f0933244e7a1bf32c3a22]
@startuml

skinparam svgLinkTarget _parent
skinparam linetype ortho
set namespaceSeparator none
class "<b><size:14>SelectWidget</b>\n<size:10>eapli.framework.presentation.console" as eapli.framework.presentation.console.SelectWidget <<SuppressWarnings>> [[../../../../eapli/framework/presentation/console/SelectWidget.html{eapli.framework.presentation.console.SelectWidget}]] {
-int option
+SelectWidget(String header,Collection<T> source)
+SelectWidget(String header,Iterable<T> source)
+SelectWidget(String header,Collection<T> source,Visitor<T> visitor)
+SelectWidget(String header,Iterable<T> source,Visitor<T> visitor)
+void show()
+int selectedOption()
+Object selectedElement()
-Object fromIndex()
}


class "<b><size:14>ListWidget<T></b>\n<size:10>eapli.framework.presentation.console" as eapli.framework.presentation.console.ListWidgetObject <<SuppressWarnings>> [[../../../../eapli/framework/presentation/console/ListWidget.html{eapli.framework.presentation.console.ListWidget}]] {
}

hide eapli.framework.presentation.console.ListWidgetObject fields
hide eapli.framework.presentation.console.ListWidgetObject methods

eapli.framework.presentation.console.SelectWidget - -|> eapli.framework.presentation.console.ListWidgetObject

class "<b><size:14>Object</b>\n<size:10>java.lang" as java.lang.Object  #lightgrey {
}

hide java.lang.Object fields
hide java.lang.Object methods

eapli.framework.presentation.console.SelectWidget ..> java.lang.Object


interface "<b><size:14>Visitor<T></b>\n<size:10>eapli.framework.visitor" as eapli.framework.visitor.VisitorObject <<FunctionalInterface>> [[../../../../eapli/framework/visitor/Visitor.html{eapli.framework.visitor.Visitor}]] #lightgrey {
}

hide eapli.framework.visitor.VisitorObject fields
hide eapli.framework.visitor.VisitorObject methods

eapli.framework.presentation.console.SelectWidget ..> eapli.framework.visitor.VisitorObject


@enduml

PlantUML version 1.2020.04(Thu Mar 19 10:16:49 GMT 2020)
(GPL source distribution)
Java Runtime: Java(TM) SE Runtime Environment
JVM: Java HotSpot(TM) 64-Bit Server VM
Java Version: 1.8.0_202-b08
Operating System: Windows 10
Default Encoding: Cp1252
Language: en
Country: US
--></g></svg>