@startuml

skinparam svgLinkTarget _parent
skinparam linetype ortho
set namespaceSeparator none
class "<b><size:14>ShowMessageAction</b>\n<size:10>eapli.framework.presentation.console" as eapli.framework.presentation.console.ShowMessageAction <<SuppressWarnings>> [[../../../../eapli/framework/presentation/console/ShowMessageAction.html{eapli.framework.presentation.console.ShowMessageAction}]] {
-String message
+ShowMessageAction(String message)
+boolean execute()
}


interface "<b><size:14>Action</b>\n<size:10>eapli.framework.actions" as eapli.framework.actions.Action <<FunctionalInterface>> [[../../../../eapli/framework/actions/Action.html{eapli.framework.actions.Action}]] #white {
}

hide eapli.framework.actions.Action fields
hide eapli.framework.actions.Action methods

eapli.framework.presentation.console.ShowMessageAction ..|> eapli.framework.actions.Action


@enduml
