@startuml

skinparam svgLinkTarget _parent
skinparam linetype ortho
package eapli.framework.domain.model [[../../../../eapli/framework/domain/model/package-summary.html{eapli.framework.domain.model}]] #lightyellow {
}

interface "<b><size:14>AggregateRoot</b>" as eapli.framework.domain.model.AggregateRoot  [[../../../../eapli/framework/domain/model/AggregateRoot.html{eapli.framework.domain.model.AggregateRoot}]] {
}

hide eapli.framework.domain.model.AggregateRoot fields
hide eapli.framework.domain.model.AggregateRoot methods

class "<b><size:14>AggregateRootBase</b>" as eapli.framework.domain.model.AggregateRootBase  [[../../../../eapli/framework/domain/model/AggregateRootBase.html{eapli.framework.domain.model.AggregateRootBase}]] {
}

hide eapli.framework.domain.model.AggregateRootBase fields
hide eapli.framework.domain.model.AggregateRootBase methods

class "<b><size:14>DomainEntities</b>" as eapli.framework.domain.model.DomainEntities  [[../../../../eapli/framework/domain/model/DomainEntities.html{eapli.framework.domain.model.DomainEntities}]] {
}

hide eapli.framework.domain.model.DomainEntities fields
hide eapli.framework.domain.model.DomainEntities methods

interface "<b><size:14>DomainEntity</b>" as eapli.framework.domain.model.DomainEntity  [[../../../../eapli/framework/domain/model/DomainEntity.html{eapli.framework.domain.model.DomainEntity}]] {
}

hide eapli.framework.domain.model.DomainEntity fields
hide eapli.framework.domain.model.DomainEntity methods

class "<b><size:14>DomainEntityBase</b>" as eapli.framework.domain.model.DomainEntityBase  [[../../../../eapli/framework/domain/model/DomainEntityBase.html{eapli.framework.domain.model.DomainEntityBase}]] {
}

hide eapli.framework.domain.model.DomainEntityBase fields
hide eapli.framework.domain.model.DomainEntityBase methods

interface "<b><size:14>DomainFactory</b>" as eapli.framework.domain.model.DomainFactory <<FunctionalInterface>> [[../../../../eapli/framework/domain/model/DomainFactory.html{eapli.framework.domain.model.DomainFactory}]] {
}

hide eapli.framework.domain.model.DomainFactory fields
hide eapli.framework.domain.model.DomainFactory methods

interface "<b><size:14>ValueObject</b>" as eapli.framework.domain.model.ValueObject  [[../../../../eapli/framework/domain/model/ValueObject.html{eapli.framework.domain.model.ValueObject}]] {
}

hide eapli.framework.domain.model.ValueObject fields
hide eapli.framework.domain.model.ValueObject methods

interface "<b><size:14>ValueObjectParser</b>" as eapli.framework.domain.model.ValueObjectParser <<FunctionalInterface>> [[../../../../eapli/framework/domain/model/ValueObjectParser.html{eapli.framework.domain.model.ValueObjectParser}]] {
}

hide eapli.framework.domain.model.ValueObjectParser fields
hide eapli.framework.domain.model.ValueObjectParser methods

eapli.framework.domain.model.AggregateRoot --|> eapli.framework.domain.model.DomainEntityComparable
eapli.framework.domain.model.AggregateRootBase --|> eapli.framework.domain.model.DomainEntityBaseValueObject
eapli.framework.domain.model.AggregateRootBase ..> eapli.framework.domain.model.ValueObject
eapli.framework.domain.model.AggregateRootBase ..|> eapli.framework.domain.model.AggregateRootValueObject
eapli.framework.domain.model.DomainEntities ..> eapli.framework.domain.model.DomainEntityComparable
eapli.framework.domain.model.DomainEntityBase ..|> eapli.framework.domain.model.DomainEntityComparable
eapli.framework.domain.model.DomainFactory ..> eapli.framework.domain.model.DomainEntity
eapli.framework.domain.model.ValueObjectParser ..> eapli.framework.domain.model.ValueObject
package eapli.framework.domain.model.domains [[../../../../eapli/framework/domain/model/domains/package-summary.html{eapli.framework.domain.model.domains}]] {
}

class "<b><size:14>DiscreteDomain</b>" as eapli.framework.domain.model.domains.DiscreteDomain <<Embeddable>> [[../../../../eapli/framework/domain/model/domains/DiscreteDomain.html{eapli.framework.domain.model.domains.DiscreteDomain}]] {
}

hide eapli.framework.domain.model.domains.DiscreteDomain fields
hide eapli.framework.domain.model.domains.DiscreteDomain methods

class "<b><size:14>DiscreteDomainBuilder</b>" as eapli.framework.domain.model.domains.DiscreteDomainBuilder  [[../../../../eapli/framework/domain/model/domains/DiscreteDomainBuilder.html{eapli.framework.domain.model.domains.DiscreteDomainBuilder}]] {
}

hide eapli.framework.domain.model.domains.DiscreteDomainBuilder fields
hide eapli.framework.domain.model.domains.DiscreteDomainBuilder methods

class "<b><size:14>Interval</b>" as eapli.framework.domain.model.domains.Interval <<Embeddable>> [[../../../../eapli/framework/domain/model/domains/Interval.html{eapli.framework.domain.model.domains.Interval}]] {
}

hide eapli.framework.domain.model.domains.Interval fields
hide eapli.framework.domain.model.domains.Interval methods

enum "<b><size:14>Interval.BoundaryLimitType</b>" as eapli.framework.domain.model.domains.Interval.BoundaryLimitType  [[../../../../eapli/framework/domain/model/domains/Interval.BoundaryLimitType.html{eapli.framework.domain.model.domains.Interval.BoundaryLimitType}]] {
}

hide eapli.framework.domain.model.domains.Interval.BoundaryLimitType fields
hide eapli.framework.domain.model.domains.Interval.BoundaryLimitType methods

class "<b><size:14>Interval.IntervalBuilder</b>" as eapli.framework.domain.model.domains.Interval.IntervalBuilder  [[../../../../eapli/framework/domain/model/domains/Interval.IntervalBuilder.html{eapli.framework.domain.model.domains.Interval.IntervalBuilder}]] {
}

hide eapli.framework.domain.model.domains.Interval.IntervalBuilder fields
hide eapli.framework.domain.model.domains.Interval.IntervalBuilder methods

package eapli.framework.domain.model.general [[../../../../eapli/framework/domain/model/general/package-summary.html{eapli.framework.domain.model.general}]] {
}

class "<b><size:14>Description</b>" as eapli.framework.domain.model.general.Description <<Embeddable>><<JsonAutoDetect>> [[../../../../eapli/framework/domain/model/general/Description.html{eapli.framework.domain.model.general.Description}]] {
}

hide eapli.framework.domain.model.general.Description fields
hide eapli.framework.domain.model.general.Description methods

class "<b><size:14>Designation</b>" as eapli.framework.domain.model.general.Designation <<Embeddable>><<JsonAutoDetect>> [[../../../../eapli/framework/domain/model/general/Designation.html{eapli.framework.domain.model.general.Designation}]] {
}

hide eapli.framework.domain.model.general.Designation fields
hide eapli.framework.domain.model.general.Designation methods

class "<b><size:14>EmailAddress</b>" as eapli.framework.domain.model.general.EmailAddress <<Embeddable>><<JsonAutoDetect>> [[../../../../eapli/framework/domain/model/general/EmailAddress.html{eapli.framework.domain.model.general.EmailAddress}]] {
}

hide eapli.framework.domain.model.general.EmailAddress fields
hide eapli.framework.domain.model.general.EmailAddress methods

class "<b><size:14>Money</b>" as eapli.framework.domain.model.general.Money <<Embeddable>><<JsonAutoDetect>> [[../../../../eapli/framework/domain/model/general/Money.html{eapli.framework.domain.model.general.Money}]] {
}

hide eapli.framework.domain.model.general.Money fields
hide eapli.framework.domain.model.general.Money methods

class "<b><size:14>Text</b>" as eapli.framework.domain.model.general.Text <<Embeddable>><<JsonAutoDetect>> [[../../../../eapli/framework/domain/model/general/Text.html{eapli.framework.domain.model.general.Text}]] {
}

hide eapli.framework.domain.model.general.Text fields
hide eapli.framework.domain.model.general.Text methods

class "<b><size:14>Text.TextBuilder</b>" as eapli.framework.domain.model.general.Text.TextBuilder  [[../../../../eapli/framework/domain/model/general/Text.TextBuilder.html{eapli.framework.domain.model.general.Text.TextBuilder}]] {
}

hide eapli.framework.domain.model.general.Text.TextBuilder fields
hide eapli.framework.domain.model.general.Text.TextBuilder methods

package eapli.framework.domain.model.identities [[../../../../eapli/framework/domain/model/identities/package-summary.html{eapli.framework.domain.model.identities}]] {
}

interface "<b><size:14>Identifiable</b>" as eapli.framework.domain.model.identities.Identifiable  [[../../../../eapli/framework/domain/model/identities/Identifiable.html{eapli.framework.domain.model.identities.Identifiable}]] {
}

hide eapli.framework.domain.model.identities.Identifiable fields
hide eapli.framework.domain.model.identities.Identifiable methods

interface "<b><size:14>IdentityGenerator</b>" as eapli.framework.domain.model.identities.IdentityGenerator <<FunctionalInterface>> [[../../../../eapli/framework/domain/model/identities/IdentityGenerator.html{eapli.framework.domain.model.identities.IdentityGenerator}]] {
}

hide eapli.framework.domain.model.identities.IdentityGenerator fields
hide eapli.framework.domain.model.identities.IdentityGenerator methods

class "<b><size:14>IdentityGenerators</b>" as eapli.framework.domain.model.identities.IdentityGenerators <<Singleton>> [[../../../../eapli/framework/domain/model/identities/IdentityGenerators.html{eapli.framework.domain.model.identities.IdentityGenerators}]] {
}

hide eapli.framework.domain.model.identities.IdentityGenerators fields
hide eapli.framework.domain.model.identities.IdentityGenerators methods

package eapli.framework.domain.model.math [[../../../../eapli/framework/domain/model/math/package-summary.html{eapli.framework.domain.model.math}]] {
}

class "<b><size:14>Matrix</b>" as eapli.framework.domain.model.math.Matrix  [[../../../../eapli/framework/domain/model/math/Matrix.html{eapli.framework.domain.model.math.Matrix}]] {
}

hide eapli.framework.domain.model.math.Matrix fields
hide eapli.framework.domain.model.math.Matrix methods

class "<b><size:14>Numeral</b>" as eapli.framework.domain.model.math.Numeral  [[../../../../eapli/framework/domain/model/math/Numeral.html{eapli.framework.domain.model.math.Numeral}]] {
}

hide eapli.framework.domain.model.math.Numeral fields
hide eapli.framework.domain.model.math.Numeral methods

interface "<b><size:14>NumeralSystem</b>" as eapli.framework.domain.model.math.NumeralSystem <<FunctionalInterface>> [[../../../../eapli/framework/domain/model/math/NumeralSystem.html{eapli.framework.domain.model.math.NumeralSystem}]] {
}

hide eapli.framework.domain.model.math.NumeralSystem fields
hide eapli.framework.domain.model.math.NumeralSystem methods

class "<b><size:14>RomanNumeral</b>" as eapli.framework.domain.model.math.RomanNumeral  [[../../../../eapli/framework/domain/model/math/RomanNumeral.html{eapli.framework.domain.model.math.RomanNumeral}]] {
}

hide eapli.framework.domain.model.math.RomanNumeral fields
hide eapli.framework.domain.model.math.RomanNumeral methods

class "<b><size:14>StandardNumeralSystem</b>" as eapli.framework.domain.model.math.StandardNumeralSystem  [[../../../../eapli/framework/domain/model/math/StandardNumeralSystem.html{eapli.framework.domain.model.math.StandardNumeralSystem}]] {
}

hide eapli.framework.domain.model.math.StandardNumeralSystem fields
hide eapli.framework.domain.model.math.StandardNumeralSystem methods

class "<b><size:14>Vector</b>" as eapli.framework.domain.model.math.Vector  [[../../../../eapli/framework/domain/model/math/Vector.html{eapli.framework.domain.model.math.Vector}]] {
}

hide eapli.framework.domain.model.math.Vector fields
hide eapli.framework.domain.model.math.Vector methods

enum "<b><size:14>Vector.VectorType</b>" as eapli.framework.domain.model.math.Vector.VectorType  [[../../../../eapli/framework/domain/model/math/Vector.VectorType.html{eapli.framework.domain.model.math.Vector.VectorType}]] {
}

hide eapli.framework.domain.model.math.Vector.VectorType fields
hide eapli.framework.domain.model.math.Vector.VectorType methods

package eapli.framework.domain.model.time [[../../../../eapli/framework/domain/model/time/package-summary.html{eapli.framework.domain.model.time}]] {
}

class "<b><size:14>DateInterval</b>" as eapli.framework.domain.model.time.DateInterval <<Embeddable>> [[../../../../eapli/framework/domain/model/time/DateInterval.html{eapli.framework.domain.model.time.DateInterval}]] {
}

hide eapli.framework.domain.model.time.DateInterval fields
hide eapli.framework.domain.model.time.DateInterval methods

class "<b><size:14>TimeInterval</b>" as eapli.framework.domain.model.time.TimeInterval  [[../../../../eapli/framework/domain/model/time/TimeInterval.html{eapli.framework.domain.model.time.TimeInterval}]] {
}

hide eapli.framework.domain.model.time.TimeInterval fields
hide eapli.framework.domain.model.time.TimeInterval methods

class "<b><size:14>TimestampInterval</b>" as eapli.framework.domain.model.time.TimestampInterval <<Embeddable>> [[../../../../eapli/framework/domain/model/time/TimestampInterval.html{eapli.framework.domain.model.time.TimestampInterval}]] {
}

hide eapli.framework.domain.model.time.TimestampInterval fields
hide eapli.framework.domain.model.time.TimestampInterval methods


@enduml
