<?xml version="1.0" encoding="UTF-8" standalone="no"?><svg xmlns="http://www.w3.org/2000/svg" xmlns:xlink="http://www.w3.org/1999/xlink" contentScriptType="application/ecmascript" contentStyleType="text/css" height="204px" preserveAspectRatio="none" style="width:212px;height:204px;" version="1.1" viewBox="0 0 212 204" width="212px" zoomAndPan="magnify"><defs><filter height="300%" id="f1aityvvux3bxy" width="300%" x="-1" y="-1"><feGaussianBlur result="blurOut" stdDeviation="2.0"/><feColorMatrix in="blurOut" result="blurOut2" type="matrix" values="0 0 0 0 0 0 0 0 0 0 0 0 0 0 0 0 0 0 .4 0"/><feOffset dx="4.0" dy="4.0" in="blurOut2" result="blurOut3"/><feBlend in="SourceGraphic" in2="blurOut3" mode="normal"/></filter></defs><g><!--MD5=[c8a98f818b6ba4187dca5741aff31d1e]
class eapli.framework.domain.model.ValueObjectParser--><a href="../../../../eapli/framework/domain/model/ValueObjectParser.html" target="_parent" title="eapli.framework.domain.model.ValueObjectParser" xlink:actuate="onRequest" xlink:href="../../../../eapli/framework/domain/model/ValueObjectParser.html" xlink:show="new" xlink:title="eapli.framework.domain.model.ValueObjectParser" xlink:type="simple"><rect fill="#FEFECE" filter="url(#f1aityvvux3bxy)" height="85.1172" id="eapli.framework.domain.model.ValueObjectParser" style="stroke: #A80036; stroke-width: 1.5;" width="195" x="6" y="8"/><ellipse cx="30.45" cy="35.6406" fill="#B4A7E5" rx="11" ry="11" style="stroke: #A80036; stroke-width: 1.0;"/><path d="M31.4031,32.2813 L31.4031,38.9375 L33.1219,38.9375 Q33.7313,38.9375 33.9969,39.1719 Q34.2625,39.4063 34.2625,39.7969 Q34.2625,40.1719 33.9969,40.4063 Q33.7313,40.6406 33.1219,40.6406 L27.9813,40.6406 Q27.3719,40.6406 27.1063,40.4063 Q26.8406,40.1719 26.8406,39.7813 Q26.8406,39.4063 27.1063,39.1719 Q27.3719,38.9375 27.9813,38.9375 L29.7,38.9375 L29.7,32.2813 L27.9813,32.2813 Q27.3719,32.2813 27.1063,32.0469 Q26.8406,31.8125 26.8406,31.4219 Q26.8406,31.0469 27.1063,30.8125 Q27.3719,30.5781 27.9813,30.5781 L33.1219,30.5781 Q33.7313,30.5781 33.9969,30.8125 Q34.2625,31.0469 34.2625,31.4219 Q34.2625,31.8125 33.9969,32.0469 Q33.7313,32.2813 33.1219,32.2813 L31.4031,32.2813 Z "/><text fill="#000000" font-family="sans-serif" font-size="12" font-style="italic" lengthAdjust="spacingAndGlyphs" textLength="119" x="58.05" y="25.457">«FunctionalInterface»</text><text fill="#000000" font-family="sans-serif" font-size="14" font-style="italic" font-weight="bold" lengthAdjust="spacingAndGlyphs" textLength="128" x="53.55" y="42.627">ValueObjectParser</text><text fill="#000000" font-family="sans-serif" font-size="10" font-style="italic" lengthAdjust="spacingAndGlyphs" textLength="142" x="46.55" y="56.084">eapli.framework.domain.model</text><line style="stroke: #A80036; stroke-width: 1.5;" x1="7" x2="200" y1="63.2813" y2="63.2813"/><line style="stroke: #A80036; stroke-width: 1.5;" x1="7" x2="200" y1="71.2813" y2="71.2813"/><ellipse cx="17" cy="82.2813" fill="#84BE84" rx="3" ry="3" style="stroke: #038048; stroke-width: 1.0;"/><text fill="#000000" font-family="sans-serif" font-size="11" font-style="italic" lengthAdjust="spacingAndGlyphs" textLength="169" x="26" y="86.7002">ValueObject valueOf(String value)</text></a><!--MD5=[ce0423b4918b6b29de95b9c9580cdd71]
class eapli.framework.domain.model.ValueObject--><a href="../../../../eapli/framework/domain/model/ValueObject.html" target="_parent" title="eapli.framework.domain.model.ValueObject" xlink:actuate="onRequest" xlink:href="../../../../eapli/framework/domain/model/ValueObject.html" xlink:show="new" xlink:title="eapli.framework.domain.model.ValueObject" xlink:type="simple"><rect fill="#FEFECE" filter="url(#f1aityvvux3bxy)" height="40.1875" id="eapli.framework.domain.model.ValueObject" style="stroke: #A80036; stroke-width: 1.5;" width="174" x="16.5" y="153"/><ellipse cx="31.5" cy="173.0938" fill="#B4A7E5" rx="11" ry="11" style="stroke: #A80036; stroke-width: 1.0;"/><path d="M32.4531,169.7344 L32.4531,176.3906 L34.1719,176.3906 Q34.7813,176.3906 35.0469,176.625 Q35.3125,176.8594 35.3125,177.25 Q35.3125,177.625 35.0469,177.8594 Q34.7813,178.0938 34.1719,178.0938 L29.0313,178.0938 Q28.4219,178.0938 28.1563,177.8594 Q27.8906,177.625 27.8906,177.2344 Q27.8906,176.8594 28.1563,176.625 Q28.4219,176.3906 29.0313,176.3906 L30.75,176.3906 L30.75,169.7344 L29.0313,169.7344 Q28.4219,169.7344 28.1563,169.5 Q27.8906,169.2656 27.8906,168.875 Q27.8906,168.5 28.1563,168.2656 Q28.4219,168.0313 29.0313,168.0313 L34.1719,168.0313 Q34.7813,168.0313 35.0469,168.2656 Q35.3125,168.5 35.3125,168.875 Q35.3125,169.2656 35.0469,169.5 Q34.7813,169.7344 34.1719,169.7344 L32.4531,169.7344 Z "/><text fill="#000000" font-family="sans-serif" font-size="14" font-style="italic" font-weight="bold" lengthAdjust="spacingAndGlyphs" textLength="84" x="74.5" y="172.5332">ValueObject</text><text fill="#000000" font-family="sans-serif" font-size="10" font-style="italic" lengthAdjust="spacingAndGlyphs" textLength="142" x="45.5" y="185.9902">eapli.framework.domain.model</text></a><!--MD5=[c9edd6576ff38a54d61ea5c3b5cde7d2]
link eapli.framework.domain.model.ValueObjectParser to eapli.framework.domain.model.ValueObject--><path d="M103.5,93.0008 C103.5,93.0008 103.5,147.8906 103.5,147.8906 " fill="none" id="eapli.framework.domain.model.ValueObjectParser-&gt;eapli.framework.domain.model.ValueObject" style="stroke: #A80036; stroke-width: 1.0; stroke-dasharray: 7.0,7.0;"/><polygon fill="#A80036" points="103.5,152.8906,107.5,143.8906,103.5,147.8906,99.5,143.8906,103.5,152.8906" style="stroke: #A80036; stroke-width: 1.0;"/><!--MD5=[6b2a7ae3cba94ad0361d744206bb5d14]
@startuml

skinparam svgLinkTarget _parent
skinparam linetype ortho
set namespaceSeparator none
interface "<b><size:14>ValueObjectParser</b>\n<size:10>eapli.framework.domain.model" as eapli.framework.domain.model.ValueObjectParser <<FunctionalInterface>> [[../../../../eapli/framework/domain/model/ValueObjectParser.html{eapli.framework.domain.model.ValueObjectParser}]] {
{abstract} +ValueObject valueOf(String value)
}


interface "<b><size:14>ValueObject</b>\n<size:10>eapli.framework.domain.model" as eapli.framework.domain.model.ValueObject  [[../../../../eapli/framework/domain/model/ValueObject.html{eapli.framework.domain.model.ValueObject}]] {
}

hide eapli.framework.domain.model.ValueObject fields
hide eapli.framework.domain.model.ValueObject methods

eapli.framework.domain.model.ValueObjectParser ..> eapli.framework.domain.model.ValueObject


@enduml

PlantUML version 1.2020.04(Thu Mar 19 10:16:49 GMT 2020)
(GPL source distribution)
Java Runtime: Java(TM) SE Runtime Environment
JVM: Java HotSpot(TM) 64-Bit Server VM
Java Version: 1.8.0_202-b08
Operating System: Windows 10
Default Encoding: Cp1252
Language: en
Country: US
--></g></svg>