@startuml

skinparam svgLinkTarget _parent
skinparam linetype ortho
set namespaceSeparator none
interface "<b><size:14>ReportingRepository</b>\n<size:10>eapli.framework.domain.repositories" as eapli.framework.domain.repositories.ReportingRepository  [[../../../../eapli/framework/domain/repositories/ReportingRepository.html{eapli.framework.domain.repositories.ReportingRepository}]] {
}



@enduml
