<?xml version="1.0" encoding="UTF-8" standalone="no"?><svg xmlns="http://www.w3.org/2000/svg" xmlns:xlink="http://www.w3.org/1999/xlink" contentScriptType="application/ecmascript" contentStyleType="text/css" height="230px" preserveAspectRatio="none" style="width:588px;height:230px;" version="1.1" viewBox="0 0 588 230" width="588px" zoomAndPan="magnify"><defs><filter height="300%" id="felss4tnvts16" width="300%" x="-1" y="-1"><feGaussianBlur result="blurOut" stdDeviation="2.0"/><feColorMatrix in="blurOut" result="blurOut2" type="matrix" values="0 0 0 0 0 0 0 0 0 0 0 0 0 0 0 0 0 0 .4 0"/><feOffset dx="4.0" dy="4.0" in="blurOut2" result="blurOut3"/><feBlend in="SourceGraphic" in2="blurOut3" mode="normal"/></filter></defs><g><!--MD5=[d4c3418e4b9f7728a57dfa43ed99deb9]
class eapli.framework.domain.repositories.TransactionalContext--><a href="../../../../eapli/framework/domain/repositories/TransactionalContext.html" target="_parent" title="eapli.framework.domain.repositories.TransactionalContext" xlink:actuate="onRequest" xlink:href="../../../../eapli/framework/domain/repositories/TransactionalContext.html" xlink:show="new" xlink:title="eapli.framework.domain.repositories.TransactionalContext" xlink:type="simple"><rect fill="#FEFECE" filter="url(#felss4tnvts16)" height="111.5313" id="eapli.framework.domain.repositories.TransactionalContext" style="stroke: #A80036; stroke-width: 1.5;" width="201" x="190.5" y="108"/><ellipse cx="205.5" cy="128.0938" fill="#B4A7E5" rx="11" ry="11" style="stroke: #A80036; stroke-width: 1.0;"/><path d="M206.4531,124.7344 L206.4531,131.3906 L208.1719,131.3906 Q208.7813,131.3906 209.0469,131.625 Q209.3125,131.8594 209.3125,132.25 Q209.3125,132.625 209.0469,132.8594 Q208.7813,133.0938 208.1719,133.0938 L203.0313,133.0938 Q202.4219,133.0938 202.1563,132.8594 Q201.8906,132.625 201.8906,132.2344 Q201.8906,131.8594 202.1563,131.625 Q202.4219,131.3906 203.0313,131.3906 L204.75,131.3906 L204.75,124.7344 L203.0313,124.7344 Q202.4219,124.7344 202.1563,124.5 Q201.8906,124.2656 201.8906,123.875 Q201.8906,123.5 202.1563,123.2656 Q202.4219,123.0313 203.0313,123.0313 L208.1719,123.0313 Q208.7813,123.0313 209.0469,123.2656 Q209.3125,123.5 209.3125,123.875 Q209.3125,124.2656 209.0469,124.5 Q208.7813,124.7344 208.1719,124.7344 L206.4531,124.7344 Z "/><text fill="#000000" font-family="sans-serif" font-size="14" font-style="italic" font-weight="bold" lengthAdjust="spacingAndGlyphs" textLength="146" x="231" y="127.5332">TransactionalContext</text><text fill="#000000" font-family="sans-serif" font-size="10" font-style="italic" lengthAdjust="spacingAndGlyphs" textLength="169" x="219.5" y="140.9902">eapli.framework.domain.repositories</text><line style="stroke: #A80036; stroke-width: 1.5;" x1="191.5" x2="390.5" y1="148.1875" y2="148.1875"/><line style="stroke: #A80036; stroke-width: 1.5;" x1="191.5" x2="390.5" y1="156.1875" y2="156.1875"/><ellipse cx="201.5" cy="167.1875" fill="#84BE84" rx="3" ry="3" style="stroke: #038048; stroke-width: 1.0;"/><text fill="#000000" font-family="sans-serif" font-size="11" font-style="italic" lengthAdjust="spacingAndGlyphs" textLength="118" x="210.5" y="171.6064">void beginTransaction()</text><ellipse cx="201.5" cy="181.0234" fill="#84BE84" rx="3" ry="3" style="stroke: #038048; stroke-width: 1.0;"/><text fill="#000000" font-family="sans-serif" font-size="11" font-style="italic" lengthAdjust="spacingAndGlyphs" textLength="67" x="210.5" y="185.4424">void commit()</text><ellipse cx="201.5" cy="194.8594" fill="#84BE84" rx="3" ry="3" style="stroke: #038048; stroke-width: 1.0;"/><text fill="#000000" font-family="sans-serif" font-size="11" font-style="italic" lengthAdjust="spacingAndGlyphs" textLength="72" x="210.5" y="199.2783">void rollback()</text><ellipse cx="201.5" cy="208.6953" fill="#84BE84" rx="3" ry="3" style="stroke: #038048; stroke-width: 1.0;"/><text fill="#000000" font-family="sans-serif" font-size="11" font-style="italic" lengthAdjust="spacingAndGlyphs" textLength="58" x="210.5" y="213.1143">void close()</text></a><!--MD5=[6144c490ce61590973dce0b410447132]
class eapli.framework.infrastructure.repositories.impl.jpa.JpaAutoTxRepository--><a href="../../../../eapli/framework/infrastructure/repositories/impl/jpa/JpaAutoTxRepository.html" target="_parent" title="eapli.framework.infrastructure.repositories.impl.jpa.JpaAutoTxRepository" xlink:actuate="onRequest" xlink:href="../../../../eapli/framework/infrastructure/repositories/impl/jpa/JpaAutoTxRepository.html" xlink:show="new" xlink:title="eapli.framework.infrastructure.repositories.impl.jpa.JpaAutoTxRepository" xlink:type="simple"><rect fill="#FFFFFF" filter="url(#felss4tnvts16)" height="40.1875" id="eapli.framework.infrastructure.repositories.impl.jpa.JpaAutoTxRepository" style="stroke: #A80036; stroke-width: 1.5;" width="268" x="6" y="8"/><rect fill="#FFFFFF" height="40.1875" style="stroke: #A80036; stroke-width: 1.5;" width="268" x="6" y="8"/><ellipse cx="21" cy="28.0938" fill="#ADD1B2" rx="11" ry="11" style="stroke: #A80036; stroke-width: 1.0;"/><path d="M23.7656,23.9688 Q23.9219,23.75 24.1094,23.6406 Q24.2969,23.5313 24.5156,23.5313 Q24.8906,23.5313 25.125,23.7891 Q25.3594,24.0469 25.3594,24.6563 L25.3594,26.1094 Q25.3594,26.7188 25.125,26.9844 Q24.8906,27.25 24.5156,27.25 Q24.1719,27.25 23.9688,27.0469 Q23.7656,26.8594 23.6563,26.3438 Q23.6094,25.9844 23.4219,25.7969 Q23.0938,25.4219 22.4844,25.2031 Q21.875,24.9844 21.25,24.9844 Q20.4844,24.9844 19.8516,25.3125 Q19.2188,25.6406 18.7266,26.3906 Q18.2344,27.1406 18.2344,28.1719 L18.2344,29.2656 Q18.2344,30.5 19.125,31.3203 Q20.0156,32.1406 21.6094,32.1406 Q22.5469,32.1406 23.2031,31.8906 Q23.5938,31.7344 24.0156,31.2969 Q24.2813,31.0313 24.4297,30.9531 Q24.5781,30.875 24.7813,30.875 Q25.1094,30.875 25.3672,31.1328 Q25.625,31.3906 25.625,31.7344 Q25.625,32.0781 25.2813,32.4844 Q24.7813,33.0625 23.9844,33.3906 Q22.9063,33.8438 21.6094,33.8438 Q20.0938,33.8438 18.8906,33.2188 Q17.9063,32.7188 17.2188,31.6484 Q16.5313,30.5781 16.5313,29.2969 L16.5313,28.1406 Q16.5313,26.8125 17.1484,25.6641 Q17.7656,24.5156 18.8594,23.8984 Q19.9531,23.2813 21.1875,23.2813 Q21.9219,23.2813 22.5703,23.4453 Q23.2188,23.6094 23.7656,23.9688 Z "/><text fill="#000000" font-family="sans-serif" font-size="14" font-weight="bold" lengthAdjust="spacingAndGlyphs" textLength="149" x="78.5" y="27.5332">JpaAutoTxRepository</text><text fill="#000000" font-family="sans-serif" font-size="10" lengthAdjust="spacingAndGlyphs" textLength="236" x="35" y="40.9902">eapli.framework.infrastructure.repositories.impl.jpa</text></a><!--MD5=[505300acf3517e872ec2c50c8bfb2cca]
class eapli.framework.infrastructure.repositories.impl.jpa.JpaTransactionalContext--><a href="../../../../eapli/framework/infrastructure/repositories/impl/jpa/JpaTransactionalContext.html" target="_parent" title="eapli.framework.infrastructure.repositories.impl.jpa.JpaTransactionalContext" xlink:actuate="onRequest" xlink:href="../../../../eapli/framework/infrastructure/repositories/impl/jpa/JpaTransactionalContext.html" xlink:show="new" xlink:title="eapli.framework.infrastructure.repositories.impl.jpa.JpaTransactionalContext" xlink:type="simple"><rect fill="#FFFFFF" filter="url(#felss4tnvts16)" height="40.1875" id="eapli.framework.infrastructure.repositories.impl.jpa.JpaTransactionalContext" style="stroke: #A80036; stroke-width: 1.5;" width="268" x="309" y="8"/><rect fill="#FFFFFF" height="40.1875" style="stroke: #A80036; stroke-width: 1.5;" width="268" x="309" y="8"/><ellipse cx="324" cy="28.0938" fill="#ADD1B2" rx="11" ry="11" style="stroke: #A80036; stroke-width: 1.0;"/><path d="M326.7656,23.9688 Q326.9219,23.75 327.1094,23.6406 Q327.2969,23.5313 327.5156,23.5313 Q327.8906,23.5313 328.125,23.7891 Q328.3594,24.0469 328.3594,24.6563 L328.3594,26.1094 Q328.3594,26.7188 328.125,26.9844 Q327.8906,27.25 327.5156,27.25 Q327.1719,27.25 326.9688,27.0469 Q326.7656,26.8594 326.6563,26.3438 Q326.6094,25.9844 326.4219,25.7969 Q326.0938,25.4219 325.4844,25.2031 Q324.875,24.9844 324.25,24.9844 Q323.4844,24.9844 322.8516,25.3125 Q322.2188,25.6406 321.7266,26.3906 Q321.2344,27.1406 321.2344,28.1719 L321.2344,29.2656 Q321.2344,30.5 322.125,31.3203 Q323.0156,32.1406 324.6094,32.1406 Q325.5469,32.1406 326.2031,31.8906 Q326.5938,31.7344 327.0156,31.2969 Q327.2813,31.0313 327.4297,30.9531 Q327.5781,30.875 327.7813,30.875 Q328.1094,30.875 328.3672,31.1328 Q328.625,31.3906 328.625,31.7344 Q328.625,32.0781 328.2813,32.4844 Q327.7813,33.0625 326.9844,33.3906 Q325.9063,33.8438 324.6094,33.8438 Q323.0938,33.8438 321.8906,33.2188 Q320.9063,32.7188 320.2188,31.6484 Q319.5313,30.5781 319.5313,29.2969 L319.5313,28.1406 Q319.5313,26.8125 320.1484,25.6641 Q320.7656,24.5156 321.8594,23.8984 Q322.9531,23.2813 324.1875,23.2813 Q324.9219,23.2813 325.5703,23.4453 Q326.2188,23.6094 326.7656,23.9688 Z "/><text fill="#000000" font-family="sans-serif" font-size="14" font-weight="bold" lengthAdjust="spacingAndGlyphs" textLength="174" x="369" y="27.5332">JpaTransactionalContext</text><text fill="#000000" font-family="sans-serif" font-size="10" lengthAdjust="spacingAndGlyphs" textLength="236" x="338" y="40.9902">eapli.framework.infrastructure.repositories.impl.jpa</text></a><!--MD5=[0b7a67212a56699fcd4cfa1887ec746d]
link eapli.framework.infrastructure.repositories.impl.jpa.JpaAutoTxRepository to eapli.framework.domain.repositories.TransactionalContext--><path d="M232.25,48.067 C232.25,48.067 232.25,102.966 232.25,102.966 " fill="none" id="eapli.framework.infrastructure.repositories.impl.jpa.JpaAutoTxRepository-&gt;eapli.framework.domain.repositories.TransactionalContext" style="stroke: #A80036; stroke-width: 1.0;"/><polygon fill="#A80036" points="232.25,107.966,236.25,98.966,232.25,102.966,228.25,98.966,232.25,107.966" style="stroke: #A80036; stroke-width: 1.0;"/><text fill="#000000" font-family="sans-serif" font-size="13" lengthAdjust="spacingAndGlyphs" textLength="39" x="183.2242" y="97.3093">autoTx</text><!--MD5=[87fad36b25950ec2513da6d11ce4be5d]
link eapli.framework.infrastructure.repositories.impl.jpa.JpaTransactionalContext to eapli.framework.domain.repositories.TransactionalContext--><path d="M350.25,48.067 C350.25,48.067 350.25,87.966 350.25,87.966 " fill="none" id="eapli.framework.infrastructure.repositories.impl.jpa.JpaTransactionalContext-&gt;eapli.framework.domain.repositories.TransactionalContext" style="stroke: #A80036; stroke-width: 1.0; stroke-dasharray: 7.0,7.0;"/><polygon fill="none" points="357.25,87.966,350.25,107.966,343.25,87.966,357.25,87.966" style="stroke: #A80036; stroke-width: 1.0;"/><!--MD5=[6cce8517cb41ba417a84b022fece52cc]
@startuml

skinparam svgLinkTarget _parent
skinparam linetype ortho
set namespaceSeparator none
interface "<b><size:14>TransactionalContext</b>\n<size:10>eapli.framework.domain.repositories" as eapli.framework.domain.repositories.TransactionalContext  [[../../../../eapli/framework/domain/repositories/TransactionalContext.html{eapli.framework.domain.repositories.TransactionalContext}]] {
{abstract} +void beginTransaction()
{abstract} +void commit()
{abstract} +void rollback()
{abstract} +void close()
}


class "<b><size:14>JpaAutoTxRepository</b>\n<size:10>eapli.framework.infrastructure.repositories.impl.jpa" as eapli.framework.infrastructure.repositories.impl.jpa.JpaAutoTxRepository  [[../../../../eapli/framework/infrastructure/repositories/impl/jpa/JpaAutoTxRepository.html{eapli.framework.infrastructure.repositories.impl.jpa.JpaAutoTxRepository}]] #white {
}

hide eapli.framework.infrastructure.repositories.impl.jpa.JpaAutoTxRepository fields
hide eapli.framework.infrastructure.repositories.impl.jpa.JpaAutoTxRepository methods

eapli.framework.infrastructure.repositories.impl.jpa.JpaAutoTxRepository - ->  "autoTx" eapli.framework.domain.repositories.TransactionalContext

class "<b><size:14>JpaTransactionalContext</b>\n<size:10>eapli.framework.infrastructure.repositories.impl.jpa" as eapli.framework.infrastructure.repositories.impl.jpa.JpaTransactionalContext  [[../../../../eapli/framework/infrastructure/repositories/impl/jpa/JpaTransactionalContext.html{eapli.framework.infrastructure.repositories.impl.jpa.JpaTransactionalContext}]] #white {
}

hide eapli.framework.infrastructure.repositories.impl.jpa.JpaTransactionalContext fields
hide eapli.framework.infrastructure.repositories.impl.jpa.JpaTransactionalContext methods

eapli.framework.infrastructure.repositories.impl.jpa.JpaTransactionalContext ..|> eapli.framework.domain.repositories.TransactionalContext


@enduml

PlantUML version 1.2020.04(Thu Mar 19 10:16:49 GMT 2020)
(GPL source distribution)
Java Runtime: Java(TM) SE Runtime Environment
JVM: Java HotSpot(TM) 64-Bit Server VM
Java Version: 1.8.0_202-b08
Operating System: Windows 10
Default Encoding: Cp1252
Language: en
Country: US
--></g></svg>