@startuml

skinparam svgLinkTarget _parent
skinparam linetype ortho
package eapli.framework.actions [[eapli/framework/actions/package-summary.html{eapli.framework.actions}]] {
}

interface "<b><size:14>Action</b>" as eapli.framework.actions.Action <<FunctionalInterface>> [[eapli/framework/actions/Action.html{eapli.framework.actions.Action}]] {
}

hide eapli.framework.actions.Action fields
hide eapli.framework.actions.Action methods

class "<b><size:14>ActionHistoryKeeper</b>" as eapli.framework.actions.ActionHistoryKeeper  [[eapli/framework/actions/ActionHistoryKeeper.html{eapli.framework.actions.ActionHistoryKeeper}]] {
}

hide eapli.framework.actions.ActionHistoryKeeper fields
hide eapli.framework.actions.ActionHistoryKeeper methods

class "<b><size:14>Actions</b>" as eapli.framework.actions.Actions <<Utility>> [[eapli/framework/actions/Actions.html{eapli.framework.actions.Actions}]] {
}

hide eapli.framework.actions.Actions fields
hide eapli.framework.actions.Actions methods

class "<b><size:14>ChainedAction</b>" as eapli.framework.actions.ChainedAction  [[eapli/framework/actions/ChainedAction.html{eapli.framework.actions.ChainedAction}]] {
}

hide eapli.framework.actions.ChainedAction fields
hide eapli.framework.actions.ChainedAction methods

class "<b><size:14>Macro</b>" as eapli.framework.actions.Macro  [[eapli/framework/actions/Macro.html{eapli.framework.actions.Macro}]] {
}

hide eapli.framework.actions.Macro fields
hide eapli.framework.actions.Macro methods

class "<b><size:14>TimedActions</b>" as eapli.framework.actions.TimedActions <<Utility>> [[eapli/framework/actions/TimedActions.html{eapli.framework.actions.TimedActions}]] {
}

hide eapli.framework.actions.TimedActions fields
hide eapli.framework.actions.TimedActions methods

interface "<b><size:14>UndoableAction</b>" as eapli.framework.actions.UndoableAction  [[eapli/framework/actions/UndoableAction.html{eapli.framework.actions.UndoableAction}]] {
}

hide eapli.framework.actions.UndoableAction fields
hide eapli.framework.actions.UndoableAction methods

package eapli.framework.application [[eapli/framework/application/package-summary.html{eapli.framework.application}]] {
}

interface "<b><size:14>UseCaseController</b>" as eapli.framework.application.UseCaseController  [[eapli/framework/application/UseCaseController.html{eapli.framework.application.UseCaseController}]] {
}

hide eapli.framework.application.UseCaseController fields
hide eapli.framework.application.UseCaseController methods

package eapli.framework.domain.activerecord [[eapli/framework/domain/activerecord/package-summary.html{eapli.framework.domain.activerecord}]] {
}

interface "<b><size:14>ActiveRecord</b>" as eapli.framework.domain.activerecord.ActiveRecord  [[eapli/framework/domain/activerecord/ActiveRecord.html{eapli.framework.domain.activerecord.ActiveRecord}]] {
}

hide eapli.framework.domain.activerecord.ActiveRecord fields
hide eapli.framework.domain.activerecord.ActiveRecord methods

interface "<b><size:14>DeleteableActiveRecord</b>" as eapli.framework.domain.activerecord.DeleteableActiveRecord  [[eapli/framework/domain/activerecord/DeleteableActiveRecord.html{eapli.framework.domain.activerecord.DeleteableActiveRecord}]] {
}

hide eapli.framework.domain.activerecord.DeleteableActiveRecord fields
hide eapli.framework.domain.activerecord.DeleteableActiveRecord methods

interface "<b><size:14>Finder</b>" as eapli.framework.domain.activerecord.Finder  [[eapli/framework/domain/activerecord/Finder.html{eapli.framework.domain.activerecord.Finder}]] {
}

hide eapli.framework.domain.activerecord.Finder fields
hide eapli.framework.domain.activerecord.Finder methods

package eapli.framework.domain.events [[eapli/framework/domain/events/package-summary.html{eapli.framework.domain.events}]] {
}

interface "<b><size:14>DomainEvent</b>" as eapli.framework.domain.events.DomainEvent  [[eapli/framework/domain/events/DomainEvent.html{eapli.framework.domain.events.DomainEvent}]] {
}

hide eapli.framework.domain.events.DomainEvent fields
hide eapli.framework.domain.events.DomainEvent methods

class "<b><size:14>DomainEventBase</b>" as eapli.framework.domain.events.DomainEventBase  [[eapli/framework/domain/events/DomainEventBase.html{eapli.framework.domain.events.DomainEventBase}]] {
}

hide eapli.framework.domain.events.DomainEventBase fields
hide eapli.framework.domain.events.DomainEventBase methods

package eapli.framework.domain.model [[eapli/framework/domain/model/package-summary.html{eapli.framework.domain.model}]] {
}

interface "<b><size:14>AggregateRoot</b>" as eapli.framework.domain.model.AggregateRoot  [[eapli/framework/domain/model/AggregateRoot.html{eapli.framework.domain.model.AggregateRoot}]] {
}

hide eapli.framework.domain.model.AggregateRoot fields
hide eapli.framework.domain.model.AggregateRoot methods

class "<b><size:14>AggregateRootBase</b>" as eapli.framework.domain.model.AggregateRootBase  [[eapli/framework/domain/model/AggregateRootBase.html{eapli.framework.domain.model.AggregateRootBase}]] {
}

hide eapli.framework.domain.model.AggregateRootBase fields
hide eapli.framework.domain.model.AggregateRootBase methods

class "<b><size:14>DomainEntities</b>" as eapli.framework.domain.model.DomainEntities  [[eapli/framework/domain/model/DomainEntities.html{eapli.framework.domain.model.DomainEntities}]] {
}

hide eapli.framework.domain.model.DomainEntities fields
hide eapli.framework.domain.model.DomainEntities methods

interface "<b><size:14>DomainEntity</b>" as eapli.framework.domain.model.DomainEntity  [[eapli/framework/domain/model/DomainEntity.html{eapli.framework.domain.model.DomainEntity}]] {
}

hide eapli.framework.domain.model.DomainEntity fields
hide eapli.framework.domain.model.DomainEntity methods

class "<b><size:14>DomainEntityBase</b>" as eapli.framework.domain.model.DomainEntityBase  [[eapli/framework/domain/model/DomainEntityBase.html{eapli.framework.domain.model.DomainEntityBase}]] {
}

hide eapli.framework.domain.model.DomainEntityBase fields
hide eapli.framework.domain.model.DomainEntityBase methods

interface "<b><size:14>DomainFactory</b>" as eapli.framework.domain.model.DomainFactory <<FunctionalInterface>> [[eapli/framework/domain/model/DomainFactory.html{eapli.framework.domain.model.DomainFactory}]] {
}

hide eapli.framework.domain.model.DomainFactory fields
hide eapli.framework.domain.model.DomainFactory methods

interface "<b><size:14>ValueObject</b>" as eapli.framework.domain.model.ValueObject  [[eapli/framework/domain/model/ValueObject.html{eapli.framework.domain.model.ValueObject}]] {
}

hide eapli.framework.domain.model.ValueObject fields
hide eapli.framework.domain.model.ValueObject methods

interface "<b><size:14>ValueObjectParser</b>" as eapli.framework.domain.model.ValueObjectParser <<FunctionalInterface>> [[eapli/framework/domain/model/ValueObjectParser.html{eapli.framework.domain.model.ValueObjectParser}]] {
}

hide eapli.framework.domain.model.ValueObjectParser fields
hide eapli.framework.domain.model.ValueObjectParser methods

package eapli.framework.domain.repositories [[eapli/framework/domain/repositories/package-summary.html{eapli.framework.domain.repositories}]] {
}

class "<b><size:14>BusinessIdentity</b>" as eapli.framework.domain.repositories.BusinessIdentity <<Target>> [[eapli/framework/domain/repositories/BusinessIdentity.html{eapli.framework.domain.repositories.BusinessIdentity}]] {
}

hide eapli.framework.domain.repositories.BusinessIdentity fields
hide eapli.framework.domain.repositories.BusinessIdentity methods

class "<b><size:14>ConcurrencyException</b>" as eapli.framework.domain.repositories.ConcurrencyException  [[eapli/framework/domain/repositories/ConcurrencyException.html{eapli.framework.domain.repositories.ConcurrencyException}]] {
}

hide eapli.framework.domain.repositories.ConcurrencyException fields
hide eapli.framework.domain.repositories.ConcurrencyException methods

interface "<b><size:14>DomainRepository</b>" as eapli.framework.domain.repositories.DomainRepository  [[eapli/framework/domain/repositories/DomainRepository.html{eapli.framework.domain.repositories.DomainRepository}]] {
}

hide eapli.framework.domain.repositories.DomainRepository fields
hide eapli.framework.domain.repositories.DomainRepository methods

class "<b><size:14>IntegrityViolationException</b>" as eapli.framework.domain.repositories.IntegrityViolationException  [[eapli/framework/domain/repositories/IntegrityViolationException.html{eapli.framework.domain.repositories.IntegrityViolationException}]] {
}

hide eapli.framework.domain.repositories.IntegrityViolationException fields
hide eapli.framework.domain.repositories.IntegrityViolationException methods

interface "<b><size:14>IterableDomainRepository</b>" as eapli.framework.domain.repositories.IterableDomainRepository  [[eapli/framework/domain/repositories/IterableDomainRepository.html{eapli.framework.domain.repositories.IterableDomainRepository}]] {
}

hide eapli.framework.domain.repositories.IterableDomainRepository fields
hide eapli.framework.domain.repositories.IterableDomainRepository methods

interface "<b><size:14>ReportingRepository</b>" as eapli.framework.domain.repositories.ReportingRepository  [[eapli/framework/domain/repositories/ReportingRepository.html{eapli.framework.domain.repositories.ReportingRepository}]] {
}

hide eapli.framework.domain.repositories.ReportingRepository fields
hide eapli.framework.domain.repositories.ReportingRepository methods

interface "<b><size:14>TransactionalContext</b>" as eapli.framework.domain.repositories.TransactionalContext  [[eapli/framework/domain/repositories/TransactionalContext.html{eapli.framework.domain.repositories.TransactionalContext}]] {
}

hide eapli.framework.domain.repositories.TransactionalContext fields
hide eapli.framework.domain.repositories.TransactionalContext methods

package eapli.framework.functional [[eapli/framework/functional/package-summary.html{eapli.framework.functional}]] {
}

class "<b><size:14>ArrayOfDoubleCollector</b>" as eapli.framework.functional.ArrayOfDoubleCollector  [[eapli/framework/functional/ArrayOfDoubleCollector.html{eapli.framework.functional.ArrayOfDoubleCollector}]] {
}

hide eapli.framework.functional.ArrayOfDoubleCollector fields
hide eapli.framework.functional.ArrayOfDoubleCollector methods

class "<b><size:14>Either</b>" as eapli.framework.functional.Either  [[eapli/framework/functional/Either.html{eapli.framework.functional.Either}]] {
}

hide eapli.framework.functional.Either fields
hide eapli.framework.functional.Either methods

class "<b><size:14>Functions</b>" as eapli.framework.functional.Functions <<Utility>> [[eapli/framework/functional/Functions.html{eapli.framework.functional.Functions}]] {
}

hide eapli.framework.functional.Functions fields
hide eapli.framework.functional.Functions methods

class "<b><size:14>MathFunctions</b>" as eapli.framework.functional.MathFunctions <<Utility>> [[eapli/framework/functional/MathFunctions.html{eapli.framework.functional.MathFunctions}]] {
}

hide eapli.framework.functional.MathFunctions fields
hide eapli.framework.functional.MathFunctions methods

interface "<b><size:14>Monad</b>" as eapli.framework.functional.Monad  [[eapli/framework/functional/Monad.html{eapli.framework.functional.Monad}]] {
}

hide eapli.framework.functional.Monad fields
hide eapli.framework.functional.Monad methods

class "<b><size:14>StandardFunctions</b>" as eapli.framework.functional.StandardFunctions <<Utility>> [[eapli/framework/functional/StandardFunctions.html{eapli.framework.functional.StandardFunctions}]] {
}

hide eapli.framework.functional.StandardFunctions fields
hide eapli.framework.functional.StandardFunctions methods

class "<b><size:14>Streams</b>" as eapli.framework.functional.Streams <<Utility>> [[eapli/framework/functional/Streams.html{eapli.framework.functional.Streams}]] {
}

hide eapli.framework.functional.Streams fields
hide eapli.framework.functional.Streams methods

class "<b><size:14>ValueHistory</b>" as eapli.framework.functional.ValueHistory  [[eapli/framework/functional/ValueHistory.html{eapli.framework.functional.ValueHistory}]] {
}

hide eapli.framework.functional.ValueHistory fields
hide eapli.framework.functional.ValueHistory methods

package eapli.framework.infrastructure.repositories [[eapli/framework/infrastructure/repositories/package-summary.html{eapli.framework.infrastructure.repositories}]] {
}

interface "<b><size:14>IterableRepository</b>" as eapli.framework.infrastructure.repositories.IterableRepository  [[eapli/framework/infrastructure/repositories/IterableRepository.html{eapli.framework.infrastructure.repositories.IterableRepository}]] {
}

hide eapli.framework.infrastructure.repositories.IterableRepository fields
hide eapli.framework.infrastructure.repositories.IterableRepository methods

interface "<b><size:14>Repository</b>" as eapli.framework.infrastructure.repositories.Repository  [[eapli/framework/infrastructure/repositories/Repository.html{eapli.framework.infrastructure.repositories.Repository}]] {
}

hide eapli.framework.infrastructure.repositories.Repository fields
hide eapli.framework.infrastructure.repositories.Repository methods

package eapli.framework.memento [[eapli/framework/memento/package-summary.html{eapli.framework.memento}]] {
}

interface "<b><size:14>Memento</b>" as eapli.framework.memento.Memento  [[eapli/framework/memento/Memento.html{eapli.framework.memento.Memento}]] {
}

hide eapli.framework.memento.Memento fields
hide eapli.framework.memento.Memento methods

interface "<b><size:14>Restorable</b>" as eapli.framework.memento.Restorable  [[eapli/framework/memento/Restorable.html{eapli.framework.memento.Restorable}]] {
}

hide eapli.framework.memento.Restorable fields
hide eapli.framework.memento.Restorable methods

class "<b><size:14>RestorableHistoryKeeper</b>" as eapli.framework.memento.RestorableHistoryKeeper  [[eapli/framework/memento/RestorableHistoryKeeper.html{eapli.framework.memento.RestorableHistoryKeeper}]] {
}

hide eapli.framework.memento.RestorableHistoryKeeper fields
hide eapli.framework.memento.RestorableHistoryKeeper methods

package eapli.framework.presentation.console [[eapli/framework/presentation/console/package-summary.html{eapli.framework.presentation.console}]] {
}

class "<b><size:14>AbstractListUI</b>" as eapli.framework.presentation.console.AbstractListUI  [[eapli/framework/presentation/console/AbstractListUI.html{eapli.framework.presentation.console.AbstractListUI}]] {
}

hide eapli.framework.presentation.console.AbstractListUI fields
hide eapli.framework.presentation.console.AbstractListUI methods

class "<b><size:14>AbstractUI</b>" as eapli.framework.presentation.console.AbstractUI <<SuppressWarnings>> [[eapli/framework/presentation/console/AbstractUI.html{eapli.framework.presentation.console.AbstractUI}]] {
}

hide eapli.framework.presentation.console.AbstractUI fields
hide eapli.framework.presentation.console.AbstractUI methods

class "<b><size:14>EnumSelectWidget</b>" as eapli.framework.presentation.console.EnumSelectWidget  [[eapli/framework/presentation/console/EnumSelectWidget.html{eapli.framework.presentation.console.EnumSelectWidget}]] {
}

hide eapli.framework.presentation.console.EnumSelectWidget fields
hide eapli.framework.presentation.console.EnumSelectWidget methods

class "<b><size:14>ExitWithMessageAction</b>" as eapli.framework.presentation.console.ExitWithMessageAction <<SuppressWarnings>> [[eapli/framework/presentation/console/ExitWithMessageAction.html{eapli.framework.presentation.console.ExitWithMessageAction}]] {
}

hide eapli.framework.presentation.console.ExitWithMessageAction fields
hide eapli.framework.presentation.console.ExitWithMessageAction methods

class "<b><size:14>ListUI</b>" as eapli.framework.presentation.console.ListUI  [[eapli/framework/presentation/console/ListUI.html{eapli.framework.presentation.console.ListUI}]] {
}

hide eapli.framework.presentation.console.ListUI fields
hide eapli.framework.presentation.console.ListUI methods

class "<b><size:14>ListWidget</b>" as eapli.framework.presentation.console.ListWidget <<SuppressWarnings>> [[eapli/framework/presentation/console/ListWidget.html{eapli.framework.presentation.console.ListWidget}]] {
}

hide eapli.framework.presentation.console.ListWidget fields
hide eapli.framework.presentation.console.ListWidget methods

class "<b><size:14>SelectWidget</b>" as eapli.framework.presentation.console.SelectWidget <<SuppressWarnings>> [[eapli/framework/presentation/console/SelectWidget.html{eapli.framework.presentation.console.SelectWidget}]] {
}

hide eapli.framework.presentation.console.SelectWidget fields
hide eapli.framework.presentation.console.SelectWidget methods

class "<b><size:14>ShowMessageAction</b>" as eapli.framework.presentation.console.ShowMessageAction <<SuppressWarnings>> [[eapli/framework/presentation/console/ShowMessageAction.html{eapli.framework.presentation.console.ShowMessageAction}]] {
}

hide eapli.framework.presentation.console.ShowMessageAction fields
hide eapli.framework.presentation.console.ShowMessageAction methods

class "<b><size:14>ShowUiAction</b>" as eapli.framework.presentation.console.ShowUiAction <<SuppressWarnings>> [[eapli/framework/presentation/console/ShowUiAction.html{eapli.framework.presentation.console.ShowUiAction}]] {
}

hide eapli.framework.presentation.console.ShowUiAction fields
hide eapli.framework.presentation.console.ShowUiAction methods

package eapli.framework.representations [[eapli/framework/representations/package-summary.html{eapli.framework.representations}]] {
}

interface "<b><size:14>Representationable</b>" as eapli.framework.representations.Representationable <<FunctionalInterface>> [[eapli/framework/representations/Representationable.html{eapli.framework.representations.Representationable}]] {
}

hide eapli.framework.representations.Representationable fields
hide eapli.framework.representations.Representationable methods

interface "<b><size:14>RepresentationBuilder</b>" as eapli.framework.representations.RepresentationBuilder  [[eapli/framework/representations/RepresentationBuilder.html{eapli.framework.representations.RepresentationBuilder}]] {
}

hide eapli.framework.representations.RepresentationBuilder fields
hide eapli.framework.representations.RepresentationBuilder methods

package eapli.framework.services [[eapli/framework/services/package-summary.html{eapli.framework.services}]] {
}

class "<b><size:14>ResourceNotFoundException</b>" as eapli.framework.services.ResourceNotFoundException <<ResponseStatus>> [[eapli/framework/services/ResourceNotFoundException.html{eapli.framework.services.ResourceNotFoundException}]] {
}

hide eapli.framework.services.ResourceNotFoundException fields
hide eapli.framework.services.ResourceNotFoundException methods

class "<b><size:14>RestConsierge</b>" as eapli.framework.services.RestConsierge <<Utility>> [[eapli/framework/services/RestConsierge.html{eapli.framework.services.RestConsierge}]] {
}

hide eapli.framework.services.RestConsierge fields
hide eapli.framework.services.RestConsierge methods

package eapli.framework.util [[eapli/framework/util/package-summary.html{eapli.framework.util}]] {
}

class "<b><size:14>Arrays</b>" as eapli.framework.util.Arrays <<Utility>> [[eapli/framework/util/Arrays.html{eapli.framework.util.Arrays}]] {
}

hide eapli.framework.util.Arrays fields
hide eapli.framework.util.Arrays methods

class "<b><size:14>Calendars</b>" as eapli.framework.util.Calendars <<Utility>> [[eapli/framework/util/Calendars.html{eapli.framework.util.Calendars}]] {
}

hide eapli.framework.util.Calendars fields
hide eapli.framework.util.Calendars methods

class "<b><size:14>Collections</b>" as eapli.framework.util.Collections <<Utility>> [[eapli/framework/util/Collections.html{eapli.framework.util.Collections}]] {
}

hide eapli.framework.util.Collections fields
hide eapli.framework.util.Collections methods

class "<b><size:14>Console</b>" as eapli.framework.util.Console <<Utility>><<SuppressWarnings>> [[eapli/framework/util/Console.html{eapli.framework.util.Console}]] {
}

hide eapli.framework.util.Console fields
hide eapli.framework.util.Console methods

interface "<b><size:14>Factory</b>" as eapli.framework.util.Factory <<FunctionalInterface>> [[eapli/framework/util/Factory.html{eapli.framework.util.Factory}]] {
}

hide eapli.framework.util.Factory fields
hide eapli.framework.util.Factory methods

class "<b><size:14>Files</b>" as eapli.framework.util.Files <<Utility>> [[eapli/framework/util/Files.html{eapli.framework.util.Files}]] {
}

hide eapli.framework.util.Files fields
hide eapli.framework.util.Files methods

class "<b><size:14>HashCoder</b>" as eapli.framework.util.HashCoder  [[eapli/framework/util/HashCoder.html{eapli.framework.util.HashCoder}]] {
}

hide eapli.framework.util.HashCoder fields
hide eapli.framework.util.HashCoder methods

class "<b><size:14>Math</b>" as eapli.framework.util.Math <<Utility>> [[eapli/framework/util/Math.html{eapli.framework.util.Math}]] {
}

hide eapli.framework.util.Math fields
hide eapli.framework.util.Math methods

class "<b><size:14>NumberFormater</b>" as eapli.framework.util.NumberFormater <<Utility>> [[eapli/framework/util/NumberFormater.html{eapli.framework.util.NumberFormater}]] {
}

hide eapli.framework.util.NumberFormater fields
hide eapli.framework.util.NumberFormater methods

class "<b><size:14>NumberGenerator</b>" as eapli.framework.util.NumberGenerator <<Utility>> [[eapli/framework/util/NumberGenerator.html{eapli.framework.util.NumberGenerator}]] {
}

hide eapli.framework.util.NumberGenerator fields
hide eapli.framework.util.NumberGenerator methods

class "<b><size:14>Singleton</b>" as eapli.framework.util.Singleton <<Documented>><<Retention>><<Target>> [[eapli/framework/util/Singleton.html{eapli.framework.util.Singleton}]] {
}

hide eapli.framework.util.Singleton fields
hide eapli.framework.util.Singleton methods

interface "<b><size:14>Strategy</b>" as eapli.framework.util.Strategy  [[eapli/framework/util/Strategy.html{eapli.framework.util.Strategy}]] {
}

hide eapli.framework.util.Strategy fields
hide eapli.framework.util.Strategy methods

class "<b><size:14>StringFormater</b>" as eapli.framework.util.StringFormater <<Utility>> [[eapli/framework/util/StringFormater.html{eapli.framework.util.StringFormater}]] {
}

hide eapli.framework.util.StringFormater fields
hide eapli.framework.util.StringFormater methods

interface "<b><size:14>StringMixin</b>" as eapli.framework.util.StringMixin  [[eapli/framework/util/StringMixin.html{eapli.framework.util.StringMixin}]] {
}

hide eapli.framework.util.StringMixin fields
hide eapli.framework.util.StringMixin methods

class "<b><size:14>Strings</b>" as eapli.framework.util.Strings <<Utility>> [[eapli/framework/util/Strings.html{eapli.framework.util.Strings}]] {
}

hide eapli.framework.util.Strings fields
hide eapli.framework.util.Strings methods

class "<b><size:14>TemplateMethod</b>" as eapli.framework.util.TemplateMethod <<Documented>><<Retention>><<Target>> [[eapli/framework/util/TemplateMethod.html{eapli.framework.util.TemplateMethod}]] {
}

hide eapli.framework.util.TemplateMethod fields
hide eapli.framework.util.TemplateMethod methods

class "<b><size:14>Utility</b>" as eapli.framework.util.Utility <<Documented>><<Retention>><<Target>> [[eapli/framework/util/Utility.html{eapli.framework.util.Utility}]] {
}

hide eapli.framework.util.Utility fields
hide eapli.framework.util.Utility methods

package eapli.framework.validations [[eapli/framework/validations/package-summary.html{eapli.framework.validations}]] {
}

class "<b><size:14>CalendarPredicates</b>" as eapli.framework.validations.CalendarPredicates <<Utility>> [[eapli/framework/validations/CalendarPredicates.html{eapli.framework.validations.CalendarPredicates}]] {
}

hide eapli.framework.validations.CalendarPredicates fields
hide eapli.framework.validations.CalendarPredicates methods

class "<b><size:14>ComparablePredicates</b>" as eapli.framework.validations.ComparablePredicates <<Utility>> [[eapli/framework/validations/ComparablePredicates.html{eapli.framework.validations.ComparablePredicates}]] {
}

hide eapli.framework.validations.ComparablePredicates fields
hide eapli.framework.validations.ComparablePredicates methods

class "<b><size:14>Invariants</b>" as eapli.framework.validations.Invariants <<Utility>> [[eapli/framework/validations/Invariants.html{eapli.framework.validations.Invariants}]] {
}

hide eapli.framework.validations.Invariants fields
hide eapli.framework.validations.Invariants methods

class "<b><size:14>NumberPredicates</b>" as eapli.framework.validations.NumberPredicates <<Utility>> [[eapli/framework/validations/NumberPredicates.html{eapli.framework.validations.NumberPredicates}]] {
}

hide eapli.framework.validations.NumberPredicates fields
hide eapli.framework.validations.NumberPredicates methods

class "<b><size:14>Preconditions</b>" as eapli.framework.validations.Preconditions <<Utility>> [[eapli/framework/validations/Preconditions.html{eapli.framework.validations.Preconditions}]] {
}

hide eapli.framework.validations.Preconditions fields
hide eapli.framework.validations.Preconditions methods

class "<b><size:14>StringPredicates</b>" as eapli.framework.validations.StringPredicates <<Utility>> [[eapli/framework/validations/StringPredicates.html{eapli.framework.validations.StringPredicates}]] {
}

hide eapli.framework.validations.StringPredicates fields
hide eapli.framework.validations.StringPredicates methods

package eapli.framework.visitor [[eapli/framework/visitor/package-summary.html{eapli.framework.visitor}]] {
}

interface "<b><size:14>Visitable</b>" as eapli.framework.visitor.Visitable <<FunctionalInterface>> [[eapli/framework/visitor/Visitable.html{eapli.framework.visitor.Visitable}]] {
}

hide eapli.framework.visitor.Visitable fields
hide eapli.framework.visitor.Visitable methods

interface "<b><size:14>Visitor</b>" as eapli.framework.visitor.Visitor <<FunctionalInterface>> [[eapli/framework/visitor/Visitor.html{eapli.framework.visitor.Visitor}]] {
}

hide eapli.framework.visitor.Visitor fields
hide eapli.framework.visitor.Visitor methods


@enduml
