<?xml version="1.0" encoding="UTF-8" standalone="no"?><svg xmlns="http://www.w3.org/2000/svg" xmlns:xlink="http://www.w3.org/1999/xlink" contentScriptType="application/ecmascript" contentStyleType="text/css" height="316px" preserveAspectRatio="none" style="width:1754px;height:316px;" version="1.1" viewBox="0 0 1754 316" width="1754px" zoomAndPan="magnify"><defs><filter height="300%" id="ftbh20cwjgu4x" width="300%" x="-1" y="-1"><feGaussianBlur result="blurOut" stdDeviation="2.0"/><feColorMatrix in="blurOut" result="blurOut2" type="matrix" values="0 0 0 0 0 0 0 0 0 0 0 0 0 0 0 0 0 0 .4 0"/><feOffset dx="4.0" dy="4.0" in="blurOut2" result="blurOut3"/><feBlend in="SourceGraphic" in2="blurOut3" mode="normal"/></filter></defs><g><!--MD5=[a1a882c30fbe0c85a1198076c7a1b57f]
class eapli.framework.infrastructure.authz.application.AuthzRegistry--><a href="../../../../../eapli/framework/infrastructure/authz/application/AuthzRegistry.html" target="_parent" title="eapli.framework.infrastructure.authz.application.AuthzRegistry" xlink:actuate="onRequest" xlink:href="../../../../../eapli/framework/infrastructure/authz/application/AuthzRegistry.html" xlink:show="new" xlink:title="eapli.framework.infrastructure.authz.application.AuthzRegistry" xlink:type="simple"><rect fill="#FEFECE" filter="url(#ftbh20cwjgu4x)" height="181.9688" id="eapli.framework.infrastructure.authz.application.AuthzRegistry" style="stroke: #A80036; stroke-width: 1.5;" width="476" x="633" y="8"/><ellipse cx="754.75" cy="35.6406" fill="#ADD1B2" rx="11" ry="11" style="stroke: #A80036; stroke-width: 1.0;"/><path d="M757.5156,31.5156 Q757.6719,31.2969 757.8594,31.1875 Q758.0469,31.0781 758.2656,31.0781 Q758.6406,31.0781 758.875,31.3359 Q759.1094,31.5938 759.1094,32.2031 L759.1094,33.6563 Q759.1094,34.2656 758.875,34.5313 Q758.6406,34.7969 758.2656,34.7969 Q757.9219,34.7969 757.7188,34.5938 Q757.5156,34.4063 757.4063,33.8906 Q757.3594,33.5313 757.1719,33.3438 Q756.8438,32.9688 756.2344,32.75 Q755.625,32.5313 755,32.5313 Q754.2344,32.5313 753.6016,32.8594 Q752.9688,33.1875 752.4766,33.9375 Q751.9844,34.6875 751.9844,35.7188 L751.9844,36.8125 Q751.9844,38.0469 752.875,38.8672 Q753.7656,39.6875 755.3594,39.6875 Q756.2969,39.6875 756.9531,39.4375 Q757.3438,39.2813 757.7656,38.8438 Q758.0313,38.5781 758.1797,38.5 Q758.3281,38.4219 758.5313,38.4219 Q758.8594,38.4219 759.1172,38.6797 Q759.375,38.9375 759.375,39.2813 Q759.375,39.625 759.0313,40.0313 Q758.5313,40.6094 757.7344,40.9375 Q756.6563,41.3906 755.3594,41.3906 Q753.8438,41.3906 752.6406,40.7656 Q751.6563,40.2656 750.9688,39.1953 Q750.2813,38.125 750.2813,36.8438 L750.2813,35.6875 Q750.2813,34.3594 750.8984,33.2109 Q751.5156,32.0625 752.6094,31.4453 Q753.7031,30.8281 754.9375,30.8281 Q755.6719,30.8281 756.3203,30.9922 Q756.9688,31.1563 757.5156,31.5156 Z "/><text fill="#000000" font-family="sans-serif" font-size="12" font-style="italic" lengthAdjust="spacingAndGlyphs" textLength="66" x="854.25" y="25.457">«Singleton»</text><text fill="#000000" font-family="sans-serif" font-size="14" font-weight="bold" lengthAdjust="spacingAndGlyphs" textLength="97" x="838.75" y="42.627">AuthzRegistry</text><text fill="#000000" font-family="sans-serif" font-size="10" lengthAdjust="spacingAndGlyphs" textLength="224" x="775.25" y="56.084">eapli.framework.infrastructure.authz.application</text><line style="stroke: #A80036; stroke-width: 1.5;" x1="634" x2="1108" y1="63.2813" y2="63.2813"/><rect fill="none" height="6" style="stroke: #C82930; stroke-width: 1.0;" width="6" x="641" y="71.2813"/><text fill="#000000" font-family="sans-serif" font-size="11" lengthAdjust="spacingAndGlyphs" text-decoration="underline" textLength="185" x="653" y="78.7002">AuthorizationService authorizationSvc</text><rect fill="none" height="6" style="stroke: #C82930; stroke-width: 1.0;" width="6" x="641" y="85.1172"/><text fill="#000000" font-family="sans-serif" font-size="11" lengthAdjust="spacingAndGlyphs" text-decoration="underline" textLength="213" x="653" y="92.5361">AuthenticationService authenticationService</text><rect fill="none" height="6" style="stroke: #C82930; stroke-width: 1.0;" width="6" x="641" y="98.9531"/><text fill="#000000" font-family="sans-serif" font-size="11" lengthAdjust="spacingAndGlyphs" text-decoration="underline" textLength="183" x="653" y="106.3721">UserManagementService userService</text><line style="stroke: #A80036; stroke-width: 1.5;" x1="634" x2="1108" y1="112.7891" y2="112.7891"/><rect fill="#F24D5C" height="6" style="stroke: #C82930; stroke-width: 1.0;" width="6" x="641" y="120.7891"/><text fill="#000000" font-family="sans-serif" font-size="11" lengthAdjust="spacingAndGlyphs" textLength="77" x="653" y="128.208">AuthzRegistry()</text><ellipse cx="644" cy="137.625" fill="#84BE84" rx="3" ry="3" style="stroke: #038048; stroke-width: 1.0;"/><text fill="#000000" font-family="sans-serif" font-size="11" lengthAdjust="spacingAndGlyphs" text-decoration="underline" textLength="450" x="653" y="142.0439">void configure(UserRepository userRepo,PasswordPolicy policy,PasswordEncoder encoder)</text><ellipse cx="644" cy="151.4609" fill="#84BE84" rx="3" ry="3" style="stroke: #038048; stroke-width: 1.0;"/><text fill="#000000" font-family="sans-serif" font-size="11" lengthAdjust="spacingAndGlyphs" text-decoration="underline" textLength="191" x="653" y="155.8799">UserManagementService userService()</text><ellipse cx="644" cy="165.2969" fill="#84BE84" rx="3" ry="3" style="stroke: #038048; stroke-width: 1.0;"/><text fill="#000000" font-family="sans-serif" font-size="11" lengthAdjust="spacingAndGlyphs" text-decoration="underline" textLength="221" x="653" y="169.7158">AuthenticationService authenticationService()</text><ellipse cx="644" cy="179.1328" fill="#84BE84" rx="3" ry="3" style="stroke: #038048; stroke-width: 1.0;"/><text fill="#000000" font-family="sans-serif" font-size="11" lengthAdjust="spacingAndGlyphs" text-decoration="underline" textLength="211" x="653" y="183.5518">AuthorizationService authorizationService()</text></a><!--MD5=[37e0af8347334aff68c8da97b49cd8ac]
class eapli.framework.infrastructure.authz.application.AuthorizationService--><a href="../../../../../eapli/framework/infrastructure/authz/application/AuthorizationService.html" target="_parent" title="eapli.framework.infrastructure.authz.application.AuthorizationService" xlink:actuate="onRequest" xlink:href="../../../../../eapli/framework/infrastructure/authz/application/AuthorizationService.html" xlink:show="new" xlink:title="eapli.framework.infrastructure.authz.application.AuthorizationService" xlink:type="simple"><rect fill="#FEFECE" filter="url(#ftbh20cwjgu4x)" height="55.2813" id="eapli.framework.infrastructure.authz.application.AuthorizationService" style="stroke: #A80036; stroke-width: 1.5;" width="256" x="6" y="250"/><ellipse cx="21" cy="277.6406" fill="#ADD1B2" rx="11" ry="11" style="stroke: #A80036; stroke-width: 1.0;"/><path d="M23.7656,273.5156 Q23.9219,273.2969 24.1094,273.1875 Q24.2969,273.0781 24.5156,273.0781 Q24.8906,273.0781 25.125,273.3359 Q25.3594,273.5938 25.3594,274.2031 L25.3594,275.6563 Q25.3594,276.2656 25.125,276.5313 Q24.8906,276.7969 24.5156,276.7969 Q24.1719,276.7969 23.9688,276.5938 Q23.7656,276.4063 23.6563,275.8906 Q23.6094,275.5313 23.4219,275.3438 Q23.0938,274.9688 22.4844,274.75 Q21.875,274.5313 21.25,274.5313 Q20.4844,274.5313 19.8516,274.8594 Q19.2188,275.1875 18.7266,275.9375 Q18.2344,276.6875 18.2344,277.7188 L18.2344,278.8125 Q18.2344,280.0469 19.125,280.8672 Q20.0156,281.6875 21.6094,281.6875 Q22.5469,281.6875 23.2031,281.4375 Q23.5938,281.2813 24.0156,280.8438 Q24.2813,280.5781 24.4297,280.5 Q24.5781,280.4219 24.7813,280.4219 Q25.1094,280.4219 25.3672,280.6797 Q25.625,280.9375 25.625,281.2813 Q25.625,281.625 25.2813,282.0313 Q24.7813,282.6094 23.9844,282.9375 Q22.9063,283.3906 21.6094,283.3906 Q20.0938,283.3906 18.8906,282.7656 Q17.9063,282.2656 17.2188,281.1953 Q16.5313,280.125 16.5313,278.8438 L16.5313,277.6875 Q16.5313,276.3594 17.1484,275.2109 Q17.7656,274.0625 18.8594,273.4453 Q19.9531,272.8281 21.1875,272.8281 Q21.9219,272.8281 22.5703,272.9922 Q23.2188,273.1563 23.7656,273.5156 Z "/><text fill="#000000" font-family="sans-serif" font-size="12" font-style="italic" lengthAdjust="spacingAndGlyphs" textLength="79" x="107.5" y="267.457">«Component»</text><text fill="#000000" font-family="sans-serif" font-size="14" font-weight="bold" lengthAdjust="spacingAndGlyphs" textLength="147" x="73.5" y="284.627">AuthorizationService</text><text fill="#000000" font-family="sans-serif" font-size="10" lengthAdjust="spacingAndGlyphs" textLength="224" x="35" y="298.084">eapli.framework.infrastructure.authz.application</text></a><!--MD5=[0dbabc60adff3c7946346a42d1e1666d]
class eapli.framework.infrastructure.authz.application.AuthenticationService--><a href="../../../../../eapli/framework/infrastructure/authz/application/AuthenticationService.html" target="_parent" title="eapli.framework.infrastructure.authz.application.AuthenticationService" xlink:actuate="onRequest" xlink:href="../../../../../eapli/framework/infrastructure/authz/application/AuthenticationService.html" xlink:show="new" xlink:title="eapli.framework.infrastructure.authz.application.AuthenticationService" xlink:type="simple"><rect fill="#FEFECE" filter="url(#ftbh20cwjgu4x)" height="55.2813" id="eapli.framework.infrastructure.authz.application.AuthenticationService" style="stroke: #A80036; stroke-width: 1.5;" width="256" x="297" y="250"/><ellipse cx="312" cy="277.6406" fill="#ADD1B2" rx="11" ry="11" style="stroke: #A80036; stroke-width: 1.0;"/><path d="M314.7656,273.5156 Q314.9219,273.2969 315.1094,273.1875 Q315.2969,273.0781 315.5156,273.0781 Q315.8906,273.0781 316.125,273.3359 Q316.3594,273.5938 316.3594,274.2031 L316.3594,275.6563 Q316.3594,276.2656 316.125,276.5313 Q315.8906,276.7969 315.5156,276.7969 Q315.1719,276.7969 314.9688,276.5938 Q314.7656,276.4063 314.6563,275.8906 Q314.6094,275.5313 314.4219,275.3438 Q314.0938,274.9688 313.4844,274.75 Q312.875,274.5313 312.25,274.5313 Q311.4844,274.5313 310.8516,274.8594 Q310.2188,275.1875 309.7266,275.9375 Q309.2344,276.6875 309.2344,277.7188 L309.2344,278.8125 Q309.2344,280.0469 310.125,280.8672 Q311.0156,281.6875 312.6094,281.6875 Q313.5469,281.6875 314.2031,281.4375 Q314.5938,281.2813 315.0156,280.8438 Q315.2813,280.5781 315.4297,280.5 Q315.5781,280.4219 315.7813,280.4219 Q316.1094,280.4219 316.3672,280.6797 Q316.625,280.9375 316.625,281.2813 Q316.625,281.625 316.2813,282.0313 Q315.7813,282.6094 314.9844,282.9375 Q313.9063,283.3906 312.6094,283.3906 Q311.0938,283.3906 309.8906,282.7656 Q308.9063,282.2656 308.2188,281.1953 Q307.5313,280.125 307.5313,278.8438 L307.5313,277.6875 Q307.5313,276.3594 308.1484,275.2109 Q308.7656,274.0625 309.8594,273.4453 Q310.9531,272.8281 312.1875,272.8281 Q312.9219,272.8281 313.5703,272.9922 Q314.2188,273.1563 314.7656,273.5156 Z "/><text fill="#000000" font-family="sans-serif" font-size="12" font-style="italic" lengthAdjust="spacingAndGlyphs" textLength="79" x="398.5" y="267.457">«Component»</text><text fill="#000000" font-family="sans-serif" font-size="14" font-weight="bold" lengthAdjust="spacingAndGlyphs" textLength="156" x="360" y="284.627">AuthenticationService</text><text fill="#000000" font-family="sans-serif" font-size="10" lengthAdjust="spacingAndGlyphs" textLength="224" x="326" y="298.084">eapli.framework.infrastructure.authz.application</text></a><!--MD5=[ece0874c8144d897f1a2b84f834ce48a]
class eapli.framework.infrastructure.authz.application.UserManagementService--><a href="../../../../../eapli/framework/infrastructure/authz/application/UserManagementService.html" target="_parent" title="eapli.framework.infrastructure.authz.application.UserManagementService" xlink:actuate="onRequest" xlink:href="../../../../../eapli/framework/infrastructure/authz/application/UserManagementService.html" xlink:show="new" xlink:title="eapli.framework.infrastructure.authz.application.UserManagementService" xlink:type="simple"><rect fill="#FEFECE" filter="url(#ftbh20cwjgu4x)" height="55.2813" id="eapli.framework.infrastructure.authz.application.UserManagementService" style="stroke: #A80036; stroke-width: 1.5;" width="256" x="588" y="250"/><ellipse cx="603" cy="277.6406" fill="#ADD1B2" rx="11" ry="11" style="stroke: #A80036; stroke-width: 1.0;"/><path d="M605.7656,273.5156 Q605.9219,273.2969 606.1094,273.1875 Q606.2969,273.0781 606.5156,273.0781 Q606.8906,273.0781 607.125,273.3359 Q607.3594,273.5938 607.3594,274.2031 L607.3594,275.6563 Q607.3594,276.2656 607.125,276.5313 Q606.8906,276.7969 606.5156,276.7969 Q606.1719,276.7969 605.9688,276.5938 Q605.7656,276.4063 605.6563,275.8906 Q605.6094,275.5313 605.4219,275.3438 Q605.0938,274.9688 604.4844,274.75 Q603.875,274.5313 603.25,274.5313 Q602.4844,274.5313 601.8516,274.8594 Q601.2188,275.1875 600.7266,275.9375 Q600.2344,276.6875 600.2344,277.7188 L600.2344,278.8125 Q600.2344,280.0469 601.125,280.8672 Q602.0156,281.6875 603.6094,281.6875 Q604.5469,281.6875 605.2031,281.4375 Q605.5938,281.2813 606.0156,280.8438 Q606.2813,280.5781 606.4297,280.5 Q606.5781,280.4219 606.7813,280.4219 Q607.1094,280.4219 607.3672,280.6797 Q607.625,280.9375 607.625,281.2813 Q607.625,281.625 607.2813,282.0313 Q606.7813,282.6094 605.9844,282.9375 Q604.9063,283.3906 603.6094,283.3906 Q602.0938,283.3906 600.8906,282.7656 Q599.9063,282.2656 599.2188,281.1953 Q598.5313,280.125 598.5313,278.8438 L598.5313,277.6875 Q598.5313,276.3594 599.1484,275.2109 Q599.7656,274.0625 600.8594,273.4453 Q601.9531,272.8281 603.1875,272.8281 Q603.9219,272.8281 604.5703,272.9922 Q605.2188,273.1563 605.7656,273.5156 Z "/><text fill="#000000" font-family="sans-serif" font-size="12" font-style="italic" lengthAdjust="spacingAndGlyphs" textLength="79" x="689.5" y="267.457">«Component»</text><text fill="#000000" font-family="sans-serif" font-size="14" font-weight="bold" lengthAdjust="spacingAndGlyphs" textLength="178" x="640" y="284.627">UserManagementService</text><text fill="#000000" font-family="sans-serif" font-size="10" lengthAdjust="spacingAndGlyphs" textLength="224" x="617" y="298.084">eapli.framework.infrastructure.authz.application</text></a><!--MD5=[4ecd4d434b781c674ba6e816ddaa2ec3]
class eapli.framework.infrastructure.authz.domain.repositories.UserRepository--><a href="../../../../../eapli/framework/infrastructure/authz/domain/repositories/UserRepository.html" target="_parent" title="eapli.framework.infrastructure.authz.domain.repositories.UserRepository" xlink:actuate="onRequest" xlink:href="../../../../../eapli/framework/infrastructure/authz/domain/repositories/UserRepository.html" xlink:show="new" xlink:title="eapli.framework.infrastructure.authz.domain.repositories.UserRepository" xlink:type="simple"><rect fill="#FFFFFF" filter="url(#ftbh20cwjgu4x)" height="40.1875" id="eapli.framework.infrastructure.authz.domain.repositories.UserRepository" style="stroke: #A80036; stroke-width: 1.5;" width="294" x="879" y="257.5"/><rect fill="#FFFFFF" height="40.1875" style="stroke: #A80036; stroke-width: 1.5;" width="294" x="879" y="257.5"/><ellipse cx="894" cy="277.5938" fill="#B4A7E5" rx="11" ry="11" style="stroke: #A80036; stroke-width: 1.0;"/><path d="M894.9531,274.2344 L894.9531,280.8906 L896.6719,280.8906 Q897.2813,280.8906 897.5469,281.125 Q897.8125,281.3594 897.8125,281.75 Q897.8125,282.125 897.5469,282.3594 Q897.2813,282.5938 896.6719,282.5938 L891.5313,282.5938 Q890.9219,282.5938 890.6563,282.3594 Q890.3906,282.125 890.3906,281.7344 Q890.3906,281.3594 890.6563,281.125 Q890.9219,280.8906 891.5313,280.8906 L893.25,280.8906 L893.25,274.2344 L891.5313,274.2344 Q890.9219,274.2344 890.6563,274 Q890.3906,273.7656 890.3906,273.375 Q890.3906,273 890.6563,272.7656 Q890.9219,272.5313 891.5313,272.5313 L896.6719,272.5313 Q897.2813,272.5313 897.5469,272.7656 Q897.8125,273 897.8125,273.375 Q897.8125,273.7656 897.5469,274 Q897.2813,274.2344 896.6719,274.2344 L894.9531,274.2344 Z "/><text fill="#000000" font-family="sans-serif" font-size="14" font-style="italic" font-weight="bold" lengthAdjust="spacingAndGlyphs" textLength="101" x="988.5" y="277.0332">UserRepository</text><text fill="#000000" font-family="sans-serif" font-size="10" font-style="italic" lengthAdjust="spacingAndGlyphs" textLength="262" x="908" y="290.4902">eapli.framework.infrastructure.authz.domain.repositories</text></a><!--MD5=[d2b6c15f0de031a4c231aa17e09fd21b]
class eapli.framework.infrastructure.authz.application.PasswordPolicy--><a href="../../../../../eapli/framework/infrastructure/authz/application/PasswordPolicy.html" target="_parent" title="eapli.framework.infrastructure.authz.application.PasswordPolicy" xlink:actuate="onRequest" xlink:href="../../../../../eapli/framework/infrastructure/authz/application/PasswordPolicy.html" xlink:show="new" xlink:title="eapli.framework.infrastructure.authz.application.PasswordPolicy" xlink:type="simple"><rect fill="#FEFECE" filter="url(#ftbh20cwjgu4x)" height="55.2813" id="eapli.framework.infrastructure.authz.application.PasswordPolicy" style="stroke: #A80036; stroke-width: 1.5;" width="255" x="1208.5" y="250"/><ellipse cx="1223.5" cy="277.6406" fill="#B4A7E5" rx="11" ry="11" style="stroke: #A80036; stroke-width: 1.0;"/><path d="M1224.4531,274.2813 L1224.4531,280.9375 L1226.1719,280.9375 Q1226.7813,280.9375 1227.0469,281.1719 Q1227.3125,281.4063 1227.3125,281.7969 Q1227.3125,282.1719 1227.0469,282.4063 Q1226.7813,282.6406 1226.1719,282.6406 L1221.0313,282.6406 Q1220.4219,282.6406 1220.1563,282.4063 Q1219.8906,282.1719 1219.8906,281.7813 Q1219.8906,281.4063 1220.1563,281.1719 Q1220.4219,280.9375 1221.0313,280.9375 L1222.75,280.9375 L1222.75,274.2813 L1221.0313,274.2813 Q1220.4219,274.2813 1220.1563,274.0469 Q1219.8906,273.8125 1219.8906,273.4219 Q1219.8906,273.0469 1220.1563,272.8125 Q1220.4219,272.5781 1221.0313,272.5781 L1226.1719,272.5781 Q1226.7813,272.5781 1227.0469,272.8125 Q1227.3125,273.0469 1227.3125,273.4219 Q1227.3125,273.8125 1227.0469,274.0469 Q1226.7813,274.2813 1226.1719,274.2813 L1224.4531,274.2813 Z "/><text fill="#000000" font-family="sans-serif" font-size="12" font-style="italic" lengthAdjust="spacingAndGlyphs" textLength="119" x="1289.5" y="267.457">«FunctionalInterface»</text><text fill="#000000" font-family="sans-serif" font-size="14" font-style="italic" font-weight="bold" lengthAdjust="spacingAndGlyphs" textLength="104" x="1297" y="284.627">PasswordPolicy</text><text fill="#000000" font-family="sans-serif" font-size="10" font-style="italic" lengthAdjust="spacingAndGlyphs" textLength="223" x="1237.5" y="298.084">eapli.framework.infrastructure.authz.application</text></a><!--MD5=[f157ecc4364305d9e087d9c5c147f523]
class org.springframework.security.crypto.password.PasswordEncoder--><rect fill="#D3D3D3" filter="url(#ftbh20cwjgu4x)" height="40.1875" id="org.springframework.security.crypto.password.PasswordEncoder" style="stroke: #A80036; stroke-width: 1.5;" width="244" x="1499" y="257.5"/><rect fill="#D3D3D3" height="40.1875" style="stroke: #A80036; stroke-width: 1.5;" width="244" x="1499" y="257.5"/><ellipse cx="1514" cy="277.5938" fill="#B4A7E5" rx="11" ry="11" style="stroke: #A80036; stroke-width: 1.0;"/><path d="M1514.9531,274.2344 L1514.9531,280.8906 L1516.6719,280.8906 Q1517.2813,280.8906 1517.5469,281.125 Q1517.8125,281.3594 1517.8125,281.75 Q1517.8125,282.125 1517.5469,282.3594 Q1517.2813,282.5938 1516.6719,282.5938 L1511.5313,282.5938 Q1510.9219,282.5938 1510.6563,282.3594 Q1510.3906,282.125 1510.3906,281.7344 Q1510.3906,281.3594 1510.6563,281.125 Q1510.9219,280.8906 1511.5313,280.8906 L1513.25,280.8906 L1513.25,274.2344 L1511.5313,274.2344 Q1510.9219,274.2344 1510.6563,274 Q1510.3906,273.7656 1510.3906,273.375 Q1510.3906,273 1510.6563,272.7656 Q1510.9219,272.5313 1511.5313,272.5313 L1516.6719,272.5313 Q1517.2813,272.5313 1517.5469,272.7656 Q1517.8125,273 1517.8125,273.375 Q1517.8125,273.7656 1517.5469,274 Q1517.2813,274.2344 1516.6719,274.2344 L1514.9531,274.2344 Z "/><text fill="#000000" font-family="sans-serif" font-size="14" font-style="italic" font-weight="bold" lengthAdjust="spacingAndGlyphs" textLength="120" x="1574" y="277.0332">PasswordEncoder</text><text fill="#000000" font-family="sans-serif" font-size="10" font-style="italic" lengthAdjust="spacingAndGlyphs" textLength="212" x="1528" y="290.4902">org.springframework.security.crypto.password</text><!--MD5=[feeaa55163393ea1081a701f4b929029]
link eapli.framework.infrastructure.authz.application.AuthzRegistry to eapli.framework.infrastructure.authz.application.AuthorizationService--><path d="M632.989,69 C417.633,69 134,69 134,69 C134,69 134,244.8128 134,244.8128 " fill="none" id="eapli.framework.infrastructure.authz.application.AuthzRegistry-&gt;eapli.framework.infrastructure.authz.application.AuthorizationService" style="stroke: #A80036; stroke-width: 1.0;"/><polygon fill="#A80036" points="134,249.8128,138,240.8128,134,244.8128,130,240.8128,134,249.8128" style="stroke: #A80036; stroke-width: 1.0;"/><text fill="#000000" font-family="sans-serif" font-size="13" lengthAdjust="spacingAndGlyphs" textLength="95" x="28.0156" y="239.0634">authorizationSvc</text><!--MD5=[34cc7094ccd4199834bb7b2eff661596]
link eapli.framework.infrastructure.authz.application.AuthzRegistry to eapli.framework.infrastructure.authz.application.AuthenticationService--><path d="M632.984,130 C526.707,130 425,130 425,130 C425,130 425,244.7564 425,244.7564 " fill="none" id="eapli.framework.infrastructure.authz.application.AuthzRegistry-&gt;eapli.framework.infrastructure.authz.application.AuthenticationService" style="stroke: #A80036; stroke-width: 1.0;"/><polygon fill="#A80036" points="425,249.7564,429,240.7564,425,244.7564,421,240.7564,425,249.7564" style="stroke: #A80036; stroke-width: 1.0;"/><text fill="#000000" font-family="sans-serif" font-size="13" lengthAdjust="spacingAndGlyphs" textLength="123" x="287.7781" y="238.9939">authenticationService</text><!--MD5=[c6b781978b262317fb32eed92dafd629]
link eapli.framework.infrastructure.authz.application.AuthzRegistry to eapli.framework.infrastructure.authz.application.UserManagementService--><path d="M738.5,190.08 C738.5,190.08 738.5,244.9083 738.5,244.9083 " fill="none" id="eapli.framework.infrastructure.authz.application.AuthzRegistry-&gt;eapli.framework.infrastructure.authz.application.UserManagementService" style="stroke: #A80036; stroke-width: 1.0;"/><polygon fill="#A80036" points="738.5,249.9083,742.5,240.9083,738.5,244.9083,734.5,240.9083,738.5,249.9083" style="stroke: #A80036; stroke-width: 1.0;"/><text fill="#000000" font-family="sans-serif" font-size="13" lengthAdjust="spacingAndGlyphs" textLength="67" x="668.9563" y="239.181">userService</text><!--MD5=[ebad872bb576345a3033b9ed9247105c]
link eapli.framework.infrastructure.authz.application.AuthzRegistry to eapli.framework.infrastructure.authz.domain.repositories.UserRepository--><path d="M955.667,190.08 C955.667,190.08 955.667,252.1942 955.667,252.1942 " fill="none" id="eapli.framework.infrastructure.authz.application.AuthzRegistry-&gt;eapli.framework.infrastructure.authz.domain.repositories.UserRepository" style="stroke: #A80036; stroke-width: 1.0; stroke-dasharray: 7.0,7.0;"/><polygon fill="#A80036" points="955.667,257.1942,959.667,248.1942,955.667,252.1942,951.667,248.1942,955.667,257.1942" style="stroke: #A80036; stroke-width: 1.0;"/><!--MD5=[0070537791ee4bfc454d38ac27b8b0d7]
link eapli.framework.infrastructure.authz.application.AuthzRegistry to eapli.framework.infrastructure.authz.application.PasswordPolicy--><path d="M1032.33,190.061 C1032.33,223.7999 1032.33,254 1032.33,254 C1032.33,254 1203.1,254 1203.1,254 " fill="none" id="eapli.framework.infrastructure.authz.application.AuthzRegistry-&gt;eapli.framework.infrastructure.authz.application.PasswordPolicy" style="stroke: #A80036; stroke-width: 1.0; stroke-dasharray: 7.0,7.0;"/><polygon fill="#A80036" points="1208.1,254,1199.1,250,1203.1,254,1199.1,258,1208.1,254" style="stroke: #A80036; stroke-width: 1.0;"/><!--MD5=[fa873db465ae34e6e63f3b7bb24fbc9f]
link eapli.framework.infrastructure.authz.application.AuthzRegistry to org.springframework.security.crypto.password.PasswordEncoder--><path d="M1109.08,99 C1328.72,99 1621,99 1621,99 C1621,99 1621,252.3708 1621,252.3708 " fill="none" id="eapli.framework.infrastructure.authz.application.AuthzRegistry-&gt;org.springframework.security.crypto.password.PasswordEncoder" style="stroke: #A80036; stroke-width: 1.0; stroke-dasharray: 7.0,7.0;"/><polygon fill="#A80036" points="1621,257.3708,1625,248.3708,1621,252.3708,1617,248.3708,1621,257.3708" style="stroke: #A80036; stroke-width: 1.0;"/><!--MD5=[532c3ee410d9e2206755761dd28ed401]
@startuml

skinparam svgLinkTarget _parent
skinparam linetype ortho
set namespaceSeparator none
class "<b><size:14>AuthzRegistry</b>\n<size:10>eapli.framework.infrastructure.authz.application" as eapli.framework.infrastructure.authz.application.AuthzRegistry <<Singleton>> [[../../../../../eapli/framework/infrastructure/authz/application/AuthzRegistry.html{eapli.framework.infrastructure.authz.application.AuthzRegistry}]] {
{static} -AuthorizationService authorizationSvc
{static} -AuthenticationService authenticationService
{static} -UserManagementService userService
-AuthzRegistry()
{static} +void configure(UserRepository userRepo,PasswordPolicy policy,PasswordEncoder encoder)
{static} +UserManagementService userService()
{static} +AuthenticationService authenticationService()
{static} +AuthorizationService authorizationService()
}


class "<b><size:14>AuthorizationService</b>\n<size:10>eapli.framework.infrastructure.authz.application" as eapli.framework.infrastructure.authz.application.AuthorizationService <<Component>> [[../../../../../eapli/framework/infrastructure/authz/application/AuthorizationService.html{eapli.framework.infrastructure.authz.application.AuthorizationService}]] {
}

hide eapli.framework.infrastructure.authz.application.AuthorizationService fields
hide eapli.framework.infrastructure.authz.application.AuthorizationService methods

eapli.framework.infrastructure.authz.application.AuthzRegistry - ->  "authorizationSvc" eapli.framework.infrastructure.authz.application.AuthorizationService

class "<b><size:14>AuthenticationService</b>\n<size:10>eapli.framework.infrastructure.authz.application" as eapli.framework.infrastructure.authz.application.AuthenticationService <<Component>> [[../../../../../eapli/framework/infrastructure/authz/application/AuthenticationService.html{eapli.framework.infrastructure.authz.application.AuthenticationService}]] {
}

hide eapli.framework.infrastructure.authz.application.AuthenticationService fields
hide eapli.framework.infrastructure.authz.application.AuthenticationService methods

eapli.framework.infrastructure.authz.application.AuthzRegistry - ->  "authenticationService" eapli.framework.infrastructure.authz.application.AuthenticationService

class "<b><size:14>UserManagementService</b>\n<size:10>eapli.framework.infrastructure.authz.application" as eapli.framework.infrastructure.authz.application.UserManagementService <<Component>> [[../../../../../eapli/framework/infrastructure/authz/application/UserManagementService.html{eapli.framework.infrastructure.authz.application.UserManagementService}]] {
}

hide eapli.framework.infrastructure.authz.application.UserManagementService fields
hide eapli.framework.infrastructure.authz.application.UserManagementService methods

eapli.framework.infrastructure.authz.application.AuthzRegistry - ->  "userService" eapli.framework.infrastructure.authz.application.UserManagementService

interface "<b><size:14>UserRepository</b>\n<size:10>eapli.framework.infrastructure.authz.domain.repositories" as eapli.framework.infrastructure.authz.domain.repositories.UserRepository  [[../../../../../eapli/framework/infrastructure/authz/domain/repositories/UserRepository.html{eapli.framework.infrastructure.authz.domain.repositories.UserRepository}]] #white {
}

hide eapli.framework.infrastructure.authz.domain.repositories.UserRepository fields
hide eapli.framework.infrastructure.authz.domain.repositories.UserRepository methods

eapli.framework.infrastructure.authz.application.AuthzRegistry ..> eapli.framework.infrastructure.authz.domain.repositories.UserRepository

interface "<b><size:14>PasswordPolicy</b>\n<size:10>eapli.framework.infrastructure.authz.application" as eapli.framework.infrastructure.authz.application.PasswordPolicy <<FunctionalInterface>> [[../../../../../eapli/framework/infrastructure/authz/application/PasswordPolicy.html{eapli.framework.infrastructure.authz.application.PasswordPolicy}]] {
}

hide eapli.framework.infrastructure.authz.application.PasswordPolicy fields
hide eapli.framework.infrastructure.authz.application.PasswordPolicy methods

eapli.framework.infrastructure.authz.application.AuthzRegistry ..> eapli.framework.infrastructure.authz.application.PasswordPolicy

interface "<b><size:14>PasswordEncoder</b>\n<size:10>org.springframework.security.crypto.password" as org.springframework.security.crypto.password.PasswordEncoder  #lightgrey {
}

hide org.springframework.security.crypto.password.PasswordEncoder fields
hide org.springframework.security.crypto.password.PasswordEncoder methods

eapli.framework.infrastructure.authz.application.AuthzRegistry ..> org.springframework.security.crypto.password.PasswordEncoder


@enduml

PlantUML version 1.2020.04(Thu Mar 19 10:16:49 GMT 2020)
(GPL source distribution)
Java Runtime: Java(TM) SE Runtime Environment
JVM: Java HotSpot(TM) 64-Bit Server VM
Java Version: 1.8.0_202-b08
Operating System: Windows 10
Default Encoding: Cp1252
Language: en
Country: US
--></g></svg>