@startuml

skinparam svgLinkTarget _parent
skinparam linetype ortho
package eapli.framework.infrastructure.authz.application [[../../../../../eapli/framework/infrastructure/authz/application/package-summary.html{eapli.framework.infrastructure.authz.application}]] #lightyellow {
}

class "<b><size:14>AuthenticationService</b>" as eapli.framework.infrastructure.authz.application.AuthenticationService <<Component>> [[../../../../../eapli/framework/infrastructure/authz/application/AuthenticationService.html{eapli.framework.infrastructure.authz.application.AuthenticationService}]] {
}

hide eapli.framework.infrastructure.authz.application.AuthenticationService fields
hide eapli.framework.infrastructure.authz.application.AuthenticationService methods

class "<b><size:14>AuthorizationService</b>" as eapli.framework.infrastructure.authz.application.AuthorizationService <<Component>> [[../../../../../eapli/framework/infrastructure/authz/application/AuthorizationService.html{eapli.framework.infrastructure.authz.application.AuthorizationService}]] {
}

hide eapli.framework.infrastructure.authz.application.AuthorizationService fields
hide eapli.framework.infrastructure.authz.application.AuthorizationService methods

class "<b><size:14>AuthzRegistry</b>" as eapli.framework.infrastructure.authz.application.AuthzRegistry <<Singleton>> [[../../../../../eapli/framework/infrastructure/authz/application/AuthzRegistry.html{eapli.framework.infrastructure.authz.application.AuthzRegistry}]] {
}

hide eapli.framework.infrastructure.authz.application.AuthzRegistry fields
hide eapli.framework.infrastructure.authz.application.AuthzRegistry methods

interface "<b><size:14>PasswordPolicy</b>" as eapli.framework.infrastructure.authz.application.PasswordPolicy <<FunctionalInterface>> [[../../../../../eapli/framework/infrastructure/authz/application/PasswordPolicy.html{eapli.framework.infrastructure.authz.application.PasswordPolicy}]] {
}

hide eapli.framework.infrastructure.authz.application.PasswordPolicy fields
hide eapli.framework.infrastructure.authz.application.PasswordPolicy methods

class "<b><size:14>UserDetailsServiceImpl</b>" as eapli.framework.infrastructure.authz.application.UserDetailsServiceImpl <<Service>> [[../../../../../eapli/framework/infrastructure/authz/application/UserDetailsServiceImpl.html{eapli.framework.infrastructure.authz.application.UserDetailsServiceImpl}]] {
}

hide eapli.framework.infrastructure.authz.application.UserDetailsServiceImpl fields
hide eapli.framework.infrastructure.authz.application.UserDetailsServiceImpl methods

class "<b><size:14>UserManagementService</b>" as eapli.framework.infrastructure.authz.application.UserManagementService <<Component>> [[../../../../../eapli/framework/infrastructure/authz/application/UserManagementService.html{eapli.framework.infrastructure.authz.application.UserManagementService}]] {
}

hide eapli.framework.infrastructure.authz.application.UserManagementService fields
hide eapli.framework.infrastructure.authz.application.UserManagementService methods

class "<b><size:14>UserSession</b>" as eapli.framework.infrastructure.authz.application.UserSession  [[../../../../../eapli/framework/infrastructure/authz/application/UserSession.html{eapli.framework.infrastructure.authz.application.UserSession}]] {
}

hide eapli.framework.infrastructure.authz.application.UserSession fields
hide eapli.framework.infrastructure.authz.application.UserSession methods

eapli.framework.infrastructure.authz.application.AuthenticationService -->  "authz" eapli.framework.infrastructure.authz.application.AuthorizationService
eapli.framework.infrastructure.authz.application.AuthenticationService -->  "policy" eapli.framework.infrastructure.authz.application.PasswordPolicy
eapli.framework.infrastructure.authz.application.AuthenticationService ..> eapli.framework.infrastructure.authz.application.UserSession
eapli.framework.infrastructure.authz.application.AuthorizationService -->  "theSession" eapli.framework.infrastructure.authz.application.UserSession
eapli.framework.infrastructure.authz.application.AuthzRegistry -->  "authorizationSvc" eapli.framework.infrastructure.authz.application.AuthorizationService
eapli.framework.infrastructure.authz.application.AuthzRegistry -->  "authenticationService" eapli.framework.infrastructure.authz.application.AuthenticationService
eapli.framework.infrastructure.authz.application.AuthzRegistry -->  "userService" eapli.framework.infrastructure.authz.application.UserManagementService
eapli.framework.infrastructure.authz.application.AuthzRegistry ..> eapli.framework.infrastructure.authz.application.PasswordPolicy
eapli.framework.infrastructure.authz.application.UserDetailsServiceImpl -->  "authz" eapli.framework.infrastructure.authz.application.AuthorizationService
eapli.framework.infrastructure.authz.application.UserManagementService -->  "policy" eapli.framework.infrastructure.authz.application.PasswordPolicy
package eapli.framework.infrastructure.authz.application.exceptions [[../../../../../eapli/framework/infrastructure/authz/application/exceptions/package-summary.html{eapli.framework.infrastructure.authz.application.exceptions}]] {
}

class "<b><size:14>UnauthenticatedException</b>" as eapli.framework.infrastructure.authz.application.exceptions.UnauthenticatedException  [[../../../../../eapli/framework/infrastructure/authz/application/exceptions/UnauthenticatedException.html{eapli.framework.infrastructure.authz.application.exceptions.UnauthenticatedException}]] {
}

hide eapli.framework.infrastructure.authz.application.exceptions.UnauthenticatedException fields
hide eapli.framework.infrastructure.authz.application.exceptions.UnauthenticatedException methods

class "<b><size:14>UnauthorizedException</b>" as eapli.framework.infrastructure.authz.application.exceptions.UnauthorizedException  [[../../../../../eapli/framework/infrastructure/authz/application/exceptions/UnauthorizedException.html{eapli.framework.infrastructure.authz.application.exceptions.UnauthorizedException}]] {
}

hide eapli.framework.infrastructure.authz.application.exceptions.UnauthorizedException fields
hide eapli.framework.infrastructure.authz.application.exceptions.UnauthorizedException methods


@enduml
