<?xml version="1.0" encoding="UTF-8" standalone="no"?><svg xmlns="http://www.w3.org/2000/svg" xmlns:xlink="http://www.w3.org/1999/xlink" contentScriptType="application/ecmascript" contentStyleType="text/css" height="391px" preserveAspectRatio="none" style="width:226px;height:391px;" version="1.1" viewBox="0 0 226 391" width="226px" zoomAndPan="magnify"><defs><filter height="300%" id="f111b5uxho3lo7" width="300%" x="-1" y="-1"><feGaussianBlur result="blurOut" stdDeviation="2.0"/><feColorMatrix in="blurOut" result="blurOut2" type="matrix" values="0 0 0 0 0 0 0 0 0 0 0 0 0 0 0 0 0 0 .4 0"/><feOffset dx="4.0" dy="4.0" in="blurOut2" result="blurOut3"/><feBlend in="SourceGraphic" in2="blurOut3" mode="normal"/></filter></defs><g><!--class Controller--><rect fill="#FEFECE" filter="url(#f111b5uxho3lo7)" height="48" id="Controller" style="stroke: #A80036; stroke-width: 1.5;" width="86" x="7" y="8"/><ellipse cx="22" cy="24" fill="#B4A7E5" rx="11" ry="11" style="stroke: #A80036; stroke-width: 1.0;"/><path d="M22.9531,20.6406 L22.9531,27.2969 L24.6719,27.2969 Q25.2813,27.2969 25.5469,27.5313 Q25.8125,27.7656 25.8125,28.1563 Q25.8125,28.5313 25.5469,28.7656 Q25.2813,29 24.6719,29 L19.5313,29 Q18.9219,29 18.6563,28.7656 Q18.3906,28.5313 18.3906,28.1406 Q18.3906,27.7656 18.6563,27.5313 Q18.9219,27.2969 19.5313,27.2969 L21.25,27.2969 L21.25,20.6406 L19.5313,20.6406 Q18.9219,20.6406 18.6563,20.4063 Q18.3906,20.1719 18.3906,19.7813 Q18.3906,19.4063 18.6563,19.1719 Q18.9219,18.9375 19.5313,18.9375 L24.6719,18.9375 Q25.2813,18.9375 25.5469,19.1719 Q25.8125,19.4063 25.8125,19.7813 Q25.8125,20.1719 25.5469,20.4063 Q25.2813,20.6406 24.6719,20.6406 L22.9531,20.6406 Z "/><text fill="#000000" font-family="sans-serif" font-size="12" font-style="italic" lengthAdjust="spacingAndGlyphs" textLength="54" x="36" y="28.9102">Controller</text><line style="stroke: #A80036; stroke-width: 1.5;" x1="8" x2="92" y1="40" y2="40"/><line style="stroke: #A80036; stroke-width: 1.5;" x1="8" x2="92" y1="48" y2="48"/><!--class AbstractUI--><rect fill="#FEFECE" filter="url(#f111b5uxho3lo7)" height="48" id="AbstractUI" style="stroke: #A80036; stroke-width: 1.5;" width="88" x="6" y="116"/><ellipse cx="21" cy="132" fill="#ADD1B2" rx="11" ry="11" style="stroke: #A80036; stroke-width: 1.0;"/><path d="M23.7656,127.875 Q23.9219,127.6563 24.1094,127.5469 Q24.2969,127.4375 24.5156,127.4375 Q24.8906,127.4375 25.125,127.6953 Q25.3594,127.9531 25.3594,128.5625 L25.3594,130.0156 Q25.3594,130.625 25.125,130.8906 Q24.8906,131.1563 24.5156,131.1563 Q24.1719,131.1563 23.9688,130.9531 Q23.7656,130.7656 23.6563,130.25 Q23.6094,129.8906 23.4219,129.7031 Q23.0938,129.3281 22.4844,129.1094 Q21.875,128.8906 21.25,128.8906 Q20.4844,128.8906 19.8516,129.2188 Q19.2188,129.5469 18.7266,130.2969 Q18.2344,131.0469 18.2344,132.0781 L18.2344,133.1719 Q18.2344,134.4063 19.125,135.2266 Q20.0156,136.0469 21.6094,136.0469 Q22.5469,136.0469 23.2031,135.7969 Q23.5938,135.6406 24.0156,135.2031 Q24.2813,134.9375 24.4297,134.8594 Q24.5781,134.7813 24.7813,134.7813 Q25.1094,134.7813 25.3672,135.0391 Q25.625,135.2969 25.625,135.6406 Q25.625,135.9844 25.2813,136.3906 Q24.7813,136.9688 23.9844,137.2969 Q22.9063,137.75 21.6094,137.75 Q20.0938,137.75 18.8906,137.125 Q17.9063,136.625 17.2188,135.5547 Q16.5313,134.4844 16.5313,133.2031 L16.5313,132.0469 Q16.5313,130.7188 17.1484,129.5703 Q17.7656,128.4219 18.8594,127.8047 Q19.9531,127.1875 21.1875,127.1875 Q21.9219,127.1875 22.5703,127.3516 Q23.2188,127.5156 23.7656,127.875 Z "/><text fill="#000000" font-family="sans-serif" font-size="12" lengthAdjust="spacingAndGlyphs" textLength="56" x="35" y="136.9102">AbstractUI</text><line style="stroke: #A80036; stroke-width: 1.5;" x1="7" x2="93" y1="148" y2="148"/><line style="stroke: #A80036; stroke-width: 1.5;" x1="7" x2="93" y1="156" y2="156"/><!--class Menu--><rect fill="#FEFECE" filter="url(#f111b5uxho3lo7)" height="48" id="Menu" style="stroke: #A80036; stroke-width: 1.5;" width="62" x="80" y="224"/><ellipse cx="95" cy="240" fill="#ADD1B2" rx="11" ry="11" style="stroke: #A80036; stroke-width: 1.0;"/><path d="M97.7656,235.875 Q97.9219,235.6563 98.1094,235.5469 Q98.2969,235.4375 98.5156,235.4375 Q98.8906,235.4375 99.125,235.6953 Q99.3594,235.9531 99.3594,236.5625 L99.3594,238.0156 Q99.3594,238.625 99.125,238.8906 Q98.8906,239.1563 98.5156,239.1563 Q98.1719,239.1563 97.9688,238.9531 Q97.7656,238.7656 97.6563,238.25 Q97.6094,237.8906 97.4219,237.7031 Q97.0938,237.3281 96.4844,237.1094 Q95.875,236.8906 95.25,236.8906 Q94.4844,236.8906 93.8516,237.2188 Q93.2188,237.5469 92.7266,238.2969 Q92.2344,239.0469 92.2344,240.0781 L92.2344,241.1719 Q92.2344,242.4063 93.125,243.2266 Q94.0156,244.0469 95.6094,244.0469 Q96.5469,244.0469 97.2031,243.7969 Q97.5938,243.6406 98.0156,243.2031 Q98.2813,242.9375 98.4297,242.8594 Q98.5781,242.7813 98.7813,242.7813 Q99.1094,242.7813 99.3672,243.0391 Q99.625,243.2969 99.625,243.6406 Q99.625,243.9844 99.2813,244.3906 Q98.7813,244.9688 97.9844,245.2969 Q96.9063,245.75 95.6094,245.75 Q94.0938,245.75 92.8906,245.125 Q91.9063,244.625 91.2188,243.5547 Q90.5313,242.4844 90.5313,241.2031 L90.5313,240.0469 Q90.5313,238.7188 91.1484,237.5703 Q91.7656,236.4219 92.8594,235.8047 Q93.9531,235.1875 95.1875,235.1875 Q95.9219,235.1875 96.5703,235.3516 Q97.2188,235.5156 97.7656,235.875 Z "/><text fill="#000000" font-family="sans-serif" font-size="12" lengthAdjust="spacingAndGlyphs" textLength="30" x="109" y="244.9102">Menu</text><line style="stroke: #A80036; stroke-width: 1.5;" x1="81" x2="141" y1="256" y2="256"/><line style="stroke: #A80036; stroke-width: 1.5;" x1="81" x2="141" y1="264" y2="264"/><!--class MenuItem--><rect fill="#FEFECE" filter="url(#f111b5uxho3lo7)" height="48" id="MenuItem" style="stroke: #A80036; stroke-width: 1.5;" width="86" x="129" y="116"/><ellipse cx="144" cy="132" fill="#ADD1B2" rx="11" ry="11" style="stroke: #A80036; stroke-width: 1.0;"/><path d="M146.7656,127.875 Q146.9219,127.6563 147.1094,127.5469 Q147.2969,127.4375 147.5156,127.4375 Q147.8906,127.4375 148.125,127.6953 Q148.3594,127.9531 148.3594,128.5625 L148.3594,130.0156 Q148.3594,130.625 148.125,130.8906 Q147.8906,131.1563 147.5156,131.1563 Q147.1719,131.1563 146.9688,130.9531 Q146.7656,130.7656 146.6563,130.25 Q146.6094,129.8906 146.4219,129.7031 Q146.0938,129.3281 145.4844,129.1094 Q144.875,128.8906 144.25,128.8906 Q143.4844,128.8906 142.8516,129.2188 Q142.2188,129.5469 141.7266,130.2969 Q141.2344,131.0469 141.2344,132.0781 L141.2344,133.1719 Q141.2344,134.4063 142.125,135.2266 Q143.0156,136.0469 144.6094,136.0469 Q145.5469,136.0469 146.2031,135.7969 Q146.5938,135.6406 147.0156,135.2031 Q147.2813,134.9375 147.4297,134.8594 Q147.5781,134.7813 147.7813,134.7813 Q148.1094,134.7813 148.3672,135.0391 Q148.625,135.2969 148.625,135.6406 Q148.625,135.9844 148.2813,136.3906 Q147.7813,136.9688 146.9844,137.2969 Q145.9063,137.75 144.6094,137.75 Q143.0938,137.75 141.8906,137.125 Q140.9063,136.625 140.2188,135.5547 Q139.5313,134.4844 139.5313,133.2031 L139.5313,132.0469 Q139.5313,130.7188 140.1484,129.5703 Q140.7656,128.4219 141.8594,127.8047 Q142.9531,127.1875 144.1875,127.1875 Q144.9219,127.1875 145.5703,127.3516 Q146.2188,127.5156 146.7656,127.875 Z "/><text fill="#000000" font-family="sans-serif" font-size="12" lengthAdjust="spacingAndGlyphs" textLength="54" x="158" y="136.9102">MenuItem</text><line style="stroke: #A80036; stroke-width: 1.5;" x1="130" x2="214" y1="148" y2="148"/><line style="stroke: #A80036; stroke-width: 1.5;" x1="130" x2="214" y1="156" y2="156"/><!--class Action--><rect fill="#FEFECE" filter="url(#f111b5uxho3lo7)" height="48" id="Action" style="stroke: #A80036; stroke-width: 1.5;" width="66" x="139" y="8"/><ellipse cx="154" cy="24" fill="#B4A7E5" rx="11" ry="11" style="stroke: #A80036; stroke-width: 1.0;"/><path d="M154.9531,20.6406 L154.9531,27.2969 L156.6719,27.2969 Q157.2813,27.2969 157.5469,27.5313 Q157.8125,27.7656 157.8125,28.1563 Q157.8125,28.5313 157.5469,28.7656 Q157.2813,29 156.6719,29 L151.5313,29 Q150.9219,29 150.6563,28.7656 Q150.3906,28.5313 150.3906,28.1406 Q150.3906,27.7656 150.6563,27.5313 Q150.9219,27.2969 151.5313,27.2969 L153.25,27.2969 L153.25,20.6406 L151.5313,20.6406 Q150.9219,20.6406 150.6563,20.4063 Q150.3906,20.1719 150.3906,19.7813 Q150.3906,19.4063 150.6563,19.1719 Q150.9219,18.9375 151.5313,18.9375 L156.6719,18.9375 Q157.2813,18.9375 157.5469,19.1719 Q157.8125,19.4063 157.8125,19.7813 Q157.8125,20.1719 157.5469,20.4063 Q157.2813,20.6406 156.6719,20.6406 L154.9531,20.6406 Z "/><text fill="#000000" font-family="sans-serif" font-size="12" font-style="italic" lengthAdjust="spacingAndGlyphs" textLength="34" x="168" y="28.9102">Action</text><line style="stroke: #A80036; stroke-width: 1.5;" x1="140" x2="204" y1="40" y2="40"/><line style="stroke: #A80036; stroke-width: 1.5;" x1="140" x2="204" y1="48" y2="48"/><!--class MenuRenderer--><rect fill="#FEFECE" filter="url(#f111b5uxho3lo7)" height="48" id="MenuRenderer" style="stroke: #A80036; stroke-width: 1.5;" width="114" x="54" y="332"/><ellipse cx="69" cy="348" fill="#ADD1B2" rx="11" ry="11" style="stroke: #A80036; stroke-width: 1.0;"/><path d="M71.7656,343.875 Q71.9219,343.6563 72.1094,343.5469 Q72.2969,343.4375 72.5156,343.4375 Q72.8906,343.4375 73.125,343.6953 Q73.3594,343.9531 73.3594,344.5625 L73.3594,346.0156 Q73.3594,346.625 73.125,346.8906 Q72.8906,347.1563 72.5156,347.1563 Q72.1719,347.1563 71.9688,346.9531 Q71.7656,346.7656 71.6563,346.25 Q71.6094,345.8906 71.4219,345.7031 Q71.0938,345.3281 70.4844,345.1094 Q69.875,344.8906 69.25,344.8906 Q68.4844,344.8906 67.8516,345.2188 Q67.2188,345.5469 66.7266,346.2969 Q66.2344,347.0469 66.2344,348.0781 L66.2344,349.1719 Q66.2344,350.4063 67.125,351.2266 Q68.0156,352.0469 69.6094,352.0469 Q70.5469,352.0469 71.2031,351.7969 Q71.5938,351.6406 72.0156,351.2031 Q72.2813,350.9375 72.4297,350.8594 Q72.5781,350.7813 72.7813,350.7813 Q73.1094,350.7813 73.3672,351.0391 Q73.625,351.2969 73.625,351.6406 Q73.625,351.9844 73.2813,352.3906 Q72.7813,352.9688 71.9844,353.2969 Q70.9063,353.75 69.6094,353.75 Q68.0938,353.75 66.8906,353.125 Q65.9063,352.625 65.2188,351.5547 Q64.5313,350.4844 64.5313,349.2031 L64.5313,348.0469 Q64.5313,346.7188 65.1484,345.5703 Q65.7656,344.4219 66.8594,343.8047 Q67.9531,343.1875 69.1875,343.1875 Q69.9219,343.1875 70.5703,343.3516 Q71.2188,343.5156 71.7656,343.875 Z "/><text fill="#000000" font-family="sans-serif" font-size="12" lengthAdjust="spacingAndGlyphs" textLength="82" x="83" y="352.9102">MenuRenderer</text><line style="stroke: #A80036; stroke-width: 1.5;" x1="55" x2="167" y1="364" y2="364"/><line style="stroke: #A80036; stroke-width: 1.5;" x1="55" x2="167" y1="372" y2="372"/><!--link Controller to AbstractUI--><path d="M50,61.131 C50,78.154 50,99.604 50,115.678 " fill="none" id="Controller-AbstractUI" style="stroke: #A80036; stroke-width: 1.0; stroke-dasharray: 7.0,7.0;"/><polygon fill="#A80036" points="50,56,46,65,50,61,54,65,50,56" style="stroke: #A80036; stroke-width: 1.0;"/><!--link AbstractUI to Menu--><path d="M73.3718,181.613 C81.5634,195.848 90.4817,211.345 97.5791,223.678 " fill="none" id="AbstractUI-Menu" style="stroke: #A80036; stroke-width: 1.0;"/><polygon fill="none" points="67.1446,184.826,63.2361,164,79.2788,177.844,67.1446,184.826" style="stroke: #A80036; stroke-width: 1.0;"/><!--link MenuItem to Menu--><path d="M156.064,168.691 C146.228,185.784 133.751,207.465 124.421,223.678 " fill="none" id="MenuItem-Menu" style="stroke: #A80036; stroke-width: 1.0;"/><polygon fill="#A80036" points="158.764,164,150.808,169.8054,156.2701,168.3336,157.7419,173.7957,158.764,164" style="stroke: #A80036; stroke-width: 1.0;"/><!--link Action to MenuItem--><path d="M172,61.131 C172,78.154 172,99.604 172,115.678 " fill="none" id="Action-MenuItem" style="stroke: #A80036; stroke-width: 1.0;"/><polygon fill="#A80036" points="172,56,168,65,172,61,176,65,172,56" style="stroke: #A80036; stroke-width: 1.0;"/><!--link Menu to MenuRenderer--><path d="M111,277.131 C111,294.1538 111,315.6037 111,331.6784 " fill="none" id="Menu-MenuRenderer" style="stroke: #A80036; stroke-width: 1.0; stroke-dasharray: 7.0,7.0;"/><polygon fill="#A80036" points="111,272,107,281,111,277,115,281,111,272" style="stroke: #A80036; stroke-width: 1.0;"/><!--
@startuml
interface Controller
           class AbstractUI
           Controller <.. AbstractUI
           class Menu
           AbstractUI <|- - Menu
           class MenuItem
           MenuItem <- - Menu
           interface Action
           Action <- - MenuItem
           class MenuRenderer
           Menu <.. MenuRenderer
@enduml

PlantUML version 1.2017.18(Fri Oct 06 17:56:32 BST 2017)
(GPL source distribution)
Java Runtime: Java(TM) SE Runtime Environment
JVM: Java HotSpot(TM) 64-Bit Server VM
Java Version: 1.8.0_202-b08
Operating System: Windows 10
OS Version: 10.0
Default Encoding: Cp1252
Language: en
Country: US
--></g></svg>