<?xml version="1.0" encoding="UTF-8" standalone="no"?><svg xmlns="http://www.w3.org/2000/svg" xmlns:xlink="http://www.w3.org/1999/xlink" contentScriptType="application/ecmascript" contentStyleType="text/css" height="358px" preserveAspectRatio="none" style="width:374px;height:358px;" version="1.1" viewBox="0 0 374 358" width="374px" zoomAndPan="magnify"><defs><filter height="300%" id="f1gryuf76fkbj8" width="300%" x="-1" y="-1"><feGaussianBlur result="blurOut" stdDeviation="2.0"/><feColorMatrix in="blurOut" result="blurOut2" type="matrix" values="0 0 0 0 0 0 0 0 0 0 0 0 0 0 0 0 0 0 .4 0"/><feOffset dx="4.0" dy="4.0" in="blurOut2" result="blurOut3"/><feBlend in="SourceGraphic" in2="blurOut3" mode="normal"/></filter></defs><g><!--MD5=[62dac8dd500784342544d12c70434fe1]
class eapli.framework.representations.builders.JsonRepresentationBuilderState.StateContext--><a href="../../../../eapli/framework/representations/builders/JsonRepresentationBuilderState.StateContext.html" target="_parent" title="eapli.framework.representations.builders.JsonRepresentationBuilderState.StateContext" xlink:actuate="onRequest" xlink:href="../../../../eapli/framework/representations/builders/JsonRepresentationBuilderState.StateContext.html" xlink:show="new" xlink:title="eapli.framework.representations.builders.JsonRepresentationBuilderState.StateContext" xlink:type="simple"><rect fill="#FEFECE" filter="url(#f1gryuf76fkbj8)" height="139.2031" id="eapli.framework.representations.builders.JsonRepresentationBuilderState.StateContext" style="stroke: #A80036; stroke-width: 1.5;" width="357" x="6" y="108"/><ellipse cx="21" cy="128.0938" fill="#ADD1B2" rx="11" ry="11" style="stroke: #A80036; stroke-width: 1.0;"/><path d="M23.7656,123.9688 Q23.9219,123.75 24.1094,123.6406 Q24.2969,123.5313 24.5156,123.5313 Q24.8906,123.5313 25.125,123.7891 Q25.3594,124.0469 25.3594,124.6563 L25.3594,126.1094 Q25.3594,126.7188 25.125,126.9844 Q24.8906,127.25 24.5156,127.25 Q24.1719,127.25 23.9688,127.0469 Q23.7656,126.8594 23.6563,126.3438 Q23.6094,125.9844 23.4219,125.7969 Q23.0938,125.4219 22.4844,125.2031 Q21.875,124.9844 21.25,124.9844 Q20.4844,124.9844 19.8516,125.3125 Q19.2188,125.6406 18.7266,126.3906 Q18.2344,127.1406 18.2344,128.1719 L18.2344,129.2656 Q18.2344,130.5 19.125,131.3203 Q20.0156,132.1406 21.6094,132.1406 Q22.5469,132.1406 23.2031,131.8906 Q23.5938,131.7344 24.0156,131.2969 Q24.2813,131.0313 24.4297,130.9531 Q24.5781,130.875 24.7813,130.875 Q25.1094,130.875 25.3672,131.1328 Q25.625,131.3906 25.625,131.7344 Q25.625,132.0781 25.2813,132.4844 Q24.7813,133.0625 23.9844,133.3906 Q22.9063,133.8438 21.6094,133.8438 Q20.0938,133.8438 18.8906,133.2188 Q17.9063,132.7188 17.2188,131.6484 Q16.5313,130.5781 16.5313,129.2969 L16.5313,128.1406 Q16.5313,126.8125 17.1484,125.6641 Q17.7656,124.5156 18.8594,123.8984 Q19.9531,123.2813 21.1875,123.2813 Q21.9219,123.2813 22.5703,123.4453 Q23.2188,123.6094 23.7656,123.9688 Z "/><text fill="#000000" font-family="sans-serif" font-size="14" font-weight="bold" lengthAdjust="spacingAndGlyphs" textLength="325" x="35" y="127.5332">JsonRepresentationBuilderState.StateContext</text><text fill="#000000" font-family="sans-serif" font-size="10" lengthAdjust="spacingAndGlyphs" textLength="188" x="103.5" y="140.9902">eapli.framework.representations.builders</text><line style="stroke: #A80036; stroke-width: 1.5;" x1="7" x2="362" y1="148.1875" y2="148.1875"/><rect fill="none" height="6" style="stroke: #C82930; stroke-width: 1.0;" width="6" x="14" y="156.1875"/><text fill="#000000" font-family="sans-serif" font-size="11" lengthAdjust="spacingAndGlyphs" textLength="193" x="26" y="163.6064">StateContext.StateContextType ctxType</text><line style="stroke: #A80036; stroke-width: 1.5;" x1="7" x2="362" y1="170.0234" y2="170.0234"/><ellipse cx="17" cy="181.0234" fill="#84BE84" rx="3" ry="3" style="stroke: #038048; stroke-width: 1.0;"/><text fill="#000000" font-family="sans-serif" font-size="11" lengthAdjust="spacingAndGlyphs" textLength="245" x="26" y="185.4424">StateContext(StateContext.StateContextType type)</text><ellipse cx="17" cy="194.8594" fill="#84BE84" rx="3" ry="3" style="stroke: #038048; stroke-width: 1.0;"/><text fill="#000000" font-family="sans-serif" font-size="11" lengthAdjust="spacingAndGlyphs" textLength="111" x="26" y="199.2783">boolean isInCollection()</text><ellipse cx="17" cy="208.6953" fill="#84BE84" rx="3" ry="3" style="stroke: #038048; stroke-width: 1.0;"/><text fill="#000000" font-family="sans-serif" font-size="11" lengthAdjust="spacingAndGlyphs" textLength="96" x="26" y="213.1143">boolean isInObject()</text><ellipse cx="17" cy="222.5313" fill="#84BE84" rx="3" ry="3" style="stroke: #038048; stroke-width: 1.0;"/><text fill="#000000" font-family="sans-serif" font-size="11" lengthAdjust="spacingAndGlyphs" text-decoration="underline" textLength="299" x="26" y="226.9502">JsonRepresentationBuilderState.StateContext moveToObject()</text><ellipse cx="17" cy="236.3672" fill="#84BE84" rx="3" ry="3" style="stroke: #038048; stroke-width: 1.0;"/><text fill="#000000" font-family="sans-serif" font-size="11" lengthAdjust="spacingAndGlyphs" text-decoration="underline" textLength="314" x="26" y="240.7861">JsonRepresentationBuilderState.StateContext moveToCollection()</text></a><!--MD5=[e1398f529d5b332c74e11f95cc789f0b]
class eapli.framework.representations.builders.JsonRepresentationBuilderState--><a href="../../../../eapli/framework/representations/builders/JsonRepresentationBuilderState.html" target="_parent" title="eapli.framework.representations.builders.JsonRepresentationBuilderState" xlink:actuate="onRequest" xlink:href="../../../../eapli/framework/representations/builders/JsonRepresentationBuilderState.html" xlink:show="new" xlink:title="eapli.framework.representations.builders.JsonRepresentationBuilderState" xlink:type="simple"><rect fill="#FEFECE" filter="url(#f1gryuf76fkbj8)" height="40.1875" id="eapli.framework.representations.builders.JsonRepresentationBuilderState" style="stroke: #A80036; stroke-width: 1.5;" width="262" x="53.5" y="8"/><ellipse cx="68.5" cy="28.0938" fill="#ADD1B2" rx="11" ry="11" style="stroke: #A80036; stroke-width: 1.0;"/><path d="M71.2656,23.9688 Q71.4219,23.75 71.6094,23.6406 Q71.7969,23.5313 72.0156,23.5313 Q72.3906,23.5313 72.625,23.7891 Q72.8594,24.0469 72.8594,24.6563 L72.8594,26.1094 Q72.8594,26.7188 72.625,26.9844 Q72.3906,27.25 72.0156,27.25 Q71.6719,27.25 71.4688,27.0469 Q71.2656,26.8594 71.1563,26.3438 Q71.1094,25.9844 70.9219,25.7969 Q70.5938,25.4219 69.9844,25.2031 Q69.375,24.9844 68.75,24.9844 Q67.9844,24.9844 67.3516,25.3125 Q66.7188,25.6406 66.2266,26.3906 Q65.7344,27.1406 65.7344,28.1719 L65.7344,29.2656 Q65.7344,30.5 66.625,31.3203 Q67.5156,32.1406 69.1094,32.1406 Q70.0469,32.1406 70.7031,31.8906 Q71.0938,31.7344 71.5156,31.2969 Q71.7813,31.0313 71.9297,30.9531 Q72.0781,30.875 72.2813,30.875 Q72.6094,30.875 72.8672,31.1328 Q73.125,31.3906 73.125,31.7344 Q73.125,32.0781 72.7813,32.4844 Q72.2813,33.0625 71.4844,33.3906 Q70.4063,33.8438 69.1094,33.8438 Q67.5938,33.8438 66.3906,33.2188 Q65.4063,32.7188 64.7188,31.6484 Q64.0313,30.5781 64.0313,29.2969 L64.0313,28.1406 Q64.0313,26.8125 64.6484,25.6641 Q65.2656,24.5156 66.3594,23.8984 Q67.4531,23.2813 68.6875,23.2813 Q69.4219,23.2813 70.0703,23.4453 Q70.7188,23.6094 71.2656,23.9688 Z "/><text fill="#000000" font-family="sans-serif" font-size="14" font-weight="bold" lengthAdjust="spacingAndGlyphs" textLength="230" x="82.5" y="27.5332">JsonRepresentationBuilderState</text><text fill="#000000" font-family="sans-serif" font-size="10" lengthAdjust="spacingAndGlyphs" textLength="188" x="103.5" y="40.9902">eapli.framework.representations.builders</text></a><!--MD5=[df925dedd2c107a70810014e01abf4b6]
class eapli.framework.representations.builders.StateContext.StateContextType--><a href="../../../../eapli/framework/representations/builders/StateContext.StateContextType.html" target="_parent" title="eapli.framework.representations.builders.StateContext.StateContextType" xlink:actuate="onRequest" xlink:href="../../../../eapli/framework/representations/builders/StateContext.StateContextType.html" xlink:show="new" xlink:title="eapli.framework.representations.builders.StateContext.StateContextType" xlink:type="simple"><rect fill="#FEFECE" filter="url(#f1gryuf76fkbj8)" height="40.1875" id="eapli.framework.representations.builders.StateContext.StateContextType" style="stroke: #A80036; stroke-width: 1.5;" width="251" x="59" y="307"/><ellipse cx="74" cy="327.0938" fill="#EB937F" rx="11" ry="11" style="stroke: #A80036; stroke-width: 1.0;"/><path d="M72.8594,327.8906 L72.8594,330.3906 L77.1875,330.3906 L77.1875,329.4688 Q77.1875,328.8594 77.4297,328.5938 Q77.6719,328.3281 78.0469,328.3281 Q78.4219,328.3281 78.6563,328.5938 Q78.8906,328.8594 78.8906,329.4688 L78.8906,332.0938 L70.8906,332.0938 Q70.2656,332.0938 70.0078,331.8594 Q69.75,331.625 69.75,331.2344 Q69.75,330.8594 70.0156,330.625 Q70.2813,330.3906 70.8906,330.3906 L71.1563,330.3906 L71.1563,323.7344 L70.8906,323.7344 Q70.2656,323.7344 70.0078,323.5 Q69.75,323.2656 69.75,322.875 Q69.75,322.5 70.0078,322.2656 Q70.2656,322.0313 70.8906,322.0313 L78.5156,322.0313 L78.5156,324.625 Q78.5156,325.2344 78.2891,325.4922 Q78.0625,325.75 77.6719,325.75 Q77.2969,325.75 77.0625,325.4922 Q76.8281,325.2344 76.8281,324.625 L76.8281,323.7344 L72.8594,323.7344 L72.8594,326.1875 L74.3438,326.1875 Q74.3438,325.5313 74.4688,325.3438 Q74.7344,324.9375 75.2031,324.9375 Q75.5781,324.9375 75.8125,325.1953 Q76.0469,325.4531 76.0469,326.0625 L76.0469,328.0313 Q76.0469,328.5781 75.9219,328.7656 Q75.6563,329.1563 75.2031,329.1563 Q74.7344,329.1563 74.4688,328.75 Q74.3438,328.5625 74.3438,327.8906 L72.8594,327.8906 Z "/><text fill="#000000" font-family="sans-serif" font-size="14" font-weight="bold" lengthAdjust="spacingAndGlyphs" textLength="219" x="88" y="326.5332">StateContext.StateContextType</text><text fill="#000000" font-family="sans-serif" font-size="10" lengthAdjust="spacingAndGlyphs" textLength="188" x="103.5" y="339.9902">eapli.framework.representations.builders</text></a><!--MD5=[a986488e5362ac1de24f828796631b63]
link eapli.framework.representations.builders.JsonRepresentationBuilderState to eapli.framework.representations.builders.JsonRepresentationBuilderState.StateContext--><path d="M184.5,48.162 C184.5,48.162 184.5,102.691 184.5,102.691 " fill="none" id="eapli.framework.representations.builders.JsonRepresentationBuilderState-&gt;eapli.framework.representations.builders.JsonRepresentationBuilderState.StateContext" style="stroke: #A80036; stroke-width: 1.0; stroke-dasharray: 7.0,7.0;"/><polygon fill="#A80036" points="184.5,107.691,188.5,98.691,184.5,102.691,180.5,98.691,184.5,107.691" style="stroke: #A80036; stroke-width: 1.0;"/><!--MD5=[e789a8baa8c22d315937af82acc3ae7e]
link eapli.framework.representations.builders.JsonRepresentationBuilderState.StateContext to eapli.framework.representations.builders.StateContext.StateContextType--><path d="M184.5,247.4351 C184.5,247.4351 184.5,301.8827 184.5,301.8827 " fill="none" id="eapli.framework.representations.builders.JsonRepresentationBuilderState.StateContext-&gt;eapli.framework.representations.builders.StateContext.StateContextType" style="stroke: #A80036; stroke-width: 1.0;"/><polygon fill="#A80036" points="184.5,306.8827,188.5,297.8827,184.5,301.8827,180.5,297.8827,184.5,306.8827" style="stroke: #A80036; stroke-width: 1.0;"/><text fill="#000000" font-family="sans-serif" font-size="13" lengthAdjust="spacingAndGlyphs" textLength="46" x="131.7438" y="296.1425">ctxType</text><!--MD5=[1f6cecc3cdc1c44e0b8f021b4d1f24c8]
@startuml

skinparam svgLinkTarget _parent
skinparam linetype ortho
set namespaceSeparator none
class "<b><size:14>JsonRepresentationBuilderState.StateContext</b>\n<size:10>eapli.framework.representations.builders" as eapli.framework.representations.builders.JsonRepresentationBuilderState.StateContext  [[../../../../eapli/framework/representations/builders/JsonRepresentationBuilderState.StateContext.html{eapli.framework.representations.builders.JsonRepresentationBuilderState.StateContext}]] {
-StateContext.StateContextType ctxType
+StateContext(StateContext.StateContextType type)
+boolean isInCollection()
+boolean isInObject()
{static} +JsonRepresentationBuilderState.StateContext moveToObject()
{static} +JsonRepresentationBuilderState.StateContext moveToCollection()
}


class "<b><size:14>JsonRepresentationBuilderState</b>\n<size:10>eapli.framework.representations.builders" as eapli.framework.representations.builders.JsonRepresentationBuilderState  [[../../../../eapli/framework/representations/builders/JsonRepresentationBuilderState.html{eapli.framework.representations.builders.JsonRepresentationBuilderState}]] {
}

hide eapli.framework.representations.builders.JsonRepresentationBuilderState fields
hide eapli.framework.representations.builders.JsonRepresentationBuilderState methods

eapli.framework.representations.builders.JsonRepresentationBuilderState ..> eapli.framework.representations.builders.JsonRepresentationBuilderState.StateContext

enum "<b><size:14>StateContext.StateContextType</b>\n<size:10>eapli.framework.representations.builders" as eapli.framework.representations.builders.StateContext.StateContextType  [[../../../../eapli/framework/representations/builders/StateContext.StateContextType.html{eapli.framework.representations.builders.StateContext.StateContextType}]] {
}

hide eapli.framework.representations.builders.StateContext.StateContextType fields
hide eapli.framework.representations.builders.StateContext.StateContextType methods

eapli.framework.representations.builders.JsonRepresentationBuilderState.StateContext - ->  "ctxType" eapli.framework.representations.builders.StateContext.StateContextType


@enduml

PlantUML version 1.2020.04(Thu Mar 19 10:16:49 GMT 2020)
(GPL source distribution)
Java Runtime: Java(TM) SE Runtime Environment
JVM: Java HotSpot(TM) 64-Bit Server VM
Java Version: 1.8.0_202-b08
Operating System: Windows 10
Default Encoding: Cp1252
Language: en
Country: US
--></g></svg>