@startuml

skinparam svgLinkTarget _parent
skinparam linetype ortho
set namespaceSeparator none
class "<b><size:14>JsonRepresentationBuilderState</b>\n<size:10>eapli.framework.representations.builders" as eapli.framework.representations.builders.JsonRepresentationBuilderState  [[../../../../eapli/framework/representations/builders/JsonRepresentationBuilderState.html{eapli.framework.representations.builders.JsonRepresentationBuilderState}]] {
-JsonRepresentationBuilderState.JsonDocumentType type
-Deque<StateContext> state
+JsonRepresentationBuilderState()
+void startRootObject()
+void startRootCollection()
+boolean isRootObject()
+boolean isRootCollection()
+boolean hasStarted()
+void enterCollection()
+void enterObject()
+boolean isInCollection()
+boolean isInObject()
+void leave()
+boolean canFinish()
+boolean needsClosing()
+boolean hasEnded()
}


class "<b><size:14>JsonRepresentationBuilder</b>\n<size:10>eapli.framework.representations.builders" as eapli.framework.representations.builders.JsonRepresentationBuilder  [[../../../../eapli/framework/representations/builders/JsonRepresentationBuilder.html{eapli.framework.representations.builders.JsonRepresentationBuilder}]] {
}

hide eapli.framework.representations.builders.JsonRepresentationBuilder fields
hide eapli.framework.representations.builders.JsonRepresentationBuilder methods

eapli.framework.representations.builders.JsonRepresentationBuilder -->  "state" eapli.framework.representations.builders.JsonRepresentationBuilderState

enum "<b><size:14>JsonRepresentationBuilderState.JsonDocumentType</b>\n<size:10>eapli.framework.representations.builders" as eapli.framework.representations.builders.JsonRepresentationBuilderState.JsonDocumentType  [[../../../../eapli/framework/representations/builders/JsonRepresentationBuilderState.JsonDocumentType.html{eapli.framework.representations.builders.JsonRepresentationBuilderState.JsonDocumentType}]] {
}

hide eapli.framework.representations.builders.JsonRepresentationBuilderState.JsonDocumentType fields
hide eapli.framework.representations.builders.JsonRepresentationBuilderState.JsonDocumentType methods

eapli.framework.representations.builders.JsonRepresentationBuilderState -->  "type" eapli.framework.representations.builders.JsonRepresentationBuilderState.JsonDocumentType


class "<b><size:14>JsonRepresentationBuilderState.StateContext</b>\n<size:10>eapli.framework.representations.builders" as eapli.framework.representations.builders.JsonRepresentationBuilderState.StateContext  [[../../../../eapli/framework/representations/builders/JsonRepresentationBuilderState.StateContext.html{eapli.framework.representations.builders.JsonRepresentationBuilderState.StateContext}]] {
}

hide eapli.framework.representations.builders.JsonRepresentationBuilderState.StateContext fields
hide eapli.framework.representations.builders.JsonRepresentationBuilderState.StateContext methods

eapli.framework.representations.builders.JsonRepresentationBuilderState ..> eapli.framework.representations.builders.JsonRepresentationBuilderState.StateContext


@enduml
