@startuml

skinparam svgLinkTarget _parent
skinparam linetype ortho
set namespaceSeparator none
enum "<b><size:14>StateContext.StateContextType</b>\n<size:10>eapli.framework.representations.builders" as eapli.framework.representations.builders.StateContext.StateContextType  [[../../../../eapli/framework/representations/builders/StateContext.StateContextType.html{eapli.framework.representations.builders.StateContext.StateContextType}]] {
-StateContextType()
{static} +StateContext.StateContextType values()
{static} +StateContext.StateContextType valueOf(String name)
}


class "<b><size:14>JsonRepresentationBuilderState.StateContext</b>\n<size:10>eapli.framework.representations.builders" as eapli.framework.representations.builders.JsonRepresentationBuilderState.StateContext  [[../../../../eapli/framework/representations/builders/JsonRepresentationBuilderState.StateContext.html{eapli.framework.representations.builders.JsonRepresentationBuilderState.StateContext}]] {
}

hide eapli.framework.representations.builders.JsonRepresentationBuilderState.StateContext fields
hide eapli.framework.representations.builders.JsonRepresentationBuilderState.StateContext methods

eapli.framework.representations.builders.JsonRepresentationBuilderState.StateContext -->  "ctxType" eapli.framework.representations.builders.StateContext.StateContextType


@enduml
