@startuml

skinparam svgLinkTarget _parent
skinparam linetype ortho
set namespaceSeparator none
enum "<b><size:14>Either.SideType</b>\n<size:10>eapli.framework.functional" as eapli.framework.functional.Either.SideType  [[../../../eapli/framework/functional/Either.SideType.html{eapli.framework.functional.Either.SideType}]] {
-SideType()
{static} +Either.SideType values()
{static} +Either.SideType valueOf(String name)
}


class "<b><size:14>Either</b>\n<size:10>eapli.framework.functional" as eapli.framework.functional.Either  [[../../../eapli/framework/functional/Either.html{eapli.framework.functional.Either}]] {
}

hide eapli.framework.functional.Either fields
hide eapli.framework.functional.Either methods

eapli.framework.functional.Either -->  "type" eapli.framework.functional.Either.SideType


@enduml
