@startuml

skinparam svgLinkTarget _parent
skinparam linetype ortho
set namespaceSeparator none
class "<b><size:14>Either</b>\n<size:10>eapli.framework.functional" as eapli.framework.functional.Either  [[../../../eapli/framework/functional/Either.html{eapli.framework.functional.Either}]] {
{static} -Either EMPTY
-Either.SideType type
-Object left
-Object right
-Either(Object left,boolean marker)
-Either(Object right)
-Either()
{static} +Either<T, U> left(Object left)
{static} +Either<T, U> right(Object right)
+Either<T, U> map(Function<?, ?> leftMapper,Function<?, ?> rightMapper)
+Either<L, R> filter(Predicate<?> leftPredicate,Predicate<?> rightPredicate)
+Object fold(BiFunction<T, ?, ?> leftAccum,BiFunction<T, ?, ?> rightAccum,Object def)
+void consume(Consumer<?> leftConsumer,Consumer<?> rightConsumer)
+Object leftValueOrElseThrow(Supplier<?> exceptionBuilder)
+Object leftValueOrElse(Object def)
+Object rightValueOrElseThrow(Supplier<?> exceptionBuilder)
+Object rightValueOrElse(Object def)
+Either<R, L> swap()
{static} ~Either<T, U> empty()
~boolean isEmpty()
}


eapli.framework.functional.Either -->  "EMPTY" eapli.framework.functional.Either

enum "<b><size:14>Either.SideType</b>\n<size:10>eapli.framework.functional" as eapli.framework.functional.Either.SideType  [[../../../eapli/framework/functional/Either.SideType.html{eapli.framework.functional.Either.SideType}]] {
}

hide eapli.framework.functional.Either.SideType fields
hide eapli.framework.functional.Either.SideType methods

eapli.framework.functional.Either -->  "type" eapli.framework.functional.Either.SideType

class "<b><size:14>Object</b>\n<size:10>java.lang" as java.lang.Object  #lightgrey {
}

hide java.lang.Object fields
hide java.lang.Object methods

eapli.framework.functional.Either -->  "left" java.lang.Object

eapli.framework.functional.Either -->  "right" java.lang.Object

class "<b><size:14>Either<T, U></b>\n<size:10>eapli.framework.functional" as eapli.framework.functional.EitherObjectObject  [[../../../eapli/framework/functional/Either.html{eapli.framework.functional.Either}]] {
}

hide eapli.framework.functional.EitherObjectObject fields
hide eapli.framework.functional.EitherObjectObject methods

eapli.framework.functional.Either ..> eapli.framework.functional.EitherObjectObject




class "<b><size:14>Either<L, R></b>\n<size:10>eapli.framework.functional" as eapli.framework.functional.EitherObjectObject  [[../../../eapli/framework/functional/Either.html{eapli.framework.functional.Either}]] {
}

hide eapli.framework.functional.EitherObjectObject fields
hide eapli.framework.functional.EitherObjectObject methods

eapli.framework.functional.Either ..> eapli.framework.functional.EitherObjectObject




class "<b><size:14>RuntimeException</b>\n<size:10>java.lang" as java.lang.RuntimeException  #lightgrey {
}

hide java.lang.RuntimeException fields
hide java.lang.RuntimeException methods

eapli.framework.functional.Either ..> java.lang.RuntimeException

class "<b><size:14>Either<R, L></b>\n<size:10>eapli.framework.functional" as eapli.framework.functional.EitherObjectObject  [[../../../eapli/framework/functional/Either.html{eapli.framework.functional.Either}]] {
}

hide eapli.framework.functional.EitherObjectObject fields
hide eapli.framework.functional.EitherObjectObject methods

eapli.framework.functional.Either ..> eapli.framework.functional.EitherObjectObject


@enduml
