@startuml

skinparam svgLinkTarget _parent
skinparam linetype ortho
set namespaceSeparator none
class "<b><size:14>Functions</b>\n<size:10>eapli.framework.functional" as eapli.framework.functional.Functions <<Utility>> [[../../../eapli/framework/functional/Functions.html{eapli.framework.functional.Functions}]] {
-Functions()
{static} +Function<T, T> constant(Object c)
{static} +Function<A, C> composition(Function<B, C> g,Function<A, B> f)
{static} +Function<T, R> conditionalGet(Predicate<T> condition,Supplier<R> success,Supplier<R> failure)
{static} +Optional<T> retry(Supplier<Optional> operation,int sleep,int maxAttempts,boolean progressive)
{static} +Optional<T> retry(Supplier<Optional> operation,int sleep,int maxAttempts)
}


class "<b><size:14>Object</b>\n<size:10>java.lang" as java.lang.Object  #lightgrey {
}

hide java.lang.Object fields
hide java.lang.Object methods

eapli.framework.functional.Functions ..> java.lang.Object








interface "<b><size:14>Serializable</b>\n<size:10>java.io" as java.io.Serializable  #lightgrey {
}

hide java.io.Serializable fields
hide java.io.Serializable methods

eapli.framework.functional.Functions ..> java.io.Serializable



interface "<b><size:14>ActiveRecord</b>\n<size:10>eapli.framework.domain.activerecord" as eapli.framework.domain.activerecord.ActiveRecord  [[../../../eapli/framework/domain/activerecord/ActiveRecord.html{eapli.framework.domain.activerecord.ActiveRecord}]] #white {
}

hide eapli.framework.domain.activerecord.ActiveRecord fields
hide eapli.framework.domain.activerecord.ActiveRecord methods

eapli.framework.functional.Functions ..> eapli.framework.domain.activerecord.ActiveRecord


@enduml
