@startuml

skinparam svgLinkTarget _parent
skinparam linetype ortho
set namespaceSeparator none
class "<b><size:14>StandardFunctions</b>\n<size:10>eapli.framework.functional" as eapli.framework.functional.StandardFunctions <<Utility>> [[../../../eapli/framework/functional/StandardFunctions.html{eapli.framework.functional.StandardFunctions}]] {
-StandardFunctions()
{static} +Object identity(Object x)
{static} +void nop()
{static} +void ignore(Object x)
}


class "<b><size:14>Object</b>\n<size:10>java.lang" as java.lang.Object  #lightgrey {
}

hide java.lang.Object fields
hide java.lang.Object methods

eapli.framework.functional.StandardFunctions ..> java.lang.Object


@enduml
