<?xml version="1.0" encoding="UTF-8" standalone="no"?><svg xmlns="http://www.w3.org/2000/svg" xmlns:xlink="http://www.w3.org/1999/xlink" contentScriptType="application/ecmascript" contentStyleType="text/css" height="246px" preserveAspectRatio="none" style="width:182px;height:246px;" version="1.1" viewBox="0 0 182 246" width="182px" zoomAndPan="magnify"><defs><filter height="300%" id="f106grrwngm8ns" width="300%" x="-1" y="-1"><feGaussianBlur result="blurOut" stdDeviation="2.0"/><feColorMatrix in="blurOut" result="blurOut2" type="matrix" values="0 0 0 0 0 0 0 0 0 0 0 0 0 0 0 0 0 0 .4 0"/><feOffset dx="4.0" dy="4.0" in="blurOut2" result="blurOut3"/><feBlend in="SourceGraphic" in2="blurOut3" mode="normal"/></filter></defs><g><!--MD5=[8776c7b0cd9fb47521158b71f7f2b8ed]
class eapli.framework.functional.StandardFunctions--><a href="../../../eapli/framework/functional/StandardFunctions.html" target="_parent" title="eapli.framework.functional.StandardFunctions" xlink:actuate="onRequest" xlink:href="../../../eapli/framework/functional/StandardFunctions.html" xlink:show="new" xlink:title="eapli.framework.functional.StandardFunctions" xlink:type="simple"><rect fill="#FEFECE" filter="url(#f106grrwngm8ns)" height="126.625" id="eapli.framework.functional.StandardFunctions" style="stroke: #A80036; stroke-width: 1.5;" width="165" x="6" y="8"/><ellipse cx="21" cy="35.6406" fill="#ADD1B2" rx="11" ry="11" style="stroke: #A80036; stroke-width: 1.0;"/><path d="M23.7656,31.5156 Q23.9219,31.2969 24.1094,31.1875 Q24.2969,31.0781 24.5156,31.0781 Q24.8906,31.0781 25.125,31.3359 Q25.3594,31.5938 25.3594,32.2031 L25.3594,33.6563 Q25.3594,34.2656 25.125,34.5313 Q24.8906,34.7969 24.5156,34.7969 Q24.1719,34.7969 23.9688,34.5938 Q23.7656,34.4063 23.6563,33.8906 Q23.6094,33.5313 23.4219,33.3438 Q23.0938,32.9688 22.4844,32.75 Q21.875,32.5313 21.25,32.5313 Q20.4844,32.5313 19.8516,32.8594 Q19.2188,33.1875 18.7266,33.9375 Q18.2344,34.6875 18.2344,35.7188 L18.2344,36.8125 Q18.2344,38.0469 19.125,38.8672 Q20.0156,39.6875 21.6094,39.6875 Q22.5469,39.6875 23.2031,39.4375 Q23.5938,39.2813 24.0156,38.8438 Q24.2813,38.5781 24.4297,38.5 Q24.5781,38.4219 24.7813,38.4219 Q25.1094,38.4219 25.3672,38.6797 Q25.625,38.9375 25.625,39.2813 Q25.625,39.625 25.2813,40.0313 Q24.7813,40.6094 23.9844,40.9375 Q22.9063,41.3906 21.6094,41.3906 Q20.0938,41.3906 18.8906,40.7656 Q17.9063,40.2656 17.2188,39.1953 Q16.5313,38.125 16.5313,36.8438 L16.5313,35.6875 Q16.5313,34.3594 17.1484,33.2109 Q17.7656,32.0625 18.8594,31.4453 Q19.9531,30.8281 21.1875,30.8281 Q21.9219,30.8281 22.5703,30.9922 Q23.2188,31.1563 23.7656,31.5156 Z "/><text fill="#000000" font-family="sans-serif" font-size="12" font-style="italic" lengthAdjust="spacingAndGlyphs" textLength="44" x="79.5" y="25.457">«Utility»</text><text fill="#000000" font-family="sans-serif" font-size="14" font-weight="bold" lengthAdjust="spacingAndGlyphs" textLength="133" x="35" y="42.627">StandardFunctions</text><text fill="#000000" font-family="sans-serif" font-size="10" lengthAdjust="spacingAndGlyphs" textLength="125" x="39" y="56.084">eapli.framework.functional</text><line style="stroke: #A80036; stroke-width: 1.5;" x1="7" x2="170" y1="63.2813" y2="63.2813"/><line style="stroke: #A80036; stroke-width: 1.5;" x1="7" x2="170" y1="71.2813" y2="71.2813"/><rect fill="#F24D5C" height="6" style="stroke: #C82930; stroke-width: 1.0;" width="6" x="14" y="79.2813"/><text fill="#000000" font-family="sans-serif" font-size="11" lengthAdjust="spacingAndGlyphs" textLength="99" x="26" y="86.7002">StandardFunctions()</text><ellipse cx="17" cy="96.1172" fill="#84BE84" rx="3" ry="3" style="stroke: #038048; stroke-width: 1.0;"/><text fill="#000000" font-family="sans-serif" font-size="11" lengthAdjust="spacingAndGlyphs" text-decoration="underline" textLength="116" x="26" y="100.5361">Object identity(Object x)</text><ellipse cx="17" cy="109.9531" fill="#84BE84" rx="3" ry="3" style="stroke: #038048; stroke-width: 1.0;"/><text fill="#000000" font-family="sans-serif" font-size="11" lengthAdjust="spacingAndGlyphs" text-decoration="underline" textLength="49" x="26" y="114.3721">void nop()</text><ellipse cx="17" cy="123.7891" fill="#84BE84" rx="3" ry="3" style="stroke: #038048; stroke-width: 1.0;"/><text fill="#000000" font-family="sans-serif" font-size="11" lengthAdjust="spacingAndGlyphs" text-decoration="underline" textLength="101" x="26" y="128.208">void ignore(Object x)</text></a><!--MD5=[274ad5661286b626a93603d287cbf95a]
class java.lang.Object--><rect fill="#D3D3D3" filter="url(#f106grrwngm8ns)" height="40.1875" id="java.lang.Object" style="stroke: #A80036; stroke-width: 1.5;" width="78" x="49.5" y="195"/><rect fill="#D3D3D3" height="40.1875" style="stroke: #A80036; stroke-width: 1.5;" width="78" x="49.5" y="195"/><ellipse cx="64.5" cy="215.0938" fill="#ADD1B2" rx="11" ry="11" style="stroke: #A80036; stroke-width: 1.0;"/><path d="M67.2656,210.9688 Q67.4219,210.75 67.6094,210.6406 Q67.7969,210.5313 68.0156,210.5313 Q68.3906,210.5313 68.625,210.7891 Q68.8594,211.0469 68.8594,211.6563 L68.8594,213.1094 Q68.8594,213.7188 68.625,213.9844 Q68.3906,214.25 68.0156,214.25 Q67.6719,214.25 67.4688,214.0469 Q67.2656,213.8594 67.1563,213.3438 Q67.1094,212.9844 66.9219,212.7969 Q66.5938,212.4219 65.9844,212.2031 Q65.375,211.9844 64.75,211.9844 Q63.9844,211.9844 63.3516,212.3125 Q62.7188,212.6406 62.2266,213.3906 Q61.7344,214.1406 61.7344,215.1719 L61.7344,216.2656 Q61.7344,217.5 62.625,218.3203 Q63.5156,219.1406 65.1094,219.1406 Q66.0469,219.1406 66.7031,218.8906 Q67.0938,218.7344 67.5156,218.2969 Q67.7813,218.0313 67.9297,217.9531 Q68.0781,217.875 68.2813,217.875 Q68.6094,217.875 68.8672,218.1328 Q69.125,218.3906 69.125,218.7344 Q69.125,219.0781 68.7813,219.4844 Q68.2813,220.0625 67.4844,220.3906 Q66.4063,220.8438 65.1094,220.8438 Q63.5938,220.8438 62.3906,220.2188 Q61.4063,219.7188 60.7188,218.6484 Q60.0313,217.5781 60.0313,216.2969 L60.0313,215.1406 Q60.0313,213.8125 60.6484,212.6641 Q61.2656,211.5156 62.3594,210.8984 Q63.4531,210.2813 64.6875,210.2813 Q65.4219,210.2813 66.0703,210.4453 Q66.7188,210.6094 67.2656,210.9688 Z "/><text fill="#000000" font-family="sans-serif" font-size="14" font-weight="bold" lengthAdjust="spacingAndGlyphs" textLength="46" x="78.5" y="214.5332">Object</text><text fill="#000000" font-family="sans-serif" font-size="10" lengthAdjust="spacingAndGlyphs" textLength="44" x="79.5" y="227.9902">java.lang</text><!--MD5=[a6fde5ed8b24dbdc90a5c6fe0763dd91]
link eapli.framework.functional.StandardFunctions to java.lang.Object--><path d="M88.5,135.2769 C88.5,135.2769 88.5,189.9526 88.5,189.9526 " fill="none" id="eapli.framework.functional.StandardFunctions-&gt;java.lang.Object" style="stroke: #A80036; stroke-width: 1.0; stroke-dasharray: 7.0,7.0;"/><polygon fill="#A80036" points="88.5,194.9526,92.5,185.9526,88.5,189.9526,84.5,185.9526,88.5,194.9526" style="stroke: #A80036; stroke-width: 1.0;"/><!--MD5=[6b68af5fee62d1798c98311a58de2746]
@startuml

skinparam svgLinkTarget _parent
skinparam linetype ortho
set namespaceSeparator none
class "<b><size:14>StandardFunctions</b>\n<size:10>eapli.framework.functional" as eapli.framework.functional.StandardFunctions <<Utility>> [[../../../eapli/framework/functional/StandardFunctions.html{eapli.framework.functional.StandardFunctions}]] {
-StandardFunctions()
{static} +Object identity(Object x)
{static} +void nop()
{static} +void ignore(Object x)
}


class "<b><size:14>Object</b>\n<size:10>java.lang" as java.lang.Object  #lightgrey {
}

hide java.lang.Object fields
hide java.lang.Object methods

eapli.framework.functional.StandardFunctions ..> java.lang.Object


@enduml

PlantUML version 1.2020.04(Thu Mar 19 10:16:49 GMT 2020)
(GPL source distribution)
Java Runtime: Java(TM) SE Runtime Environment
JVM: Java HotSpot(TM) 64-Bit Server VM
Java Version: 1.8.0_202-b08
Operating System: Windows 10
Default Encoding: Cp1252
Language: en
Country: US
--></g></svg>