<?xml version="1.0" encoding="UTF-8" standalone="no"?><svg xmlns="http://www.w3.org/2000/svg" xmlns:xlink="http://www.w3.org/1999/xlink" contentScriptType="application/ecmascript" contentStyleType="text/css" height="288px" preserveAspectRatio="none" style="width:925px;height:288px;" version="1.1" viewBox="0 0 925 288" width="925px" zoomAndPan="magnify"><defs><filter height="300%" id="fgdueemv1hifo" width="300%" x="-1" y="-1"><feGaussianBlur result="blurOut" stdDeviation="2.0"/><feColorMatrix in="blurOut" result="blurOut2" type="matrix" values="0 0 0 0 0 0 0 0 0 0 0 0 0 0 0 0 0 0 .4 0"/><feOffset dx="4.0" dy="4.0" in="blurOut2" result="blurOut3"/><feBlend in="SourceGraphic" in2="blurOut3" mode="normal"/></filter></defs><g><!--MD5=[be1d60014dc61cbeaee705e5a11479de]
class eapli.framework.infrastructure.repositories.impl.springdata.SpringDataDomainBaseRepository--><a href="../../../../../../eapli/framework/infrastructure/repositories/impl/springdata/SpringDataDomainBaseRepository.html" target="_parent" title="eapli.framework.infrastructure.repositories.impl.springdata.SpringDataDomainBaseRepository" xlink:actuate="onRequest" xlink:href="../../../../../../eapli/framework/infrastructure/repositories/impl/springdata/SpringDataDomainBaseRepository.html" xlink:show="new" xlink:title="eapli.framework.infrastructure.repositories.impl.springdata.SpringDataDomainBaseRepository" xlink:type="simple"><rect fill="#FEFECE" filter="url(#fgdueemv1hifo)" height="154.2969" id="eapli.framework.infrastructure.repositories.impl.springdata.SpringDataDomainBaseRepository" style="stroke: #A80036; stroke-width: 1.5;" width="303" x="289" y="8"/><ellipse cx="304" cy="35.6406" fill="#B4A7E5" rx="11" ry="11" style="stroke: #A80036; stroke-width: 1.0;"/><path d="M304.9531,32.2813 L304.9531,38.9375 L306.6719,38.9375 Q307.2813,38.9375 307.5469,39.1719 Q307.8125,39.4063 307.8125,39.7969 Q307.8125,40.1719 307.5469,40.4063 Q307.2813,40.6406 306.6719,40.6406 L301.5313,40.6406 Q300.9219,40.6406 300.6563,40.4063 Q300.3906,40.1719 300.3906,39.7813 Q300.3906,39.4063 300.6563,39.1719 Q300.9219,38.9375 301.5313,38.9375 L303.25,38.9375 L303.25,32.2813 L301.5313,32.2813 Q300.9219,32.2813 300.6563,32.0469 Q300.3906,31.8125 300.3906,31.4219 Q300.3906,31.0469 300.6563,30.8125 Q300.9219,30.5781 301.5313,30.5781 L306.6719,30.5781 Q307.2813,30.5781 307.5469,30.8125 Q307.8125,31.0469 307.8125,31.4219 Q307.8125,31.8125 307.5469,32.0469 Q307.2813,32.2813 306.6719,32.2813 L304.9531,32.2813 Z "/><text fill="#000000" font-family="sans-serif" font-size="12" font-style="italic" lengthAdjust="spacingAndGlyphs" textLength="118" x="394.5" y="25.457">«NoRepositoryBean»</text><text fill="#000000" font-family="sans-serif" font-size="14" font-style="italic" font-weight="bold" lengthAdjust="spacingAndGlyphs" textLength="230" x="338.5" y="42.627">SpringDataDomainBaseRepository</text><text fill="#000000" font-family="sans-serif" font-size="10" font-style="italic" lengthAdjust="spacingAndGlyphs" textLength="271" x="318" y="56.084">eapli.framework.infrastructure.repositories.impl.springdata</text><line style="stroke: #A80036; stroke-width: 1.5;" x1="290" x2="591" y1="63.2813" y2="63.2813"/><line style="stroke: #A80036; stroke-width: 1.5;" x1="290" x2="591" y1="71.2813" y2="71.2813"/><ellipse cx="300" cy="82.2813" fill="#84BE84" rx="3" ry="3" style="stroke: #038048; stroke-width: 1.0;"/><text fill="#000000" font-family="sans-serif" font-size="11" font-style="italic" lengthAdjust="spacingAndGlyphs" textLength="59" x="309" y="86.7002">long count()</text><ellipse cx="300" cy="96.1172" fill="#84BE84" rx="3" ry="3" style="stroke: #038048; stroke-width: 1.0;"/><text fill="#000000" font-family="sans-serif" font-size="11" font-style="italic" lengthAdjust="spacingAndGlyphs" textLength="209" x="309" y="100.5361">AggregateRoot save(AggregateRoot entity)</text><ellipse cx="300" cy="109.9531" fill="#84BE84" rx="3" ry="3" style="stroke: #038048; stroke-width: 1.0;"/><text fill="#000000" font-family="sans-serif" font-size="11" font-style="italic" lengthAdjust="spacingAndGlyphs" textLength="163" x="309" y="114.3721">void delete(AggregateRoot entity)</text><ellipse cx="300" cy="123.7891" fill="#84BE84" rx="3" ry="3" style="stroke: #038048; stroke-width: 1.0;"/><text fill="#000000" font-family="sans-serif" font-size="11" font-style="italic" lengthAdjust="spacingAndGlyphs" textLength="99" x="309" y="128.208">Iterable&lt;T&gt; findAll()</text><ellipse cx="300" cy="137.625" fill="#84BE84" rx="3" ry="3" style="stroke: #038048; stroke-width: 1.0;"/><text fill="#000000" font-family="sans-serif" font-size="11" font-style="italic" lengthAdjust="spacingAndGlyphs" textLength="181" x="309" y="142.0439">void deleteOfIdentity(Comparable id)</text><ellipse cx="300" cy="151.4609" fill="#84BE84" rx="3" ry="3" style="stroke: #038048; stroke-width: 1.0;"/><text fill="#000000" font-family="sans-serif" font-size="11" font-style="italic" lengthAdjust="spacingAndGlyphs" textLength="189" x="309" y="155.8799">Optional&lt;T&gt; ofIdentity(Comparable id)</text></a><!--MD5=[46b2bfed3113151081ac6bd201f30d5e]
class org.springframework.data.repository.RepositoryObjectObject--><rect fill="#D3D3D3" filter="url(#fgdueemv1hifo)" height="55.2813" id="org.springframework.data.repository.RepositoryObjectObject" style="stroke: #A80036; stroke-width: 1.5;" width="199" x="6" y="222"/><rect fill="#D3D3D3" height="55.2813" style="stroke: #A80036; stroke-width: 1.5;" width="199" x="6" y="222"/><ellipse cx="21" cy="249.6406" fill="#B4A7E5" rx="11" ry="11" style="stroke: #A80036; stroke-width: 1.0;"/><path d="M21.9531,246.2813 L21.9531,252.9375 L23.6719,252.9375 Q24.2813,252.9375 24.5469,253.1719 Q24.8125,253.4063 24.8125,253.7969 Q24.8125,254.1719 24.5469,254.4063 Q24.2813,254.6406 23.6719,254.6406 L18.5313,254.6406 Q17.9219,254.6406 17.6563,254.4063 Q17.3906,254.1719 17.3906,253.7813 Q17.3906,253.4063 17.6563,253.1719 Q17.9219,252.9375 18.5313,252.9375 L20.25,252.9375 L20.25,246.2813 L18.5313,246.2813 Q17.9219,246.2813 17.6563,246.0469 Q17.3906,245.8125 17.3906,245.4219 Q17.3906,245.0469 17.6563,244.8125 Q17.9219,244.5781 18.5313,244.5781 L23.6719,244.5781 Q24.2813,244.5781 24.5469,244.8125 Q24.8125,245.0469 24.8125,245.4219 Q24.8125,245.8125 24.5469,246.0469 Q24.2813,246.2813 23.6719,246.2813 L21.9531,246.2813 Z "/><text fill="#000000" font-family="sans-serif" font-size="12" font-style="italic" lengthAdjust="spacingAndGlyphs" textLength="59" x="89" y="239.457">«Indexed»</text><text fill="#000000" font-family="sans-serif" font-size="14" font-style="italic" font-weight="bold" lengthAdjust="spacingAndGlyphs" textLength="113" x="62" y="256.627">Repository&lt;T, K&gt;</text><text fill="#000000" font-family="sans-serif" font-size="10" font-style="italic" lengthAdjust="spacingAndGlyphs" textLength="167" x="35" y="270.084">org.springframework.data.repository</text><!--MD5=[274ad5661286b626a93603d287cbf95a]
class java.lang.Object--><rect fill="#D3D3D3" filter="url(#fgdueemv1hifo)" height="40.1875" id="java.lang.Object" style="stroke: #A80036; stroke-width: 1.5;" width="78" x="240.5" y="229.5"/><rect fill="#D3D3D3" height="40.1875" style="stroke: #A80036; stroke-width: 1.5;" width="78" x="240.5" y="229.5"/><ellipse cx="255.5" cy="249.5938" fill="#ADD1B2" rx="11" ry="11" style="stroke: #A80036; stroke-width: 1.0;"/><path d="M258.2656,245.4688 Q258.4219,245.25 258.6094,245.1406 Q258.7969,245.0313 259.0156,245.0313 Q259.3906,245.0313 259.625,245.2891 Q259.8594,245.5469 259.8594,246.1563 L259.8594,247.6094 Q259.8594,248.2188 259.625,248.4844 Q259.3906,248.75 259.0156,248.75 Q258.6719,248.75 258.4688,248.5469 Q258.2656,248.3594 258.1563,247.8438 Q258.1094,247.4844 257.9219,247.2969 Q257.5938,246.9219 256.9844,246.7031 Q256.375,246.4844 255.75,246.4844 Q254.9844,246.4844 254.3516,246.8125 Q253.7188,247.1406 253.2266,247.8906 Q252.7344,248.6406 252.7344,249.6719 L252.7344,250.7656 Q252.7344,252 253.625,252.8203 Q254.5156,253.6406 256.1094,253.6406 Q257.0469,253.6406 257.7031,253.3906 Q258.0938,253.2344 258.5156,252.7969 Q258.7813,252.5313 258.9297,252.4531 Q259.0781,252.375 259.2813,252.375 Q259.6094,252.375 259.8672,252.6328 Q260.125,252.8906 260.125,253.2344 Q260.125,253.5781 259.7813,253.9844 Q259.2813,254.5625 258.4844,254.8906 Q257.4063,255.3438 256.1094,255.3438 Q254.5938,255.3438 253.3906,254.7188 Q252.4063,254.2188 251.7188,253.1484 Q251.0313,252.0781 251.0313,250.7969 L251.0313,249.6406 Q251.0313,248.3125 251.6484,247.1641 Q252.2656,246.0156 253.3594,245.3984 Q254.4531,244.7813 255.6875,244.7813 Q256.4219,244.7813 257.0703,244.9453 Q257.7188,245.1094 258.2656,245.4688 Z "/><text fill="#000000" font-family="sans-serif" font-size="14" font-weight="bold" lengthAdjust="spacingAndGlyphs" textLength="46" x="269.5" y="249.0332">Object</text><text fill="#000000" font-family="sans-serif" font-size="10" lengthAdjust="spacingAndGlyphs" textLength="44" x="270.5" y="262.4902">java.lang</text><!--MD5=[aaa3afea0423f8bbe6dedd0d6399df18]
class eapli.framework.domain.model.AggregateRoot--><a href="../../../../../../eapli/framework/domain/model/AggregateRoot.html" target="_parent" title="eapli.framework.domain.model.AggregateRoot" xlink:actuate="onRequest" xlink:href="../../../../../../eapli/framework/domain/model/AggregateRoot.html" xlink:show="new" xlink:title="eapli.framework.domain.model.AggregateRoot" xlink:type="simple"><rect fill="#FFFFFF" filter="url(#fgdueemv1hifo)" height="40.1875" id="eapli.framework.domain.model.AggregateRoot" style="stroke: #A80036; stroke-width: 1.5;" width="174" x="353.5" y="229.5"/><rect fill="#FFFFFF" height="40.1875" style="stroke: #A80036; stroke-width: 1.5;" width="174" x="353.5" y="229.5"/><ellipse cx="368.5" cy="249.5938" fill="#B4A7E5" rx="11" ry="11" style="stroke: #A80036; stroke-width: 1.0;"/><path d="M369.4531,246.2344 L369.4531,252.8906 L371.1719,252.8906 Q371.7813,252.8906 372.0469,253.125 Q372.3125,253.3594 372.3125,253.75 Q372.3125,254.125 372.0469,254.3594 Q371.7813,254.5938 371.1719,254.5938 L366.0313,254.5938 Q365.4219,254.5938 365.1563,254.3594 Q364.8906,254.125 364.8906,253.7344 Q364.8906,253.3594 365.1563,253.125 Q365.4219,252.8906 366.0313,252.8906 L367.75,252.8906 L367.75,246.2344 L366.0313,246.2344 Q365.4219,246.2344 365.1563,246 Q364.8906,245.7656 364.8906,245.375 Q364.8906,245 365.1563,244.7656 Q365.4219,244.5313 366.0313,244.5313 L371.1719,244.5313 Q371.7813,244.5313 372.0469,244.7656 Q372.3125,245 372.3125,245.375 Q372.3125,245.7656 372.0469,246 Q371.7813,246.2344 371.1719,246.2344 L369.4531,246.2344 Z "/><text fill="#000000" font-family="sans-serif" font-size="14" font-style="italic" font-weight="bold" lengthAdjust="spacingAndGlyphs" textLength="100" x="403.5" y="249.0332">AggregateRoot</text><text fill="#000000" font-family="sans-serif" font-size="10" font-style="italic" lengthAdjust="spacingAndGlyphs" textLength="142" x="382.5" y="262.4902">eapli.framework.domain.model</text></a><!--MD5=[008d82c49f85b4d489e041917c99c847]
class java.lang.Comparable--><rect fill="#D3D3D3" filter="url(#fgdueemv1hifo)" height="40.1875" id="java.lang.Comparable" style="stroke: #A80036; stroke-width: 1.5;" width="113" x="563" y="229.5"/><rect fill="#D3D3D3" height="40.1875" style="stroke: #A80036; stroke-width: 1.5;" width="113" x="563" y="229.5"/><ellipse cx="578" cy="249.5938" fill="#B4A7E5" rx="11" ry="11" style="stroke: #A80036; stroke-width: 1.0;"/><path d="M578.9531,246.2344 L578.9531,252.8906 L580.6719,252.8906 Q581.2813,252.8906 581.5469,253.125 Q581.8125,253.3594 581.8125,253.75 Q581.8125,254.125 581.5469,254.3594 Q581.2813,254.5938 580.6719,254.5938 L575.5313,254.5938 Q574.9219,254.5938 574.6563,254.3594 Q574.3906,254.125 574.3906,253.7344 Q574.3906,253.3594 574.6563,253.125 Q574.9219,252.8906 575.5313,252.8906 L577.25,252.8906 L577.25,246.2344 L575.5313,246.2344 Q574.9219,246.2344 574.6563,246 Q574.3906,245.7656 574.3906,245.375 Q574.3906,245 574.6563,244.7656 Q574.9219,244.5313 575.5313,244.5313 L580.6719,244.5313 Q581.2813,244.5313 581.5469,244.7656 Q581.8125,245 581.8125,245.375 Q581.8125,245.7656 581.5469,246 Q581.2813,246.2344 580.6719,246.2344 L578.9531,246.2344 Z "/><text fill="#000000" font-family="sans-serif" font-size="14" font-style="italic" font-weight="bold" lengthAdjust="spacingAndGlyphs" textLength="81" x="592" y="249.0332">Comparable</text><text fill="#000000" font-family="sans-serif" font-size="10" font-style="italic" lengthAdjust="spacingAndGlyphs" textLength="43" x="611" y="262.4902">java.lang</text><!--MD5=[8ff66bd4b776a2492940b8a4799dc12d]
class eapli.framework.domain.activerecord.ActiveRecord--><a href="../../../../../../eapli/framework/domain/activerecord/ActiveRecord.html" target="_parent" title="eapli.framework.domain.activerecord.ActiveRecord" xlink:actuate="onRequest" xlink:href="../../../../../../eapli/framework/domain/activerecord/ActiveRecord.html" xlink:show="new" xlink:title="eapli.framework.domain.activerecord.ActiveRecord" xlink:type="simple"><rect fill="#FFFFFF" filter="url(#fgdueemv1hifo)" height="40.1875" id="eapli.framework.domain.activerecord.ActiveRecord" style="stroke: #A80036; stroke-width: 1.5;" width="203" x="711" y="229.5"/><rect fill="#FFFFFF" height="40.1875" style="stroke: #A80036; stroke-width: 1.5;" width="203" x="711" y="229.5"/><ellipse cx="726" cy="249.5938" fill="#B4A7E5" rx="11" ry="11" style="stroke: #A80036; stroke-width: 1.0;"/><path d="M726.9531,246.2344 L726.9531,252.8906 L728.6719,252.8906 Q729.2813,252.8906 729.5469,253.125 Q729.8125,253.3594 729.8125,253.75 Q729.8125,254.125 729.5469,254.3594 Q729.2813,254.5938 728.6719,254.5938 L723.5313,254.5938 Q722.9219,254.5938 722.6563,254.3594 Q722.3906,254.125 722.3906,253.7344 Q722.3906,253.3594 722.6563,253.125 Q722.9219,252.8906 723.5313,252.8906 L725.25,252.8906 L725.25,246.2344 L723.5313,246.2344 Q722.9219,246.2344 722.6563,246 Q722.3906,245.7656 722.3906,245.375 Q722.3906,245 722.6563,244.7656 Q722.9219,244.5313 723.5313,244.5313 L728.6719,244.5313 Q729.2813,244.5313 729.5469,244.7656 Q729.8125,245 729.8125,245.375 Q729.8125,245.7656 729.5469,246 Q729.2813,246.2344 728.6719,246.2344 L726.9531,246.2344 Z "/><text fill="#000000" font-family="sans-serif" font-size="14" font-style="italic" font-weight="bold" lengthAdjust="spacingAndGlyphs" textLength="91" x="780" y="249.0332">ActiveRecord</text><text fill="#000000" font-family="sans-serif" font-size="10" font-style="italic" lengthAdjust="spacingAndGlyphs" textLength="171" x="740" y="262.4902">eapli.framework.domain.activerecord</text></a><!--MD5=[1b3e46b1d7be09b222303ad69d06db36]
link eapli.framework.infrastructure.repositories.impl.springdata.SpringDataDomainBaseRepository to org.springframework.data.repository.RepositoryObjectObject--><path d="M298.833,162.101 C298.833,195.0186 298.833,226 298.833,226 C298.833,226 225.281,226 225.281,226 " fill="none" id="eapli.framework.infrastructure.repositories.impl.springdata.SpringDataDomainBaseRepository-&gt;org.springframework.data.repository.RepositoryObjectObject" style="stroke: #A80036; stroke-width: 1.0;"/><polygon fill="none" points="225.281,232.9999,205.281,226,225.281,218.9999,225.281,232.9999" style="stroke: #A80036; stroke-width: 1.0;"/><!--MD5=[085a10f040379daf2c3ef6eff0240a22]
link eapli.framework.infrastructure.repositories.impl.springdata.SpringDataDomainBaseRepository to java.lang.Object--><path d="M308.667,162.433 C308.667,162.433 308.667,224.257 308.667,224.257 " fill="none" id="eapli.framework.infrastructure.repositories.impl.springdata.SpringDataDomainBaseRepository-&gt;java.lang.Object" style="stroke: #A80036; stroke-width: 1.0; stroke-dasharray: 7.0,7.0;"/><polygon fill="#A80036" points="308.667,229.257,312.667,220.257,308.667,224.257,304.667,220.257,308.667,229.257" style="stroke: #A80036; stroke-width: 1.0;"/><!--MD5=[69dc54e6e4a88ab9afb0c1c327a7d8e4]
link eapli.framework.infrastructure.repositories.impl.springdata.SpringDataDomainBaseRepository to eapli.framework.domain.model.AggregateRoot--><path d="M440.5,162.433 C440.5,162.433 440.5,224.257 440.5,224.257 " fill="none" id="eapli.framework.infrastructure.repositories.impl.springdata.SpringDataDomainBaseRepository-&gt;eapli.framework.domain.model.AggregateRoot" style="stroke: #A80036; stroke-width: 1.0; stroke-dasharray: 7.0,7.0;"/><polygon fill="#A80036" points="440.5,229.257,444.5,220.257,440.5,224.257,436.5,220.257,440.5,229.257" style="stroke: #A80036; stroke-width: 1.0;"/><!--MD5=[ba6fc5fcddf11d27f74a762d4b60c451]
link eapli.framework.infrastructure.repositories.impl.springdata.SpringDataDomainBaseRepository to java.lang.Comparable--><path d="M577.5,162.433 C577.5,162.433 577.5,224.257 577.5,224.257 " fill="none" id="eapli.framework.infrastructure.repositories.impl.springdata.SpringDataDomainBaseRepository-&gt;java.lang.Comparable" style="stroke: #A80036; stroke-width: 1.0; stroke-dasharray: 7.0,7.0;"/><polygon fill="#A80036" points="577.5,229.257,581.5,220.257,577.5,224.257,573.5,220.257,577.5,229.257" style="stroke: #A80036; stroke-width: 1.0;"/><!--MD5=[3521790247e6791a2b77d1ea0d2051d0]
link eapli.framework.infrastructure.repositories.impl.springdata.SpringDataDomainBaseRepository to eapli.framework.domain.activerecord.ActiveRecord--><path d="M592.075,85 C695.001,85 812.5,85 812.5,85 C812.5,85 812.5,224.3291 812.5,224.3291 " fill="none" id="eapli.framework.infrastructure.repositories.impl.springdata.SpringDataDomainBaseRepository-&gt;eapli.framework.domain.activerecord.ActiveRecord" style="stroke: #A80036; stroke-width: 1.0; stroke-dasharray: 7.0,7.0;"/><polygon fill="#A80036" points="812.5,229.3291,816.5,220.3291,812.5,224.3291,808.5,220.3291,812.5,229.3291" style="stroke: #A80036; stroke-width: 1.0;"/><!--MD5=[33779135424ca3f8a54f8f3a94e43684]
@startuml

skinparam svgLinkTarget _parent
skinparam linetype ortho
set namespaceSeparator none
interface "<b><size:14>SpringDataDomainBaseRepository</b>\n<size:10>eapli.framework.infrastructure.repositories.impl.springdata" as eapli.framework.infrastructure.repositories.impl.springdata.SpringDataDomainBaseRepository <<NoRepositoryBean>> [[../../../../../../eapli/framework/infrastructure/repositories/impl/springdata/SpringDataDomainBaseRepository.html{eapli.framework.infrastructure.repositories.impl.springdata.SpringDataDomainBaseRepository}]] {
{abstract} +long count()
{abstract} +AggregateRoot save(AggregateRoot entity)
{abstract} +void delete(AggregateRoot entity)
{abstract} +Iterable<T> findAll()
{abstract} +void deleteOfIdentity(Comparable id)
{abstract} +Optional<T> ofIdentity(Comparable id)
}


interface "<b><size:14>Repository<T, K></b>\n<size:10>org.springframework.data.repository" as org.springframework.data.repository.RepositoryObjectObject <<Indexed>> #lightgrey {
}

hide org.springframework.data.repository.RepositoryObjectObject fields
hide org.springframework.data.repository.RepositoryObjectObject methods

eapli.framework.infrastructure.repositories.impl.springdata.SpringDataDomainBaseRepository - -|> org.springframework.data.repository.RepositoryObjectObject

class "<b><size:14>Object</b>\n<size:10>java.lang" as java.lang.Object  #lightgrey {
}

hide java.lang.Object fields
hide java.lang.Object methods

eapli.framework.infrastructure.repositories.impl.springdata.SpringDataDomainBaseRepository ..> java.lang.Object

interface "<b><size:14>AggregateRoot</b>\n<size:10>eapli.framework.domain.model" as eapli.framework.domain.model.AggregateRoot  [[../../../../../../eapli/framework/domain/model/AggregateRoot.html{eapli.framework.domain.model.AggregateRoot}]] #white {
}

hide eapli.framework.domain.model.AggregateRoot fields
hide eapli.framework.domain.model.AggregateRoot methods

eapli.framework.infrastructure.repositories.impl.springdata.SpringDataDomainBaseRepository ..> eapli.framework.domain.model.AggregateRoot

interface "<b><size:14>Comparable</b>\n<size:10>java.lang" as java.lang.Comparable  #lightgrey {
}

hide java.lang.Comparable fields
hide java.lang.Comparable methods

eapli.framework.infrastructure.repositories.impl.springdata.SpringDataDomainBaseRepository ..> java.lang.Comparable


interface "<b><size:14>ActiveRecord</b>\n<size:10>eapli.framework.domain.activerecord" as eapli.framework.domain.activerecord.ActiveRecord  [[../../../../../../eapli/framework/domain/activerecord/ActiveRecord.html{eapli.framework.domain.activerecord.ActiveRecord}]] #white {
}

hide eapli.framework.domain.activerecord.ActiveRecord fields
hide eapli.framework.domain.activerecord.ActiveRecord methods

eapli.framework.infrastructure.repositories.impl.springdata.SpringDataDomainBaseRepository ..> eapli.framework.domain.activerecord.ActiveRecord


@enduml

PlantUML version 1.2020.04(Thu Mar 19 10:16:49 GMT 2020)
(GPL source distribution)
Java Runtime: Java(TM) SE Runtime Environment
JVM: Java HotSpot(TM) 64-Bit Server VM
Java Version: 1.8.0_202-b08
Operating System: Windows 10
Default Encoding: Cp1252
Language: en
Country: US
--></g></svg>