@startuml

skinparam svgLinkTarget _parent
skinparam linetype ortho
set namespaceSeparator none
class "<b><size:14>MenuItem.ActionableMenuItem</b>\n<size:10>eapli.framework.actions.menu" as eapli.framework.actions.menu.MenuItem.ActionableMenuItem  [[../../../../eapli/framework/actions/menu/MenuItem.ActionableMenuItem.html{eapli.framework.actions.menu.MenuItem.ActionableMenuItem}]] {
-int option
-Action action
#ActionableMenuItem(int option,String text,Action action)
+boolean select()
+Optional<Integer> option()
+boolean isSubmenu()
+Optional<Menu> submenu()
}


interface "<b><size:14>Action</b>\n<size:10>eapli.framework.actions" as eapli.framework.actions.Action <<FunctionalInterface>> [[../../../../eapli/framework/actions/Action.html{eapli.framework.actions.Action}]] #white {
}

hide eapli.framework.actions.Action fields
hide eapli.framework.actions.Action methods

eapli.framework.actions.menu.MenuItem.ActionableMenuItem -->  "action" eapli.framework.actions.Action

class "<b><size:14>MenuItem</b>\n<size:10>eapli.framework.actions.menu" as eapli.framework.actions.menu.MenuItem  [[../../../../eapli/framework/actions/menu/MenuItem.html{eapli.framework.actions.menu.MenuItem}]] {
}

hide eapli.framework.actions.menu.MenuItem fields
hide eapli.framework.actions.menu.MenuItem methods

eapli.framework.actions.menu.MenuItem.ActionableMenuItem --|> eapli.framework.actions.menu.MenuItem



class "<b><size:14>Menu</b>\n<size:10>eapli.framework.actions.menu" as eapli.framework.actions.menu.Menu  [[../../../../eapli/framework/actions/menu/Menu.html{eapli.framework.actions.menu.Menu}]] {
}

hide eapli.framework.actions.menu.Menu fields
hide eapli.framework.actions.menu.Menu methods

eapli.framework.actions.menu.MenuItem.ActionableMenuItem ..> eapli.framework.actions.menu.Menu


@enduml
