<?xml version="1.0" encoding="UTF-8" standalone="no"?><svg xmlns="http://www.w3.org/2000/svg" xmlns:xlink="http://www.w3.org/1999/xlink" contentScriptType="application/ecmascript" contentStyleType="text/css" height="272px" preserveAspectRatio="none" style="width:398px;height:272px;" version="1.1" viewBox="0 0 398 272" width="398px" zoomAndPan="magnify"><defs><filter height="300%" id="fb7m8ueb0woc5" width="300%" x="-1" y="-1"><feGaussianBlur result="blurOut" stdDeviation="2.0"/><feColorMatrix in="blurOut" result="blurOut2" type="matrix" values="0 0 0 0 0 0 0 0 0 0 0 0 0 0 0 0 0 0 .4 0"/><feOffset dx="4.0" dy="4.0" in="blurOut2" result="blurOut3"/><feBlend in="SourceGraphic" in2="blurOut3" mode="normal"/></filter></defs><g><!--MD5=[9afc8bd032927b02094cceddc1cd68db]
class eapli.framework.actions.menu.MenuItem.SubMenuItem--><a href="../../../../eapli/framework/actions/menu/MenuItem.SubMenuItem.html" target="_parent" title="eapli.framework.actions.menu.MenuItem.SubMenuItem" xlink:actuate="onRequest" xlink:href="../../../../eapli/framework/actions/menu/MenuItem.SubMenuItem.html" xlink:show="new" xlink:title="eapli.framework.actions.menu.MenuItem.SubMenuItem" xlink:type="simple"><rect fill="#FEFECE" filter="url(#fb7m8ueb0woc5)" height="153.0391" id="eapli.framework.actions.menu.MenuItem.SubMenuItem" style="stroke: #A80036; stroke-width: 1.5;" width="203" x="95" y="8"/><ellipse cx="110" cy="28.0938" fill="#ADD1B2" rx="11" ry="11" style="stroke: #A80036; stroke-width: 1.0;"/><path d="M112.7656,23.9688 Q112.9219,23.75 113.1094,23.6406 Q113.2969,23.5313 113.5156,23.5313 Q113.8906,23.5313 114.125,23.7891 Q114.3594,24.0469 114.3594,24.6563 L114.3594,26.1094 Q114.3594,26.7188 114.125,26.9844 Q113.8906,27.25 113.5156,27.25 Q113.1719,27.25 112.9688,27.0469 Q112.7656,26.8594 112.6563,26.3438 Q112.6094,25.9844 112.4219,25.7969 Q112.0938,25.4219 111.4844,25.2031 Q110.875,24.9844 110.25,24.9844 Q109.4844,24.9844 108.8516,25.3125 Q108.2188,25.6406 107.7266,26.3906 Q107.2344,27.1406 107.2344,28.1719 L107.2344,29.2656 Q107.2344,30.5 108.125,31.3203 Q109.0156,32.1406 110.6094,32.1406 Q111.5469,32.1406 112.2031,31.8906 Q112.5938,31.7344 113.0156,31.2969 Q113.2813,31.0313 113.4297,30.9531 Q113.5781,30.875 113.7813,30.875 Q114.1094,30.875 114.3672,31.1328 Q114.625,31.3906 114.625,31.7344 Q114.625,32.0781 114.2813,32.4844 Q113.7813,33.0625 112.9844,33.3906 Q111.9063,33.8438 110.6094,33.8438 Q109.0938,33.8438 107.8906,33.2188 Q106.9063,32.7188 106.2188,31.6484 Q105.5313,30.5781 105.5313,29.2969 L105.5313,28.1406 Q105.5313,26.8125 106.1484,25.6641 Q106.7656,24.5156 107.8594,23.8984 Q108.9531,23.2813 110.1875,23.2813 Q110.9219,23.2813 111.5703,23.4453 Q112.2188,23.6094 112.7656,23.9688 Z "/><text fill="#000000" font-family="sans-serif" font-size="14" font-weight="bold" lengthAdjust="spacingAndGlyphs" textLength="171" x="124" y="27.5332">MenuItem.SubMenuItem</text><text fill="#000000" font-family="sans-serif" font-size="10" lengthAdjust="spacingAndGlyphs" textLength="141" x="139" y="40.9902">eapli.framework.actions.menu</text><line style="stroke: #A80036; stroke-width: 1.5;" x1="96" x2="297" y1="48.1875" y2="48.1875"/><rect fill="none" height="6" style="stroke: #C82930; stroke-width: 1.0;" width="6" x="103" y="56.1875"/><text fill="#000000" font-family="sans-serif" font-size="11" lengthAdjust="spacingAndGlyphs" textLength="43" x="115" y="63.6064">int option</text><rect fill="none" height="6" style="stroke: #C82930; stroke-width: 1.0;" width="6" x="103" y="70.0234"/><text fill="#000000" font-family="sans-serif" font-size="11" lengthAdjust="spacingAndGlyphs" textLength="47" x="115" y="77.4424">Menu sub</text><line style="stroke: #A80036; stroke-width: 1.5;" x1="96" x2="297" y1="83.8594" y2="83.8594"/><polygon fill="#FFFF44" points="106,89.8594,110,93.8594,106,97.8594,102,93.8594" style="stroke: #B38D22; stroke-width: 1.0;"/><text fill="#000000" font-family="sans-serif" font-size="11" lengthAdjust="spacingAndGlyphs" textLength="165" x="115" y="99.2783">SubMenuItem(int option,Menu sub)</text><ellipse cx="106" cy="108.6953" fill="#84BE84" rx="3" ry="3" style="stroke: #038048; stroke-width: 1.0;"/><text fill="#000000" font-family="sans-serif" font-size="11" lengthAdjust="spacingAndGlyphs" textLength="78" x="115" y="113.1143">boolean select()</text><ellipse cx="106" cy="122.5313" fill="#84BE84" rx="3" ry="3" style="stroke: #038048; stroke-width: 1.0;"/><text fill="#000000" font-family="sans-serif" font-size="11" lengthAdjust="spacingAndGlyphs" textLength="124" x="115" y="126.9502">Optional&lt;Integer&gt; option()</text><ellipse cx="106" cy="136.3672" fill="#84BE84" rx="3" ry="3" style="stroke: #038048; stroke-width: 1.0;"/><text fill="#000000" font-family="sans-serif" font-size="11" lengthAdjust="spacingAndGlyphs" textLength="102" x="115" y="140.7861">boolean isSubmenu()</text><ellipse cx="106" cy="150.2031" fill="#84BE84" rx="3" ry="3" style="stroke: #038048; stroke-width: 1.0;"/><text fill="#000000" font-family="sans-serif" font-size="11" lengthAdjust="spacingAndGlyphs" textLength="132" x="115" y="154.6221">Optional&lt;Menu&gt; submenu()</text></a><!--MD5=[e26dd25449c1bb2fa7a2d2d66898429b]
class eapli.framework.actions.menu.Menu--><a href="../../../../eapli/framework/actions/menu/Menu.html" target="_parent" title="eapli.framework.actions.menu.Menu" xlink:actuate="onRequest" xlink:href="../../../../eapli/framework/actions/menu/Menu.html" xlink:show="new" xlink:title="eapli.framework.actions.menu.Menu" xlink:type="simple"><rect fill="#FEFECE" filter="url(#fb7m8ueb0woc5)" height="40.1875" id="eapli.framework.actions.menu.Menu" style="stroke: #A80036; stroke-width: 1.5;" width="173" x="6" y="221"/><ellipse cx="21" cy="241.0938" fill="#ADD1B2" rx="11" ry="11" style="stroke: #A80036; stroke-width: 1.0;"/><path d="M23.7656,236.9688 Q23.9219,236.75 24.1094,236.6406 Q24.2969,236.5313 24.5156,236.5313 Q24.8906,236.5313 25.125,236.7891 Q25.3594,237.0469 25.3594,237.6563 L25.3594,239.1094 Q25.3594,239.7188 25.125,239.9844 Q24.8906,240.25 24.5156,240.25 Q24.1719,240.25 23.9688,240.0469 Q23.7656,239.8594 23.6563,239.3438 Q23.6094,238.9844 23.4219,238.7969 Q23.0938,238.4219 22.4844,238.2031 Q21.875,237.9844 21.25,237.9844 Q20.4844,237.9844 19.8516,238.3125 Q19.2188,238.6406 18.7266,239.3906 Q18.2344,240.1406 18.2344,241.1719 L18.2344,242.2656 Q18.2344,243.5 19.125,244.3203 Q20.0156,245.1406 21.6094,245.1406 Q22.5469,245.1406 23.2031,244.8906 Q23.5938,244.7344 24.0156,244.2969 Q24.2813,244.0313 24.4297,243.9531 Q24.5781,243.875 24.7813,243.875 Q25.1094,243.875 25.3672,244.1328 Q25.625,244.3906 25.625,244.7344 Q25.625,245.0781 25.2813,245.4844 Q24.7813,246.0625 23.9844,246.3906 Q22.9063,246.8438 21.6094,246.8438 Q20.0938,246.8438 18.8906,246.2188 Q17.9063,245.7188 17.2188,244.6484 Q16.5313,243.5781 16.5313,242.2969 L16.5313,241.1406 Q16.5313,239.8125 17.1484,238.6641 Q17.7656,237.5156 18.8594,236.8984 Q19.9531,236.2813 21.1875,236.2813 Q21.9219,236.2813 22.5703,236.4453 Q23.2188,236.6094 23.7656,236.9688 Z "/><text fill="#000000" font-family="sans-serif" font-size="14" font-weight="bold" lengthAdjust="spacingAndGlyphs" textLength="40" x="85.5" y="240.5332">Menu</text><text fill="#000000" font-family="sans-serif" font-size="10" lengthAdjust="spacingAndGlyphs" textLength="141" x="35" y="253.9902">eapli.framework.actions.menu</text></a><!--MD5=[997e9759af51b6bb0b155e6901c74880]
class eapli.framework.actions.menu.MenuItem--><a href="../../../../eapli/framework/actions/menu/MenuItem.html" target="_parent" title="eapli.framework.actions.menu.MenuItem" xlink:actuate="onRequest" xlink:href="../../../../eapli/framework/actions/menu/MenuItem.html" xlink:show="new" xlink:title="eapli.framework.actions.menu.MenuItem" xlink:type="simple"><rect fill="#FEFECE" filter="url(#fb7m8ueb0woc5)" height="40.1875" id="eapli.framework.actions.menu.MenuItem" style="stroke: #A80036; stroke-width: 1.5;" width="173" x="214" y="221"/><ellipse cx="229" cy="241.0938" fill="#ADD1B2" rx="11" ry="11" style="stroke: #A80036; stroke-width: 1.0;"/><path d="M231.7656,236.9688 Q231.9219,236.75 232.1094,236.6406 Q232.2969,236.5313 232.5156,236.5313 Q232.8906,236.5313 233.125,236.7891 Q233.3594,237.0469 233.3594,237.6563 L233.3594,239.1094 Q233.3594,239.7188 233.125,239.9844 Q232.8906,240.25 232.5156,240.25 Q232.1719,240.25 231.9688,240.0469 Q231.7656,239.8594 231.6563,239.3438 Q231.6094,238.9844 231.4219,238.7969 Q231.0938,238.4219 230.4844,238.2031 Q229.875,237.9844 229.25,237.9844 Q228.4844,237.9844 227.8516,238.3125 Q227.2188,238.6406 226.7266,239.3906 Q226.2344,240.1406 226.2344,241.1719 L226.2344,242.2656 Q226.2344,243.5 227.125,244.3203 Q228.0156,245.1406 229.6094,245.1406 Q230.5469,245.1406 231.2031,244.8906 Q231.5938,244.7344 232.0156,244.2969 Q232.2813,244.0313 232.4297,243.9531 Q232.5781,243.875 232.7813,243.875 Q233.1094,243.875 233.3672,244.1328 Q233.625,244.3906 233.625,244.7344 Q233.625,245.0781 233.2813,245.4844 Q232.7813,246.0625 231.9844,246.3906 Q230.9063,246.8438 229.6094,246.8438 Q228.0938,246.8438 226.8906,246.2188 Q225.9063,245.7188 225.2188,244.6484 Q224.5313,243.5781 224.5313,242.2969 L224.5313,241.1406 Q224.5313,239.8125 225.1484,238.6641 Q225.7656,237.5156 226.8594,236.8984 Q227.9531,236.2813 229.1875,236.2813 Q229.9219,236.2813 230.5703,236.4453 Q231.2188,236.6094 231.7656,236.9688 Z "/><text fill="#000000" font-family="sans-serif" font-size="14" font-weight="bold" lengthAdjust="spacingAndGlyphs" textLength="70" x="278.5" y="240.5332">MenuItem</text><text fill="#000000" font-family="sans-serif" font-size="10" lengthAdjust="spacingAndGlyphs" textLength="141" x="243" y="253.9902">eapli.framework.actions.menu</text></a><!--MD5=[9af04d2b30dfa97d538e10899ca628bf]
link eapli.framework.actions.menu.MenuItem.SubMenuItem to eapli.framework.actions.menu.Menu--><path d="M137,161.3746 C137,161.3746 137,215.7533 137,215.7533 " fill="none" id="eapli.framework.actions.menu.MenuItem.SubMenuItem-&gt;eapli.framework.actions.menu.Menu" style="stroke: #A80036; stroke-width: 1.0;"/><polygon fill="#A80036" points="137,220.7533,141,211.7533,137,215.7533,133,211.7533,137,220.7533" style="stroke: #A80036; stroke-width: 1.0;"/><text fill="#000000" font-family="sans-serif" font-size="13" lengthAdjust="spacingAndGlyphs" textLength="21" x="125.9875" y="209.975">sub</text><!--MD5=[099b0fd728dc9c4369ba7ee345e846d6]
link eapli.framework.actions.menu.MenuItem.SubMenuItem to eapli.framework.actions.menu.MenuItem--><path d="M256,161.3746 C256,161.3746 256,200.7533 256,200.7533 " fill="none" id="eapli.framework.actions.menu.MenuItem.SubMenuItem-&gt;eapli.framework.actions.menu.MenuItem" style="stroke: #A80036; stroke-width: 1.0;"/><polygon fill="none" points="263,200.7534,256,220.7533,249,200.7533,263,200.7534" style="stroke: #A80036; stroke-width: 1.0;"/><!--MD5=[90116e8320341f44985bb458de6ac89d]
@startuml

skinparam svgLinkTarget _parent
skinparam linetype ortho
set namespaceSeparator none
class "<b><size:14>MenuItem.SubMenuItem</b>\n<size:10>eapli.framework.actions.menu" as eapli.framework.actions.menu.MenuItem.SubMenuItem  [[../../../../eapli/framework/actions/menu/MenuItem.SubMenuItem.html{eapli.framework.actions.menu.MenuItem.SubMenuItem}]] {
-int option
-Menu sub
#SubMenuItem(int option,Menu sub)
+boolean select()
+Optional<Integer> option()
+boolean isSubmenu()
+Optional<Menu> submenu()
}


class "<b><size:14>Menu</b>\n<size:10>eapli.framework.actions.menu" as eapli.framework.actions.menu.Menu  [[../../../../eapli/framework/actions/menu/Menu.html{eapli.framework.actions.menu.Menu}]] {
}

hide eapli.framework.actions.menu.Menu fields
hide eapli.framework.actions.menu.Menu methods

eapli.framework.actions.menu.MenuItem.SubMenuItem - ->  "sub" eapli.framework.actions.menu.Menu

class "<b><size:14>MenuItem</b>\n<size:10>eapli.framework.actions.menu" as eapli.framework.actions.menu.MenuItem  [[../../../../eapli/framework/actions/menu/MenuItem.html{eapli.framework.actions.menu.MenuItem}]] {
}

hide eapli.framework.actions.menu.MenuItem fields
hide eapli.framework.actions.menu.MenuItem methods

eapli.framework.actions.menu.MenuItem.SubMenuItem - -|> eapli.framework.actions.menu.MenuItem




@enduml

PlantUML version 1.2020.04(Thu Mar 19 10:16:49 GMT 2020)
(GPL source distribution)
Java Runtime: Java(TM) SE Runtime Environment
JVM: Java HotSpot(TM) 64-Bit Server VM
Java Version: 1.8.0_202-b08
Operating System: Windows 10
Default Encoding: Cp1252
Language: en
Country: US
--></g></svg>