@startuml

skinparam svgLinkTarget _parent
skinparam linetype ortho
set namespaceSeparator none
class "<b><size:14>Menu</b>\n<size:10>eapli.framework.actions.menu" as eapli.framework.actions.menu.Menu  [[../../../../eapli/framework/actions/menu/Menu.html{eapli.framework.actions.menu.Menu}]] {
-String title
-List<MenuItem> itens
-Map<Integer, MenuItem> itemByOption
+Menu()
+Menu(String title)
+void addItem(MenuItem item)
+void addItem(int option,String text,Action action)
+void addSubMenu(int option,Menu submenu)
+String title()
+Iterable<MenuItem> itens()
+Optional<MenuItem> item(int option)
}



class "<b><size:14>MenuItem</b>\n<size:10>eapli.framework.actions.menu" as eapli.framework.actions.menu.MenuItem  [[../../../../eapli/framework/actions/menu/MenuItem.html{eapli.framework.actions.menu.MenuItem}]] {
}

hide eapli.framework.actions.menu.MenuItem fields
hide eapli.framework.actions.menu.MenuItem methods

eapli.framework.actions.menu.Menu -->  "itens *" eapli.framework.actions.menu.MenuItem


eapli.framework.actions.menu.Menu -->  "itemByOption *" eapli.framework.actions.menu.MenuItem

interface "<b><size:14>Action</b>\n<size:10>eapli.framework.actions" as eapli.framework.actions.Action <<FunctionalInterface>> [[../../../../eapli/framework/actions/Action.html{eapli.framework.actions.Action}]] #white {
}

hide eapli.framework.actions.Action fields
hide eapli.framework.actions.Action methods

eapli.framework.actions.menu.Menu ..> eapli.framework.actions.Action


eapli.framework.actions.menu.MenuItem ..> eapli.framework.actions.menu.Menu

class "<b><size:14>HorizontalMenuRenderer</b>\n<size:10>eapli.framework.presentation.console.menu" as eapli.framework.presentation.console.menu.HorizontalMenuRenderer <<SuppressWarnings>> [[../../../../eapli/framework/presentation/console/menu/HorizontalMenuRenderer.html{eapli.framework.presentation.console.menu.HorizontalMenuRenderer}]] #white {
}

hide eapli.framework.presentation.console.menu.HorizontalMenuRenderer fields
hide eapli.framework.presentation.console.menu.HorizontalMenuRenderer methods

eapli.framework.presentation.console.menu.HorizontalMenuRenderer ..> eapli.framework.actions.menu.Menu

class "<b><size:14>MenuRenderer</b>\n<size:10>eapli.framework.presentation.console.menu" as eapli.framework.presentation.console.menu.MenuRenderer  [[../../../../eapli/framework/presentation/console/menu/MenuRenderer.html{eapli.framework.presentation.console.menu.MenuRenderer}]] #white {
}

hide eapli.framework.presentation.console.menu.MenuRenderer fields
hide eapli.framework.presentation.console.menu.MenuRenderer methods

eapli.framework.presentation.console.menu.MenuRenderer -->  "menu" eapli.framework.actions.menu.Menu

class "<b><size:14>VerticalMenuRenderer</b>\n<size:10>eapli.framework.presentation.console.menu" as eapli.framework.presentation.console.menu.VerticalMenuRenderer <<SuppressWarnings>> [[../../../../eapli/framework/presentation/console/menu/VerticalMenuRenderer.html{eapli.framework.presentation.console.menu.VerticalMenuRenderer}]] #white {
}

hide eapli.framework.presentation.console.menu.VerticalMenuRenderer fields
hide eapli.framework.presentation.console.menu.VerticalMenuRenderer methods

eapli.framework.presentation.console.menu.VerticalMenuRenderer ..> eapli.framework.actions.menu.Menu


@enduml
