<?xml version="1.0" encoding="UTF-8" standalone="no"?><svg xmlns="http://www.w3.org/2000/svg" xmlns:xlink="http://www.w3.org/1999/xlink" contentScriptType="application/ecmascript" contentStyleType="text/css" height="457px" preserveAspectRatio="none" style="width:412px;height:457px;" version="1.1" viewBox="0 0 412 457" width="412px" zoomAndPan="magnify"><defs><filter height="300%" id="f14ylv9rf51v4d" width="300%" x="-1" y="-1"><feGaussianBlur result="blurOut" stdDeviation="2.0"/><feColorMatrix in="blurOut" result="blurOut2" type="matrix" values="0 0 0 0 0 0 0 0 0 0 0 0 0 0 0 0 0 0 .4 0"/><feOffset dx="4.0" dy="4.0" in="blurOut2" result="blurOut3"/><feBlend in="SourceGraphic" in2="blurOut3" mode="normal"/></filter></defs><g><!--MD5=[997e9759af51b6bb0b155e6901c74880]
class eapli.framework.actions.menu.MenuItem--><a href="../../../../eapli/framework/actions/menu/MenuItem.html" target="_parent" title="eapli.framework.actions.menu.MenuItem" xlink:actuate="onRequest" xlink:href="../../../../eapli/framework/actions/menu/MenuItem.html" xlink:show="new" xlink:title="eapli.framework.actions.menu.MenuItem" xlink:type="simple"><rect fill="#FEFECE" filter="url(#f14ylv9rf51v4d)" height="208.3828" id="eapli.framework.actions.menu.MenuItem" style="stroke: #A80036; stroke-width: 1.5;" width="253" x="6" y="123"/><ellipse cx="57.75" cy="143.0938" fill="#ADD1B2" rx="11" ry="11" style="stroke: #A80036; stroke-width: 1.0;"/><path d="M60.5156,138.9688 Q60.6719,138.75 60.8594,138.6406 Q61.0469,138.5313 61.2656,138.5313 Q61.6406,138.5313 61.875,138.7891 Q62.1094,139.0469 62.1094,139.6563 L62.1094,141.1094 Q62.1094,141.7188 61.875,141.9844 Q61.6406,142.25 61.2656,142.25 Q60.9219,142.25 60.7188,142.0469 Q60.5156,141.8594 60.4063,141.3438 Q60.3594,140.9844 60.1719,140.7969 Q59.8438,140.4219 59.2344,140.2031 Q58.625,139.9844 58,139.9844 Q57.2344,139.9844 56.6016,140.3125 Q55.9688,140.6406 55.4766,141.3906 Q54.9844,142.1406 54.9844,143.1719 L54.9844,144.2656 Q54.9844,145.5 55.875,146.3203 Q56.7656,147.1406 58.3594,147.1406 Q59.2969,147.1406 59.9531,146.8906 Q60.3438,146.7344 60.7656,146.2969 Q61.0313,146.0313 61.1797,145.9531 Q61.3281,145.875 61.5313,145.875 Q61.8594,145.875 62.1172,146.1328 Q62.375,146.3906 62.375,146.7344 Q62.375,147.0781 62.0313,147.4844 Q61.5313,148.0625 60.7344,148.3906 Q59.6563,148.8438 58.3594,148.8438 Q56.8438,148.8438 55.6406,148.2188 Q54.6563,147.7188 53.9688,146.6484 Q53.2813,145.5781 53.2813,144.2969 L53.2813,143.1406 Q53.2813,141.8125 53.8984,140.6641 Q54.5156,139.5156 55.6094,138.8984 Q56.7031,138.2813 57.9375,138.2813 Q58.6719,138.2813 59.3203,138.4453 Q59.9688,138.6094 60.5156,138.9688 Z "/><text fill="#000000" font-family="sans-serif" font-size="14" font-weight="bold" lengthAdjust="spacingAndGlyphs" textLength="70" x="113.75" y="142.5332">MenuItem</text><text fill="#000000" font-family="sans-serif" font-size="10" lengthAdjust="spacingAndGlyphs" textLength="141" x="78.25" y="155.9902">eapli.framework.actions.menu</text><line style="stroke: #A80036; stroke-width: 1.5;" x1="7" x2="258" y1="163.1875" y2="163.1875"/><rect fill="none" height="6" style="stroke: #C82930; stroke-width: 1.0;" width="6" x="14" y="171.1875"/><text fill="#000000" font-family="sans-serif" font-size="11" lengthAdjust="spacingAndGlyphs" textLength="49" x="26" y="178.6064">String text</text><line style="stroke: #A80036; stroke-width: 1.5;" x1="7" x2="258" y1="185.0234" y2="185.0234"/><rect fill="#F24D5C" height="6" style="stroke: #C82930; stroke-width: 1.0;" width="6" x="14" y="193.0234"/><text fill="#000000" font-family="sans-serif" font-size="11" lengthAdjust="spacingAndGlyphs" textLength="102" x="26" y="200.4424">MenuItem(String text)</text><ellipse cx="17" cy="209.8594" fill="#84BE84" rx="3" ry="3" style="stroke: #038048; stroke-width: 1.0;"/><text fill="#000000" font-family="sans-serif" font-size="11" lengthAdjust="spacingAndGlyphs" text-decoration="underline" textLength="199" x="26" y="214.2783">MenuItem separator(char symbol,int size)</text><ellipse cx="17" cy="223.6953" fill="#84BE84" rx="3" ry="3" style="stroke: #038048; stroke-width: 1.0;"/><text fill="#000000" font-family="sans-serif" font-size="11" lengthAdjust="spacingAndGlyphs" text-decoration="underline" textLength="156" x="26" y="228.1143">MenuItem separator(String label)</text><ellipse cx="17" cy="237.5313" fill="#84BE84" rx="3" ry="3" style="stroke: #038048; stroke-width: 1.0;"/><text fill="#000000" font-family="sans-serif" font-size="11" lengthAdjust="spacingAndGlyphs" text-decoration="underline" textLength="227" x="26" y="241.9502">MenuItem of(int option,String text,Action action)</text><ellipse cx="17" cy="251.3672" fill="#84BE84" rx="3" ry="3" style="stroke: #038048; stroke-width: 1.0;"/><text fill="#000000" font-family="sans-serif" font-size="11" lengthAdjust="spacingAndGlyphs" text-decoration="underline" textLength="193" x="26" y="255.7861">MenuItem submenu(int option,Menu sub)</text><ellipse cx="17" cy="265.2031" fill="#84BE84" rx="3" ry="3" style="stroke: #038048; stroke-width: 1.0;"/><text fill="#000000" font-family="sans-serif" font-size="11" lengthAdjust="spacingAndGlyphs" textLength="57" x="26" y="269.6221">String text()</text><ellipse cx="17" cy="279.0391" fill="#84BE84" rx="3" ry="3" style="stroke: #038048; stroke-width: 1.0;"/><text fill="#000000" font-family="sans-serif" font-size="11" font-style="italic" lengthAdjust="spacingAndGlyphs" textLength="129" x="26" y="283.458">Optional&lt;Integer&gt; option()</text><ellipse cx="17" cy="292.875" fill="#84BE84" rx="3" ry="3" style="stroke: #038048; stroke-width: 1.0;"/><text fill="#000000" font-family="sans-serif" font-size="11" font-style="italic" lengthAdjust="spacingAndGlyphs" textLength="81" x="26" y="297.2939">boolean select()</text><ellipse cx="17" cy="306.7109" fill="#84BE84" rx="3" ry="3" style="stroke: #038048; stroke-width: 1.0;"/><text fill="#000000" font-family="sans-serif" font-size="11" font-style="italic" lengthAdjust="spacingAndGlyphs" textLength="107" x="26" y="311.1299">boolean isSubmenu()</text><ellipse cx="17" cy="320.5469" fill="#84BE84" rx="3" ry="3" style="stroke: #038048; stroke-width: 1.0;"/><text fill="#000000" font-family="sans-serif" font-size="11" font-style="italic" lengthAdjust="spacingAndGlyphs" textLength="138" x="26" y="324.9658">Optional&lt;Menu&gt; submenu()</text></a><!--MD5=[e26dd25449c1bb2fa7a2d2d66898429b]
class eapli.framework.actions.menu.Menu--><a href="../../../../eapli/framework/actions/menu/Menu.html" target="_parent" title="eapli.framework.actions.menu.Menu" xlink:actuate="onRequest" xlink:href="../../../../eapli/framework/actions/menu/Menu.html" xlink:show="new" xlink:title="eapli.framework.actions.menu.Menu" xlink:type="simple"><rect fill="#FEFECE" filter="url(#f14ylv9rf51v4d)" height="40.1875" id="eapli.framework.actions.menu.Menu" style="stroke: #A80036; stroke-width: 1.5;" width="173" x="46" y="398.5"/><ellipse cx="61" cy="418.5938" fill="#ADD1B2" rx="11" ry="11" style="stroke: #A80036; stroke-width: 1.0;"/><path d="M63.7656,414.4688 Q63.9219,414.25 64.1094,414.1406 Q64.2969,414.0313 64.5156,414.0313 Q64.8906,414.0313 65.125,414.2891 Q65.3594,414.5469 65.3594,415.1563 L65.3594,416.6094 Q65.3594,417.2188 65.125,417.4844 Q64.8906,417.75 64.5156,417.75 Q64.1719,417.75 63.9688,417.5469 Q63.7656,417.3594 63.6563,416.8438 Q63.6094,416.4844 63.4219,416.2969 Q63.0938,415.9219 62.4844,415.7031 Q61.875,415.4844 61.25,415.4844 Q60.4844,415.4844 59.8516,415.8125 Q59.2188,416.1406 58.7266,416.8906 Q58.2344,417.6406 58.2344,418.6719 L58.2344,419.7656 Q58.2344,421 59.125,421.8203 Q60.0156,422.6406 61.6094,422.6406 Q62.5469,422.6406 63.2031,422.3906 Q63.5938,422.2344 64.0156,421.7969 Q64.2813,421.5313 64.4297,421.4531 Q64.5781,421.375 64.7813,421.375 Q65.1094,421.375 65.3672,421.6328 Q65.625,421.8906 65.625,422.2344 Q65.625,422.5781 65.2813,422.9844 Q64.7813,423.5625 63.9844,423.8906 Q62.9063,424.3438 61.6094,424.3438 Q60.0938,424.3438 58.8906,423.7188 Q57.9063,423.2188 57.2188,422.1484 Q56.5313,421.0781 56.5313,419.7969 L56.5313,418.6406 Q56.5313,417.3125 57.1484,416.1641 Q57.7656,415.0156 58.8594,414.3984 Q59.9531,413.7813 61.1875,413.7813 Q61.9219,413.7813 62.5703,413.9453 Q63.2188,414.1094 63.7656,414.4688 Z "/><text fill="#000000" font-family="sans-serif" font-size="14" font-weight="bold" lengthAdjust="spacingAndGlyphs" textLength="40" x="125.5" y="418.0332">Menu</text><text fill="#000000" font-family="sans-serif" font-size="10" lengthAdjust="spacingAndGlyphs" textLength="141" x="75" y="431.4902">eapli.framework.actions.menu</text></a><!--MD5=[ef8b130fed61c1e1b3c1a2a618d68bbd]
class eapli.framework.actions.Action--><a href="../../../../eapli/framework/actions/Action.html" target="_parent" title="eapli.framework.actions.Action" xlink:actuate="onRequest" xlink:href="../../../../eapli/framework/actions/Action.html" xlink:show="new" xlink:title="eapli.framework.actions.Action" xlink:type="simple"><rect fill="#FFFFFF" filter="url(#f14ylv9rf51v4d)" height="55.2813" id="eapli.framework.actions.Action" style="stroke: #A80036; stroke-width: 1.5;" width="147" x="254" y="391"/><rect fill="#FFFFFF" height="55.2813" style="stroke: #A80036; stroke-width: 1.5;" width="147" x="254" y="391"/><ellipse cx="269" cy="418.6406" fill="#B4A7E5" rx="11" ry="11" style="stroke: #A80036; stroke-width: 1.0;"/><path d="M269.9531,415.2813 L269.9531,421.9375 L271.6719,421.9375 Q272.2813,421.9375 272.5469,422.1719 Q272.8125,422.4063 272.8125,422.7969 Q272.8125,423.1719 272.5469,423.4063 Q272.2813,423.6406 271.6719,423.6406 L266.5313,423.6406 Q265.9219,423.6406 265.6563,423.4063 Q265.3906,423.1719 265.3906,422.7813 Q265.3906,422.4063 265.6563,422.1719 Q265.9219,421.9375 266.5313,421.9375 L268.25,421.9375 L268.25,415.2813 L266.5313,415.2813 Q265.9219,415.2813 265.6563,415.0469 Q265.3906,414.8125 265.3906,414.4219 Q265.3906,414.0469 265.6563,413.8125 Q265.9219,413.5781 266.5313,413.5781 L271.6719,413.5781 Q272.2813,413.5781 272.5469,413.8125 Q272.8125,414.0469 272.8125,414.4219 Q272.8125,414.8125 272.5469,415.0469 Q272.2813,415.2813 271.6719,415.2813 L269.9531,415.2813 Z "/><text fill="#000000" font-family="sans-serif" font-size="12" font-style="italic" lengthAdjust="spacingAndGlyphs" textLength="119" x="281" y="408.457">«FunctionalInterface»</text><text fill="#000000" font-family="sans-serif" font-size="14" font-style="italic" font-weight="bold" lengthAdjust="spacingAndGlyphs" textLength="44" x="318.5" y="425.627">Action</text><text fill="#000000" font-family="sans-serif" font-size="10" font-style="italic" lengthAdjust="spacingAndGlyphs" textLength="111" x="285" y="439.084">eapli.framework.actions</text></a><!--MD5=[5bca1a1acd175109361689918123948b]
class eapli.framework.presentation.console.menu.MenuItemRenderer--><a href="../../../../eapli/framework/presentation/console/menu/MenuItemRenderer.html" target="_parent" title="eapli.framework.presentation.console.menu.MenuItemRenderer" xlink:actuate="onRequest" xlink:href="../../../../eapli/framework/presentation/console/menu/MenuItemRenderer.html" xlink:show="new" xlink:title="eapli.framework.presentation.console.menu.MenuItemRenderer" xlink:type="simple"><rect fill="#FFFFFF" filter="url(#f14ylv9rf51v4d)" height="55.2813" id="eapli.framework.presentation.console.menu.MenuItemRenderer" style="stroke: #A80036; stroke-width: 1.5;" width="237" x="14" y="8"/><rect fill="#FFFFFF" height="55.2813" style="stroke: #A80036; stroke-width: 1.5;" width="237" x="14" y="8"/><ellipse cx="29" cy="35.6406" fill="#ADD1B2" rx="11" ry="11" style="stroke: #A80036; stroke-width: 1.0;"/><path d="M31.7656,31.5156 Q31.9219,31.2969 32.1094,31.1875 Q32.2969,31.0781 32.5156,31.0781 Q32.8906,31.0781 33.125,31.3359 Q33.3594,31.5938 33.3594,32.2031 L33.3594,33.6563 Q33.3594,34.2656 33.125,34.5313 Q32.8906,34.7969 32.5156,34.7969 Q32.1719,34.7969 31.9688,34.5938 Q31.7656,34.4063 31.6563,33.8906 Q31.6094,33.5313 31.4219,33.3438 Q31.0938,32.9688 30.4844,32.75 Q29.875,32.5313 29.25,32.5313 Q28.4844,32.5313 27.8516,32.8594 Q27.2188,33.1875 26.7266,33.9375 Q26.2344,34.6875 26.2344,35.7188 L26.2344,36.8125 Q26.2344,38.0469 27.125,38.8672 Q28.0156,39.6875 29.6094,39.6875 Q30.5469,39.6875 31.2031,39.4375 Q31.5938,39.2813 32.0156,38.8438 Q32.2813,38.5781 32.4297,38.5 Q32.5781,38.4219 32.7813,38.4219 Q33.1094,38.4219 33.3672,38.6797 Q33.625,38.9375 33.625,39.2813 Q33.625,39.625 33.2813,40.0313 Q32.7813,40.6094 31.9844,40.9375 Q30.9063,41.3906 29.6094,41.3906 Q28.0938,41.3906 26.8906,40.7656 Q25.9063,40.2656 25.2188,39.1953 Q24.5313,38.125 24.5313,36.8438 L24.5313,35.6875 Q24.5313,34.3594 25.1484,33.2109 Q25.7656,32.0625 26.8594,31.4453 Q27.9531,30.8281 29.1875,30.8281 Q29.9219,30.8281 30.5703,30.9922 Q31.2188,31.1563 31.7656,31.5156 Z "/><text fill="#000000" font-family="sans-serif" font-size="12" font-style="italic" lengthAdjust="spacingAndGlyphs" textLength="118" x="86.5" y="25.457">«SuppressWarnings»</text><text fill="#000000" font-family="sans-serif" font-size="14" font-weight="bold" lengthAdjust="spacingAndGlyphs" textLength="137" x="77" y="42.627">MenuItemRenderer</text><text fill="#000000" font-family="sans-serif" font-size="10" lengthAdjust="spacingAndGlyphs" textLength="205" x="43" y="56.084">eapli.framework.presentation.console.menu</text></a><!--MD5=[9c9c598c11bb6de9c2bd016a841545c3]
link eapli.framework.actions.menu.Menu to eapli.framework.actions.menu.MenuItem--><path d="M89.25,398.3681 C89.25,398.3681 89.25,336.046 89.25,336.046 " fill="none" id="eapli.framework.actions.menu.Menu-&gt;eapli.framework.actions.menu.MenuItem" style="stroke: #A80036; stroke-width: 1.0;"/><polygon fill="#A80036" points="89.25,331.046,85.25,340.046,89.25,336.046,93.25,340.046,89.25,331.046" style="stroke: #A80036; stroke-width: 1.0;"/><text fill="#000000" font-family="sans-serif" font-size="13" lengthAdjust="spacingAndGlyphs" textLength="37" x="47.7152" y="352.7683">itens *</text><!--MD5=[9c9c598c11bb6de9c2bd016a841545c3]
link eapli.framework.actions.menu.Menu to eapli.framework.actions.menu.MenuItem--><path d="M132.5,398.3681 C132.5,398.3681 132.5,336.046 132.5,336.046 " fill="none" id="eapli.framework.actions.menu.Menu-&gt;eapli.framework.actions.menu.MenuItem-1" style="stroke: #A80036; stroke-width: 1.0;"/><polygon fill="#A80036" points="132.5,331.046,128.5,340.046,132.5,336.046,136.5,340.046,132.5,331.046" style="stroke: #A80036; stroke-width: 1.0;"/><text fill="#000000" font-family="sans-serif" font-size="13" lengthAdjust="spacingAndGlyphs" textLength="88" x="135.7313" y="352.7683">itemByOption *</text><!--MD5=[b44225132497928ce8e8ec7dbc946802]
link eapli.framework.actions.menu.MenuItem to eapli.framework.actions.menu.Menu--><path d="M175.75,331.156 C175.75,331.156 175.75,393.1676 175.75,393.1676 " fill="none" id="eapli.framework.actions.menu.MenuItem-&gt;eapli.framework.actions.menu.Menu" style="stroke: #A80036; stroke-width: 1.0; stroke-dasharray: 7.0,7.0;"/><polygon fill="#A80036" points="175.75,398.1676,179.75,389.1676,175.75,393.1676,171.75,389.1676,175.75,398.1676" style="stroke: #A80036; stroke-width: 1.0;"/><!--MD5=[afa351aa025062ba8ce8a14ea08876ac]
link eapli.framework.actions.menu.MenuItem to eapli.framework.actions.Action--><path d="M236.5,331.007 C236.5,365.3758 236.5,395 236.5,395 C236.5,395 248.616,395 248.616,395 " fill="none" id="eapli.framework.actions.menu.MenuItem-&gt;eapli.framework.actions.Action" style="stroke: #A80036; stroke-width: 1.0; stroke-dasharray: 7.0,7.0;"/><polygon fill="#A80036" points="253.616,395,244.616,391,248.616,395,244.616,399,253.616,395" style="stroke: #A80036; stroke-width: 1.0;"/><!--MD5=[8d8bbcc0ea54802744f1310f2124d74a]
link eapli.framework.presentation.console.menu.MenuItemRenderer to eapli.framework.actions.menu.MenuItem--><path d="M132.5,63.346 C132.5,63.346 132.5,117.712 132.5,117.712 " fill="none" id="eapli.framework.presentation.console.menu.MenuItemRenderer-&gt;eapli.framework.actions.menu.MenuItem" style="stroke: #A80036; stroke-width: 1.0; stroke-dasharray: 7.0,7.0;"/><polygon fill="#A80036" points="132.5,122.712,136.5,113.712,132.5,117.712,128.5,113.712,132.5,122.712" style="stroke: #A80036; stroke-width: 1.0;"/><!--MD5=[5bc65c31370fc40b48c8d023d15034d6]
@startuml

skinparam svgLinkTarget _parent
skinparam linetype ortho
set namespaceSeparator none
class "<b><size:14>MenuItem</b>\n<size:10>eapli.framework.actions.menu" as eapli.framework.actions.menu.MenuItem  [[../../../../eapli/framework/actions/menu/MenuItem.html{eapli.framework.actions.menu.MenuItem}]] {
-String text
-MenuItem(String text)
{static} +MenuItem separator(char symbol,int size)
{static} +MenuItem separator(String label)
{static} +MenuItem of(int option,String text,Action action)
{static} +MenuItem submenu(int option,Menu sub)
+String text()
{abstract} +Optional<Integer> option()
{abstract} +boolean select()
{abstract} +boolean isSubmenu()
{abstract} +Optional<Menu> submenu()
}


class "<b><size:14>Menu</b>\n<size:10>eapli.framework.actions.menu" as eapli.framework.actions.menu.Menu  [[../../../../eapli/framework/actions/menu/Menu.html{eapli.framework.actions.menu.Menu}]] {
}

hide eapli.framework.actions.menu.Menu fields
hide eapli.framework.actions.menu.Menu methods

eapli.framework.actions.menu.Menu - ->  "itens *" eapli.framework.actions.menu.MenuItem

eapli.framework.actions.menu.Menu - ->  "itemByOption *" eapli.framework.actions.menu.MenuItem

interface "<b><size:14>Action</b>\n<size:10>eapli.framework.actions" as eapli.framework.actions.Action <<FunctionalInterface>> [[../../../../eapli/framework/actions/Action.html{eapli.framework.actions.Action}]] #white {
}

hide eapli.framework.actions.Action fields
hide eapli.framework.actions.Action methods

eapli.framework.actions.menu.MenuItem ..> eapli.framework.actions.Action

eapli.framework.actions.menu.MenuItem ..> eapli.framework.actions.menu.Menu



class "<b><size:14>MenuItemRenderer</b>\n<size:10>eapli.framework.presentation.console.menu" as eapli.framework.presentation.console.menu.MenuItemRenderer <<SuppressWarnings>> [[../../../../eapli/framework/presentation/console/menu/MenuItemRenderer.html{eapli.framework.presentation.console.menu.MenuItemRenderer}]] #white {
}

hide eapli.framework.presentation.console.menu.MenuItemRenderer fields
hide eapli.framework.presentation.console.menu.MenuItemRenderer methods

eapli.framework.presentation.console.menu.MenuItemRenderer ..> eapli.framework.actions.menu.MenuItem



@enduml

PlantUML version 1.2020.04(Thu Mar 19 10:16:49 GMT 2020)
(GPL source distribution)
Java Runtime: Java(TM) SE Runtime Environment
JVM: Java HotSpot(TM) 64-Bit Server VM
Java Version: 1.8.0_202-b08
Operating System: Windows 10
Default Encoding: Cp1252
Language: en
Country: US
--></g></svg>