<?xml version="1.0" encoding="UTF-8" standalone="no"?><svg xmlns="http://www.w3.org/2000/svg" xmlns:xlink="http://www.w3.org/1999/xlink" contentScriptType="application/ecmascript" contentStyleType="text/css" height="212px" preserveAspectRatio="none" style="width:270px;height:212px;" version="1.1" viewBox="0 0 270 212" width="270px" zoomAndPan="magnify"><defs><filter height="300%" id="f1t9ub8grmuy1j" width="300%" x="-1" y="-1"><feGaussianBlur result="blurOut" stdDeviation="2.0"/><feColorMatrix in="blurOut" result="blurOut2" type="matrix" values="0 0 0 0 0 0 0 0 0 0 0 0 0 0 0 0 0 0 .4 0"/><feOffset dx="4.0" dy="4.0" in="blurOut2" result="blurOut3"/><feBlend in="SourceGraphic" in2="blurOut3" mode="normal"/></filter></defs><g><!--MD5=[6cb11ec05bfac1eebe7536464bca8881]
cluster eapli.framework.actions.menu--><a href="../../../../eapli/framework/actions/menu/package-summary.html" target="_parent" title="eapli.framework.actions.menu" xlink:actuate="onRequest" xlink:href="../../../../eapli/framework/actions/menu/package-summary.html" xlink:show="new" xlink:title="eapli.framework.actions.menu" xlink:type="simple"><polygon fill="#FFFFE0" filter="url(#f1t9ub8grmuy1j)" points="22,24,238,24,245,47.6094,248,47.6094,248,200,22,200,22,24" style="stroke: #000000; stroke-width: 1.5;"/><line style="stroke: #000000; stroke-width: 1.5;" x1="22" x2="245" y1="47.6094" y2="47.6094"/><text fill="#000000" font-family="sans-serif" font-size="14" font-weight="bold" lengthAdjust="spacingAndGlyphs" textLength="210" x="26" y="40.5332">eapli.framework.actions.menu</text></a><!--MD5=[e26dd25449c1bb2fa7a2d2d66898429b]
class eapli.framework.actions.menu.Menu--><a href="../../../../eapli/framework/actions/menu/Menu.html" target="_parent" title="eapli.framework.actions.menu.Menu" xlink:actuate="onRequest" xlink:href="../../../../eapli/framework/actions/menu/Menu.html" xlink:show="new" xlink:title="eapli.framework.actions.menu.Menu" xlink:type="simple"><rect fill="#FEFECE" filter="url(#f1t9ub8grmuy1j)" height="32" id="eapli.framework.actions.menu.Menu" style="stroke: #A80036; stroke-width: 1.5;" width="72" x="99" y="60"/><ellipse cx="114" cy="76" fill="#ADD1B2" rx="11" ry="11" style="stroke: #A80036; stroke-width: 1.0;"/><path d="M116.7656,71.875 Q116.9219,71.6563 117.1094,71.5469 Q117.2969,71.4375 117.5156,71.4375 Q117.8906,71.4375 118.125,71.6953 Q118.3594,71.9531 118.3594,72.5625 L118.3594,74.0156 Q118.3594,74.625 118.125,74.8906 Q117.8906,75.1563 117.5156,75.1563 Q117.1719,75.1563 116.9688,74.9531 Q116.7656,74.7656 116.6563,74.25 Q116.6094,73.8906 116.4219,73.7031 Q116.0938,73.3281 115.4844,73.1094 Q114.875,72.8906 114.25,72.8906 Q113.4844,72.8906 112.8516,73.2188 Q112.2188,73.5469 111.7266,74.2969 Q111.2344,75.0469 111.2344,76.0781 L111.2344,77.1719 Q111.2344,78.4063 112.125,79.2266 Q113.0156,80.0469 114.6094,80.0469 Q115.5469,80.0469 116.2031,79.7969 Q116.5938,79.6406 117.0156,79.2031 Q117.2813,78.9375 117.4297,78.8594 Q117.5781,78.7813 117.7813,78.7813 Q118.1094,78.7813 118.3672,79.0391 Q118.625,79.2969 118.625,79.6406 Q118.625,79.9844 118.2813,80.3906 Q117.7813,80.9688 116.9844,81.2969 Q115.9063,81.75 114.6094,81.75 Q113.0938,81.75 111.8906,81.125 Q110.9063,80.625 110.2188,79.5547 Q109.5313,78.4844 109.5313,77.2031 L109.5313,76.0469 Q109.5313,74.7188 110.1484,73.5703 Q110.7656,72.4219 111.8594,71.8047 Q112.9531,71.1875 114.1875,71.1875 Q114.9219,71.1875 115.5703,71.3516 Q116.2188,71.5156 116.7656,71.875 Z "/><text fill="#000000" font-family="sans-serif" font-size="14" font-weight="bold" lengthAdjust="spacingAndGlyphs" textLength="40" x="128" y="81.7285">Menu</text></a><!--MD5=[997e9759af51b6bb0b155e6901c74880]
class eapli.framework.actions.menu.MenuItem--><a href="../../../../eapli/framework/actions/menu/MenuItem.html" target="_parent" title="eapli.framework.actions.menu.MenuItem" xlink:actuate="onRequest" xlink:href="../../../../eapli/framework/actions/menu/MenuItem.html" xlink:show="new" xlink:title="eapli.framework.actions.menu.MenuItem" xlink:type="simple"><rect fill="#FEFECE" filter="url(#f1t9ub8grmuy1j)" height="32" id="eapli.framework.actions.menu.MenuItem" style="stroke: #A80036; stroke-width: 1.5;" width="102" x="84" y="152"/><ellipse cx="99" cy="168" fill="#ADD1B2" rx="11" ry="11" style="stroke: #A80036; stroke-width: 1.0;"/><path d="M101.7656,163.875 Q101.9219,163.6563 102.1094,163.5469 Q102.2969,163.4375 102.5156,163.4375 Q102.8906,163.4375 103.125,163.6953 Q103.3594,163.9531 103.3594,164.5625 L103.3594,166.0156 Q103.3594,166.625 103.125,166.8906 Q102.8906,167.1563 102.5156,167.1563 Q102.1719,167.1563 101.9688,166.9531 Q101.7656,166.7656 101.6563,166.25 Q101.6094,165.8906 101.4219,165.7031 Q101.0938,165.3281 100.4844,165.1094 Q99.875,164.8906 99.25,164.8906 Q98.4844,164.8906 97.8516,165.2188 Q97.2188,165.5469 96.7266,166.2969 Q96.2344,167.0469 96.2344,168.0781 L96.2344,169.1719 Q96.2344,170.4063 97.125,171.2266 Q98.0156,172.0469 99.6094,172.0469 Q100.5469,172.0469 101.2031,171.7969 Q101.5938,171.6406 102.0156,171.2031 Q102.2813,170.9375 102.4297,170.8594 Q102.5781,170.7813 102.7813,170.7813 Q103.1094,170.7813 103.3672,171.0391 Q103.625,171.2969 103.625,171.6406 Q103.625,171.9844 103.2813,172.3906 Q102.7813,172.9688 101.9844,173.2969 Q100.9063,173.75 99.6094,173.75 Q98.0938,173.75 96.8906,173.125 Q95.9063,172.625 95.2188,171.5547 Q94.5313,170.4844 94.5313,169.2031 L94.5313,168.0469 Q94.5313,166.7188 95.1484,165.5703 Q95.7656,164.4219 96.8594,163.8047 Q97.9531,163.1875 99.1875,163.1875 Q99.9219,163.1875 100.5703,163.3516 Q101.2188,163.5156 101.7656,163.875 Z "/><text fill="#000000" font-family="sans-serif" font-size="14" font-weight="bold" lengthAdjust="spacingAndGlyphs" textLength="70" x="113" y="173.7285">MenuItem</text></a><!--MD5=[9c9c598c11bb6de9c2bd016a841545c3]
link eapli.framework.actions.menu.Menu to eapli.framework.actions.menu.MenuItem--><path d="M153,92.025 C153,92.025 153,146.8498 153,146.8498 " fill="none" id="eapli.framework.actions.menu.Menu-&gt;eapli.framework.actions.menu.MenuItem" style="stroke: #A80036; stroke-width: 1.0;"/><polygon fill="#A80036" points="153,151.8498,157,142.8498,153,146.8498,149,142.8498,153,151.8498" style="stroke: #A80036; stroke-width: 1.0;"/><text fill="#000000" font-family="sans-serif" font-size="13" lengthAdjust="spacingAndGlyphs" textLength="37" x="115.8281" y="141.1037">itens *</text><!--MD5=[9c9c598c11bb6de9c2bd016a841545c3]
link eapli.framework.actions.menu.Menu to eapli.framework.actions.menu.MenuItem--><path d="M117,92.025 C117,92.025 117,146.8498 117,146.8498 " fill="none" id="eapli.framework.actions.menu.Menu-&gt;eapli.framework.actions.menu.MenuItem-1" style="stroke: #A80036; stroke-width: 1.0;"/><polygon fill="#A80036" points="117,151.8498,121,142.8498,117,146.8498,113,142.8498,117,151.8498" style="stroke: #A80036; stroke-width: 1.0;"/><text fill="#000000" font-family="sans-serif" font-size="13" lengthAdjust="spacingAndGlyphs" textLength="88" x="7.6875" y="141.1037">itemByOption *</text><!--MD5=[b44225132497928ce8e8ec7dbc946802]
link eapli.framework.actions.menu.MenuItem to eapli.framework.actions.menu.Menu--><path d="M135,151.9748 C135,151.9748 135,97.15 135,97.15 " fill="none" id="eapli.framework.actions.menu.MenuItem-&gt;eapli.framework.actions.menu.Menu" style="stroke: #A80036; stroke-width: 1.0; stroke-dasharray: 7.0,7.0;"/><polygon fill="#A80036" points="135,92.15,131,101.15,135,97.15,139,101.15,135,92.15" style="stroke: #A80036; stroke-width: 1.0;"/><!--MD5=[66ea01cb3b2c17a3e3e832cbbf124a6a]
@startuml

skinparam svgLinkTarget _parent
skinparam linetype ortho
package eapli.framework.actions.menu [[../../../../eapli/framework/actions/menu/package-summary.html{eapli.framework.actions.menu}]] #lightyellow {
}

class "<b><size:14>Menu</b>" as eapli.framework.actions.menu.Menu  [[../../../../eapli/framework/actions/menu/Menu.html{eapli.framework.actions.menu.Menu}]] {
}

hide eapli.framework.actions.menu.Menu fields
hide eapli.framework.actions.menu.Menu methods

class "<b><size:14>MenuItem</b>" as eapli.framework.actions.menu.MenuItem  [[../../../../eapli/framework/actions/menu/MenuItem.html{eapli.framework.actions.menu.MenuItem}]] {
}

hide eapli.framework.actions.menu.MenuItem fields
hide eapli.framework.actions.menu.MenuItem methods

eapli.framework.actions.menu.Menu - ->  "itens *" eapli.framework.actions.menu.MenuItem
eapli.framework.actions.menu.Menu - ->  "itemByOption *" eapli.framework.actions.menu.MenuItem
eapli.framework.actions.menu.MenuItem ..> eapli.framework.actions.menu.Menu

@enduml

PlantUML version 1.2020.04(Thu Mar 19 10:16:49 GMT 2020)
(GPL source distribution)
Java Runtime: Java(TM) SE Runtime Environment
JVM: Java HotSpot(TM) 64-Bit Server VM
Java Version: 1.8.0_202-b08
Operating System: Windows 10
Default Encoding: Cp1252
Language: en
Country: US
--></g></svg>