<?xml version="1.0" encoding="UTF-8" standalone="no"?><svg xmlns="http://www.w3.org/2000/svg" xmlns:xlink="http://www.w3.org/1999/xlink" contentScriptType="application/ecmascript" contentStyleType="text/css" height="304px" preserveAspectRatio="none" style="width:286px;height:304px;" version="1.1" viewBox="0 0 286 304" width="286px" zoomAndPan="magnify"><defs><filter height="300%" id="f9n8quxkpvsbc" width="300%" x="-1" y="-1"><feGaussianBlur result="blurOut" stdDeviation="2.0"/><feColorMatrix in="blurOut" result="blurOut2" type="matrix" values="0 0 0 0 0 0 0 0 0 0 0 0 0 0 0 0 0 0 .4 0"/><feOffset dx="4.0" dy="4.0" in="blurOut2" result="blurOut3"/><feBlend in="SourceGraphic" in2="blurOut3" mode="normal"/></filter></defs><g><!--MD5=[3c2af5c0b5493053344c09355d64b375]
cluster eapli.framework.memento--><a href="../../../eapli/framework/memento/package-summary.html" target="_parent" title="eapli.framework.memento" xlink:actuate="onRequest" xlink:href="../../../eapli/framework/memento/package-summary.html" xlink:show="new" xlink:title="eapli.framework.memento" xlink:type="simple"><polygon fill="#FFFFE0" filter="url(#f9n8quxkpvsbc)" points="22,24,209,24,216,47.6094,264,47.6094,264,292,22,292,22,24" style="stroke: #000000; stroke-width: 1.5;"/><line style="stroke: #000000; stroke-width: 1.5;" x1="22" x2="216" y1="47.6094" y2="47.6094"/><text fill="#000000" font-family="sans-serif" font-size="14" font-weight="bold" lengthAdjust="spacingAndGlyphs" textLength="181" x="26" y="40.5332">eapli.framework.memento</text></a><!--MD5=[5657f736aa1b8b15afea3c56fec36137]
class eapli.framework.memento.Memento--><a href="../../../eapli/framework/memento/Memento.html" target="_parent" title="eapli.framework.memento.Memento" xlink:actuate="onRequest" xlink:href="../../../eapli/framework/memento/Memento.html" xlink:show="new" xlink:title="eapli.framework.memento.Memento" xlink:type="simple"><rect fill="#FEFECE" filter="url(#f9n8quxkpvsbc)" height="32" id="eapli.framework.memento.Memento" style="stroke: #A80036; stroke-width: 1.5;" width="93" x="74.5" y="244"/><ellipse cx="89.5" cy="260" fill="#B4A7E5" rx="11" ry="11" style="stroke: #A80036; stroke-width: 1.0;"/><path d="M90.4531,256.6406 L90.4531,263.2969 L92.1719,263.2969 Q92.7813,263.2969 93.0469,263.5313 Q93.3125,263.7656 93.3125,264.1563 Q93.3125,264.5313 93.0469,264.7656 Q92.7813,265 92.1719,265 L87.0313,265 Q86.4219,265 86.1563,264.7656 Q85.8906,264.5313 85.8906,264.1406 Q85.8906,263.7656 86.1563,263.5313 Q86.4219,263.2969 87.0313,263.2969 L88.75,263.2969 L88.75,256.6406 L87.0313,256.6406 Q86.4219,256.6406 86.1563,256.4063 Q85.8906,256.1719 85.8906,255.7813 Q85.8906,255.4063 86.1563,255.1719 Q86.4219,254.9375 87.0313,254.9375 L92.1719,254.9375 Q92.7813,254.9375 93.0469,255.1719 Q93.3125,255.4063 93.3125,255.7813 Q93.3125,256.1719 93.0469,256.4063 Q92.7813,256.6406 92.1719,256.6406 L90.4531,256.6406 Z "/><text fill="#000000" font-family="sans-serif" font-size="14" font-style="italic" font-weight="bold" lengthAdjust="spacingAndGlyphs" textLength="61" x="103.5" y="265.7285">Memento</text></a><!--MD5=[f149283712d6a34746b32cc9b515d142]
class eapli.framework.memento.Restorable--><a href="../../../eapli/framework/memento/Restorable.html" target="_parent" title="eapli.framework.memento.Restorable" xlink:actuate="onRequest" xlink:href="../../../eapli/framework/memento/Restorable.html" xlink:show="new" xlink:title="eapli.framework.memento.Restorable" xlink:type="simple"><rect fill="#FEFECE" filter="url(#f9n8quxkpvsbc)" height="32" id="eapli.framework.memento.Restorable" style="stroke: #A80036; stroke-width: 1.5;" width="105" x="105.5" y="152"/><ellipse cx="120.5" cy="168" fill="#B4A7E5" rx="11" ry="11" style="stroke: #A80036; stroke-width: 1.0;"/><path d="M121.4531,164.6406 L121.4531,171.2969 L123.1719,171.2969 Q123.7813,171.2969 124.0469,171.5313 Q124.3125,171.7656 124.3125,172.1563 Q124.3125,172.5313 124.0469,172.7656 Q123.7813,173 123.1719,173 L118.0313,173 Q117.4219,173 117.1563,172.7656 Q116.8906,172.5313 116.8906,172.1406 Q116.8906,171.7656 117.1563,171.5313 Q117.4219,171.2969 118.0313,171.2969 L119.75,171.2969 L119.75,164.6406 L118.0313,164.6406 Q117.4219,164.6406 117.1563,164.4063 Q116.8906,164.1719 116.8906,163.7813 Q116.8906,163.4063 117.1563,163.1719 Q117.4219,162.9375 118.0313,162.9375 L123.1719,162.9375 Q123.7813,162.9375 124.0469,163.1719 Q124.3125,163.4063 124.3125,163.7813 Q124.3125,164.1719 124.0469,164.4063 Q123.7813,164.6406 123.1719,164.6406 L121.4531,164.6406 Z "/><text fill="#000000" font-family="sans-serif" font-size="14" font-style="italic" font-weight="bold" lengthAdjust="spacingAndGlyphs" textLength="73" x="134.5" y="173.7285">Restorable</text></a><!--MD5=[90ce44f0c71f09496952f0dd27d370d1]
class eapli.framework.memento.RestorableHistoryKeeper--><a href="../../../eapli/framework/memento/RestorableHistoryKeeper.html" target="_parent" title="eapli.framework.memento.RestorableHistoryKeeper" xlink:actuate="onRequest" xlink:href="../../../eapli/framework/memento/RestorableHistoryKeeper.html" xlink:show="new" xlink:title="eapli.framework.memento.RestorableHistoryKeeper" xlink:type="simple"><rect fill="#FEFECE" filter="url(#f9n8quxkpvsbc)" height="32" id="eapli.framework.memento.RestorableHistoryKeeper" style="stroke: #A80036; stroke-width: 1.5;" width="210" x="38" y="60"/><ellipse cx="53" cy="76" fill="#ADD1B2" rx="11" ry="11" style="stroke: #A80036; stroke-width: 1.0;"/><path d="M55.7656,71.875 Q55.9219,71.6563 56.1094,71.5469 Q56.2969,71.4375 56.5156,71.4375 Q56.8906,71.4375 57.125,71.6953 Q57.3594,71.9531 57.3594,72.5625 L57.3594,74.0156 Q57.3594,74.625 57.125,74.8906 Q56.8906,75.1563 56.5156,75.1563 Q56.1719,75.1563 55.9688,74.9531 Q55.7656,74.7656 55.6563,74.25 Q55.6094,73.8906 55.4219,73.7031 Q55.0938,73.3281 54.4844,73.1094 Q53.875,72.8906 53.25,72.8906 Q52.4844,72.8906 51.8516,73.2188 Q51.2188,73.5469 50.7266,74.2969 Q50.2344,75.0469 50.2344,76.0781 L50.2344,77.1719 Q50.2344,78.4063 51.125,79.2266 Q52.0156,80.0469 53.6094,80.0469 Q54.5469,80.0469 55.2031,79.7969 Q55.5938,79.6406 56.0156,79.2031 Q56.2813,78.9375 56.4297,78.8594 Q56.5781,78.7813 56.7813,78.7813 Q57.1094,78.7813 57.3672,79.0391 Q57.625,79.2969 57.625,79.6406 Q57.625,79.9844 57.2813,80.3906 Q56.7813,80.9688 55.9844,81.2969 Q54.9063,81.75 53.6094,81.75 Q52.0938,81.75 50.8906,81.125 Q49.9063,80.625 49.2188,79.5547 Q48.5313,78.4844 48.5313,77.2031 L48.5313,76.0469 Q48.5313,74.7188 49.1484,73.5703 Q49.7656,72.4219 50.8594,71.8047 Q51.9531,71.1875 53.1875,71.1875 Q53.9219,71.1875 54.5703,71.3516 Q55.2188,71.5156 55.7656,71.875 Z "/><text fill="#000000" font-family="sans-serif" font-size="14" font-weight="bold" lengthAdjust="spacingAndGlyphs" textLength="178" x="67" y="81.7285">RestorableHistoryKeeper</text></a><!--MD5=[99f14b6623daa7bb5db977bc6bbc906d]
link eapli.framework.memento.Restorable to eapli.framework.memento.Memento--><path d="M136.5,184.025 C136.5,184.025 136.5,238.8498 136.5,238.8498 " fill="none" id="eapli.framework.memento.Restorable-&gt;eapli.framework.memento.Memento" style="stroke: #A80036; stroke-width: 1.0; stroke-dasharray: 7.0,7.0;"/><polygon fill="#A80036" points="136.5,243.8498,140.5,234.8498,136.5,238.8498,132.5,234.8498,136.5,243.8498" style="stroke: #A80036; stroke-width: 1.0;"/><!--MD5=[783bceb4ac74b1cd5ca0102aafe0bd88]
link eapli.framework.memento.RestorableHistoryKeeper to eapli.framework.memento.Memento--><path d="M90,92.007 C90,92.007 90,238.8991 90,238.8991 " fill="none" id="eapli.framework.memento.RestorableHistoryKeeper-&gt;eapli.framework.memento.Memento" style="stroke: #A80036; stroke-width: 1.0; stroke-dasharray: 7.0,7.0;"/><polygon fill="#A80036" points="90,243.8991,94,234.8991,90,238.8991,86,234.8991,90,243.8991" style="stroke: #A80036; stroke-width: 1.0;"/><!--MD5=[42f969331e7e24b0a8ee726d21d67691]
link eapli.framework.memento.RestorableHistoryKeeper to eapli.framework.memento.Restorable--><path d="M158,92.025 C158,92.025 158,146.85 158,146.85 " fill="none" id="eapli.framework.memento.RestorableHistoryKeeper-&gt;eapli.framework.memento.Restorable" style="stroke: #A80036; stroke-width: 1.0;"/><polygon fill="#A80036" points="158,151.85,162,142.85,158,146.85,154,142.85,158,151.85" style="stroke: #A80036; stroke-width: 1.0;"/><text fill="#000000" font-family="sans-serif" font-size="13" lengthAdjust="spacingAndGlyphs" textLength="42" x="108.7813" y="141.104">subject</text><!--MD5=[430c76099629fe6821ca43d3877438c0]
@startuml

skinparam svgLinkTarget _parent
skinparam linetype ortho
package eapli.framework.memento [[../../../eapli/framework/memento/package-summary.html{eapli.framework.memento}]] #lightyellow {
}

interface "<b><size:14>Memento</b>" as eapli.framework.memento.Memento  [[../../../eapli/framework/memento/Memento.html{eapli.framework.memento.Memento}]] {
}

hide eapli.framework.memento.Memento fields
hide eapli.framework.memento.Memento methods

interface "<b><size:14>Restorable</b>" as eapli.framework.memento.Restorable  [[../../../eapli/framework/memento/Restorable.html{eapli.framework.memento.Restorable}]] {
}

hide eapli.framework.memento.Restorable fields
hide eapli.framework.memento.Restorable methods

class "<b><size:14>RestorableHistoryKeeper</b>" as eapli.framework.memento.RestorableHistoryKeeper  [[../../../eapli/framework/memento/RestorableHistoryKeeper.html{eapli.framework.memento.RestorableHistoryKeeper}]] {
}

hide eapli.framework.memento.RestorableHistoryKeeper fields
hide eapli.framework.memento.RestorableHistoryKeeper methods

eapli.framework.memento.Restorable ..> eapli.framework.memento.Memento
eapli.framework.memento.RestorableHistoryKeeper ..> eapli.framework.memento.Memento
eapli.framework.memento.RestorableHistoryKeeper - ->  "subject" eapli.framework.memento.Restorable

@enduml

PlantUML version 1.2020.04(Thu Mar 19 10:16:49 GMT 2020)
(GPL source distribution)
Java Runtime: Java(TM) SE Runtime Environment
JVM: Java HotSpot(TM) 64-Bit Server VM
Java Version: 1.8.0_202-b08
Operating System: Windows 10
Default Encoding: Cp1252
Language: en
Country: US
--></g></svg>