<?xml version="1.0" encoding="UTF-8" standalone="no"?><svg xmlns="http://www.w3.org/2000/svg" xmlns:xlink="http://www.w3.org/1999/xlink" contentScriptType="application/ecmascript" contentStyleType="text/css" height="471px" preserveAspectRatio="none" style="width:885px;height:471px;" version="1.1" viewBox="0 0 885 471" width="885px" zoomAndPan="magnify"><defs><filter height="300%" id="fitersd4rg0l9" width="300%" x="-1" y="-1"><feGaussianBlur result="blurOut" stdDeviation="2.0"/><feColorMatrix in="blurOut" result="blurOut2" type="matrix" values="0 0 0 0 0 0 0 0 0 0 0 0 0 0 0 0 0 0 .4 0"/><feOffset dx="4.0" dy="4.0" in="blurOut2" result="blurOut3"/><feBlend in="SourceGraphic" in2="blurOut3" mode="normal"/></filter></defs><g><!--MD5=[e22d64acf1afc283c3a9095fdf30c101]
class eapli.framework.infrastructure.authz.domain.model.Name--><a href="../../../../../../eapli/framework/infrastructure/authz/domain/model/Name.html" target="_parent" title="eapli.framework.infrastructure.authz.domain.model.Name" xlink:actuate="onRequest" xlink:href="../../../../../../eapli/framework/infrastructure/authz/domain/model/Name.html" xlink:show="new" xlink:title="eapli.framework.infrastructure.authz.domain.model.Name" xlink:type="simple"><rect fill="#FEFECE" filter="url(#fitersd4rg0l9)" height="237.3125" id="eapli.framework.infrastructure.authz.domain.model.Name" style="stroke: #A80036; stroke-width: 1.5;" width="271" x="297.5" y="123"/><ellipse cx="312.5" cy="150.6406" fill="#ADD1B2" rx="11" ry="11" style="stroke: #A80036; stroke-width: 1.0;"/><path d="M315.2656,146.5156 Q315.4219,146.2969 315.6094,146.1875 Q315.7969,146.0781 316.0156,146.0781 Q316.3906,146.0781 316.625,146.3359 Q316.8594,146.5938 316.8594,147.2031 L316.8594,148.6563 Q316.8594,149.2656 316.625,149.5313 Q316.3906,149.7969 316.0156,149.7969 Q315.6719,149.7969 315.4688,149.5938 Q315.2656,149.4063 315.1563,148.8906 Q315.1094,148.5313 314.9219,148.3438 Q314.5938,147.9688 313.9844,147.75 Q313.375,147.5313 312.75,147.5313 Q311.9844,147.5313 311.3516,147.8594 Q310.7188,148.1875 310.2266,148.9375 Q309.7344,149.6875 309.7344,150.7188 L309.7344,151.8125 Q309.7344,153.0469 310.625,153.8672 Q311.5156,154.6875 313.1094,154.6875 Q314.0469,154.6875 314.7031,154.4375 Q315.0938,154.2813 315.5156,153.8438 Q315.7813,153.5781 315.9297,153.5 Q316.0781,153.4219 316.2813,153.4219 Q316.6094,153.4219 316.8672,153.6797 Q317.125,153.9375 317.125,154.2813 Q317.125,154.625 316.7813,155.0313 Q316.2813,155.6094 315.4844,155.9375 Q314.4063,156.3906 313.1094,156.3906 Q311.5938,156.3906 310.3906,155.7656 Q309.4063,155.2656 308.7188,154.1953 Q308.0313,153.125 308.0313,151.8438 L308.0313,150.6875 Q308.0313,149.3594 308.6484,148.2109 Q309.2656,147.0625 310.3594,146.4453 Q311.4531,145.8281 312.6875,145.8281 Q313.4219,145.8281 314.0703,145.9922 Q314.7188,146.1563 315.2656,146.5156 Z "/><text fill="#000000" font-family="sans-serif" font-size="12" font-style="italic" lengthAdjust="spacingAndGlyphs" textLength="87" x="402.5" y="140.457">«Embeddable»</text><text fill="#000000" font-family="sans-serif" font-size="14" font-weight="bold" lengthAdjust="spacingAndGlyphs" textLength="39" x="426.5" y="157.627">Name</text><text fill="#000000" font-family="sans-serif" font-size="10" lengthAdjust="spacingAndGlyphs" textLength="239" x="326.5" y="171.084">eapli.framework.infrastructure.authz.domain.model</text><line style="stroke: #A80036; stroke-width: 1.5;" x1="298.5" x2="567.5" y1="178.2813" y2="178.2813"/><rect fill="none" height="6" style="stroke: #C82930; stroke-width: 1.0;" width="6" x="305.5" y="186.2813"/><text fill="#000000" font-family="sans-serif" font-size="11" lengthAdjust="spacingAndGlyphs" text-decoration="underline" textLength="103" x="317.5" y="193.7002">long serialVersionUID</text><rect fill="none" height="6" style="stroke: #C82930; stroke-width: 1.0;" width="6" x="305.5" y="200.1172"/><text fill="#000000" font-family="sans-serif" font-size="11" lengthAdjust="spacingAndGlyphs" text-decoration="underline" textLength="143" x="317.5" y="207.5361">Pattern VALID_NAME_REGEX</text><rect fill="none" height="6" style="stroke: #C82930; stroke-width: 1.0;" width="6" x="305.5" y="213.9531"/><text fill="#000000" font-family="sans-serif" font-size="11" lengthAdjust="spacingAndGlyphs" textLength="77" x="317.5" y="221.3721">String firstName</text><rect fill="none" height="6" style="stroke: #C82930; stroke-width: 1.0;" width="6" x="305.5" y="227.7891"/><text fill="#000000" font-family="sans-serif" font-size="11" lengthAdjust="spacingAndGlyphs" textLength="75" x="317.5" y="235.208">String lastName</text><line style="stroke: #A80036; stroke-width: 1.5;" x1="298.5" x2="567.5" y1="241.625" y2="241.625"/><polygon fill="#FFFF44" points="308.5,247.625,312.5,251.625,308.5,255.625,304.5,251.625" style="stroke: #B38D22; stroke-width: 1.0;"/><text fill="#000000" font-family="sans-serif" font-size="11" lengthAdjust="spacingAndGlyphs" textLength="190" x="317.5" y="257.0439">Name(String firstName,String lastName)</text><polygon fill="#FFFF44" points="308.5,261.4609,312.5,265.4609,308.5,269.4609,304.5,265.4609" style="stroke: #B38D22; stroke-width: 1.0;"/><text fill="#000000" font-family="sans-serif" font-size="11" lengthAdjust="spacingAndGlyphs" textLength="35" x="317.5" y="270.8799">Name()</text><ellipse cx="308.5" cy="280.2969" fill="#84BE84" rx="3" ry="3" style="stroke: #038048; stroke-width: 1.0;"/><text fill="#000000" font-family="sans-serif" font-size="11" lengthAdjust="spacingAndGlyphs" text-decoration="underline" textLength="231" x="317.5" y="284.7158">Name valueOf(String firstName,String lastName)</text><ellipse cx="308.5" cy="294.1328" fill="#84BE84" rx="3" ry="3" style="stroke: #038048; stroke-width: 1.0;"/><text fill="#000000" font-family="sans-serif" font-size="11" lengthAdjust="spacingAndGlyphs" textLength="85" x="317.5" y="298.5518">String firstName()</text><ellipse cx="308.5" cy="307.9688" fill="#84BE84" rx="3" ry="3" style="stroke: #038048; stroke-width: 1.0;"/><text fill="#000000" font-family="sans-serif" font-size="11" lengthAdjust="spacingAndGlyphs" textLength="83" x="317.5" y="312.3877">String lastName()</text><ellipse cx="308.5" cy="321.8047" fill="#84BE84" rx="3" ry="3" style="stroke: #038048; stroke-width: 1.0;"/><text fill="#000000" font-family="sans-serif" font-size="11" lengthAdjust="spacingAndGlyphs" textLength="121" x="317.5" y="326.2236">boolean equals(Object o)</text><ellipse cx="308.5" cy="335.6406" fill="#84BE84" rx="3" ry="3" style="stroke: #038048; stroke-width: 1.0;"/><text fill="#000000" font-family="sans-serif" font-size="11" lengthAdjust="spacingAndGlyphs" textLength="71" x="317.5" y="340.0596">int hashCode()</text><ellipse cx="308.5" cy="349.4766" fill="#84BE84" rx="3" ry="3" style="stroke: #038048; stroke-width: 1.0;"/><text fill="#000000" font-family="sans-serif" font-size="11" lengthAdjust="spacingAndGlyphs" textLength="76" x="317.5" y="353.8955">String toString()</text></a><!--MD5=[ece0874c8144d897f1a2b84f834ce48a]
class eapli.framework.infrastructure.authz.application.UserManagementService--><a href="../../../../../../eapli/framework/infrastructure/authz/application/UserManagementService.html" target="_parent" title="eapli.framework.infrastructure.authz.application.UserManagementService" xlink:actuate="onRequest" xlink:href="../../../../../../eapli/framework/infrastructure/authz/application/UserManagementService.html" xlink:show="new" xlink:title="eapli.framework.infrastructure.authz.application.UserManagementService" xlink:type="simple"><rect fill="#FFFFFF" filter="url(#fitersd4rg0l9)" height="55.2813" id="eapli.framework.infrastructure.authz.application.UserManagementService" style="stroke: #A80036; stroke-width: 1.5;" width="256" x="6" y="8"/><rect fill="#FFFFFF" height="55.2813" style="stroke: #A80036; stroke-width: 1.5;" width="256" x="6" y="8"/><ellipse cx="21" cy="35.6406" fill="#ADD1B2" rx="11" ry="11" style="stroke: #A80036; stroke-width: 1.0;"/><path d="M23.7656,31.5156 Q23.9219,31.2969 24.1094,31.1875 Q24.2969,31.0781 24.5156,31.0781 Q24.8906,31.0781 25.125,31.3359 Q25.3594,31.5938 25.3594,32.2031 L25.3594,33.6563 Q25.3594,34.2656 25.125,34.5313 Q24.8906,34.7969 24.5156,34.7969 Q24.1719,34.7969 23.9688,34.5938 Q23.7656,34.4063 23.6563,33.8906 Q23.6094,33.5313 23.4219,33.3438 Q23.0938,32.9688 22.4844,32.75 Q21.875,32.5313 21.25,32.5313 Q20.4844,32.5313 19.8516,32.8594 Q19.2188,33.1875 18.7266,33.9375 Q18.2344,34.6875 18.2344,35.7188 L18.2344,36.8125 Q18.2344,38.0469 19.125,38.8672 Q20.0156,39.6875 21.6094,39.6875 Q22.5469,39.6875 23.2031,39.4375 Q23.5938,39.2813 24.0156,38.8438 Q24.2813,38.5781 24.4297,38.5 Q24.5781,38.4219 24.7813,38.4219 Q25.1094,38.4219 25.3672,38.6797 Q25.625,38.9375 25.625,39.2813 Q25.625,39.625 25.2813,40.0313 Q24.7813,40.6094 23.9844,40.9375 Q22.9063,41.3906 21.6094,41.3906 Q20.0938,41.3906 18.8906,40.7656 Q17.9063,40.2656 17.2188,39.1953 Q16.5313,38.125 16.5313,36.8438 L16.5313,35.6875 Q16.5313,34.3594 17.1484,33.2109 Q17.7656,32.0625 18.8594,31.4453 Q19.9531,30.8281 21.1875,30.8281 Q21.9219,30.8281 22.5703,30.9922 Q23.2188,31.1563 23.7656,31.5156 Z "/><text fill="#000000" font-family="sans-serif" font-size="12" font-style="italic" lengthAdjust="spacingAndGlyphs" textLength="79" x="107.5" y="25.457">«Component»</text><text fill="#000000" font-family="sans-serif" font-size="14" font-weight="bold" lengthAdjust="spacingAndGlyphs" textLength="178" x="58" y="42.627">UserManagementService</text><text fill="#000000" font-family="sans-serif" font-size="10" lengthAdjust="spacingAndGlyphs" textLength="224" x="35" y="56.084">eapli.framework.infrastructure.authz.application</text></a><!--MD5=[ce0423b4918b6b29de95b9c9580cdd71]
class eapli.framework.domain.model.ValueObject--><rect fill="#D3D3D3" filter="url(#fitersd4rg0l9)" height="40.1875" id="eapli.framework.domain.model.ValueObject" style="stroke: #A80036; stroke-width: 1.5;" width="174" x="258" y="420"/><rect fill="#D3D3D3" height="40.1875" style="stroke: #A80036; stroke-width: 1.5;" width="174" x="258" y="420"/><ellipse cx="273" cy="440.0938" fill="#B4A7E5" rx="11" ry="11" style="stroke: #A80036; stroke-width: 1.0;"/><path d="M273.9531,436.7344 L273.9531,443.3906 L275.6719,443.3906 Q276.2813,443.3906 276.5469,443.625 Q276.8125,443.8594 276.8125,444.25 Q276.8125,444.625 276.5469,444.8594 Q276.2813,445.0938 275.6719,445.0938 L270.5313,445.0938 Q269.9219,445.0938 269.6563,444.8594 Q269.3906,444.625 269.3906,444.2344 Q269.3906,443.8594 269.6563,443.625 Q269.9219,443.3906 270.5313,443.3906 L272.25,443.3906 L272.25,436.7344 L270.5313,436.7344 Q269.9219,436.7344 269.6563,436.5 Q269.3906,436.2656 269.3906,435.875 Q269.3906,435.5 269.6563,435.2656 Q269.9219,435.0313 270.5313,435.0313 L275.6719,435.0313 Q276.2813,435.0313 276.5469,435.2656 Q276.8125,435.5 276.8125,435.875 Q276.8125,436.2656 276.5469,436.5 Q276.2813,436.7344 275.6719,436.7344 L273.9531,436.7344 Z "/><text fill="#000000" font-family="sans-serif" font-size="14" font-style="italic" font-weight="bold" lengthAdjust="spacingAndGlyphs" textLength="84" x="316" y="439.5332">ValueObject</text><text fill="#000000" font-family="sans-serif" font-size="10" font-style="italic" lengthAdjust="spacingAndGlyphs" textLength="142" x="287" y="452.9902">eapli.framework.domain.model</text><!--MD5=[5a5af9b0547913863cbe0ddf55a9ab5e]
class java.io.Serializable--><rect fill="#D3D3D3" filter="url(#fitersd4rg0l9)" height="40.1875" id="java.io.Serializable" style="stroke: #A80036; stroke-width: 1.5;" width="110" x="467" y="420"/><rect fill="#D3D3D3" height="40.1875" style="stroke: #A80036; stroke-width: 1.5;" width="110" x="467" y="420"/><ellipse cx="482" cy="440.0938" fill="#B4A7E5" rx="11" ry="11" style="stroke: #A80036; stroke-width: 1.0;"/><path d="M482.9531,436.7344 L482.9531,443.3906 L484.6719,443.3906 Q485.2813,443.3906 485.5469,443.625 Q485.8125,443.8594 485.8125,444.25 Q485.8125,444.625 485.5469,444.8594 Q485.2813,445.0938 484.6719,445.0938 L479.5313,445.0938 Q478.9219,445.0938 478.6563,444.8594 Q478.3906,444.625 478.3906,444.2344 Q478.3906,443.8594 478.6563,443.625 Q478.9219,443.3906 479.5313,443.3906 L481.25,443.3906 L481.25,436.7344 L479.5313,436.7344 Q478.9219,436.7344 478.6563,436.5 Q478.3906,436.2656 478.3906,435.875 Q478.3906,435.5 478.6563,435.2656 Q478.9219,435.0313 479.5313,435.0313 L484.6719,435.0313 Q485.2813,435.0313 485.5469,435.2656 Q485.8125,435.5 485.8125,435.875 Q485.8125,436.2656 485.5469,436.5 Q485.2813,436.7344 484.6719,436.7344 L482.9531,436.7344 Z "/><text fill="#000000" font-family="sans-serif" font-size="14" font-style="italic" font-weight="bold" lengthAdjust="spacingAndGlyphs" textLength="78" x="496" y="439.5332">Serializable</text><text fill="#000000" font-family="sans-serif" font-size="10" font-style="italic" lengthAdjust="spacingAndGlyphs" textLength="31" x="519.5" y="452.9902">java.io</text><!--MD5=[9d1258bf87405b8ab48e8caec849a2cc]
class eapli.framework.infrastructure.authz.domain.model.SystemUser--><a href="../../../../../../eapli/framework/infrastructure/authz/domain/model/SystemUser.html" target="_parent" title="eapli.framework.infrastructure.authz.domain.model.SystemUser" xlink:actuate="onRequest" xlink:href="../../../../../../eapli/framework/infrastructure/authz/domain/model/SystemUser.html" xlink:show="new" xlink:title="eapli.framework.infrastructure.authz.domain.model.SystemUser" xlink:type="simple"><rect fill="#FEFECE" filter="url(#fitersd4rg0l9)" height="55.2813" id="eapli.framework.infrastructure.authz.domain.model.SystemUser" style="stroke: #A80036; stroke-width: 1.5;" width="271" x="297.5" y="8"/><ellipse cx="312.5" cy="35.6406" fill="#ADD1B2" rx="11" ry="11" style="stroke: #A80036; stroke-width: 1.0;"/><path d="M315.2656,31.5156 Q315.4219,31.2969 315.6094,31.1875 Q315.7969,31.0781 316.0156,31.0781 Q316.3906,31.0781 316.625,31.3359 Q316.8594,31.5938 316.8594,32.2031 L316.8594,33.6563 Q316.8594,34.2656 316.625,34.5313 Q316.3906,34.7969 316.0156,34.7969 Q315.6719,34.7969 315.4688,34.5938 Q315.2656,34.4063 315.1563,33.8906 Q315.1094,33.5313 314.9219,33.3438 Q314.5938,32.9688 313.9844,32.75 Q313.375,32.5313 312.75,32.5313 Q311.9844,32.5313 311.3516,32.8594 Q310.7188,33.1875 310.2266,33.9375 Q309.7344,34.6875 309.7344,35.7188 L309.7344,36.8125 Q309.7344,38.0469 310.625,38.8672 Q311.5156,39.6875 313.1094,39.6875 Q314.0469,39.6875 314.7031,39.4375 Q315.0938,39.2813 315.5156,38.8438 Q315.7813,38.5781 315.9297,38.5 Q316.0781,38.4219 316.2813,38.4219 Q316.6094,38.4219 316.8672,38.6797 Q317.125,38.9375 317.125,39.2813 Q317.125,39.625 316.7813,40.0313 Q316.2813,40.6094 315.4844,40.9375 Q314.4063,41.3906 313.1094,41.3906 Q311.5938,41.3906 310.3906,40.7656 Q309.4063,40.2656 308.7188,39.1953 Q308.0313,38.125 308.0313,36.8438 L308.0313,35.6875 Q308.0313,34.3594 308.6484,33.2109 Q309.2656,32.0625 310.3594,31.4453 Q311.4531,30.8281 312.6875,30.8281 Q313.4219,30.8281 314.0703,30.9922 Q314.7188,31.1563 315.2656,31.5156 Z "/><text fill="#000000" font-family="sans-serif" font-size="12" font-style="italic" lengthAdjust="spacingAndGlyphs" textLength="44" x="424" y="25.457">«Entity»</text><text fill="#000000" font-family="sans-serif" font-size="14" font-weight="bold" lengthAdjust="spacingAndGlyphs" textLength="83" x="404.5" y="42.627">SystemUser</text><text fill="#000000" font-family="sans-serif" font-size="10" lengthAdjust="spacingAndGlyphs" textLength="239" x="326.5" y="56.084">eapli.framework.infrastructure.authz.domain.model</text></a><!--MD5=[81709ca2e56a4286a1fd76ee5fc86756]
class eapli.framework.infrastructure.authz.domain.model.SystemUserBuilder--><a href="../../../../../../eapli/framework/infrastructure/authz/domain/model/SystemUserBuilder.html" target="_parent" title="eapli.framework.infrastructure.authz.domain.model.SystemUserBuilder" xlink:actuate="onRequest" xlink:href="../../../../../../eapli/framework/infrastructure/authz/domain/model/SystemUserBuilder.html" xlink:show="new" xlink:title="eapli.framework.infrastructure.authz.domain.model.SystemUserBuilder" xlink:type="simple"><rect fill="#FEFECE" filter="url(#fitersd4rg0l9)" height="40.1875" id="eapli.framework.infrastructure.authz.domain.model.SystemUserBuilder" style="stroke: #A80036; stroke-width: 1.5;" width="271" x="603.5" y="15.5"/><ellipse cx="618.5" cy="35.5938" fill="#ADD1B2" rx="11" ry="11" style="stroke: #A80036; stroke-width: 1.0;"/><path d="M621.2656,31.4688 Q621.4219,31.25 621.6094,31.1406 Q621.7969,31.0313 622.0156,31.0313 Q622.3906,31.0313 622.625,31.2891 Q622.8594,31.5469 622.8594,32.1563 L622.8594,33.6094 Q622.8594,34.2188 622.625,34.4844 Q622.3906,34.75 622.0156,34.75 Q621.6719,34.75 621.4688,34.5469 Q621.2656,34.3594 621.1563,33.8438 Q621.1094,33.4844 620.9219,33.2969 Q620.5938,32.9219 619.9844,32.7031 Q619.375,32.4844 618.75,32.4844 Q617.9844,32.4844 617.3516,32.8125 Q616.7188,33.1406 616.2266,33.8906 Q615.7344,34.6406 615.7344,35.6719 L615.7344,36.7656 Q615.7344,38 616.625,38.8203 Q617.5156,39.6406 619.1094,39.6406 Q620.0469,39.6406 620.7031,39.3906 Q621.0938,39.2344 621.5156,38.7969 Q621.7813,38.5313 621.9297,38.4531 Q622.0781,38.375 622.2813,38.375 Q622.6094,38.375 622.8672,38.6328 Q623.125,38.8906 623.125,39.2344 Q623.125,39.5781 622.7813,39.9844 Q622.2813,40.5625 621.4844,40.8906 Q620.4063,41.3438 619.1094,41.3438 Q617.5938,41.3438 616.3906,40.7188 Q615.4063,40.2188 614.7188,39.1484 Q614.0313,38.0781 614.0313,36.7969 L614.0313,35.6406 Q614.0313,34.3125 614.6484,33.1641 Q615.2656,32.0156 616.3594,31.3984 Q617.4531,30.7813 618.6875,30.7813 Q619.4219,30.7813 620.0703,30.9453 Q620.7188,31.1094 621.2656,31.4688 Z "/><text fill="#000000" font-family="sans-serif" font-size="14" font-weight="bold" lengthAdjust="spacingAndGlyphs" textLength="134" x="685" y="35.0332">SystemUserBuilder</text><text fill="#000000" font-family="sans-serif" font-size="10" lengthAdjust="spacingAndGlyphs" textLength="239" x="632.5" y="48.4902">eapli.framework.infrastructure.authz.domain.model</text></a><!--MD5=[32874409c1c525eeb3b88f4870589c60]
link eapli.framework.infrastructure.authz.application.UserManagementService to eapli.framework.infrastructure.authz.domain.model.Name--><path d="M132,63.35 C132,119.715 132,242 132,242 C132,242 292.469,242 292.469,242 " fill="none" id="eapli.framework.infrastructure.authz.application.UserManagementService-&gt;eapli.framework.infrastructure.authz.domain.model.Name" style="stroke: #A80036; stroke-width: 1.0; stroke-dasharray: 7.0,7.0;"/><polygon fill="#A80036" points="297.469,242,288.469,238,292.469,242,288.469,246,297.469,242" style="stroke: #A80036; stroke-width: 1.0;"/><!--MD5=[a7281571a55c252193fb8a087d875789]
link eapli.framework.infrastructure.authz.domain.model.Name to eapli.framework.domain.model.ValueObject--><path d="M364.75,360.1205 C364.75,360.1205 364.75,399.9405 364.75,399.9405 " fill="none" id="eapli.framework.infrastructure.authz.domain.model.Name-&gt;eapli.framework.domain.model.ValueObject" style="stroke: #A80036; stroke-width: 1.0; stroke-dasharray: 7.0,7.0;"/><polygon fill="none" points="371.75,399.9406,364.75,419.9405,357.75,399.9405,371.75,399.9406" style="stroke: #A80036; stroke-width: 1.0;"/><!--MD5=[a0b07e54c15dc496a12e83e8af74bd38]
link eapli.framework.infrastructure.authz.domain.model.Name to java.io.Serializable--><path d="M517.75,360.1205 C517.75,360.1205 517.75,399.9405 517.75,399.9405 " fill="none" id="eapli.framework.infrastructure.authz.domain.model.Name-&gt;java.io.Serializable" style="stroke: #A80036; stroke-width: 1.0; stroke-dasharray: 7.0,7.0;"/><polygon fill="none" points="524.75,399.9406,517.75,419.9405,510.75,399.9405,524.75,399.9406" style="stroke: #A80036; stroke-width: 1.0;"/><!--MD5=[879ab4acac8f38f17f9fda91a7701e44]
link eapli.framework.infrastructure.authz.domain.model.SystemUser to eapli.framework.infrastructure.authz.domain.model.Name--><path d="M433,63.282 C433,63.282 433,117.613 433,117.613 " fill="none" id="eapli.framework.infrastructure.authz.domain.model.SystemUser-&gt;eapli.framework.infrastructure.authz.domain.model.Name" style="stroke: #A80036; stroke-width: 1.0;"/><polygon fill="#A80036" points="433,122.613,437,113.613,433,117.613,429,113.613,433,122.613" style="stroke: #A80036; stroke-width: 1.0;"/><text fill="#000000" font-family="sans-serif" font-size="13" lengthAdjust="spacingAndGlyphs" textLength="32" x="399.975" y="111.9807">name</text><!--MD5=[8a8d7ff59314317602ea6f510917073a]
link eapli.framework.infrastructure.authz.domain.model.SystemUserBuilder to eapli.framework.infrastructure.authz.domain.model.Name--><path d="M739,55.676 C739,107.637 739,242 739,242 C739,242 573.552,242 573.552,242 " fill="none" id="eapli.framework.infrastructure.authz.domain.model.SystemUserBuilder-&gt;eapli.framework.infrastructure.authz.domain.model.Name" style="stroke: #A80036; stroke-width: 1.0;"/><polygon fill="#A80036" points="568.552,242,577.552,246,573.552,242,577.552,238,568.552,242" style="stroke: #A80036; stroke-width: 1.0;"/><text fill="#000000" font-family="sans-serif" font-size="13" lengthAdjust="spacingAndGlyphs" textLength="32" x="576.3664" y="239.1094">name</text><!--MD5=[268b821efe62a145ba56793dcb46a911]
@startuml

skinparam svgLinkTarget _parent
skinparam linetype ortho
set namespaceSeparator none
class "<b><size:14>Name</b>\n<size:10>eapli.framework.infrastructure.authz.domain.model" as eapli.framework.infrastructure.authz.domain.model.Name <<Embeddable>> [[../../../../../../eapli/framework/infrastructure/authz/domain/model/Name.html{eapli.framework.infrastructure.authz.domain.model.Name}]] {
{static} -long serialVersionUID
{static} -Pattern VALID_NAME_REGEX
-String firstName
-String lastName
#Name(String firstName,String lastName)
#Name()
{static} +Name valueOf(String firstName,String lastName)
+String firstName()
+String lastName()
+boolean equals(Object o)
+int hashCode()
+String toString()
}


class "<b><size:14>UserManagementService</b>\n<size:10>eapli.framework.infrastructure.authz.application" as eapli.framework.infrastructure.authz.application.UserManagementService <<Component>> [[../../../../../../eapli/framework/infrastructure/authz/application/UserManagementService.html{eapli.framework.infrastructure.authz.application.UserManagementService}]] #white {
}

hide eapli.framework.infrastructure.authz.application.UserManagementService fields
hide eapli.framework.infrastructure.authz.application.UserManagementService methods

eapli.framework.infrastructure.authz.application.UserManagementService ..> eapli.framework.infrastructure.authz.domain.model.Name


interface "<b><size:14>ValueObject</b>\n<size:10>eapli.framework.domain.model" as eapli.framework.domain.model.ValueObject  #lightgrey {
}

hide eapli.framework.domain.model.ValueObject fields
hide eapli.framework.domain.model.ValueObject methods

eapli.framework.infrastructure.authz.domain.model.Name ..|> eapli.framework.domain.model.ValueObject

interface "<b><size:14>Serializable</b>\n<size:10>java.io" as java.io.Serializable  #lightgrey {
}

hide java.io.Serializable fields
hide java.io.Serializable methods

eapli.framework.infrastructure.authz.domain.model.Name ..|> java.io.Serializable

class "<b><size:14>SystemUser</b>\n<size:10>eapli.framework.infrastructure.authz.domain.model" as eapli.framework.infrastructure.authz.domain.model.SystemUser <<Entity>> [[../../../../../../eapli/framework/infrastructure/authz/domain/model/SystemUser.html{eapli.framework.infrastructure.authz.domain.model.SystemUser}]] {
}

hide eapli.framework.infrastructure.authz.domain.model.SystemUser fields
hide eapli.framework.infrastructure.authz.domain.model.SystemUser methods

eapli.framework.infrastructure.authz.domain.model.SystemUser - ->  "name" eapli.framework.infrastructure.authz.domain.model.Name

class "<b><size:14>SystemUserBuilder</b>\n<size:10>eapli.framework.infrastructure.authz.domain.model" as eapli.framework.infrastructure.authz.domain.model.SystemUserBuilder  [[../../../../../../eapli/framework/infrastructure/authz/domain/model/SystemUserBuilder.html{eapli.framework.infrastructure.authz.domain.model.SystemUserBuilder}]] {
}

hide eapli.framework.infrastructure.authz.domain.model.SystemUserBuilder fields
hide eapli.framework.infrastructure.authz.domain.model.SystemUserBuilder methods

eapli.framework.infrastructure.authz.domain.model.SystemUserBuilder - ->  "name" eapli.framework.infrastructure.authz.domain.model.Name


@enduml

PlantUML version 1.2020.04(Thu Mar 19 10:16:49 GMT 2020)
(GPL source distribution)
Java Runtime: Java(TM) SE Runtime Environment
JVM: Java HotSpot(TM) 64-Bit Server VM
Java Version: 1.8.0_202-b08
Operating System: Windows 10
Default Encoding: Cp1252
Language: en
Country: US
--></g></svg>