<?xml version="1.0" encoding="UTF-8" standalone="no"?><svg xmlns="http://www.w3.org/2000/svg" xmlns:xlink="http://www.w3.org/1999/xlink" contentScriptType="application/ecmascript" contentStyleType="text/css" height="540px" preserveAspectRatio="none" style="width:699px;height:540px;" version="1.1" viewBox="0 0 699 540" width="699px" zoomAndPan="magnify"><defs><filter height="300%" id="fzv7aup9ffd66" width="300%" x="-1" y="-1"><feGaussianBlur result="blurOut" stdDeviation="2.0"/><feColorMatrix in="blurOut" result="blurOut2" type="matrix" values="0 0 0 0 0 0 0 0 0 0 0 0 0 0 0 0 0 0 .4 0"/><feOffset dx="4.0" dy="4.0" in="blurOut2" result="blurOut3"/><feBlend in="SourceGraphic" in2="blurOut3" mode="normal"/></filter></defs><g><!--MD5=[1111c01c3997217d0401ab2880b6fb1d]
class eapli.framework.infrastructure.authz.domain.model.RoleAssignment--><a href="../../../../../../eapli/framework/infrastructure/authz/domain/model/RoleAssignment.html" target="_parent" title="eapli.framework.infrastructure.authz.domain.model.RoleAssignment" xlink:actuate="onRequest" xlink:href="../../../../../../eapli/framework/infrastructure/authz/domain/model/RoleAssignment.html" xlink:show="new" xlink:title="eapli.framework.infrastructure.authz.domain.model.RoleAssignment" xlink:type="simple"><rect fill="#FEFECE" filter="url(#fzv7aup9ffd66)" height="306.4922" id="eapli.framework.infrastructure.authz.domain.model.RoleAssignment" style="stroke: #A80036; stroke-width: 1.5;" width="271" x="264" y="123"/><ellipse cx="279" cy="150.6406" fill="#ADD1B2" rx="11" ry="11" style="stroke: #A80036; stroke-width: 1.0;"/><path d="M281.7656,146.5156 Q281.9219,146.2969 282.1094,146.1875 Q282.2969,146.0781 282.5156,146.0781 Q282.8906,146.0781 283.125,146.3359 Q283.3594,146.5938 283.3594,147.2031 L283.3594,148.6563 Q283.3594,149.2656 283.125,149.5313 Q282.8906,149.7969 282.5156,149.7969 Q282.1719,149.7969 281.9688,149.5938 Q281.7656,149.4063 281.6563,148.8906 Q281.6094,148.5313 281.4219,148.3438 Q281.0938,147.9688 280.4844,147.75 Q279.875,147.5313 279.25,147.5313 Q278.4844,147.5313 277.8516,147.8594 Q277.2188,148.1875 276.7266,148.9375 Q276.2344,149.6875 276.2344,150.7188 L276.2344,151.8125 Q276.2344,153.0469 277.125,153.8672 Q278.0156,154.6875 279.6094,154.6875 Q280.5469,154.6875 281.2031,154.4375 Q281.5938,154.2813 282.0156,153.8438 Q282.2813,153.5781 282.4297,153.5 Q282.5781,153.4219 282.7813,153.4219 Q283.1094,153.4219 283.3672,153.6797 Q283.625,153.9375 283.625,154.2813 Q283.625,154.625 283.2813,155.0313 Q282.7813,155.6094 281.9844,155.9375 Q280.9063,156.3906 279.6094,156.3906 Q278.0938,156.3906 276.8906,155.7656 Q275.9063,155.2656 275.2188,154.1953 Q274.5313,153.125 274.5313,151.8438 L274.5313,150.6875 Q274.5313,149.3594 275.1484,148.2109 Q275.7656,147.0625 276.8594,146.4453 Q277.9531,145.8281 279.1875,145.8281 Q279.9219,145.8281 280.5703,145.9922 Q281.2188,146.1563 281.7656,146.5156 Z "/><text fill="#000000" font-family="sans-serif" font-size="12" font-style="italic" lengthAdjust="spacingAndGlyphs" textLength="44" x="390.5" y="140.457">«Entity»</text><text fill="#000000" font-family="sans-serif" font-size="14" font-weight="bold" lengthAdjust="spacingAndGlyphs" textLength="114" x="355.5" y="157.627">RoleAssignment</text><text fill="#000000" font-family="sans-serif" font-size="10" lengthAdjust="spacingAndGlyphs" textLength="239" x="293" y="171.084">eapli.framework.infrastructure.authz.domain.model</text><line style="stroke: #A80036; stroke-width: 1.5;" x1="265" x2="534" y1="178.2813" y2="178.2813"/><rect fill="none" height="6" style="stroke: #C82930; stroke-width: 1.0;" width="6" x="272" y="186.2813"/><text fill="#000000" font-family="sans-serif" font-size="11" lengthAdjust="spacingAndGlyphs" text-decoration="underline" textLength="103" x="284" y="193.7002">long serialVersionUID</text><rect fill="none" height="6" style="stroke: #C82930; stroke-width: 1.0;" width="6" x="272" y="200.1172"/><text fill="#000000" font-family="sans-serif" font-size="11" lengthAdjust="spacingAndGlyphs" textLength="38" x="284" y="207.5361">Long pk</text><rect fill="none" height="6" style="stroke: #C82930; stroke-width: 1.0;" width="6" x="272" y="213.9531"/><text fill="#000000" font-family="sans-serif" font-size="11" lengthAdjust="spacingAndGlyphs" textLength="45" x="284" y="221.3721">Role type</text><rect fill="none" height="6" style="stroke: #C82930; stroke-width: 1.0;" width="6" x="272" y="227.7891"/><text fill="#000000" font-family="sans-serif" font-size="11" lengthAdjust="spacingAndGlyphs" textLength="104" x="284" y="235.208">Calendar assignedOn</text><rect fill="none" height="6" style="stroke: #C82930; stroke-width: 1.0;" width="6" x="272" y="241.625"/><text fill="#000000" font-family="sans-serif" font-size="11" lengthAdjust="spacingAndGlyphs" textLength="116" x="284" y="249.0439">Calendar unassignedOn</text><rect fill="none" height="6" style="stroke: #C82930; stroke-width: 1.0;" width="6" x="272" y="255.4609"/><text fill="#000000" font-family="sans-serif" font-size="11" lengthAdjust="spacingAndGlyphs" textLength="77" x="284" y="262.8799">boolean expired</text><line style="stroke: #A80036; stroke-width: 1.5;" x1="265" x2="534" y1="269.2969" y2="269.2969"/><ellipse cx="275" cy="280.2969" fill="#84BE84" rx="3" ry="3" style="stroke: #038048; stroke-width: 1.0;"/><text fill="#000000" font-family="sans-serif" font-size="11" lengthAdjust="spacingAndGlyphs" textLength="131" x="284" y="284.7158">RoleAssignment(Role type)</text><ellipse cx="275" cy="294.1328" fill="#84BE84" rx="3" ry="3" style="stroke: #038048; stroke-width: 1.0;"/><text fill="#000000" font-family="sans-serif" font-size="11" lengthAdjust="spacingAndGlyphs" textLength="238" x="284" y="298.5518">RoleAssignment(Role type,Calendar assignedOn)</text><polygon fill="#FFFF44" points="275,302.9688,279,306.9688,275,310.9688,271,306.9688" style="stroke: #B38D22; stroke-width: 1.0;"/><text fill="#000000" font-family="sans-serif" font-size="11" lengthAdjust="spacingAndGlyphs" textLength="86" x="284" y="312.3877">RoleAssignment()</text><ellipse cx="275" cy="321.8047" fill="#84BE84" rx="3" ry="3" style="stroke: #038048; stroke-width: 1.0;"/><text fill="#000000" font-family="sans-serif" font-size="11" lengthAdjust="spacingAndGlyphs" textLength="191" x="284" y="326.2236">Optional&lt;Calendar&gt; getUnassignedOn()</text><ellipse cx="275" cy="335.6406" fill="#84BE84" rx="3" ry="3" style="stroke: #038048; stroke-width: 1.0;"/><text fill="#000000" font-family="sans-serif" font-size="11" lengthAdjust="spacingAndGlyphs" textLength="93" x="284" y="340.0596">boolean isExpired()</text><ellipse cx="275" cy="349.4766" fill="#84BE84" rx="3" ry="3" style="stroke: #038048; stroke-width: 1.0;"/><text fill="#000000" font-family="sans-serif" font-size="11" lengthAdjust="spacingAndGlyphs" textLength="121" x="284" y="353.8955">boolean equals(Object o)</text><ellipse cx="275" cy="363.3125" fill="#84BE84" rx="3" ry="3" style="stroke: #038048; stroke-width: 1.0;"/><text fill="#000000" font-family="sans-serif" font-size="11" lengthAdjust="spacingAndGlyphs" textLength="71" x="284" y="367.7314">int hashCode()</text><ellipse cx="275" cy="377.1484" fill="#84BE84" rx="3" ry="3" style="stroke: #038048; stroke-width: 1.0;"/><text fill="#000000" font-family="sans-serif" font-size="11" lengthAdjust="spacingAndGlyphs" textLength="76" x="284" y="381.5674">String toString()</text><ellipse cx="275" cy="390.9844" fill="#84BE84" rx="3" ry="3" style="stroke: #038048; stroke-width: 1.0;"/><text fill="#000000" font-family="sans-serif" font-size="11" lengthAdjust="spacingAndGlyphs" textLength="53" x="284" y="395.4033">Role type()</text><ellipse cx="275" cy="404.8203" fill="#84BE84" rx="3" ry="3" style="stroke: #038048; stroke-width: 1.0;"/><text fill="#000000" font-family="sans-serif" font-size="11" lengthAdjust="spacingAndGlyphs" textLength="97" x="284" y="409.2393">boolean isOf(Role r)</text><ellipse cx="275" cy="418.6563" fill="#84BE84" rx="3" ry="3" style="stroke: #038048; stroke-width: 1.0;"/><text fill="#000000" font-family="sans-serif" font-size="11" lengthAdjust="spacingAndGlyphs" textLength="93" x="284" y="423.0752">boolean unassign()</text></a><!--MD5=[c26f16576204fd8cd6313e06a213bd12]
class eapli.framework.infrastructure.authz.domain.model.Role--><a href="../../../../../../eapli/framework/infrastructure/authz/domain/model/Role.html" target="_parent" title="eapli.framework.infrastructure.authz.domain.model.Role" xlink:actuate="onRequest" xlink:href="../../../../../../eapli/framework/infrastructure/authz/domain/model/Role.html" xlink:show="new" xlink:title="eapli.framework.infrastructure.authz.domain.model.Role" xlink:type="simple"><rect fill="#FEFECE" filter="url(#fzv7aup9ffd66)" height="40.1875" id="eapli.framework.infrastructure.authz.domain.model.Role" style="stroke: #A80036; stroke-width: 1.5;" width="271" x="6" y="489"/><ellipse cx="21" cy="509.0938" fill="#ADD1B2" rx="11" ry="11" style="stroke: #A80036; stroke-width: 1.0;"/><path d="M23.7656,504.9688 Q23.9219,504.75 24.1094,504.6406 Q24.2969,504.5313 24.5156,504.5313 Q24.8906,504.5313 25.125,504.7891 Q25.3594,505.0469 25.3594,505.6563 L25.3594,507.1094 Q25.3594,507.7188 25.125,507.9844 Q24.8906,508.25 24.5156,508.25 Q24.1719,508.25 23.9688,508.0469 Q23.7656,507.8594 23.6563,507.3438 Q23.6094,506.9844 23.4219,506.7969 Q23.0938,506.4219 22.4844,506.2031 Q21.875,505.9844 21.25,505.9844 Q20.4844,505.9844 19.8516,506.3125 Q19.2188,506.6406 18.7266,507.3906 Q18.2344,508.1406 18.2344,509.1719 L18.2344,510.2656 Q18.2344,511.5 19.125,512.3203 Q20.0156,513.1406 21.6094,513.1406 Q22.5469,513.1406 23.2031,512.8906 Q23.5938,512.7344 24.0156,512.2969 Q24.2813,512.0313 24.4297,511.9531 Q24.5781,511.875 24.7813,511.875 Q25.1094,511.875 25.3672,512.1328 Q25.625,512.3906 25.625,512.7344 Q25.625,513.0781 25.2813,513.4844 Q24.7813,514.0625 23.9844,514.3906 Q22.9063,514.8438 21.6094,514.8438 Q20.0938,514.8438 18.8906,514.2188 Q17.9063,513.7188 17.2188,512.6484 Q16.5313,511.5781 16.5313,510.2969 L16.5313,509.1406 Q16.5313,507.8125 17.1484,506.6641 Q17.7656,505.5156 18.8594,504.8984 Q19.9531,504.2813 21.1875,504.2813 Q21.9219,504.2813 22.5703,504.4453 Q23.2188,504.6094 23.7656,504.9688 Z "/><text fill="#000000" font-family="sans-serif" font-size="14" font-weight="bold" lengthAdjust="spacingAndGlyphs" textLength="32" x="138.5" y="508.5332">Role</text><text fill="#000000" font-family="sans-serif" font-size="10" lengthAdjust="spacingAndGlyphs" textLength="239" x="35" y="521.9902">eapli.framework.infrastructure.authz.domain.model</text></a><!--MD5=[ce0423b4918b6b29de95b9c9580cdd71]
class eapli.framework.domain.model.ValueObject--><rect fill="#D3D3D3" filter="url(#fzv7aup9ffd66)" height="40.1875" id="eapli.framework.domain.model.ValueObject" style="stroke: #A80036; stroke-width: 1.5;" width="174" x="312.5" y="489"/><rect fill="#D3D3D3" height="40.1875" style="stroke: #A80036; stroke-width: 1.5;" width="174" x="312.5" y="489"/><ellipse cx="327.5" cy="509.0938" fill="#B4A7E5" rx="11" ry="11" style="stroke: #A80036; stroke-width: 1.0;"/><path d="M328.4531,505.7344 L328.4531,512.3906 L330.1719,512.3906 Q330.7813,512.3906 331.0469,512.625 Q331.3125,512.8594 331.3125,513.25 Q331.3125,513.625 331.0469,513.8594 Q330.7813,514.0938 330.1719,514.0938 L325.0313,514.0938 Q324.4219,514.0938 324.1563,513.8594 Q323.8906,513.625 323.8906,513.2344 Q323.8906,512.8594 324.1563,512.625 Q324.4219,512.3906 325.0313,512.3906 L326.75,512.3906 L326.75,505.7344 L325.0313,505.7344 Q324.4219,505.7344 324.1563,505.5 Q323.8906,505.2656 323.8906,504.875 Q323.8906,504.5 324.1563,504.2656 Q324.4219,504.0313 325.0313,504.0313 L330.1719,504.0313 Q330.7813,504.0313 331.0469,504.2656 Q331.3125,504.5 331.3125,504.875 Q331.3125,505.2656 331.0469,505.5 Q330.7813,505.7344 330.1719,505.7344 L328.4531,505.7344 Z "/><text fill="#000000" font-family="sans-serif" font-size="14" font-style="italic" font-weight="bold" lengthAdjust="spacingAndGlyphs" textLength="84" x="370.5" y="508.5332">ValueObject</text><text fill="#000000" font-family="sans-serif" font-size="10" font-style="italic" lengthAdjust="spacingAndGlyphs" textLength="142" x="341.5" y="521.9902">eapli.framework.domain.model</text><!--MD5=[5a5af9b0547913863cbe0ddf55a9ab5e]
class java.io.Serializable--><rect fill="#D3D3D3" filter="url(#fzv7aup9ffd66)" height="40.1875" id="java.io.Serializable" style="stroke: #A80036; stroke-width: 1.5;" width="110" x="521.5" y="489"/><rect fill="#D3D3D3" height="40.1875" style="stroke: #A80036; stroke-width: 1.5;" width="110" x="521.5" y="489"/><ellipse cx="536.5" cy="509.0938" fill="#B4A7E5" rx="11" ry="11" style="stroke: #A80036; stroke-width: 1.0;"/><path d="M537.4531,505.7344 L537.4531,512.3906 L539.1719,512.3906 Q539.7813,512.3906 540.0469,512.625 Q540.3125,512.8594 540.3125,513.25 Q540.3125,513.625 540.0469,513.8594 Q539.7813,514.0938 539.1719,514.0938 L534.0313,514.0938 Q533.4219,514.0938 533.1563,513.8594 Q532.8906,513.625 532.8906,513.2344 Q532.8906,512.8594 533.1563,512.625 Q533.4219,512.3906 534.0313,512.3906 L535.75,512.3906 L535.75,505.7344 L534.0313,505.7344 Q533.4219,505.7344 533.1563,505.5 Q532.8906,505.2656 532.8906,504.875 Q532.8906,504.5 533.1563,504.2656 Q533.4219,504.0313 534.0313,504.0313 L539.1719,504.0313 Q539.7813,504.0313 540.0469,504.2656 Q540.3125,504.5 540.3125,504.875 Q540.3125,505.2656 540.0469,505.5 Q539.7813,505.7344 539.1719,505.7344 L537.4531,505.7344 Z "/><text fill="#000000" font-family="sans-serif" font-size="14" font-style="italic" font-weight="bold" lengthAdjust="spacingAndGlyphs" textLength="78" x="550.5" y="508.5332">Serializable</text><text fill="#000000" font-family="sans-serif" font-size="10" font-style="italic" lengthAdjust="spacingAndGlyphs" textLength="31" x="574" y="521.9902">java.io</text><!--MD5=[9d1258bf87405b8ab48e8caec849a2cc]
class eapli.framework.infrastructure.authz.domain.model.SystemUser--><a href="../../../../../../eapli/framework/infrastructure/authz/domain/model/SystemUser.html" target="_parent" title="eapli.framework.infrastructure.authz.domain.model.SystemUser" xlink:actuate="onRequest" xlink:href="../../../../../../eapli/framework/infrastructure/authz/domain/model/SystemUser.html" xlink:show="new" xlink:title="eapli.framework.infrastructure.authz.domain.model.SystemUser" xlink:type="simple"><rect fill="#FEFECE" filter="url(#fzv7aup9ffd66)" height="55.2813" id="eapli.framework.infrastructure.authz.domain.model.SystemUser" style="stroke: #A80036; stroke-width: 1.5;" width="271" x="111" y="8"/><ellipse cx="126" cy="35.6406" fill="#ADD1B2" rx="11" ry="11" style="stroke: #A80036; stroke-width: 1.0;"/><path d="M128.7656,31.5156 Q128.9219,31.2969 129.1094,31.1875 Q129.2969,31.0781 129.5156,31.0781 Q129.8906,31.0781 130.125,31.3359 Q130.3594,31.5938 130.3594,32.2031 L130.3594,33.6563 Q130.3594,34.2656 130.125,34.5313 Q129.8906,34.7969 129.5156,34.7969 Q129.1719,34.7969 128.9688,34.5938 Q128.7656,34.4063 128.6563,33.8906 Q128.6094,33.5313 128.4219,33.3438 Q128.0938,32.9688 127.4844,32.75 Q126.875,32.5313 126.25,32.5313 Q125.4844,32.5313 124.8516,32.8594 Q124.2188,33.1875 123.7266,33.9375 Q123.2344,34.6875 123.2344,35.7188 L123.2344,36.8125 Q123.2344,38.0469 124.125,38.8672 Q125.0156,39.6875 126.6094,39.6875 Q127.5469,39.6875 128.2031,39.4375 Q128.5938,39.2813 129.0156,38.8438 Q129.2813,38.5781 129.4297,38.5 Q129.5781,38.4219 129.7813,38.4219 Q130.1094,38.4219 130.3672,38.6797 Q130.625,38.9375 130.625,39.2813 Q130.625,39.625 130.2813,40.0313 Q129.7813,40.6094 128.9844,40.9375 Q127.9063,41.3906 126.6094,41.3906 Q125.0938,41.3906 123.8906,40.7656 Q122.9063,40.2656 122.2188,39.1953 Q121.5313,38.125 121.5313,36.8438 L121.5313,35.6875 Q121.5313,34.3594 122.1484,33.2109 Q122.7656,32.0625 123.8594,31.4453 Q124.9531,30.8281 126.1875,30.8281 Q126.9219,30.8281 127.5703,30.9922 Q128.2188,31.1563 128.7656,31.5156 Z "/><text fill="#000000" font-family="sans-serif" font-size="12" font-style="italic" lengthAdjust="spacingAndGlyphs" textLength="44" x="237.5" y="25.457">«Entity»</text><text fill="#000000" font-family="sans-serif" font-size="14" font-weight="bold" lengthAdjust="spacingAndGlyphs" textLength="83" x="218" y="42.627">SystemUser</text><text fill="#000000" font-family="sans-serif" font-size="10" lengthAdjust="spacingAndGlyphs" textLength="239" x="140" y="56.084">eapli.framework.infrastructure.authz.domain.model</text></a><!--MD5=[81709ca2e56a4286a1fd76ee5fc86756]
class eapli.framework.infrastructure.authz.domain.model.SystemUserBuilder--><a href="../../../../../../eapli/framework/infrastructure/authz/domain/model/SystemUserBuilder.html" target="_parent" title="eapli.framework.infrastructure.authz.domain.model.SystemUserBuilder" xlink:actuate="onRequest" xlink:href="../../../../../../eapli/framework/infrastructure/authz/domain/model/SystemUserBuilder.html" xlink:show="new" xlink:title="eapli.framework.infrastructure.authz.domain.model.SystemUserBuilder" xlink:type="simple"><rect fill="#FEFECE" filter="url(#fzv7aup9ffd66)" height="40.1875" id="eapli.framework.infrastructure.authz.domain.model.SystemUserBuilder" style="stroke: #A80036; stroke-width: 1.5;" width="271" x="417" y="15.5"/><ellipse cx="432" cy="35.5938" fill="#ADD1B2" rx="11" ry="11" style="stroke: #A80036; stroke-width: 1.0;"/><path d="M434.7656,31.4688 Q434.9219,31.25 435.1094,31.1406 Q435.2969,31.0313 435.5156,31.0313 Q435.8906,31.0313 436.125,31.2891 Q436.3594,31.5469 436.3594,32.1563 L436.3594,33.6094 Q436.3594,34.2188 436.125,34.4844 Q435.8906,34.75 435.5156,34.75 Q435.1719,34.75 434.9688,34.5469 Q434.7656,34.3594 434.6563,33.8438 Q434.6094,33.4844 434.4219,33.2969 Q434.0938,32.9219 433.4844,32.7031 Q432.875,32.4844 432.25,32.4844 Q431.4844,32.4844 430.8516,32.8125 Q430.2188,33.1406 429.7266,33.8906 Q429.2344,34.6406 429.2344,35.6719 L429.2344,36.7656 Q429.2344,38 430.125,38.8203 Q431.0156,39.6406 432.6094,39.6406 Q433.5469,39.6406 434.2031,39.3906 Q434.5938,39.2344 435.0156,38.7969 Q435.2813,38.5313 435.4297,38.4531 Q435.5781,38.375 435.7813,38.375 Q436.1094,38.375 436.3672,38.6328 Q436.625,38.8906 436.625,39.2344 Q436.625,39.5781 436.2813,39.9844 Q435.7813,40.5625 434.9844,40.8906 Q433.9063,41.3438 432.6094,41.3438 Q431.0938,41.3438 429.8906,40.7188 Q428.9063,40.2188 428.2188,39.1484 Q427.5313,38.0781 427.5313,36.7969 L427.5313,35.6406 Q427.5313,34.3125 428.1484,33.1641 Q428.7656,32.0156 429.8594,31.3984 Q430.9531,30.7813 432.1875,30.7813 Q432.9219,30.7813 433.5703,30.9453 Q434.2188,31.1094 434.7656,31.4688 Z "/><text fill="#000000" font-family="sans-serif" font-size="14" font-weight="bold" lengthAdjust="spacingAndGlyphs" textLength="134" x="498.5" y="35.0332">SystemUserBuilder</text><text fill="#000000" font-family="sans-serif" font-size="10" lengthAdjust="spacingAndGlyphs" textLength="239" x="446" y="48.4902">eapli.framework.infrastructure.authz.domain.model</text></a><!--MD5=[ffff8ce420ca9e81984209e4a0c615b6]
link eapli.framework.infrastructure.authz.domain.model.RoleAssignment to eapli.framework.infrastructure.authz.domain.model.Role--><path d="M270.5,429.1406 C270.5,429.1406 270.5,483.7795 270.5,483.7795 " fill="none" id="eapli.framework.infrastructure.authz.domain.model.RoleAssignment-&gt;eapli.framework.infrastructure.authz.domain.model.Role" style="stroke: #A80036; stroke-width: 1.0;"/><polygon fill="#A80036" points="270.5,488.7795,274.5,479.7795,270.5,483.7795,266.5,479.7795,270.5,488.7795" style="stroke: #A80036; stroke-width: 1.0;"/><text fill="#000000" font-family="sans-serif" font-size="13" lengthAdjust="spacingAndGlyphs" textLength="25" x="279.7219" y="478.0089">type</text><!--MD5=[8f0c649857e7b749f6697a6b60f93038]
link eapli.framework.infrastructure.authz.domain.model.RoleAssignment to eapli.framework.domain.model.ValueObject--><path d="M399.5,429.1406 C399.5,429.1406 399.5,468.7795 399.5,468.7795 " fill="none" id="eapli.framework.infrastructure.authz.domain.model.RoleAssignment-&gt;eapli.framework.domain.model.ValueObject" style="stroke: #A80036; stroke-width: 1.0; stroke-dasharray: 7.0,7.0;"/><polygon fill="none" points="406.5,468.7795,399.5,488.7795,392.5,468.7795,406.5,468.7795" style="stroke: #A80036; stroke-width: 1.0;"/><!--MD5=[02136fec28913da9834ace1cc207167f]
link eapli.framework.infrastructure.authz.domain.model.RoleAssignment to java.io.Serializable--><path d="M528.25,429.1406 C528.25,429.1406 528.25,468.7795 528.25,468.7795 " fill="none" id="eapli.framework.infrastructure.authz.domain.model.RoleAssignment-&gt;java.io.Serializable" style="stroke: #A80036; stroke-width: 1.0; stroke-dasharray: 7.0,7.0;"/><polygon fill="none" points="535.25,468.7795,528.25,488.7795,521.25,468.7795,535.25,468.7795" style="stroke: #A80036; stroke-width: 1.0;"/><!--MD5=[fee9de460f6cf64c69c2a6aa265de2a1]
link eapli.framework.infrastructure.authz.domain.model.SystemUser to eapli.framework.infrastructure.authz.domain.model.RoleAssignment--><path d="M323,63.088 C323,63.088 323,117.738 323,117.738 " fill="none" id="eapli.framework.infrastructure.authz.domain.model.SystemUser-&gt;eapli.framework.infrastructure.authz.domain.model.RoleAssignment" style="stroke: #A80036; stroke-width: 1.0; stroke-dasharray: 7.0,7.0;"/><polygon fill="#A80036" points="323,122.738,327,113.738,323,117.738,319,113.738,323,122.738" style="stroke: #A80036; stroke-width: 1.0;"/><!--MD5=[cd5a04d08ace20dcab0a8efe3af162ea]
link eapli.framework.infrastructure.authz.domain.model.SystemUserBuilder to eapli.framework.infrastructure.authz.domain.model.RoleAssignment--><path d="M476,55.591 C476,55.591 476,117.723 476,117.723 " fill="none" id="eapli.framework.infrastructure.authz.domain.model.SystemUserBuilder-&gt;eapli.framework.infrastructure.authz.domain.model.RoleAssignment" style="stroke: #A80036; stroke-width: 1.0; stroke-dasharray: 7.0,7.0;"/><polygon fill="#A80036" points="476,122.723,480,113.723,476,117.723,472,113.723,476,122.723" style="stroke: #A80036; stroke-width: 1.0;"/><!--MD5=[d4d76ceaf9299b6c31dbbca0dfe6638e]
@startuml

skinparam svgLinkTarget _parent
skinparam linetype ortho
set namespaceSeparator none
class "<b><size:14>RoleAssignment</b>\n<size:10>eapli.framework.infrastructure.authz.domain.model" as eapli.framework.infrastructure.authz.domain.model.RoleAssignment <<Entity>> [[../../../../../../eapli/framework/infrastructure/authz/domain/model/RoleAssignment.html{eapli.framework.infrastructure.authz.domain.model.RoleAssignment}]] {
{static} -long serialVersionUID
-Long pk
-Role type
-Calendar assignedOn
-Calendar unassignedOn
-boolean expired
+RoleAssignment(Role type)
+RoleAssignment(Role type,Calendar assignedOn)
#RoleAssignment()
+Optional<Calendar> getUnassignedOn()
+boolean isExpired()
+boolean equals(Object o)
+int hashCode()
+String toString()
+Role type()
+boolean isOf(Role r)
+boolean unassign()
}


class "<b><size:14>Role</b>\n<size:10>eapli.framework.infrastructure.authz.domain.model" as eapli.framework.infrastructure.authz.domain.model.Role  [[../../../../../../eapli/framework/infrastructure/authz/domain/model/Role.html{eapli.framework.infrastructure.authz.domain.model.Role}]] {
}

hide eapli.framework.infrastructure.authz.domain.model.Role fields
hide eapli.framework.infrastructure.authz.domain.model.Role methods

eapli.framework.infrastructure.authz.domain.model.RoleAssignment - ->  "type" eapli.framework.infrastructure.authz.domain.model.Role



interface "<b><size:14>ValueObject</b>\n<size:10>eapli.framework.domain.model" as eapli.framework.domain.model.ValueObject  #lightgrey {
}

hide eapli.framework.domain.model.ValueObject fields
hide eapli.framework.domain.model.ValueObject methods

eapli.framework.infrastructure.authz.domain.model.RoleAssignment ..|> eapli.framework.domain.model.ValueObject

interface "<b><size:14>Serializable</b>\n<size:10>java.io" as java.io.Serializable  #lightgrey {
}

hide java.io.Serializable fields
hide java.io.Serializable methods

eapli.framework.infrastructure.authz.domain.model.RoleAssignment ..|> java.io.Serializable


class "<b><size:14>SystemUser</b>\n<size:10>eapli.framework.infrastructure.authz.domain.model" as eapli.framework.infrastructure.authz.domain.model.SystemUser <<Entity>> [[../../../../../../eapli/framework/infrastructure/authz/domain/model/SystemUser.html{eapli.framework.infrastructure.authz.domain.model.SystemUser}]] {
}

hide eapli.framework.infrastructure.authz.domain.model.SystemUser fields
hide eapli.framework.infrastructure.authz.domain.model.SystemUser methods

eapli.framework.infrastructure.authz.domain.model.SystemUser ..> eapli.framework.infrastructure.authz.domain.model.RoleAssignment

class "<b><size:14>SystemUserBuilder</b>\n<size:10>eapli.framework.infrastructure.authz.domain.model" as eapli.framework.infrastructure.authz.domain.model.SystemUserBuilder  [[../../../../../../eapli/framework/infrastructure/authz/domain/model/SystemUserBuilder.html{eapli.framework.infrastructure.authz.domain.model.SystemUserBuilder}]] {
}

hide eapli.framework.infrastructure.authz.domain.model.SystemUserBuilder fields
hide eapli.framework.infrastructure.authz.domain.model.SystemUserBuilder methods

eapli.framework.infrastructure.authz.domain.model.SystemUserBuilder ..> eapli.framework.infrastructure.authz.domain.model.RoleAssignment


@enduml

PlantUML version 1.2020.04(Thu Mar 19 10:16:49 GMT 2020)
(GPL source distribution)
Java Runtime: Java(TM) SE Runtime Environment
JVM: Java HotSpot(TM) 64-Bit Server VM
Java Version: 1.8.0_202-b08
Operating System: Windows 10
Default Encoding: Cp1252
Language: en
Country: US
--></g></svg>