@startuml

skinparam svgLinkTarget _parent
skinparam linetype ortho
set namespaceSeparator none
class "<b><size:14>SystemUser</b>\n<size:10>eapli.framework.infrastructure.authz.domain.model" as eapli.framework.infrastructure.authz.domain.model.SystemUser <<Entity>> [[../../../../../../eapli/framework/infrastructure/authz/domain/model/SystemUser.html{eapli.framework.infrastructure.authz.domain.model.SystemUser}]] {
{static} -long serialVersionUID
-Long version
-Username username
-Password password
-Name name
-EmailAddress email
-RoleSet roles
-Calendar createdOn
-boolean active
-Calendar deactivatedOn
-String resetToken
#SystemUser()
~SystemUser(Username username,Password password,Name name,EmailAddress email,Set<Role> roles)
~SystemUser(Username username,Password password,Name name,EmailAddress email,Set<Role> roles,Calendar createdOn)
~SystemUser(Username username,Password password,Name name,EmailAddress email,RoleSet roles)
~SystemUser(Username username,Password password,Name name,EmailAddress email,RoleSet roles,Calendar createdOn)
+boolean sameAs(Object other)
+Username identity()
+EmailAddress email()
+void assignToRole(RoleAssignment role)
+void assignToRole(Role role)
+boolean unassignRole(Role role)
+Collection<Role> roleTypes()
+GeneralDTO toDTO()
+boolean passwordMatches(String rawPassword,PasswordEncoder encoder)
+void accept(Visitor<GeneralDTO> visitor)
+Username username()
+Name name()
+boolean isActive()
+void deactivate(Calendar deactivatedOn)
+int hashCode()
+boolean equals(Object other)
+void changePassword(Password newPassword)
+String resetPassword()
+boolean confirmResetPassword(String token,Password newPass)
+boolean hasAny(Role roles)
+boolean hasAll(Role roles)
+Calendar createdOn()
~String encodedPassword()
-void init(Username username,Password password,Name name,EmailAddress email,RoleSet roles,Calendar createdOn)
-void invalidateResetToken()
}


class "<b><size:14>AuthenticationService</b>\n<size:10>eapli.framework.infrastructure.authz.application" as eapli.framework.infrastructure.authz.application.AuthenticationService <<Component>> [[../../../../../../eapli/framework/infrastructure/authz/application/AuthenticationService.html{eapli.framework.infrastructure.authz.application.AuthenticationService}]] #white {
}

hide eapli.framework.infrastructure.authz.application.AuthenticationService fields
hide eapli.framework.infrastructure.authz.application.AuthenticationService methods

eapli.framework.infrastructure.authz.application.AuthenticationService ..> eapli.framework.infrastructure.authz.domain.model.SystemUser


class "<b><size:14>UnauthorizedException</b>\n<size:10>eapli.framework.infrastructure.authz.application.exceptions" as eapli.framework.infrastructure.authz.application.exceptions.UnauthorizedException  [[../../../../../../eapli/framework/infrastructure/authz/application/exceptions/UnauthorizedException.html{eapli.framework.infrastructure.authz.application.exceptions.UnauthorizedException}]] #white {
}

hide eapli.framework.infrastructure.authz.application.exceptions.UnauthorizedException fields
hide eapli.framework.infrastructure.authz.application.exceptions.UnauthorizedException methods

eapli.framework.infrastructure.authz.application.exceptions.UnauthorizedException -->  "user" eapli.framework.infrastructure.authz.domain.model.SystemUser

class "<b><size:14>UserManagementService</b>\n<size:10>eapli.framework.infrastructure.authz.application" as eapli.framework.infrastructure.authz.application.UserManagementService <<Component>> [[../../../../../../eapli/framework/infrastructure/authz/application/UserManagementService.html{eapli.framework.infrastructure.authz.application.UserManagementService}]] #white {
}

hide eapli.framework.infrastructure.authz.application.UserManagementService fields
hide eapli.framework.infrastructure.authz.application.UserManagementService methods

eapli.framework.infrastructure.authz.application.UserManagementService ..> eapli.framework.infrastructure.authz.domain.model.SystemUser

class "<b><size:14>UserSession</b>\n<size:10>eapli.framework.infrastructure.authz.application" as eapli.framework.infrastructure.authz.application.UserSession  [[../../../../../../eapli/framework/infrastructure/authz/application/UserSession.html{eapli.framework.infrastructure.authz.application.UserSession}]] #white {
}

hide eapli.framework.infrastructure.authz.application.UserSession fields
hide eapli.framework.infrastructure.authz.application.UserSession methods

eapli.framework.infrastructure.authz.application.UserSession -->  "user" eapli.framework.infrastructure.authz.domain.model.SystemUser

class "<b><size:14>Username</b>\n<size:10>eapli.framework.infrastructure.authz.domain.model" as eapli.framework.infrastructure.authz.domain.model.Username <<Embeddable>> [[../../../../../../eapli/framework/infrastructure/authz/domain/model/Username.html{eapli.framework.infrastructure.authz.domain.model.Username}]] {
}

hide eapli.framework.infrastructure.authz.domain.model.Username fields
hide eapli.framework.infrastructure.authz.domain.model.Username methods

eapli.framework.infrastructure.authz.domain.model.SystemUser -->  "username" eapli.framework.infrastructure.authz.domain.model.Username

class "<b><size:14>Password</b>\n<size:10>eapli.framework.infrastructure.authz.domain.model" as eapli.framework.infrastructure.authz.domain.model.Password <<Embeddable>> [[../../../../../../eapli/framework/infrastructure/authz/domain/model/Password.html{eapli.framework.infrastructure.authz.domain.model.Password}]] {
}

hide eapli.framework.infrastructure.authz.domain.model.Password fields
hide eapli.framework.infrastructure.authz.domain.model.Password methods

eapli.framework.infrastructure.authz.domain.model.SystemUser -->  "password" eapli.framework.infrastructure.authz.domain.model.Password

class "<b><size:14>Name</b>\n<size:10>eapli.framework.infrastructure.authz.domain.model" as eapli.framework.infrastructure.authz.domain.model.Name <<Embeddable>> [[../../../../../../eapli/framework/infrastructure/authz/domain/model/Name.html{eapli.framework.infrastructure.authz.domain.model.Name}]] {
}

hide eapli.framework.infrastructure.authz.domain.model.Name fields
hide eapli.framework.infrastructure.authz.domain.model.Name methods

eapli.framework.infrastructure.authz.domain.model.SystemUser -->  "name" eapli.framework.infrastructure.authz.domain.model.Name

class "<b><size:14>EmailAddress</b>\n<size:10>eapli.framework.domain.model.general" as eapli.framework.domain.model.general.EmailAddress <<Embeddable>><<JsonAutoDetect>> #lightgrey {
}

hide eapli.framework.domain.model.general.EmailAddress fields
hide eapli.framework.domain.model.general.EmailAddress methods

eapli.framework.infrastructure.authz.domain.model.SystemUser -->  "email" eapli.framework.domain.model.general.EmailAddress

class "<b><size:14>RoleSet</b>\n<size:10>eapli.framework.infrastructure.authz.domain.model" as eapli.framework.infrastructure.authz.domain.model.RoleSet <<Entity>> [[../../../../../../eapli/framework/infrastructure/authz/domain/model/RoleSet.html{eapli.framework.infrastructure.authz.domain.model.RoleSet}]] {
}

hide eapli.framework.infrastructure.authz.domain.model.RoleSet fields
hide eapli.framework.infrastructure.authz.domain.model.RoleSet methods

eapli.framework.infrastructure.authz.domain.model.SystemUser -->  "roles" eapli.framework.infrastructure.authz.domain.model.RoleSet



interface "<b><size:14>AggregateRoot<Username></b>\n<size:10>eapli.framework.domain.model" as eapli.framework.domain.model.AggregateRootUsername  #lightgrey {
}

hide eapli.framework.domain.model.AggregateRootUsername fields
hide eapli.framework.domain.model.AggregateRootUsername methods

eapli.framework.infrastructure.authz.domain.model.SystemUser ..|> eapli.framework.domain.model.AggregateRootUsername

interface "<b><size:14>DTOable<GeneralDTO></b>\n<size:10>eapli.framework.representations.dto" as eapli.framework.representations.dto.DTOableGeneralDTO <<FunctionalInterface>> #lightgrey {
}

hide eapli.framework.representations.dto.DTOableGeneralDTO fields
hide eapli.framework.representations.dto.DTOableGeneralDTO methods

eapli.framework.infrastructure.authz.domain.model.SystemUser ..|> eapli.framework.representations.dto.DTOableGeneralDTO

class "<b><size:14>GeneralDTO</b>\n<size:10>eapli.framework.representations.dto" as eapli.framework.representations.dto.GeneralDTO  #lightgrey {
}

hide eapli.framework.representations.dto.GeneralDTO fields
hide eapli.framework.representations.dto.GeneralDTO methods

eapli.framework.infrastructure.authz.domain.model.SystemUser ..> eapli.framework.representations.dto.GeneralDTO

interface "<b><size:14>Visitable<GeneralDTO></b>\n<size:10>eapli.framework.visitor" as eapli.framework.visitor.VisitableGeneralDTO <<FunctionalInterface>> #lightgrey {
}

hide eapli.framework.visitor.VisitableGeneralDTO fields
hide eapli.framework.visitor.VisitableGeneralDTO methods

eapli.framework.infrastructure.authz.domain.model.SystemUser ..|> eapli.framework.visitor.VisitableGeneralDTO

interface "<b><size:14>Serializable</b>\n<size:10>java.io" as java.io.Serializable  #lightgrey {
}

hide java.io.Serializable fields
hide java.io.Serializable methods

eapli.framework.infrastructure.authz.domain.model.SystemUser ..|> java.io.Serializable


class "<b><size:14>Role</b>\n<size:10>eapli.framework.infrastructure.authz.domain.model" as eapli.framework.infrastructure.authz.domain.model.Role  [[../../../../../../eapli/framework/infrastructure/authz/domain/model/Role.html{eapli.framework.infrastructure.authz.domain.model.Role}]] {
}

hide eapli.framework.infrastructure.authz.domain.model.Role fields
hide eapli.framework.infrastructure.authz.domain.model.Role methods

eapli.framework.infrastructure.authz.domain.model.SystemUser ..> eapli.framework.infrastructure.authz.domain.model.Role

class "<b><size:14>RoleAssignment</b>\n<size:10>eapli.framework.infrastructure.authz.domain.model" as eapli.framework.infrastructure.authz.domain.model.RoleAssignment <<Entity>> [[../../../../../../eapli/framework/infrastructure/authz/domain/model/RoleAssignment.html{eapli.framework.infrastructure.authz.domain.model.RoleAssignment}]] {
}

hide eapli.framework.infrastructure.authz.domain.model.RoleAssignment fields
hide eapli.framework.infrastructure.authz.domain.model.RoleAssignment methods

eapli.framework.infrastructure.authz.domain.model.SystemUser ..> eapli.framework.infrastructure.authz.domain.model.RoleAssignment


interface "<b><size:14>PasswordEncoder</b>\n<size:10>org.springframework.security.crypto.password" as org.springframework.security.crypto.password.PasswordEncoder  #lightgrey {
}

hide org.springframework.security.crypto.password.PasswordEncoder fields
hide org.springframework.security.crypto.password.PasswordEncoder methods

eapli.framework.infrastructure.authz.domain.model.SystemUser ..> org.springframework.security.crypto.password.PasswordEncoder

interface "<b><size:14>Visitor<GeneralDTO></b>\n<size:10>eapli.framework.visitor" as eapli.framework.visitor.VisitorGeneralDTO <<FunctionalInterface>> #lightgrey {
}

hide eapli.framework.visitor.VisitorGeneralDTO fields
hide eapli.framework.visitor.VisitorGeneralDTO methods

eapli.framework.infrastructure.authz.domain.model.SystemUser ..> eapli.framework.visitor.VisitorGeneralDTO

class "<b><size:14>SystemUserBuilder</b>\n<size:10>eapli.framework.infrastructure.authz.domain.model" as eapli.framework.infrastructure.authz.domain.model.SystemUserBuilder  [[../../../../../../eapli/framework/infrastructure/authz/domain/model/SystemUserBuilder.html{eapli.framework.infrastructure.authz.domain.model.SystemUserBuilder}]] {
}

hide eapli.framework.infrastructure.authz.domain.model.SystemUserBuilder fields
hide eapli.framework.infrastructure.authz.domain.model.SystemUserBuilder methods

eapli.framework.infrastructure.authz.domain.model.SystemUserBuilder ..> eapli.framework.infrastructure.authz.domain.model.SystemUser

class "<b><size:14>SystemUserDetails</b>\n<size:10>eapli.framework.infrastructure.authz.domain.model" as eapli.framework.infrastructure.authz.domain.model.SystemUserDetails  [[../../../../../../eapli/framework/infrastructure/authz/domain/model/SystemUserDetails.html{eapli.framework.infrastructure.authz.domain.model.SystemUserDetails}]] {
}

hide eapli.framework.infrastructure.authz.domain.model.SystemUserDetails fields
hide eapli.framework.infrastructure.authz.domain.model.SystemUserDetails methods

eapli.framework.infrastructure.authz.domain.model.SystemUserDetails ..> eapli.framework.infrastructure.authz.domain.model.SystemUser

interface "<b><size:14>UserRepository</b>\n<size:10>eapli.framework.infrastructure.authz.domain.repositories" as eapli.framework.infrastructure.authz.domain.repositories.UserRepository  [[../../../../../../eapli/framework/infrastructure/authz/domain/repositories/UserRepository.html{eapli.framework.infrastructure.authz.domain.repositories.UserRepository}]] #white {
}

hide eapli.framework.infrastructure.authz.domain.repositories.UserRepository fields
hide eapli.framework.infrastructure.authz.domain.repositories.UserRepository methods

eapli.framework.infrastructure.authz.domain.repositories.UserRepository ..> eapli.framework.infrastructure.authz.domain.model.SystemUser

class "<b><size:14>InMemoryUserRepository</b>\n<size:10>eapli.framework.infrastructure.authz.repositories.impl" as eapli.framework.infrastructure.authz.repositories.impl.InMemoryUserRepository  [[../../../../../../eapli/framework/infrastructure/authz/repositories/impl/InMemoryUserRepository.html{eapli.framework.infrastructure.authz.repositories.impl.InMemoryUserRepository}]] #white {
}

hide eapli.framework.infrastructure.authz.repositories.impl.InMemoryUserRepository fields
hide eapli.framework.infrastructure.authz.repositories.impl.InMemoryUserRepository methods

eapli.framework.infrastructure.authz.repositories.impl.InMemoryUserRepository ..> eapli.framework.infrastructure.authz.domain.model.SystemUser

class "<b><size:14>JpaAutoTxUserRepository</b>\n<size:10>eapli.framework.infrastructure.authz.repositories.impl" as eapli.framework.infrastructure.authz.repositories.impl.JpaAutoTxUserRepository  [[../../../../../../eapli/framework/infrastructure/authz/repositories/impl/JpaAutoTxUserRepository.html{eapli.framework.infrastructure.authz.repositories.impl.JpaAutoTxUserRepository}]] #white {
}

hide eapli.framework.infrastructure.authz.repositories.impl.JpaAutoTxUserRepository fields
hide eapli.framework.infrastructure.authz.repositories.impl.JpaAutoTxUserRepository methods

eapli.framework.infrastructure.authz.repositories.impl.JpaAutoTxUserRepository ..> eapli.framework.infrastructure.authz.domain.model.SystemUser

interface "<b><size:14>SpringDataUserRepository</b>\n<size:10>eapli.framework.infrastructure.authz.repositories.impl" as eapli.framework.infrastructure.authz.repositories.impl.SpringDataUserRepository  [[../../../../../../eapli/framework/infrastructure/authz/repositories/impl/SpringDataUserRepository.html{eapli.framework.infrastructure.authz.repositories.impl.SpringDataUserRepository}]] #white {
}

hide eapli.framework.infrastructure.authz.repositories.impl.SpringDataUserRepository fields
hide eapli.framework.infrastructure.authz.repositories.impl.SpringDataUserRepository methods

eapli.framework.infrastructure.authz.repositories.impl.SpringDataUserRepository ..> eapli.framework.infrastructure.authz.domain.model.SystemUser


@enduml
