<?xml version="1.0" encoding="UTF-8" standalone="no"?><svg xmlns="http://www.w3.org/2000/svg" xmlns:xlink="http://www.w3.org/1999/xlink" contentScriptType="application/ecmascript" contentStyleType="text/css" height="565px" preserveAspectRatio="none" style="width:3393px;height:565px;" version="1.1" viewBox="0 0 3393 565" width="3393px" zoomAndPan="magnify"><defs><filter height="300%" id="fo9fakx574cr" width="300%" x="-1" y="-1"><feGaussianBlur result="blurOut" stdDeviation="2.0"/><feColorMatrix in="blurOut" result="blurOut2" type="matrix" values="0 0 0 0 0 0 0 0 0 0 0 0 0 0 0 0 0 0 .4 0"/><feOffset dx="4.0" dy="4.0" in="blurOut2" result="blurOut3"/><feBlend in="SourceGraphic" in2="blurOut3" mode="normal"/></filter></defs><g><!--MD5=[81709ca2e56a4286a1fd76ee5fc86756]
class eapli.framework.infrastructure.authz.domain.model.SystemUserBuilder--><a href="../../../../../../eapli/framework/infrastructure/authz/domain/model/SystemUserBuilder.html" target="_parent" title="eapli.framework.infrastructure.authz.domain.model.SystemUserBuilder" xlink:actuate="onRequest" xlink:href="../../../../../../eapli/framework/infrastructure/authz/domain/model/SystemUserBuilder.html" xlink:show="new" xlink:title="eapli.framework.infrastructure.authz.domain.model.SystemUserBuilder" xlink:type="simple"><rect fill="#FEFECE" filter="url(#fo9fakx574cr)" height="415.9219" id="eapli.framework.infrastructure.authz.domain.model.SystemUserBuilder" style="stroke: #A80036; stroke-width: 1.5;" width="530" x="1381" y="8"/><ellipse cx="1522.25" cy="28.0938" fill="#ADD1B2" rx="11" ry="11" style="stroke: #A80036; stroke-width: 1.0;"/><path d="M1525.0156,23.9688 Q1525.1719,23.75 1525.3594,23.6406 Q1525.5469,23.5313 1525.7656,23.5313 Q1526.1406,23.5313 1526.375,23.7891 Q1526.6094,24.0469 1526.6094,24.6563 L1526.6094,26.1094 Q1526.6094,26.7188 1526.375,26.9844 Q1526.1406,27.25 1525.7656,27.25 Q1525.4219,27.25 1525.2188,27.0469 Q1525.0156,26.8594 1524.9063,26.3438 Q1524.8594,25.9844 1524.6719,25.7969 Q1524.3438,25.4219 1523.7344,25.2031 Q1523.125,24.9844 1522.5,24.9844 Q1521.7344,24.9844 1521.1016,25.3125 Q1520.4688,25.6406 1519.9766,26.3906 Q1519.4844,27.1406 1519.4844,28.1719 L1519.4844,29.2656 Q1519.4844,30.5 1520.375,31.3203 Q1521.2656,32.1406 1522.8594,32.1406 Q1523.7969,32.1406 1524.4531,31.8906 Q1524.8438,31.7344 1525.2656,31.2969 Q1525.5313,31.0313 1525.6797,30.9531 Q1525.8281,30.875 1526.0313,30.875 Q1526.3594,30.875 1526.6172,31.1328 Q1526.875,31.3906 1526.875,31.7344 Q1526.875,32.0781 1526.5313,32.4844 Q1526.0313,33.0625 1525.2344,33.3906 Q1524.1563,33.8438 1522.8594,33.8438 Q1521.3438,33.8438 1520.1406,33.2188 Q1519.1563,32.7188 1518.4688,31.6484 Q1517.7813,30.5781 1517.7813,29.2969 L1517.7813,28.1406 Q1517.7813,26.8125 1518.3984,25.6641 Q1519.0156,24.5156 1520.1094,23.8984 Q1521.2031,23.2813 1522.4375,23.2813 Q1523.1719,23.2813 1523.8203,23.4453 Q1524.4688,23.6094 1525.0156,23.9688 Z "/><text fill="#000000" font-family="sans-serif" font-size="14" font-weight="bold" lengthAdjust="spacingAndGlyphs" textLength="134" x="1595.25" y="27.5332">SystemUserBuilder</text><text fill="#000000" font-family="sans-serif" font-size="10" lengthAdjust="spacingAndGlyphs" textLength="239" x="1542.75" y="40.9902">eapli.framework.infrastructure.authz.domain.model</text><line style="stroke: #A80036; stroke-width: 1.5;" x1="1382" x2="1910" y1="48.1875" y2="48.1875"/><rect fill="none" height="6" style="stroke: #C82930; stroke-width: 1.0;" width="6" x="1389" y="56.1875"/><text fill="#000000" font-family="sans-serif" font-size="11" lengthAdjust="spacingAndGlyphs" text-decoration="underline" textLength="80" x="1401" y="63.6064">Logger LOGGER</text><rect fill="none" height="6" style="stroke: #C82930; stroke-width: 1.0;" width="6" x="1389" y="70.0234"/><text fill="#000000" font-family="sans-serif" font-size="11" lengthAdjust="spacingAndGlyphs" textLength="100" x="1401" y="77.4424">Username username</text><rect fill="none" height="6" style="stroke: #C82930; stroke-width: 1.0;" width="6" x="1389" y="83.8594"/><text fill="#000000" font-family="sans-serif" font-size="11" lengthAdjust="spacingAndGlyphs" textLength="103" x="1401" y="91.2783">Password password</text><rect fill="none" height="6" style="stroke: #C82930; stroke-width: 1.0;" width="6" x="1389" y="97.6953"/><text fill="#000000" font-family="sans-serif" font-size="11" lengthAdjust="spacingAndGlyphs" textLength="56" x="1401" y="105.1143">Name name</text><rect fill="none" height="6" style="stroke: #C82930; stroke-width: 1.0;" width="6" x="1389" y="111.5313"/><text fill="#000000" font-family="sans-serif" font-size="11" lengthAdjust="spacingAndGlyphs" textLength="93" x="1401" y="118.9502">EmailAddress email</text><rect fill="none" height="6" style="stroke: #C82930; stroke-width: 1.0;" width="6" x="1389" y="125.3672"/><text fill="#000000" font-family="sans-serif" font-size="11" lengthAdjust="spacingAndGlyphs" textLength="97" x="1401" y="132.7861">Calendar createdOn</text><rect fill="none" height="6" style="stroke: #C82930; stroke-width: 1.0;" width="6" x="1389" y="139.2031"/><text fill="#000000" font-family="sans-serif" font-size="11" lengthAdjust="spacingAndGlyphs" textLength="64" x="1401" y="146.6221">RoleSet roles</text><rect fill="none" height="6" style="stroke: #C82930; stroke-width: 1.0;" width="6" x="1389" y="153.0391"/><text fill="#000000" font-family="sans-serif" font-size="11" lengthAdjust="spacingAndGlyphs" textLength="109" x="1401" y="160.458">PasswordPolicy policy</text><rect fill="none" height="6" style="stroke: #C82930; stroke-width: 1.0;" width="6" x="1389" y="166.875"/><text fill="#000000" font-family="sans-serif" font-size="11" lengthAdjust="spacingAndGlyphs" textLength="133" x="1401" y="174.2939">PasswordEncoder encoder</text><line style="stroke: #A80036; stroke-width: 1.5;" x1="1382" x2="1910" y1="180.7109" y2="180.7109"/><ellipse cx="1392" cy="191.7109" fill="#84BE84" rx="3" ry="3" style="stroke: #038048; stroke-width: 1.0;"/><text fill="#000000" font-family="sans-serif" font-size="11" lengthAdjust="spacingAndGlyphs" textLength="345" x="1401" y="196.1299">SystemUserBuilder(PasswordPolicy policy,PasswordEncoder encoder)</text><ellipse cx="1392" cy="205.5469" fill="#84BE84" rx="3" ry="3" style="stroke: #038048; stroke-width: 1.0;"/><text fill="#000000" font-family="sans-serif" font-size="11" lengthAdjust="spacingAndGlyphs" textLength="504" x="1401" y="209.9658">SystemUserBuilder with(String userName,String password,String firstName,String lastName,String email)</text><ellipse cx="1392" cy="219.3828" fill="#84BE84" rx="3" ry="3" style="stroke: #038048; stroke-width: 1.0;"/><text fill="#000000" font-family="sans-serif" font-size="11" lengthAdjust="spacingAndGlyphs" textLength="485" x="1401" y="223.8018">SystemUserBuilder with(Username username,Password password,Name name,EmailAddress email)</text><ellipse cx="1392" cy="233.2188" fill="#84BE84" rx="3" ry="3" style="stroke: #038048; stroke-width: 1.0;"/><text fill="#000000" font-family="sans-serif" font-size="11" lengthAdjust="spacingAndGlyphs" textLength="252" x="1401" y="237.6377">SystemUserBuilder withUsername(String username)</text><ellipse cx="1392" cy="247.0547" fill="#84BE84" rx="3" ry="3" style="stroke: #038048; stroke-width: 1.0;"/><text fill="#000000" font-family="sans-serif" font-size="11" lengthAdjust="spacingAndGlyphs" textLength="273" x="1401" y="251.4736">SystemUserBuilder withUsername(Username username)</text><ellipse cx="1392" cy="260.8906" fill="#84BE84" rx="3" ry="3" style="stroke: #038048; stroke-width: 1.0;"/><text fill="#000000" font-family="sans-serif" font-size="11" lengthAdjust="spacingAndGlyphs" textLength="275" x="1401" y="265.3096">SystemUserBuilder withPassword(String rawPassword)</text><ellipse cx="1392" cy="274.7266" fill="#84BE84" rx="3" ry="3" style="stroke: #038048; stroke-width: 1.0;"/><text fill="#000000" font-family="sans-serif" font-size="11" lengthAdjust="spacingAndGlyphs" textLength="277" x="1401" y="279.1455">SystemUserBuilder withPassword(Password password)</text><ellipse cx="1392" cy="288.5625" fill="#84BE84" rx="3" ry="3" style="stroke: #038048; stroke-width: 1.0;"/><text fill="#000000" font-family="sans-serif" font-size="11" lengthAdjust="spacingAndGlyphs" textLength="306" x="1401" y="292.9814">SystemUserBuilder withName(String firstName,String lastName)</text><ellipse cx="1392" cy="302.3984" fill="#84BE84" rx="3" ry="3" style="stroke: #038048; stroke-width: 1.0;"/><text fill="#000000" font-family="sans-serif" font-size="11" lengthAdjust="spacingAndGlyphs" textLength="207" x="1401" y="306.8174">SystemUserBuilder withName(Name name)</text><ellipse cx="1392" cy="316.2344" fill="#84BE84" rx="3" ry="3" style="stroke: #038048; stroke-width: 1.0;"/><text fill="#000000" font-family="sans-serif" font-size="11" lengthAdjust="spacingAndGlyphs" textLength="203" x="1401" y="320.6533">SystemUserBuilder withEmail(String email)</text><ellipse cx="1392" cy="330.0703" fill="#84BE84" rx="3" ry="3" style="stroke: #038048; stroke-width: 1.0;"/><text fill="#000000" font-family="sans-serif" font-size="11" lengthAdjust="spacingAndGlyphs" textLength="241" x="1401" y="334.4893">SystemUserBuilder withEmail(EmailAddress email)</text><ellipse cx="1392" cy="343.9063" fill="#84BE84" rx="3" ry="3" style="stroke: #038048; stroke-width: 1.0;"/><text fill="#000000" font-family="sans-serif" font-size="11" lengthAdjust="spacingAndGlyphs" textLength="236" x="1401" y="348.3252">SystemUserBuilder withRoles(Role onlyWithThis)</text><ellipse cx="1392" cy="357.7422" fill="#84BE84" rx="3" ry="3" style="stroke: #038048; stroke-width: 1.0;"/><text fill="#000000" font-family="sans-serif" font-size="11" lengthAdjust="spacingAndGlyphs" textLength="244" x="1401" y="362.1611">SystemUserBuilder withRole(RoleAssignment role)</text><ellipse cx="1392" cy="371.5781" fill="#84BE84" rx="3" ry="3" style="stroke: #038048; stroke-width: 1.0;"/><text fill="#000000" font-family="sans-serif" font-size="11" lengthAdjust="spacingAndGlyphs" textLength="251" x="1401" y="375.9971">SystemUserBuilder createdOn(Calendar createdOn)</text><ellipse cx="1392" cy="385.4141" fill="#84BE84" rx="3" ry="3" style="stroke: #038048; stroke-width: 1.0;"/><text fill="#000000" font-family="sans-serif" font-size="11" lengthAdjust="spacingAndGlyphs" textLength="256" x="1401" y="389.833">SystemUserBuilder withRoles(Set&lt;Role&gt; someRoles)</text><ellipse cx="1392" cy="399.25" fill="#84BE84" rx="3" ry="3" style="stroke: #038048; stroke-width: 1.0;"/><text fill="#000000" font-family="sans-serif" font-size="11" lengthAdjust="spacingAndGlyphs" textLength="215" x="1401" y="403.6689">SystemUserBuilder withRoles(RoleSet roles)</text><ellipse cx="1392" cy="413.0859" fill="#84BE84" rx="3" ry="3" style="stroke: #038048; stroke-width: 1.0;"/><text fill="#000000" font-family="sans-serif" font-size="11" lengthAdjust="spacingAndGlyphs" textLength="92" x="1401" y="417.5049">SystemUser build()</text></a><!--MD5=[9b5987ca9b0081d7a678ca8727dd3b0c]
class org.apache.logging.log4j.Logger--><rect fill="#D3D3D3" filter="url(#fo9fakx574cr)" height="40.1875" id="org.apache.logging.log4j.Logger" style="stroke: #A80036; stroke-width: 1.5;" width="150" x="6" y="499"/><rect fill="#D3D3D3" height="40.1875" style="stroke: #A80036; stroke-width: 1.5;" width="150" x="6" y="499"/><ellipse cx="21" cy="519.0938" fill="#B4A7E5" rx="11" ry="11" style="stroke: #A80036; stroke-width: 1.0;"/><path d="M21.9531,515.7344 L21.9531,522.3906 L23.6719,522.3906 Q24.2813,522.3906 24.5469,522.625 Q24.8125,522.8594 24.8125,523.25 Q24.8125,523.625 24.5469,523.8594 Q24.2813,524.0938 23.6719,524.0938 L18.5313,524.0938 Q17.9219,524.0938 17.6563,523.8594 Q17.3906,523.625 17.3906,523.2344 Q17.3906,522.8594 17.6563,522.625 Q17.9219,522.3906 18.5313,522.3906 L20.25,522.3906 L20.25,515.7344 L18.5313,515.7344 Q17.9219,515.7344 17.6563,515.5 Q17.3906,515.2656 17.3906,514.875 Q17.3906,514.5 17.6563,514.2656 Q17.9219,514.0313 18.5313,514.0313 L23.6719,514.0313 Q24.2813,514.0313 24.5469,514.2656 Q24.8125,514.5 24.8125,514.875 Q24.8125,515.2656 24.5469,515.5 Q24.2813,515.7344 23.6719,515.7344 L21.9531,515.7344 Z "/><text fill="#000000" font-family="sans-serif" font-size="14" font-style="italic" font-weight="bold" lengthAdjust="spacingAndGlyphs" textLength="46" x="71" y="518.5332">Logger</text><text fill="#000000" font-family="sans-serif" font-size="10" font-style="italic" lengthAdjust="spacingAndGlyphs" textLength="118" x="35" y="531.9902">org.apache.logging.log4j</text><!--MD5=[ad21e501eaaa768189704de17b30410a]
class eapli.framework.infrastructure.authz.domain.model.Username--><a href="../../../../../../eapli/framework/infrastructure/authz/domain/model/Username.html" target="_parent" title="eapli.framework.infrastructure.authz.domain.model.Username" xlink:actuate="onRequest" xlink:href="../../../../../../eapli/framework/infrastructure/authz/domain/model/Username.html" xlink:show="new" xlink:title="eapli.framework.infrastructure.authz.domain.model.Username" xlink:type="simple"><rect fill="#FEFECE" filter="url(#fo9fakx574cr)" height="55.2813" id="eapli.framework.infrastructure.authz.domain.model.Username" style="stroke: #A80036; stroke-width: 1.5;" width="271" x="191.5" y="491.5"/><ellipse cx="206.5" cy="519.1406" fill="#ADD1B2" rx="11" ry="11" style="stroke: #A80036; stroke-width: 1.0;"/><path d="M209.2656,515.0156 Q209.4219,514.7969 209.6094,514.6875 Q209.7969,514.5781 210.0156,514.5781 Q210.3906,514.5781 210.625,514.8359 Q210.8594,515.0938 210.8594,515.7031 L210.8594,517.1563 Q210.8594,517.7656 210.625,518.0313 Q210.3906,518.2969 210.0156,518.2969 Q209.6719,518.2969 209.4688,518.0938 Q209.2656,517.9063 209.1563,517.3906 Q209.1094,517.0313 208.9219,516.8438 Q208.5938,516.4688 207.9844,516.25 Q207.375,516.0313 206.75,516.0313 Q205.9844,516.0313 205.3516,516.3594 Q204.7188,516.6875 204.2266,517.4375 Q203.7344,518.1875 203.7344,519.2188 L203.7344,520.3125 Q203.7344,521.5469 204.625,522.3672 Q205.5156,523.1875 207.1094,523.1875 Q208.0469,523.1875 208.7031,522.9375 Q209.0938,522.7813 209.5156,522.3438 Q209.7813,522.0781 209.9297,522 Q210.0781,521.9219 210.2813,521.9219 Q210.6094,521.9219 210.8672,522.1797 Q211.125,522.4375 211.125,522.7813 Q211.125,523.125 210.7813,523.5313 Q210.2813,524.1094 209.4844,524.4375 Q208.4063,524.8906 207.1094,524.8906 Q205.5938,524.8906 204.3906,524.2656 Q203.4063,523.7656 202.7188,522.6953 Q202.0313,521.625 202.0313,520.3438 L202.0313,519.1875 Q202.0313,517.8594 202.6484,516.7109 Q203.2656,515.5625 204.3594,514.9453 Q205.4531,514.3281 206.6875,514.3281 Q207.4219,514.3281 208.0703,514.4922 Q208.7188,514.6563 209.2656,515.0156 Z "/><text fill="#000000" font-family="sans-serif" font-size="12" font-style="italic" lengthAdjust="spacingAndGlyphs" textLength="87" x="296.5" y="508.957">«Embeddable»</text><text fill="#000000" font-family="sans-serif" font-size="14" font-weight="bold" lengthAdjust="spacingAndGlyphs" textLength="71" x="304.5" y="526.127">Username</text><text fill="#000000" font-family="sans-serif" font-size="10" lengthAdjust="spacingAndGlyphs" textLength="239" x="220.5" y="539.584">eapli.framework.infrastructure.authz.domain.model</text></a><!--MD5=[f07a31dd61b58f60956d00c5eaae004e]
class eapli.framework.infrastructure.authz.domain.model.Password--><a href="../../../../../../eapli/framework/infrastructure/authz/domain/model/Password.html" target="_parent" title="eapli.framework.infrastructure.authz.domain.model.Password" xlink:actuate="onRequest" xlink:href="../../../../../../eapli/framework/infrastructure/authz/domain/model/Password.html" xlink:show="new" xlink:title="eapli.framework.infrastructure.authz.domain.model.Password" xlink:type="simple"><rect fill="#FEFECE" filter="url(#fo9fakx574cr)" height="55.2813" id="eapli.framework.infrastructure.authz.domain.model.Password" style="stroke: #A80036; stroke-width: 1.5;" width="271" x="497.5" y="491.5"/><ellipse cx="512.5" cy="519.1406" fill="#ADD1B2" rx="11" ry="11" style="stroke: #A80036; stroke-width: 1.0;"/><path d="M515.2656,515.0156 Q515.4219,514.7969 515.6094,514.6875 Q515.7969,514.5781 516.0156,514.5781 Q516.3906,514.5781 516.625,514.8359 Q516.8594,515.0938 516.8594,515.7031 L516.8594,517.1563 Q516.8594,517.7656 516.625,518.0313 Q516.3906,518.2969 516.0156,518.2969 Q515.6719,518.2969 515.4688,518.0938 Q515.2656,517.9063 515.1563,517.3906 Q515.1094,517.0313 514.9219,516.8438 Q514.5938,516.4688 513.9844,516.25 Q513.375,516.0313 512.75,516.0313 Q511.9844,516.0313 511.3516,516.3594 Q510.7188,516.6875 510.2266,517.4375 Q509.7344,518.1875 509.7344,519.2188 L509.7344,520.3125 Q509.7344,521.5469 510.625,522.3672 Q511.5156,523.1875 513.1094,523.1875 Q514.0469,523.1875 514.7031,522.9375 Q515.0938,522.7813 515.5156,522.3438 Q515.7813,522.0781 515.9297,522 Q516.0781,521.9219 516.2813,521.9219 Q516.6094,521.9219 516.8672,522.1797 Q517.125,522.4375 517.125,522.7813 Q517.125,523.125 516.7813,523.5313 Q516.2813,524.1094 515.4844,524.4375 Q514.4063,524.8906 513.1094,524.8906 Q511.5938,524.8906 510.3906,524.2656 Q509.4063,523.7656 508.7188,522.6953 Q508.0313,521.625 508.0313,520.3438 L508.0313,519.1875 Q508.0313,517.8594 508.6484,516.7109 Q509.2656,515.5625 510.3594,514.9453 Q511.4531,514.3281 512.6875,514.3281 Q513.4219,514.3281 514.0703,514.4922 Q514.7188,514.6563 515.2656,515.0156 Z "/><text fill="#000000" font-family="sans-serif" font-size="12" font-style="italic" lengthAdjust="spacingAndGlyphs" textLength="87" x="602.5" y="508.957">«Embeddable»</text><text fill="#000000" font-family="sans-serif" font-size="14" font-weight="bold" lengthAdjust="spacingAndGlyphs" textLength="68" x="612" y="526.127">Password</text><text fill="#000000" font-family="sans-serif" font-size="10" lengthAdjust="spacingAndGlyphs" textLength="239" x="526.5" y="539.584">eapli.framework.infrastructure.authz.domain.model</text></a><!--MD5=[e22d64acf1afc283c3a9095fdf30c101]
class eapli.framework.infrastructure.authz.domain.model.Name--><a href="../../../../../../eapli/framework/infrastructure/authz/domain/model/Name.html" target="_parent" title="eapli.framework.infrastructure.authz.domain.model.Name" xlink:actuate="onRequest" xlink:href="../../../../../../eapli/framework/infrastructure/authz/domain/model/Name.html" xlink:show="new" xlink:title="eapli.framework.infrastructure.authz.domain.model.Name" xlink:type="simple"><rect fill="#FEFECE" filter="url(#fo9fakx574cr)" height="55.2813" id="eapli.framework.infrastructure.authz.domain.model.Name" style="stroke: #A80036; stroke-width: 1.5;" width="271" x="803.5" y="491.5"/><ellipse cx="818.5" cy="519.1406" fill="#ADD1B2" rx="11" ry="11" style="stroke: #A80036; stroke-width: 1.0;"/><path d="M821.2656,515.0156 Q821.4219,514.7969 821.6094,514.6875 Q821.7969,514.5781 822.0156,514.5781 Q822.3906,514.5781 822.625,514.8359 Q822.8594,515.0938 822.8594,515.7031 L822.8594,517.1563 Q822.8594,517.7656 822.625,518.0313 Q822.3906,518.2969 822.0156,518.2969 Q821.6719,518.2969 821.4688,518.0938 Q821.2656,517.9063 821.1563,517.3906 Q821.1094,517.0313 820.9219,516.8438 Q820.5938,516.4688 819.9844,516.25 Q819.375,516.0313 818.75,516.0313 Q817.9844,516.0313 817.3516,516.3594 Q816.7188,516.6875 816.2266,517.4375 Q815.7344,518.1875 815.7344,519.2188 L815.7344,520.3125 Q815.7344,521.5469 816.625,522.3672 Q817.5156,523.1875 819.1094,523.1875 Q820.0469,523.1875 820.7031,522.9375 Q821.0938,522.7813 821.5156,522.3438 Q821.7813,522.0781 821.9297,522 Q822.0781,521.9219 822.2813,521.9219 Q822.6094,521.9219 822.8672,522.1797 Q823.125,522.4375 823.125,522.7813 Q823.125,523.125 822.7813,523.5313 Q822.2813,524.1094 821.4844,524.4375 Q820.4063,524.8906 819.1094,524.8906 Q817.5938,524.8906 816.3906,524.2656 Q815.4063,523.7656 814.7188,522.6953 Q814.0313,521.625 814.0313,520.3438 L814.0313,519.1875 Q814.0313,517.8594 814.6484,516.7109 Q815.2656,515.5625 816.3594,514.9453 Q817.4531,514.3281 818.6875,514.3281 Q819.4219,514.3281 820.0703,514.4922 Q820.7188,514.6563 821.2656,515.0156 Z "/><text fill="#000000" font-family="sans-serif" font-size="12" font-style="italic" lengthAdjust="spacingAndGlyphs" textLength="87" x="908.5" y="508.957">«Embeddable»</text><text fill="#000000" font-family="sans-serif" font-size="14" font-weight="bold" lengthAdjust="spacingAndGlyphs" textLength="39" x="932.5" y="526.127">Name</text><text fill="#000000" font-family="sans-serif" font-size="10" lengthAdjust="spacingAndGlyphs" textLength="239" x="832.5" y="539.584">eapli.framework.infrastructure.authz.domain.model</text></a><!--MD5=[5dbe542d7fef8f0e760be2be31075356]
class eapli.framework.domain.model.general.EmailAddress--><rect fill="#D3D3D3" filter="url(#fo9fakx574cr)" height="70.375" id="eapli.framework.domain.model.general.EmailAddress" style="stroke: #A80036; stroke-width: 1.5;" width="217" x="1109.5" y="484"/><rect fill="#D3D3D3" height="70.375" style="stroke: #A80036; stroke-width: 1.5;" width="217" x="1109.5" y="484"/><ellipse cx="1124.5" cy="519.1875" fill="#ADD1B2" rx="11" ry="11" style="stroke: #A80036; stroke-width: 1.0;"/><path d="M1127.2656,515.0625 Q1127.4219,514.8438 1127.6094,514.7344 Q1127.7969,514.625 1128.0156,514.625 Q1128.3906,514.625 1128.625,514.8828 Q1128.8594,515.1406 1128.8594,515.75 L1128.8594,517.2031 Q1128.8594,517.8125 1128.625,518.0781 Q1128.3906,518.3438 1128.0156,518.3438 Q1127.6719,518.3438 1127.4688,518.1406 Q1127.2656,517.9531 1127.1563,517.4375 Q1127.1094,517.0781 1126.9219,516.8906 Q1126.5938,516.5156 1125.9844,516.2969 Q1125.375,516.0781 1124.75,516.0781 Q1123.9844,516.0781 1123.3516,516.4063 Q1122.7188,516.7344 1122.2266,517.4844 Q1121.7344,518.2344 1121.7344,519.2656 L1121.7344,520.3594 Q1121.7344,521.5938 1122.625,522.4141 Q1123.5156,523.2344 1125.1094,523.2344 Q1126.0469,523.2344 1126.7031,522.9844 Q1127.0938,522.8281 1127.5156,522.3906 Q1127.7813,522.125 1127.9297,522.0469 Q1128.0781,521.9688 1128.2813,521.9688 Q1128.6094,521.9688 1128.8672,522.2266 Q1129.125,522.4844 1129.125,522.8281 Q1129.125,523.1719 1128.7813,523.5781 Q1128.2813,524.1563 1127.4844,524.4844 Q1126.4063,524.9375 1125.1094,524.9375 Q1123.5938,524.9375 1122.3906,524.3125 Q1121.4063,523.8125 1120.7188,522.7422 Q1120.0313,521.6719 1120.0313,520.3906 L1120.0313,519.2344 Q1120.0313,517.9063 1120.6484,516.7578 Q1121.2656,515.6094 1122.3594,514.9922 Q1123.4531,514.375 1124.6875,514.375 Q1125.4219,514.375 1126.0703,514.5391 Q1126.7188,514.7031 1127.2656,515.0625 Z "/><text fill="#000000" font-family="sans-serif" font-size="12" font-style="italic" lengthAdjust="spacingAndGlyphs" textLength="87" x="1187.5" y="501.457">«Embeddable»</text><text fill="#000000" font-family="sans-serif" font-size="12" font-style="italic" lengthAdjust="spacingAndGlyphs" textLength="100" x="1181" y="516.5508">«JsonAutoDetect»</text><text fill="#000000" font-family="sans-serif" font-size="14" font-weight="bold" lengthAdjust="spacingAndGlyphs" textLength="95" x="1183.5" y="533.7207">EmailAddress</text><text fill="#000000" font-family="sans-serif" font-size="10" lengthAdjust="spacingAndGlyphs" textLength="185" x="1138.5" y="547.1777">eapli.framework.domain.model.general</text><!--MD5=[aaa229be8a160ae3ad8c728fffa36277]
class eapli.framework.infrastructure.authz.domain.model.RoleSet--><a href="../../../../../../eapli/framework/infrastructure/authz/domain/model/RoleSet.html" target="_parent" title="eapli.framework.infrastructure.authz.domain.model.RoleSet" xlink:actuate="onRequest" xlink:href="../../../../../../eapli/framework/infrastructure/authz/domain/model/RoleSet.html" xlink:show="new" xlink:title="eapli.framework.infrastructure.authz.domain.model.RoleSet" xlink:type="simple"><rect fill="#FEFECE" filter="url(#fo9fakx574cr)" height="55.2813" id="eapli.framework.infrastructure.authz.domain.model.RoleSet" style="stroke: #A80036; stroke-width: 1.5;" width="271" x="1361.5" y="491.5"/><ellipse cx="1376.5" cy="519.1406" fill="#ADD1B2" rx="11" ry="11" style="stroke: #A80036; stroke-width: 1.0;"/><path d="M1379.2656,515.0156 Q1379.4219,514.7969 1379.6094,514.6875 Q1379.7969,514.5781 1380.0156,514.5781 Q1380.3906,514.5781 1380.625,514.8359 Q1380.8594,515.0938 1380.8594,515.7031 L1380.8594,517.1563 Q1380.8594,517.7656 1380.625,518.0313 Q1380.3906,518.2969 1380.0156,518.2969 Q1379.6719,518.2969 1379.4688,518.0938 Q1379.2656,517.9063 1379.1563,517.3906 Q1379.1094,517.0313 1378.9219,516.8438 Q1378.5938,516.4688 1377.9844,516.25 Q1377.375,516.0313 1376.75,516.0313 Q1375.9844,516.0313 1375.3516,516.3594 Q1374.7188,516.6875 1374.2266,517.4375 Q1373.7344,518.1875 1373.7344,519.2188 L1373.7344,520.3125 Q1373.7344,521.5469 1374.625,522.3672 Q1375.5156,523.1875 1377.1094,523.1875 Q1378.0469,523.1875 1378.7031,522.9375 Q1379.0938,522.7813 1379.5156,522.3438 Q1379.7813,522.0781 1379.9297,522 Q1380.0781,521.9219 1380.2813,521.9219 Q1380.6094,521.9219 1380.8672,522.1797 Q1381.125,522.4375 1381.125,522.7813 Q1381.125,523.125 1380.7813,523.5313 Q1380.2813,524.1094 1379.4844,524.4375 Q1378.4063,524.8906 1377.1094,524.8906 Q1375.5938,524.8906 1374.3906,524.2656 Q1373.4063,523.7656 1372.7188,522.6953 Q1372.0313,521.625 1372.0313,520.3438 L1372.0313,519.1875 Q1372.0313,517.8594 1372.6484,516.7109 Q1373.2656,515.5625 1374.3594,514.9453 Q1375.4531,514.3281 1376.6875,514.3281 Q1377.4219,514.3281 1378.0703,514.4922 Q1378.7188,514.6563 1379.2656,515.0156 Z "/><text fill="#000000" font-family="sans-serif" font-size="12" font-style="italic" lengthAdjust="spacingAndGlyphs" textLength="44" x="1488" y="508.957">«Entity»</text><text fill="#000000" font-family="sans-serif" font-size="14" font-weight="bold" lengthAdjust="spacingAndGlyphs" textLength="55" x="1482.5" y="526.127">RoleSet</text><text fill="#000000" font-family="sans-serif" font-size="10" lengthAdjust="spacingAndGlyphs" textLength="239" x="1390.5" y="539.584">eapli.framework.infrastructure.authz.domain.model</text></a><!--MD5=[d2b6c15f0de031a4c231aa17e09fd21b]
class eapli.framework.infrastructure.authz.application.PasswordPolicy--><a href="../../../../../../eapli/framework/infrastructure/authz/application/PasswordPolicy.html" target="_parent" title="eapli.framework.infrastructure.authz.application.PasswordPolicy" xlink:actuate="onRequest" xlink:href="../../../../../../eapli/framework/infrastructure/authz/application/PasswordPolicy.html" xlink:show="new" xlink:title="eapli.framework.infrastructure.authz.application.PasswordPolicy" xlink:type="simple"><rect fill="#FFFFFF" filter="url(#fo9fakx574cr)" height="55.2813" id="eapli.framework.infrastructure.authz.application.PasswordPolicy" style="stroke: #A80036; stroke-width: 1.5;" width="255" x="1667.5" y="491.5"/><rect fill="#FFFFFF" height="55.2813" style="stroke: #A80036; stroke-width: 1.5;" width="255" x="1667.5" y="491.5"/><ellipse cx="1682.5" cy="519.1406" fill="#B4A7E5" rx="11" ry="11" style="stroke: #A80036; stroke-width: 1.0;"/><path d="M1683.4531,515.7813 L1683.4531,522.4375 L1685.1719,522.4375 Q1685.7813,522.4375 1686.0469,522.6719 Q1686.3125,522.9063 1686.3125,523.2969 Q1686.3125,523.6719 1686.0469,523.9063 Q1685.7813,524.1406 1685.1719,524.1406 L1680.0313,524.1406 Q1679.4219,524.1406 1679.1563,523.9063 Q1678.8906,523.6719 1678.8906,523.2813 Q1678.8906,522.9063 1679.1563,522.6719 Q1679.4219,522.4375 1680.0313,522.4375 L1681.75,522.4375 L1681.75,515.7813 L1680.0313,515.7813 Q1679.4219,515.7813 1679.1563,515.5469 Q1678.8906,515.3125 1678.8906,514.9219 Q1678.8906,514.5469 1679.1563,514.3125 Q1679.4219,514.0781 1680.0313,514.0781 L1685.1719,514.0781 Q1685.7813,514.0781 1686.0469,514.3125 Q1686.3125,514.5469 1686.3125,514.9219 Q1686.3125,515.3125 1686.0469,515.5469 Q1685.7813,515.7813 1685.1719,515.7813 L1683.4531,515.7813 Z "/><text fill="#000000" font-family="sans-serif" font-size="12" font-style="italic" lengthAdjust="spacingAndGlyphs" textLength="119" x="1748.5" y="508.957">«FunctionalInterface»</text><text fill="#000000" font-family="sans-serif" font-size="14" font-style="italic" font-weight="bold" lengthAdjust="spacingAndGlyphs" textLength="104" x="1756" y="526.127">PasswordPolicy</text><text fill="#000000" font-family="sans-serif" font-size="10" font-style="italic" lengthAdjust="spacingAndGlyphs" textLength="223" x="1696.5" y="539.584">eapli.framework.infrastructure.authz.application</text></a><!--MD5=[f157ecc4364305d9e087d9c5c147f523]
class org.springframework.security.crypto.password.PasswordEncoder--><rect fill="#D3D3D3" filter="url(#fo9fakx574cr)" height="40.1875" id="org.springframework.security.crypto.password.PasswordEncoder" style="stroke: #A80036; stroke-width: 1.5;" width="244" x="1958" y="499"/><rect fill="#D3D3D3" height="40.1875" style="stroke: #A80036; stroke-width: 1.5;" width="244" x="1958" y="499"/><ellipse cx="1973" cy="519.0938" fill="#B4A7E5" rx="11" ry="11" style="stroke: #A80036; stroke-width: 1.0;"/><path d="M1973.9531,515.7344 L1973.9531,522.3906 L1975.6719,522.3906 Q1976.2813,522.3906 1976.5469,522.625 Q1976.8125,522.8594 1976.8125,523.25 Q1976.8125,523.625 1976.5469,523.8594 Q1976.2813,524.0938 1975.6719,524.0938 L1970.5313,524.0938 Q1969.9219,524.0938 1969.6563,523.8594 Q1969.3906,523.625 1969.3906,523.2344 Q1969.3906,522.8594 1969.6563,522.625 Q1969.9219,522.3906 1970.5313,522.3906 L1972.25,522.3906 L1972.25,515.7344 L1970.5313,515.7344 Q1969.9219,515.7344 1969.6563,515.5 Q1969.3906,515.2656 1969.3906,514.875 Q1969.3906,514.5 1969.6563,514.2656 Q1969.9219,514.0313 1970.5313,514.0313 L1975.6719,514.0313 Q1976.2813,514.0313 1976.5469,514.2656 Q1976.8125,514.5 1976.8125,514.875 Q1976.8125,515.2656 1976.5469,515.5 Q1976.2813,515.7344 1975.6719,515.7344 L1973.9531,515.7344 Z "/><text fill="#000000" font-family="sans-serif" font-size="14" font-style="italic" font-weight="bold" lengthAdjust="spacingAndGlyphs" textLength="120" x="2033" y="518.5332">PasswordEncoder</text><text fill="#000000" font-family="sans-serif" font-size="10" font-style="italic" lengthAdjust="spacingAndGlyphs" textLength="212" x="1987" y="531.9902">org.springframework.security.crypto.password</text><!--MD5=[b3f1d99fd8d90701be06b1e1f26a019f]
class eapli.framework.domain.model.DomainFactorySystemUser--><rect fill="#D3D3D3" filter="url(#fo9fakx574cr)" height="55.2813" id="eapli.framework.domain.model.DomainFactorySystemUser" style="stroke: #A80036; stroke-width: 1.5;" width="227" x="2237.5" y="491.5"/><rect fill="#D3D3D3" height="55.2813" style="stroke: #A80036; stroke-width: 1.5;" width="227" x="2237.5" y="491.5"/><ellipse cx="2252.5" cy="519.1406" fill="#B4A7E5" rx="11" ry="11" style="stroke: #A80036; stroke-width: 1.0;"/><path d="M2253.4531,515.7813 L2253.4531,522.4375 L2255.1719,522.4375 Q2255.7813,522.4375 2256.0469,522.6719 Q2256.3125,522.9063 2256.3125,523.2969 Q2256.3125,523.6719 2256.0469,523.9063 Q2255.7813,524.1406 2255.1719,524.1406 L2250.0313,524.1406 Q2249.4219,524.1406 2249.1563,523.9063 Q2248.8906,523.6719 2248.8906,523.2813 Q2248.8906,522.9063 2249.1563,522.6719 Q2249.4219,522.4375 2250.0313,522.4375 L2251.75,522.4375 L2251.75,515.7813 L2250.0313,515.7813 Q2249.4219,515.7813 2249.1563,515.5469 Q2248.8906,515.3125 2248.8906,514.9219 Q2248.8906,514.5469 2249.1563,514.3125 Q2249.4219,514.0781 2250.0313,514.0781 L2255.1719,514.0781 Q2255.7813,514.0781 2256.0469,514.3125 Q2256.3125,514.5469 2256.3125,514.9219 Q2256.3125,515.3125 2256.0469,515.5469 Q2255.7813,515.7813 2255.1719,515.7813 L2253.4531,515.7813 Z "/><text fill="#000000" font-family="sans-serif" font-size="12" font-style="italic" lengthAdjust="spacingAndGlyphs" textLength="119" x="2304.5" y="508.957">«FunctionalInterface»</text><text fill="#000000" font-family="sans-serif" font-size="14" font-style="italic" font-weight="bold" lengthAdjust="spacingAndGlyphs" textLength="195" x="2266.5" y="526.127">DomainFactory&lt;SystemUser&gt;</text><text fill="#000000" font-family="sans-serif" font-size="10" font-style="italic" lengthAdjust="spacingAndGlyphs" textLength="142" x="2293" y="539.584">eapli.framework.domain.model</text><!--MD5=[9d1258bf87405b8ab48e8caec849a2cc]
class eapli.framework.infrastructure.authz.domain.model.SystemUser--><a href="../../../../../../eapli/framework/infrastructure/authz/domain/model/SystemUser.html" target="_parent" title="eapli.framework.infrastructure.authz.domain.model.SystemUser" xlink:actuate="onRequest" xlink:href="../../../../../../eapli/framework/infrastructure/authz/domain/model/SystemUser.html" xlink:show="new" xlink:title="eapli.framework.infrastructure.authz.domain.model.SystemUser" xlink:type="simple"><rect fill="#FEFECE" filter="url(#fo9fakx574cr)" height="55.2813" id="eapli.framework.infrastructure.authz.domain.model.SystemUser" style="stroke: #A80036; stroke-width: 1.5;" width="271" x="2499.5" y="491.5"/><ellipse cx="2514.5" cy="519.1406" fill="#ADD1B2" rx="11" ry="11" style="stroke: #A80036; stroke-width: 1.0;"/><path d="M2517.2656,515.0156 Q2517.4219,514.7969 2517.6094,514.6875 Q2517.7969,514.5781 2518.0156,514.5781 Q2518.3906,514.5781 2518.625,514.8359 Q2518.8594,515.0938 2518.8594,515.7031 L2518.8594,517.1563 Q2518.8594,517.7656 2518.625,518.0313 Q2518.3906,518.2969 2518.0156,518.2969 Q2517.6719,518.2969 2517.4688,518.0938 Q2517.2656,517.9063 2517.1563,517.3906 Q2517.1094,517.0313 2516.9219,516.8438 Q2516.5938,516.4688 2515.9844,516.25 Q2515.375,516.0313 2514.75,516.0313 Q2513.9844,516.0313 2513.3516,516.3594 Q2512.7188,516.6875 2512.2266,517.4375 Q2511.7344,518.1875 2511.7344,519.2188 L2511.7344,520.3125 Q2511.7344,521.5469 2512.625,522.3672 Q2513.5156,523.1875 2515.1094,523.1875 Q2516.0469,523.1875 2516.7031,522.9375 Q2517.0938,522.7813 2517.5156,522.3438 Q2517.7813,522.0781 2517.9297,522 Q2518.0781,521.9219 2518.2813,521.9219 Q2518.6094,521.9219 2518.8672,522.1797 Q2519.125,522.4375 2519.125,522.7813 Q2519.125,523.125 2518.7813,523.5313 Q2518.2813,524.1094 2517.4844,524.4375 Q2516.4063,524.8906 2515.1094,524.8906 Q2513.5938,524.8906 2512.3906,524.2656 Q2511.4063,523.7656 2510.7188,522.6953 Q2510.0313,521.625 2510.0313,520.3438 L2510.0313,519.1875 Q2510.0313,517.8594 2510.6484,516.7109 Q2511.2656,515.5625 2512.3594,514.9453 Q2513.4531,514.3281 2514.6875,514.3281 Q2515.4219,514.3281 2516.0703,514.4922 Q2516.7188,514.6563 2517.2656,515.0156 Z "/><text fill="#000000" font-family="sans-serif" font-size="12" font-style="italic" lengthAdjust="spacingAndGlyphs" textLength="44" x="2626" y="508.957">«Entity»</text><text fill="#000000" font-family="sans-serif" font-size="14" font-weight="bold" lengthAdjust="spacingAndGlyphs" textLength="83" x="2606.5" y="526.127">SystemUser</text><text fill="#000000" font-family="sans-serif" font-size="10" lengthAdjust="spacingAndGlyphs" textLength="239" x="2528.5" y="539.584">eapli.framework.infrastructure.authz.domain.model</text></a><!--MD5=[c26f16576204fd8cd6313e06a213bd12]
class eapli.framework.infrastructure.authz.domain.model.Role--><a href="../../../../../../eapli/framework/infrastructure/authz/domain/model/Role.html" target="_parent" title="eapli.framework.infrastructure.authz.domain.model.Role" xlink:actuate="onRequest" xlink:href="../../../../../../eapli/framework/infrastructure/authz/domain/model/Role.html" xlink:show="new" xlink:title="eapli.framework.infrastructure.authz.domain.model.Role" xlink:type="simple"><rect fill="#FEFECE" filter="url(#fo9fakx574cr)" height="40.1875" id="eapli.framework.infrastructure.authz.domain.model.Role" style="stroke: #A80036; stroke-width: 1.5;" width="271" x="2805.5" y="499"/><ellipse cx="2820.5" cy="519.0938" fill="#ADD1B2" rx="11" ry="11" style="stroke: #A80036; stroke-width: 1.0;"/><path d="M2823.2656,514.9688 Q2823.4219,514.75 2823.6094,514.6406 Q2823.7969,514.5313 2824.0156,514.5313 Q2824.3906,514.5313 2824.625,514.7891 Q2824.8594,515.0469 2824.8594,515.6563 L2824.8594,517.1094 Q2824.8594,517.7188 2824.625,517.9844 Q2824.3906,518.25 2824.0156,518.25 Q2823.6719,518.25 2823.4688,518.0469 Q2823.2656,517.8594 2823.1563,517.3438 Q2823.1094,516.9844 2822.9219,516.7969 Q2822.5938,516.4219 2821.9844,516.2031 Q2821.375,515.9844 2820.75,515.9844 Q2819.9844,515.9844 2819.3516,516.3125 Q2818.7188,516.6406 2818.2266,517.3906 Q2817.7344,518.1406 2817.7344,519.1719 L2817.7344,520.2656 Q2817.7344,521.5 2818.625,522.3203 Q2819.5156,523.1406 2821.1094,523.1406 Q2822.0469,523.1406 2822.7031,522.8906 Q2823.0938,522.7344 2823.5156,522.2969 Q2823.7813,522.0313 2823.9297,521.9531 Q2824.0781,521.875 2824.2813,521.875 Q2824.6094,521.875 2824.8672,522.1328 Q2825.125,522.3906 2825.125,522.7344 Q2825.125,523.0781 2824.7813,523.4844 Q2824.2813,524.0625 2823.4844,524.3906 Q2822.4063,524.8438 2821.1094,524.8438 Q2819.5938,524.8438 2818.3906,524.2188 Q2817.4063,523.7188 2816.7188,522.6484 Q2816.0313,521.5781 2816.0313,520.2969 L2816.0313,519.1406 Q2816.0313,517.8125 2816.6484,516.6641 Q2817.2656,515.5156 2818.3594,514.8984 Q2819.4531,514.2813 2820.6875,514.2813 Q2821.4219,514.2813 2822.0703,514.4453 Q2822.7188,514.6094 2823.2656,514.9688 Z "/><text fill="#000000" font-family="sans-serif" font-size="14" font-weight="bold" lengthAdjust="spacingAndGlyphs" textLength="32" x="2938" y="518.5332">Role</text><text fill="#000000" font-family="sans-serif" font-size="10" lengthAdjust="spacingAndGlyphs" textLength="239" x="2834.5" y="531.9902">eapli.framework.infrastructure.authz.domain.model</text></a><!--MD5=[1111c01c3997217d0401ab2880b6fb1d]
class eapli.framework.infrastructure.authz.domain.model.RoleAssignment--><a href="../../../../../../eapli/framework/infrastructure/authz/domain/model/RoleAssignment.html" target="_parent" title="eapli.framework.infrastructure.authz.domain.model.RoleAssignment" xlink:actuate="onRequest" xlink:href="../../../../../../eapli/framework/infrastructure/authz/domain/model/RoleAssignment.html" xlink:show="new" xlink:title="eapli.framework.infrastructure.authz.domain.model.RoleAssignment" xlink:type="simple"><rect fill="#FEFECE" filter="url(#fo9fakx574cr)" height="55.2813" id="eapli.framework.infrastructure.authz.domain.model.RoleAssignment" style="stroke: #A80036; stroke-width: 1.5;" width="271" x="3111.5" y="491.5"/><ellipse cx="3126.5" cy="519.1406" fill="#ADD1B2" rx="11" ry="11" style="stroke: #A80036; stroke-width: 1.0;"/><path d="M3129.2656,515.0156 Q3129.4219,514.7969 3129.6094,514.6875 Q3129.7969,514.5781 3130.0156,514.5781 Q3130.3906,514.5781 3130.625,514.8359 Q3130.8594,515.0938 3130.8594,515.7031 L3130.8594,517.1563 Q3130.8594,517.7656 3130.625,518.0313 Q3130.3906,518.2969 3130.0156,518.2969 Q3129.6719,518.2969 3129.4688,518.0938 Q3129.2656,517.9063 3129.1563,517.3906 Q3129.1094,517.0313 3128.9219,516.8438 Q3128.5938,516.4688 3127.9844,516.25 Q3127.375,516.0313 3126.75,516.0313 Q3125.9844,516.0313 3125.3516,516.3594 Q3124.7188,516.6875 3124.2266,517.4375 Q3123.7344,518.1875 3123.7344,519.2188 L3123.7344,520.3125 Q3123.7344,521.5469 3124.625,522.3672 Q3125.5156,523.1875 3127.1094,523.1875 Q3128.0469,523.1875 3128.7031,522.9375 Q3129.0938,522.7813 3129.5156,522.3438 Q3129.7813,522.0781 3129.9297,522 Q3130.0781,521.9219 3130.2813,521.9219 Q3130.6094,521.9219 3130.8672,522.1797 Q3131.125,522.4375 3131.125,522.7813 Q3131.125,523.125 3130.7813,523.5313 Q3130.2813,524.1094 3129.4844,524.4375 Q3128.4063,524.8906 3127.1094,524.8906 Q3125.5938,524.8906 3124.3906,524.2656 Q3123.4063,523.7656 3122.7188,522.6953 Q3122.0313,521.625 3122.0313,520.3438 L3122.0313,519.1875 Q3122.0313,517.8594 3122.6484,516.7109 Q3123.2656,515.5625 3124.3594,514.9453 Q3125.4531,514.3281 3126.6875,514.3281 Q3127.4219,514.3281 3128.0703,514.4922 Q3128.7188,514.6563 3129.2656,515.0156 Z "/><text fill="#000000" font-family="sans-serif" font-size="12" font-style="italic" lengthAdjust="spacingAndGlyphs" textLength="44" x="3238" y="508.957">«Entity»</text><text fill="#000000" font-family="sans-serif" font-size="14" font-weight="bold" lengthAdjust="spacingAndGlyphs" textLength="114" x="3203" y="526.127">RoleAssignment</text><text fill="#000000" font-family="sans-serif" font-size="10" lengthAdjust="spacingAndGlyphs" textLength="239" x="3140.5" y="539.584">eapli.framework.infrastructure.authz.domain.model</text></a><!--MD5=[4c0d7390eb50deabe4decb96bd9271f8]
link eapli.framework.infrastructure.authz.domain.model.SystemUserBuilder to org.apache.logging.log4j.Logger--><path d="M1380.96,92 C934.582,92 81,92 81,92 C81,92 81,493.9776 81,493.9776 " fill="none" id="eapli.framework.infrastructure.authz.domain.model.SystemUserBuilder-&gt;org.apache.logging.log4j.Logger" style="stroke: #A80036; stroke-width: 1.0;"/><polygon fill="#A80036" points="81,498.9776,85,489.9776,81,493.9776,77,489.9776,81,498.9776" style="stroke: #A80036; stroke-width: 1.0;"/><text fill="#000000" font-family="sans-serif" font-size="13" lengthAdjust="spacingAndGlyphs" textLength="55" x="17.9219" y="488.2652">LOGGER</text><!--MD5=[3fff75fc802825e50811e3d03057d320]
link eapli.framework.infrastructure.authz.domain.model.SystemUserBuilder to eapli.framework.infrastructure.authz.domain.model.Username--><path d="M1380.67,175 C995.498,175 327,175 327,175 C327,175 327,486.4305 327,486.4305 " fill="none" id="eapli.framework.infrastructure.authz.domain.model.SystemUserBuilder-&gt;eapli.framework.infrastructure.authz.domain.model.Username" style="stroke: #A80036; stroke-width: 1.0;"/><polygon fill="#A80036" points="327,491.4305,331,482.4305,327,486.4305,323,482.4305,327,491.4305" style="stroke: #A80036; stroke-width: 1.0;"/><text fill="#000000" font-family="sans-serif" font-size="13" lengthAdjust="spacingAndGlyphs" textLength="57" x="263.4094" y="480.7083">username</text><!--MD5=[dcb84205167c50329f179c1753607b1d]
link eapli.framework.infrastructure.authz.domain.model.SystemUserBuilder to eapli.framework.infrastructure.authz.domain.model.Password--><path d="M1380.84,258 C1080.7,258 633,258 633,258 C633,258 633,486.0684 633,486.0684 " fill="none" id="eapli.framework.infrastructure.authz.domain.model.SystemUserBuilder-&gt;eapli.framework.infrastructure.authz.domain.model.Password" style="stroke: #A80036; stroke-width: 1.0;"/><polygon fill="#A80036" points="633,491.0684,637,482.0684,633,486.0684,629,482.0684,633,491.0684" style="stroke: #A80036; stroke-width: 1.0;"/><text fill="#000000" font-family="sans-serif" font-size="13" lengthAdjust="spacingAndGlyphs" textLength="55" x="571.9844" y="480.7112">password</text><!--MD5=[8a8d7ff59314317602ea6f510917073a]
link eapli.framework.infrastructure.authz.domain.model.SystemUserBuilder to eapli.framework.infrastructure.authz.domain.model.Name--><path d="M1380.98,341 C1180.32,341 939,341 939,341 C939,341 939,486.1875 939,486.1875 " fill="none" id="eapli.framework.infrastructure.authz.domain.model.SystemUserBuilder-&gt;eapli.framework.infrastructure.authz.domain.model.Name" style="stroke: #A80036; stroke-width: 1.0;"/><polygon fill="#A80036" points="939,491.1875,943,482.1875,939,486.1875,935,482.1875,939,491.1875" style="stroke: #A80036; stroke-width: 1.0;"/><text fill="#000000" font-family="sans-serif" font-size="13" lengthAdjust="spacingAndGlyphs" textLength="32" x="903.5" y="480.8563">name</text><!--MD5=[64af1cd051056497a52689f96fd0064c]
link eapli.framework.infrastructure.authz.domain.model.SystemUserBuilder to eapli.framework.domain.model.general.EmailAddress--><path d="M1464.83,424.228 C1464.83,461.1044 1464.83,488 1464.83,488 C1464.83,488 1331.62,488 1331.62,488 " fill="none" id="eapli.framework.infrastructure.authz.domain.model.SystemUserBuilder-&gt;eapli.framework.domain.model.general.EmailAddress" style="stroke: #A80036; stroke-width: 1.0;"/><polygon fill="#A80036" points="1326.62,488,1335.62,492,1331.62,488,1335.62,484,1326.62,488" style="stroke: #A80036; stroke-width: 1.0;"/><text fill="#000000" font-family="sans-serif" font-size="13" lengthAdjust="spacingAndGlyphs" textLength="31" x="1326.0771" y="480.5988">email</text><!--MD5=[7e48279e0fe5aa0fba25eaa3ef7dd60b]
link eapli.framework.infrastructure.authz.domain.model.SystemUserBuilder to eapli.framework.infrastructure.authz.domain.model.RoleSet--><path d="M1548.67,424.375 C1548.67,424.375 1548.67,486.4421 1548.67,486.4421 " fill="none" id="eapli.framework.infrastructure.authz.domain.model.SystemUserBuilder-&gt;eapli.framework.infrastructure.authz.domain.model.RoleSet" style="stroke: #A80036; stroke-width: 1.0;"/><polygon fill="#A80036" points="1548.67,491.4421,1552.67,482.4421,1548.67,486.4421,1544.67,482.4421,1548.67,491.4421" style="stroke: #A80036; stroke-width: 1.0;"/><text fill="#000000" font-family="sans-serif" font-size="13" lengthAdjust="spacingAndGlyphs" textLength="28" x="1529.3812" y="480.7226">roles</text><!--MD5=[a6fa9bf842a7a672c75038762679925e]
link eapli.framework.infrastructure.authz.domain.model.SystemUserBuilder to eapli.framework.infrastructure.authz.application.PasswordPolicy--><path d="M1789.25,424.375 C1789.25,424.375 1789.25,486.4421 1789.25,486.4421 " fill="none" id="eapli.framework.infrastructure.authz.domain.model.SystemUserBuilder-&gt;eapli.framework.infrastructure.authz.application.PasswordPolicy" style="stroke: #A80036; stroke-width: 1.0;"/><polygon fill="#A80036" points="1789.25,491.4421,1793.25,482.4421,1789.25,486.4421,1785.25,482.4421,1789.25,491.4421" style="stroke: #A80036; stroke-width: 1.0;"/><text fill="#000000" font-family="sans-serif" font-size="13" lengthAdjust="spacingAndGlyphs" textLength="34" x="1749.9891" y="480.7226">policy</text><!--MD5=[4e62e4acb2661e8d734e8eeccc212cf3]
link eapli.framework.infrastructure.authz.domain.model.SystemUserBuilder to org.springframework.security.crypto.password.PasswordEncoder--><path d="M1911.27,355 C2001.5,355 2080,355 2080,355 C2080,355 2080,493.8904 2080,493.8904 " fill="none" id="eapli.framework.infrastructure.authz.domain.model.SystemUserBuilder-&gt;org.springframework.security.crypto.password.PasswordEncoder" style="stroke: #A80036; stroke-width: 1.0;"/><polygon fill="#A80036" points="2080,498.8904,2084,489.8904,2080,493.8904,2076,489.8904,2080,498.8904" style="stroke: #A80036; stroke-width: 1.0;"/><text fill="#000000" font-family="sans-serif" font-size="13" lengthAdjust="spacingAndGlyphs" textLength="46" x="2027.2438" y="488.1524">encoder</text><!--MD5=[713c03b517fb50cae925737e4166b3cd]
link eapli.framework.infrastructure.authz.domain.model.SystemUserBuilder to eapli.framework.domain.model.DomainFactorySystemUser--><path d="M1911.02,286 C2110.97,286 2351,286 2351,286 C2351,286 2351,471.3569 2351,471.3569 " fill="none" id="eapli.framework.infrastructure.authz.domain.model.SystemUserBuilder-&gt;eapli.framework.domain.model.DomainFactorySystemUser" style="stroke: #A80036; stroke-width: 1.0; stroke-dasharray: 7.0,7.0;"/><polygon fill="none" points="2358,471.3569,2351,491.3569,2344,471.3568,2358,471.3569" style="stroke: #A80036; stroke-width: 1.0;"/><!--MD5=[b77b7c3e7c52160c46bf39d6623cf3e8]
link eapli.framework.infrastructure.authz.domain.model.SystemUserBuilder to eapli.framework.infrastructure.authz.domain.model.SystemUser--><path d="M1911.03,216 C2203.99,216 2635,216 2635,216 C2635,216 2635,486.3075 2635,486.3075 " fill="none" id="eapli.framework.infrastructure.authz.domain.model.SystemUserBuilder-&gt;eapli.framework.infrastructure.authz.domain.model.SystemUser" style="stroke: #A80036; stroke-width: 1.0; stroke-dasharray: 7.0,7.0;"/><polygon fill="#A80036" points="2635,491.3075,2639,482.3075,2635,486.3075,2631,482.3075,2635,491.3075" style="stroke: #A80036; stroke-width: 1.0;"/><!--MD5=[ee32ea2d50dd5c8838716ee01db76af1]
link eapli.framework.infrastructure.authz.domain.model.SystemUserBuilder to eapli.framework.infrastructure.authz.domain.model.Role--><path d="M1911.19,147 C2290.06,147 2941,147 2941,147 C2941,147 2941,493.9997 2941,493.9997 " fill="none" id="eapli.framework.infrastructure.authz.domain.model.SystemUserBuilder-&gt;eapli.framework.infrastructure.authz.domain.model.Role" style="stroke: #A80036; stroke-width: 1.0; stroke-dasharray: 7.0,7.0;"/><polygon fill="#A80036" points="2941,498.9997,2945,489.9997,2941,493.9997,2937,489.9997,2941,498.9997" style="stroke: #A80036; stroke-width: 1.0;"/><!--MD5=[cd5a04d08ace20dcab0a8efe3af162ea]
link eapli.framework.infrastructure.authz.domain.model.SystemUserBuilder to eapli.framework.infrastructure.authz.domain.model.RoleAssignment--><path d="M1911.27,78 C2366.26,78 3247,78 3247,78 C3247,78 3247,486.4135 3247,486.4135 " fill="none" id="eapli.framework.infrastructure.authz.domain.model.SystemUserBuilder-&gt;eapli.framework.infrastructure.authz.domain.model.RoleAssignment" style="stroke: #A80036; stroke-width: 1.0; stroke-dasharray: 7.0,7.0;"/><polygon fill="#A80036" points="3247,491.4135,3251,482.4135,3247,486.4135,3243,482.4135,3247,491.4135" style="stroke: #A80036; stroke-width: 1.0;"/><!--MD5=[f023fd7b4dc3c911a1f51ffa570ed526]
@startuml

skinparam svgLinkTarget _parent
skinparam linetype ortho
set namespaceSeparator none
class "<b><size:14>SystemUserBuilder</b>\n<size:10>eapli.framework.infrastructure.authz.domain.model" as eapli.framework.infrastructure.authz.domain.model.SystemUserBuilder  [[../../../../../../eapli/framework/infrastructure/authz/domain/model/SystemUserBuilder.html{eapli.framework.infrastructure.authz.domain.model.SystemUserBuilder}]] {
{static} -Logger LOGGER
-Username username
-Password password
-Name name
-EmailAddress email
-Calendar createdOn
-RoleSet roles
-PasswordPolicy policy
-PasswordEncoder encoder
+SystemUserBuilder(PasswordPolicy policy,PasswordEncoder encoder)
+SystemUserBuilder with(String userName,String password,String firstName,String lastName,String email)
+SystemUserBuilder with(Username username,Password password,Name name,EmailAddress email)
+SystemUserBuilder withUsername(String username)
+SystemUserBuilder withUsername(Username username)
+SystemUserBuilder withPassword(String rawPassword)
+SystemUserBuilder withPassword(Password password)
+SystemUserBuilder withName(String firstName,String lastName)
+SystemUserBuilder withName(Name name)
+SystemUserBuilder withEmail(String email)
+SystemUserBuilder withEmail(EmailAddress email)
+SystemUserBuilder withRoles(Role onlyWithThis)
+SystemUserBuilder withRole(RoleAssignment role)
+SystemUserBuilder createdOn(Calendar createdOn)
+SystemUserBuilder withRoles(Set<Role> someRoles)
+SystemUserBuilder withRoles(RoleSet roles)
+SystemUser build()
}


interface "<b><size:14>Logger</b>\n<size:10>org.apache.logging.log4j" as org.apache.logging.log4j.Logger  #lightgrey {
}

hide org.apache.logging.log4j.Logger fields
hide org.apache.logging.log4j.Logger methods

eapli.framework.infrastructure.authz.domain.model.SystemUserBuilder - ->  "LOGGER" org.apache.logging.log4j.Logger

class "<b><size:14>Username</b>\n<size:10>eapli.framework.infrastructure.authz.domain.model" as eapli.framework.infrastructure.authz.domain.model.Username <<Embeddable>> [[../../../../../../eapli/framework/infrastructure/authz/domain/model/Username.html{eapli.framework.infrastructure.authz.domain.model.Username}]] {
}

hide eapli.framework.infrastructure.authz.domain.model.Username fields
hide eapli.framework.infrastructure.authz.domain.model.Username methods

eapli.framework.infrastructure.authz.domain.model.SystemUserBuilder - ->  "username" eapli.framework.infrastructure.authz.domain.model.Username

class "<b><size:14>Password</b>\n<size:10>eapli.framework.infrastructure.authz.domain.model" as eapli.framework.infrastructure.authz.domain.model.Password <<Embeddable>> [[../../../../../../eapli/framework/infrastructure/authz/domain/model/Password.html{eapli.framework.infrastructure.authz.domain.model.Password}]] {
}

hide eapli.framework.infrastructure.authz.domain.model.Password fields
hide eapli.framework.infrastructure.authz.domain.model.Password methods

eapli.framework.infrastructure.authz.domain.model.SystemUserBuilder - ->  "password" eapli.framework.infrastructure.authz.domain.model.Password

class "<b><size:14>Name</b>\n<size:10>eapli.framework.infrastructure.authz.domain.model" as eapli.framework.infrastructure.authz.domain.model.Name <<Embeddable>> [[../../../../../../eapli/framework/infrastructure/authz/domain/model/Name.html{eapli.framework.infrastructure.authz.domain.model.Name}]] {
}

hide eapli.framework.infrastructure.authz.domain.model.Name fields
hide eapli.framework.infrastructure.authz.domain.model.Name methods

eapli.framework.infrastructure.authz.domain.model.SystemUserBuilder - ->  "name" eapli.framework.infrastructure.authz.domain.model.Name

class "<b><size:14>EmailAddress</b>\n<size:10>eapli.framework.domain.model.general" as eapli.framework.domain.model.general.EmailAddress <<Embeddable>><<JsonAutoDetect>> #lightgrey {
}

hide eapli.framework.domain.model.general.EmailAddress fields
hide eapli.framework.domain.model.general.EmailAddress methods

eapli.framework.infrastructure.authz.domain.model.SystemUserBuilder - ->  "email" eapli.framework.domain.model.general.EmailAddress


class "<b><size:14>RoleSet</b>\n<size:10>eapli.framework.infrastructure.authz.domain.model" as eapli.framework.infrastructure.authz.domain.model.RoleSet <<Entity>> [[../../../../../../eapli/framework/infrastructure/authz/domain/model/RoleSet.html{eapli.framework.infrastructure.authz.domain.model.RoleSet}]] {
}

hide eapli.framework.infrastructure.authz.domain.model.RoleSet fields
hide eapli.framework.infrastructure.authz.domain.model.RoleSet methods

eapli.framework.infrastructure.authz.domain.model.SystemUserBuilder - ->  "roles" eapli.framework.infrastructure.authz.domain.model.RoleSet

interface "<b><size:14>PasswordPolicy</b>\n<size:10>eapli.framework.infrastructure.authz.application" as eapli.framework.infrastructure.authz.application.PasswordPolicy <<FunctionalInterface>> [[../../../../../../eapli/framework/infrastructure/authz/application/PasswordPolicy.html{eapli.framework.infrastructure.authz.application.PasswordPolicy}]] #white {
}

hide eapli.framework.infrastructure.authz.application.PasswordPolicy fields
hide eapli.framework.infrastructure.authz.application.PasswordPolicy methods

eapli.framework.infrastructure.authz.domain.model.SystemUserBuilder - ->  "policy" eapli.framework.infrastructure.authz.application.PasswordPolicy

interface "<b><size:14>PasswordEncoder</b>\n<size:10>org.springframework.security.crypto.password" as org.springframework.security.crypto.password.PasswordEncoder  #lightgrey {
}

hide org.springframework.security.crypto.password.PasswordEncoder fields
hide org.springframework.security.crypto.password.PasswordEncoder methods

eapli.framework.infrastructure.authz.domain.model.SystemUserBuilder - ->  "encoder" org.springframework.security.crypto.password.PasswordEncoder

interface "<b><size:14>DomainFactory<SystemUser></b>\n<size:10>eapli.framework.domain.model" as eapli.framework.domain.model.DomainFactorySystemUser <<FunctionalInterface>> #lightgrey {
}

hide eapli.framework.domain.model.DomainFactorySystemUser fields
hide eapli.framework.domain.model.DomainFactorySystemUser methods

eapli.framework.infrastructure.authz.domain.model.SystemUserBuilder ..|> eapli.framework.domain.model.DomainFactorySystemUser

class "<b><size:14>SystemUser</b>\n<size:10>eapli.framework.infrastructure.authz.domain.model" as eapli.framework.infrastructure.authz.domain.model.SystemUser <<Entity>> [[../../../../../../eapli/framework/infrastructure/authz/domain/model/SystemUser.html{eapli.framework.infrastructure.authz.domain.model.SystemUser}]] {
}

hide eapli.framework.infrastructure.authz.domain.model.SystemUser fields
hide eapli.framework.infrastructure.authz.domain.model.SystemUser methods

eapli.framework.infrastructure.authz.domain.model.SystemUserBuilder ..> eapli.framework.infrastructure.authz.domain.model.SystemUser

class "<b><size:14>Role</b>\n<size:10>eapli.framework.infrastructure.authz.domain.model" as eapli.framework.infrastructure.authz.domain.model.Role  [[../../../../../../eapli/framework/infrastructure/authz/domain/model/Role.html{eapli.framework.infrastructure.authz.domain.model.Role}]] {
}

hide eapli.framework.infrastructure.authz.domain.model.Role fields
hide eapli.framework.infrastructure.authz.domain.model.Role methods

eapli.framework.infrastructure.authz.domain.model.SystemUserBuilder ..> eapli.framework.infrastructure.authz.domain.model.Role

class "<b><size:14>RoleAssignment</b>\n<size:10>eapli.framework.infrastructure.authz.domain.model" as eapli.framework.infrastructure.authz.domain.model.RoleAssignment <<Entity>> [[../../../../../../eapli/framework/infrastructure/authz/domain/model/RoleAssignment.html{eapli.framework.infrastructure.authz.domain.model.RoleAssignment}]] {
}

hide eapli.framework.infrastructure.authz.domain.model.RoleAssignment fields
hide eapli.framework.infrastructure.authz.domain.model.RoleAssignment methods

eapli.framework.infrastructure.authz.domain.model.SystemUserBuilder ..> eapli.framework.infrastructure.authz.domain.model.RoleAssignment



@enduml

PlantUML version 1.2020.04(Thu Mar 19 10:16:49 GMT 2020)
(GPL source distribution)
Java Runtime: Java(TM) SE Runtime Environment
JVM: Java HotSpot(TM) 64-Bit Server VM
Java Version: 1.8.0_202-b08
Operating System: Windows 10
Default Encoding: Cp1252
Language: en
Country: US
--></g></svg>