<?xml version="1.0" encoding="UTF-8" standalone="no"?><svg xmlns="http://www.w3.org/2000/svg" xmlns:xlink="http://www.w3.org/1999/xlink" contentScriptType="application/ecmascript" contentStyleType="text/css" height="430px" preserveAspectRatio="none" style="width:713px;height:430px;" version="1.1" viewBox="0 0 713 430" width="713px" zoomAndPan="magnify"><defs><filter height="300%" id="f3w4trcckxv7s" width="300%" x="-1" y="-1"><feGaussianBlur result="blurOut" stdDeviation="2.0"/><feColorMatrix in="blurOut" result="blurOut2" type="matrix" values="0 0 0 0 0 0 0 0 0 0 0 0 0 0 0 0 0 0 .4 0"/><feOffset dx="4.0" dy="4.0" in="blurOut2" result="blurOut3"/><feBlend in="SourceGraphic" in2="blurOut3" mode="normal"/></filter></defs><g><!--class Username--><rect fill="#FEFECE" filter="url(#f3w4trcckxv7s)" height="71.2813" id="Username" style="stroke: #A80036; stroke-width: 1.5;" width="91" x="272" y="116"/><ellipse cx="287" cy="143.6406" fill="#ADD1B2" rx="11" ry="11" style="stroke: #A80036; stroke-width: 1.0;"/><path d="M289.7656,139.5156 Q289.9219,139.2969 290.1094,139.1875 Q290.2969,139.0781 290.5156,139.0781 Q290.8906,139.0781 291.125,139.3359 Q291.3594,139.5938 291.3594,140.2031 L291.3594,141.6563 Q291.3594,142.2656 291.125,142.5313 Q290.8906,142.7969 290.5156,142.7969 Q290.1719,142.7969 289.9688,142.5938 Q289.7656,142.4063 289.6563,141.8906 Q289.6094,141.5313 289.4219,141.3438 Q289.0938,140.9688 288.4844,140.75 Q287.875,140.5313 287.25,140.5313 Q286.4844,140.5313 285.8516,140.8594 Q285.2188,141.1875 284.7266,141.9375 Q284.2344,142.6875 284.2344,143.7188 L284.2344,144.8125 Q284.2344,146.0469 285.125,146.8672 Q286.0156,147.6875 287.6094,147.6875 Q288.5469,147.6875 289.2031,147.4375 Q289.5938,147.2813 290.0156,146.8438 Q290.2813,146.5781 290.4297,146.5 Q290.5781,146.4219 290.7813,146.4219 Q291.1094,146.4219 291.3672,146.6797 Q291.625,146.9375 291.625,147.2813 Q291.625,147.625 291.2813,148.0313 Q290.7813,148.6094 289.9844,148.9375 Q288.9063,149.3906 287.6094,149.3906 Q286.0938,149.3906 284.8906,148.7656 Q283.9063,148.2656 283.2188,147.1953 Q282.5313,146.125 282.5313,144.8438 L282.5313,143.6875 Q282.5313,142.3594 283.1484,141.2109 Q283.7656,140.0625 284.8594,139.4453 Q285.9531,138.8281 287.1875,138.8281 Q287.9219,138.8281 288.5703,138.9922 Q289.2188,139.1563 289.7656,139.5156 Z "/><text fill="#000000" font-family="sans-serif" font-size="12" font-style="italic" lengthAdjust="spacingAndGlyphs" textLength="44" x="308.5" y="133.457">«value»</text><text fill="#000000" font-family="sans-serif" font-size="12" font-style="italic" lengthAdjust="spacingAndGlyphs" textLength="24" x="318.5" y="148.5508">«id»</text><text fill="#000000" font-family="sans-serif" font-size="12" lengthAdjust="spacingAndGlyphs" textLength="59" x="301" y="163.6445">Username</text><line style="stroke: #A80036; stroke-width: 1.5;" x1="273" x2="362" y1="171.2813" y2="171.2813"/><line style="stroke: #A80036; stroke-width: 1.5;" x1="273" x2="362" y1="179.2813" y2="179.2813"/><!--class SystemUser--><rect fill="#FEFECE" filter="url(#f3w4trcckxv7s)" height="56.1875" id="SystemUser" style="stroke: #A80036; stroke-width: 1.5;" width="100" x="25.5" y="123.5"/><ellipse cx="40.5" cy="143.5938" fill="#ADD1B2" rx="11" ry="11" style="stroke: #A80036; stroke-width: 1.0;"/><path d="M43.2656,139.4688 Q43.4219,139.25 43.6094,139.1406 Q43.7969,139.0313 44.0156,139.0313 Q44.3906,139.0313 44.625,139.2891 Q44.8594,139.5469 44.8594,140.1563 L44.8594,141.6094 Q44.8594,142.2188 44.625,142.4844 Q44.3906,142.75 44.0156,142.75 Q43.6719,142.75 43.4688,142.5469 Q43.2656,142.3594 43.1563,141.8438 Q43.1094,141.4844 42.9219,141.2969 Q42.5938,140.9219 41.9844,140.7031 Q41.375,140.4844 40.75,140.4844 Q39.9844,140.4844 39.3516,140.8125 Q38.7188,141.1406 38.2266,141.8906 Q37.7344,142.6406 37.7344,143.6719 L37.7344,144.7656 Q37.7344,146 38.625,146.8203 Q39.5156,147.6406 41.1094,147.6406 Q42.0469,147.6406 42.7031,147.3906 Q43.0938,147.2344 43.5156,146.7969 Q43.7813,146.5313 43.9297,146.4531 Q44.0781,146.375 44.2813,146.375 Q44.6094,146.375 44.8672,146.6328 Q45.125,146.8906 45.125,147.2344 Q45.125,147.5781 44.7813,147.9844 Q44.2813,148.5625 43.4844,148.8906 Q42.4063,149.3438 41.1094,149.3438 Q39.5938,149.3438 38.3906,148.7188 Q37.4063,148.2188 36.7188,147.1484 Q36.0313,146.0781 36.0313,144.7969 L36.0313,143.6406 Q36.0313,142.3125 36.6484,141.1641 Q37.2656,140.0156 38.3594,139.3984 Q39.4531,138.7813 40.6875,138.7813 Q41.4219,138.7813 42.0703,138.9453 Q42.7188,139.1094 43.2656,139.4688 Z "/><text fill="#000000" font-family="sans-serif" font-size="12" font-style="italic" lengthAdjust="spacingAndGlyphs" textLength="35" x="71" y="140.957">«root»</text><text fill="#000000" font-family="sans-serif" font-size="12" lengthAdjust="spacingAndGlyphs" textLength="68" x="54.5" y="156.0508">SystemUser</text><line style="stroke: #A80036; stroke-width: 1.5;" x1="26.5" x2="124.5" y1="163.6875" y2="163.6875"/><line style="stroke: #A80036; stroke-width: 1.5;" x1="26.5" x2="124.5" y1="171.6875" y2="171.6875"/><!--class Password--><rect fill="#FEFECE" filter="url(#f3w4trcckxv7s)" height="56.1875" id="Password" style="stroke: #A80036; stroke-width: 1.5;" width="88" x="398.5" y="123.5"/><ellipse cx="413.5" cy="143.5938" fill="#ADD1B2" rx="11" ry="11" style="stroke: #A80036; stroke-width: 1.0;"/><path d="M416.2656,139.4688 Q416.4219,139.25 416.6094,139.1406 Q416.7969,139.0313 417.0156,139.0313 Q417.3906,139.0313 417.625,139.2891 Q417.8594,139.5469 417.8594,140.1563 L417.8594,141.6094 Q417.8594,142.2188 417.625,142.4844 Q417.3906,142.75 417.0156,142.75 Q416.6719,142.75 416.4688,142.5469 Q416.2656,142.3594 416.1563,141.8438 Q416.1094,141.4844 415.9219,141.2969 Q415.5938,140.9219 414.9844,140.7031 Q414.375,140.4844 413.75,140.4844 Q412.9844,140.4844 412.3516,140.8125 Q411.7188,141.1406 411.2266,141.8906 Q410.7344,142.6406 410.7344,143.6719 L410.7344,144.7656 Q410.7344,146 411.625,146.8203 Q412.5156,147.6406 414.1094,147.6406 Q415.0469,147.6406 415.7031,147.3906 Q416.0938,147.2344 416.5156,146.7969 Q416.7813,146.5313 416.9297,146.4531 Q417.0781,146.375 417.2813,146.375 Q417.6094,146.375 417.8672,146.6328 Q418.125,146.8906 418.125,147.2344 Q418.125,147.5781 417.7813,147.9844 Q417.2813,148.5625 416.4844,148.8906 Q415.4063,149.3438 414.1094,149.3438 Q412.5938,149.3438 411.3906,148.7188 Q410.4063,148.2188 409.7188,147.1484 Q409.0313,146.0781 409.0313,144.7969 L409.0313,143.6406 Q409.0313,142.3125 409.6484,141.1641 Q410.2656,140.0156 411.3594,139.3984 Q412.4531,138.7813 413.6875,138.7813 Q414.4219,138.7813 415.0703,138.9453 Q415.7188,139.1094 416.2656,139.4688 Z "/><text fill="#000000" font-family="sans-serif" font-size="12" font-style="italic" lengthAdjust="spacingAndGlyphs" textLength="44" x="433.5" y="140.957">«value»</text><text fill="#000000" font-family="sans-serif" font-size="12" lengthAdjust="spacingAndGlyphs" textLength="56" x="427.5" y="156.0508">Password</text><line style="stroke: #A80036; stroke-width: 1.5;" x1="399.5" x2="485.5" y1="163.6875" y2="163.6875"/><line style="stroke: #A80036; stroke-width: 1.5;" x1="399.5" x2="485.5" y1="171.6875" y2="171.6875"/><!--class PasswordPolicy--><rect fill="#FEFECE" filter="url(#f3w4trcckxv7s)" height="56.1875" id="PasswordPolicy" style="stroke: #A80036; stroke-width: 1.5;" width="120" x="306.5" y="247"/><ellipse cx="321.5" cy="267.0938" fill="#ADD1B2" rx="11" ry="11" style="stroke: #A80036; stroke-width: 1.0;"/><path d="M324.2656,262.9688 Q324.4219,262.75 324.6094,262.6406 Q324.7969,262.5313 325.0156,262.5313 Q325.3906,262.5313 325.625,262.7891 Q325.8594,263.0469 325.8594,263.6563 L325.8594,265.1094 Q325.8594,265.7188 325.625,265.9844 Q325.3906,266.25 325.0156,266.25 Q324.6719,266.25 324.4688,266.0469 Q324.2656,265.8594 324.1563,265.3438 Q324.1094,264.9844 323.9219,264.7969 Q323.5938,264.4219 322.9844,264.2031 Q322.375,263.9844 321.75,263.9844 Q320.9844,263.9844 320.3516,264.3125 Q319.7188,264.6406 319.2266,265.3906 Q318.7344,266.1406 318.7344,267.1719 L318.7344,268.2656 Q318.7344,269.5 319.625,270.3203 Q320.5156,271.1406 322.1094,271.1406 Q323.0469,271.1406 323.7031,270.8906 Q324.0938,270.7344 324.5156,270.2969 Q324.7813,270.0313 324.9297,269.9531 Q325.0781,269.875 325.2813,269.875 Q325.6094,269.875 325.8672,270.1328 Q326.125,270.3906 326.125,270.7344 Q326.125,271.0781 325.7813,271.4844 Q325.2813,272.0625 324.4844,272.3906 Q323.4063,272.8438 322.1094,272.8438 Q320.5938,272.8438 319.3906,272.2188 Q318.4063,271.7188 317.7188,270.6484 Q317.0313,269.5781 317.0313,268.2969 L317.0313,267.1406 Q317.0313,265.8125 317.6484,264.6641 Q318.2656,263.5156 319.3594,262.8984 Q320.4531,262.2813 321.6875,262.2813 Q322.4219,262.2813 323.0703,262.4453 Q323.7188,262.6094 324.2656,262.9688 Z "/><text fill="#000000" font-family="sans-serif" font-size="12" font-style="italic" lengthAdjust="spacingAndGlyphs" textLength="53" x="353" y="264.457">«service»</text><text fill="#000000" font-family="sans-serif" font-size="12" lengthAdjust="spacingAndGlyphs" textLength="88" x="335.5" y="279.5508">PasswordPolicy</text><line style="stroke: #A80036; stroke-width: 1.5;" x1="307.5" x2="425.5" y1="287.1875" y2="287.1875"/><line style="stroke: #A80036; stroke-width: 1.5;" x1="307.5" x2="425.5" y1="295.1875" y2="295.1875"/><!--class PasswordEncoder--><rect fill="#FEFECE" filter="url(#f3w4trcckxv7s)" height="56.1875" id="PasswordEncoder" style="stroke: #A80036; stroke-width: 1.5;" width="134" x="461.5" y="247"/><ellipse cx="476.5" cy="267.0938" fill="#ADD1B2" rx="11" ry="11" style="stroke: #A80036; stroke-width: 1.0;"/><path d="M479.2656,262.9688 Q479.4219,262.75 479.6094,262.6406 Q479.7969,262.5313 480.0156,262.5313 Q480.3906,262.5313 480.625,262.7891 Q480.8594,263.0469 480.8594,263.6563 L480.8594,265.1094 Q480.8594,265.7188 480.625,265.9844 Q480.3906,266.25 480.0156,266.25 Q479.6719,266.25 479.4688,266.0469 Q479.2656,265.8594 479.1563,265.3438 Q479.1094,264.9844 478.9219,264.7969 Q478.5938,264.4219 477.9844,264.2031 Q477.375,263.9844 476.75,263.9844 Q475.9844,263.9844 475.3516,264.3125 Q474.7188,264.6406 474.2266,265.3906 Q473.7344,266.1406 473.7344,267.1719 L473.7344,268.2656 Q473.7344,269.5 474.625,270.3203 Q475.5156,271.1406 477.1094,271.1406 Q478.0469,271.1406 478.7031,270.8906 Q479.0938,270.7344 479.5156,270.2969 Q479.7813,270.0313 479.9297,269.9531 Q480.0781,269.875 480.2813,269.875 Q480.6094,269.875 480.8672,270.1328 Q481.125,270.3906 481.125,270.7344 Q481.125,271.0781 480.7813,271.4844 Q480.2813,272.0625 479.4844,272.3906 Q478.4063,272.8438 477.1094,272.8438 Q475.5938,272.8438 474.3906,272.2188 Q473.4063,271.7188 472.7188,270.6484 Q472.0313,269.5781 472.0313,268.2969 L472.0313,267.1406 Q472.0313,265.8125 472.6484,264.6641 Q473.2656,263.5156 474.3594,262.8984 Q475.4531,262.2813 476.6875,262.2813 Q477.4219,262.2813 478.0703,262.4453 Q478.7188,262.6094 479.2656,262.9688 Z "/><text fill="#000000" font-family="sans-serif" font-size="12" font-style="italic" lengthAdjust="spacingAndGlyphs" textLength="53" x="515" y="264.457">«service»</text><text fill="#000000" font-family="sans-serif" font-size="12" lengthAdjust="spacingAndGlyphs" textLength="102" x="490.5" y="279.5508">PasswordEncoder</text><line style="stroke: #A80036; stroke-width: 1.5;" x1="462.5" x2="594.5" y1="287.1875" y2="287.1875"/><line style="stroke: #A80036; stroke-width: 1.5;" x1="462.5" x2="594.5" y1="295.1875" y2="295.1875"/><!--class Name--><rect fill="#FEFECE" filter="url(#f3w4trcckxv7s)" height="56.1875" id="Name" style="stroke: #A80036; stroke-width: 1.5;" width="72" x="521.5" y="123.5"/><ellipse cx="536.5" cy="143.5938" fill="#ADD1B2" rx="11" ry="11" style="stroke: #A80036; stroke-width: 1.0;"/><path d="M539.2656,139.4688 Q539.4219,139.25 539.6094,139.1406 Q539.7969,139.0313 540.0156,139.0313 Q540.3906,139.0313 540.625,139.2891 Q540.8594,139.5469 540.8594,140.1563 L540.8594,141.6094 Q540.8594,142.2188 540.625,142.4844 Q540.3906,142.75 540.0156,142.75 Q539.6719,142.75 539.4688,142.5469 Q539.2656,142.3594 539.1563,141.8438 Q539.1094,141.4844 538.9219,141.2969 Q538.5938,140.9219 537.9844,140.7031 Q537.375,140.4844 536.75,140.4844 Q535.9844,140.4844 535.3516,140.8125 Q534.7188,141.1406 534.2266,141.8906 Q533.7344,142.6406 533.7344,143.6719 L533.7344,144.7656 Q533.7344,146 534.625,146.8203 Q535.5156,147.6406 537.1094,147.6406 Q538.0469,147.6406 538.7031,147.3906 Q539.0938,147.2344 539.5156,146.7969 Q539.7813,146.5313 539.9297,146.4531 Q540.0781,146.375 540.2813,146.375 Q540.6094,146.375 540.8672,146.6328 Q541.125,146.8906 541.125,147.2344 Q541.125,147.5781 540.7813,147.9844 Q540.2813,148.5625 539.4844,148.8906 Q538.4063,149.3438 537.1094,149.3438 Q535.5938,149.3438 534.3906,148.7188 Q533.4063,148.2188 532.7188,147.1484 Q532.0313,146.0781 532.0313,144.7969 L532.0313,143.6406 Q532.0313,142.3125 532.6484,141.1641 Q533.2656,140.0156 534.3594,139.3984 Q535.4531,138.7813 536.6875,138.7813 Q537.4219,138.7813 538.0703,138.9453 Q538.7188,139.1094 539.2656,139.4688 Z "/><text fill="#000000" font-family="sans-serif" font-size="12" font-style="italic" lengthAdjust="spacingAndGlyphs" textLength="44" x="548.5" y="140.957">«value»</text><text fill="#000000" font-family="sans-serif" font-size="12" lengthAdjust="spacingAndGlyphs" textLength="34" x="553.5" y="156.0508">Name</text><line style="stroke: #A80036; stroke-width: 1.5;" x1="522.5" x2="592.5" y1="163.6875" y2="163.6875"/><line style="stroke: #A80036; stroke-width: 1.5;" x1="522.5" x2="592.5" y1="171.6875" y2="171.6875"/><!--class RoleSet--><rect fill="#FEFECE" filter="url(#f3w4trcckxv7s)" height="48" id="RoleSet" style="stroke: #A80036; stroke-width: 1.5;" width="76" x="160.5" y="127.5"/><ellipse cx="175.5" cy="143.5" fill="#ADD1B2" rx="11" ry="11" style="stroke: #A80036; stroke-width: 1.0;"/><path d="M178.2656,139.375 Q178.4219,139.1563 178.6094,139.0469 Q178.7969,138.9375 179.0156,138.9375 Q179.3906,138.9375 179.625,139.1953 Q179.8594,139.4531 179.8594,140.0625 L179.8594,141.5156 Q179.8594,142.125 179.625,142.3906 Q179.3906,142.6563 179.0156,142.6563 Q178.6719,142.6563 178.4688,142.4531 Q178.2656,142.2656 178.1563,141.75 Q178.1094,141.3906 177.9219,141.2031 Q177.5938,140.8281 176.9844,140.6094 Q176.375,140.3906 175.75,140.3906 Q174.9844,140.3906 174.3516,140.7188 Q173.7188,141.0469 173.2266,141.7969 Q172.7344,142.5469 172.7344,143.5781 L172.7344,144.6719 Q172.7344,145.9063 173.625,146.7266 Q174.5156,147.5469 176.1094,147.5469 Q177.0469,147.5469 177.7031,147.2969 Q178.0938,147.1406 178.5156,146.7031 Q178.7813,146.4375 178.9297,146.3594 Q179.0781,146.2813 179.2813,146.2813 Q179.6094,146.2813 179.8672,146.5391 Q180.125,146.7969 180.125,147.1406 Q180.125,147.4844 179.7813,147.8906 Q179.2813,148.4688 178.4844,148.7969 Q177.4063,149.25 176.1094,149.25 Q174.5938,149.25 173.3906,148.625 Q172.4063,148.125 171.7188,147.0547 Q171.0313,145.9844 171.0313,144.7031 L171.0313,143.5469 Q171.0313,142.2188 171.6484,141.0703 Q172.2656,139.9219 173.3594,139.3047 Q174.4531,138.6875 175.6875,138.6875 Q176.4219,138.6875 177.0703,138.8516 Q177.7188,139.0156 178.2656,139.375 Z "/><text fill="#000000" font-family="sans-serif" font-size="12" lengthAdjust="spacingAndGlyphs" textLength="44" x="189.5" y="148.4102">RoleSet</text><line style="stroke: #A80036; stroke-width: 1.5;" x1="161.5" x2="235.5" y1="159.5" y2="159.5"/><line style="stroke: #A80036; stroke-width: 1.5;" x1="161.5" x2="235.5" y1="167.5" y2="167.5"/><!--class RoleAssignment--><rect fill="#FEFECE" filter="url(#f3w4trcckxv7s)" height="56.1875" id="RoleAssignment" style="stroke: #A80036; stroke-width: 1.5;" width="124" x="370.5" y="363"/><ellipse cx="385.5" cy="383.0938" fill="#ADD1B2" rx="11" ry="11" style="stroke: #A80036; stroke-width: 1.0;"/><path d="M388.2656,378.9688 Q388.4219,378.75 388.6094,378.6406 Q388.7969,378.5313 389.0156,378.5313 Q389.3906,378.5313 389.625,378.7891 Q389.8594,379.0469 389.8594,379.6563 L389.8594,381.1094 Q389.8594,381.7188 389.625,381.9844 Q389.3906,382.25 389.0156,382.25 Q388.6719,382.25 388.4688,382.0469 Q388.2656,381.8594 388.1563,381.3438 Q388.1094,380.9844 387.9219,380.7969 Q387.5938,380.4219 386.9844,380.2031 Q386.375,379.9844 385.75,379.9844 Q384.9844,379.9844 384.3516,380.3125 Q383.7188,380.6406 383.2266,381.3906 Q382.7344,382.1406 382.7344,383.1719 L382.7344,384.2656 Q382.7344,385.5 383.625,386.3203 Q384.5156,387.1406 386.1094,387.1406 Q387.0469,387.1406 387.7031,386.8906 Q388.0938,386.7344 388.5156,386.2969 Q388.7813,386.0313 388.9297,385.9531 Q389.0781,385.875 389.2813,385.875 Q389.6094,385.875 389.8672,386.1328 Q390.125,386.3906 390.125,386.7344 Q390.125,387.0781 389.7813,387.4844 Q389.2813,388.0625 388.4844,388.3906 Q387.4063,388.8438 386.1094,388.8438 Q384.5938,388.8438 383.3906,388.2188 Q382.4063,387.7188 381.7188,386.6484 Q381.0313,385.5781 381.0313,384.2969 L381.0313,383.1406 Q381.0313,381.8125 381.6484,380.6641 Q382.2656,379.5156 383.3594,378.8984 Q384.4531,378.2813 385.6875,378.2813 Q386.4219,378.2813 387.0703,378.4453 Q387.7188,378.6094 388.2656,378.9688 Z "/><text fill="#000000" font-family="sans-serif" font-size="12" font-style="italic" lengthAdjust="spacingAndGlyphs" textLength="43" x="424" y="380.457">«entity»</text><text fill="#000000" font-family="sans-serif" font-size="12" lengthAdjust="spacingAndGlyphs" textLength="92" x="399.5" y="395.5508">RoleAssignment</text><line style="stroke: #A80036; stroke-width: 1.5;" x1="371.5" x2="493.5" y1="403.1875" y2="403.1875"/><line style="stroke: #A80036; stroke-width: 1.5;" x1="371.5" x2="493.5" y1="411.1875" y2="411.1875"/><!--class Role--><rect fill="#FEFECE" filter="url(#f3w4trcckxv7s)" height="56.1875" id="Role" style="stroke: #A80036; stroke-width: 1.5;" width="72" x="630.5" y="247"/><ellipse cx="645.5" cy="267.0938" fill="#ADD1B2" rx="11" ry="11" style="stroke: #A80036; stroke-width: 1.0;"/><path d="M648.2656,262.9688 Q648.4219,262.75 648.6094,262.6406 Q648.7969,262.5313 649.0156,262.5313 Q649.3906,262.5313 649.625,262.7891 Q649.8594,263.0469 649.8594,263.6563 L649.8594,265.1094 Q649.8594,265.7188 649.625,265.9844 Q649.3906,266.25 649.0156,266.25 Q648.6719,266.25 648.4688,266.0469 Q648.2656,265.8594 648.1563,265.3438 Q648.1094,264.9844 647.9219,264.7969 Q647.5938,264.4219 646.9844,264.2031 Q646.375,263.9844 645.75,263.9844 Q644.9844,263.9844 644.3516,264.3125 Q643.7188,264.6406 643.2266,265.3906 Q642.7344,266.1406 642.7344,267.1719 L642.7344,268.2656 Q642.7344,269.5 643.625,270.3203 Q644.5156,271.1406 646.1094,271.1406 Q647.0469,271.1406 647.7031,270.8906 Q648.0938,270.7344 648.5156,270.2969 Q648.7813,270.0313 648.9297,269.9531 Q649.0781,269.875 649.2813,269.875 Q649.6094,269.875 649.8672,270.1328 Q650.125,270.3906 650.125,270.7344 Q650.125,271.0781 649.7813,271.4844 Q649.2813,272.0625 648.4844,272.3906 Q647.4063,272.8438 646.1094,272.8438 Q644.5938,272.8438 643.3906,272.2188 Q642.4063,271.7188 641.7188,270.6484 Q641.0313,269.5781 641.0313,268.2969 L641.0313,267.1406 Q641.0313,265.8125 641.6484,264.6641 Q642.2656,263.5156 643.3594,262.8984 Q644.4531,262.2813 645.6875,262.2813 Q646.4219,262.2813 647.0703,262.4453 Q647.7188,262.6094 648.2656,262.9688 Z "/><text fill="#000000" font-family="sans-serif" font-size="12" font-style="italic" lengthAdjust="spacingAndGlyphs" textLength="44" x="657.5" y="264.457">«value»</text><text fill="#000000" font-family="sans-serif" font-size="12" lengthAdjust="spacingAndGlyphs" textLength="26" x="666.5" y="279.5508">Role</text><line style="stroke: #A80036; stroke-width: 1.5;" x1="631.5" x2="701.5" y1="287.1875" y2="287.1875"/><line style="stroke: #A80036; stroke-width: 1.5;" x1="631.5" x2="701.5" y1="295.1875" y2="295.1875"/><!--class Set--><rect fill="#FEFECE" filter="url(#f3w4trcckxv7s)" height="48" id="Set" style="stroke: #A80036; stroke-width: 1.5;" width="145" x="126" y="251"/><ellipse cx="141" cy="267" fill="#B4A7E5" rx="11" ry="11" style="stroke: #A80036; stroke-width: 1.0;"/><path d="M141.9531,263.6406 L141.9531,270.2969 L143.6719,270.2969 Q144.2813,270.2969 144.5469,270.5313 Q144.8125,270.7656 144.8125,271.1563 Q144.8125,271.5313 144.5469,271.7656 Q144.2813,272 143.6719,272 L138.5313,272 Q137.9219,272 137.6563,271.7656 Q137.3906,271.5313 137.3906,271.1406 Q137.3906,270.7656 137.6563,270.5313 Q137.9219,270.2969 138.5313,270.2969 L140.25,270.2969 L140.25,263.6406 L138.5313,263.6406 Q137.9219,263.6406 137.6563,263.4063 Q137.3906,263.1719 137.3906,262.7813 Q137.3906,262.4063 137.6563,262.1719 Q137.9219,261.9375 138.5313,261.9375 L143.6719,261.9375 Q144.2813,261.9375 144.5469,262.1719 Q144.8125,262.4063 144.8125,262.7813 Q144.8125,263.1719 144.5469,263.4063 Q144.2813,263.6406 143.6719,263.6406 L141.9531,263.6406 Z "/><text fill="#000000" font-family="sans-serif" font-size="12" font-style="italic" lengthAdjust="spacingAndGlyphs" textLength="18" x="155" y="271.9102">Set</text><rect fill="#FFFFFF" height="17.0938" style="stroke: #000000; stroke-width: 1.0; stroke-dasharray: 2.0,2.0;" width="93" x="181" y="248"/><text fill="#000000" font-family="sans-serif" font-size="12" font-style="italic" lengthAdjust="spacingAndGlyphs" textLength="91" x="182" y="261.457">RoleAssignment</text><line style="stroke: #A80036; stroke-width: 1.5;" x1="127" x2="270" y1="283" y2="283"/><line style="stroke: #A80036; stroke-width: 1.5;" x1="127" x2="270" y1="291" y2="291"/><!--class SystemUserBuilder--><rect fill="#FEFECE" filter="url(#f3w4trcckxv7s)" height="48" id="SystemUserBuilder" style="stroke: #A80036; stroke-width: 1.5;" width="139" x="6" y="8"/><ellipse cx="21" cy="24" fill="#ADD1B2" rx="11" ry="11" style="stroke: #A80036; stroke-width: 1.0;"/><path d="M23.7656,19.875 Q23.9219,19.6563 24.1094,19.5469 Q24.2969,19.4375 24.5156,19.4375 Q24.8906,19.4375 25.125,19.6953 Q25.3594,19.9531 25.3594,20.5625 L25.3594,22.0156 Q25.3594,22.625 25.125,22.8906 Q24.8906,23.1563 24.5156,23.1563 Q24.1719,23.1563 23.9688,22.9531 Q23.7656,22.7656 23.6563,22.25 Q23.6094,21.8906 23.4219,21.7031 Q23.0938,21.3281 22.4844,21.1094 Q21.875,20.8906 21.25,20.8906 Q20.4844,20.8906 19.8516,21.2188 Q19.2188,21.5469 18.7266,22.2969 Q18.2344,23.0469 18.2344,24.0781 L18.2344,25.1719 Q18.2344,26.4063 19.125,27.2266 Q20.0156,28.0469 21.6094,28.0469 Q22.5469,28.0469 23.2031,27.7969 Q23.5938,27.6406 24.0156,27.2031 Q24.2813,26.9375 24.4297,26.8594 Q24.5781,26.7813 24.7813,26.7813 Q25.1094,26.7813 25.3672,27.0391 Q25.625,27.2969 25.625,27.6406 Q25.625,27.9844 25.2813,28.3906 Q24.7813,28.9688 23.9844,29.2969 Q22.9063,29.75 21.6094,29.75 Q20.0938,29.75 18.8906,29.125 Q17.9063,28.625 17.2188,27.5547 Q16.5313,26.4844 16.5313,25.2031 L16.5313,24.0469 Q16.5313,22.7188 17.1484,21.5703 Q17.7656,20.4219 18.8594,19.8047 Q19.9531,19.1875 21.1875,19.1875 Q21.9219,19.1875 22.5703,19.3516 Q23.2188,19.5156 23.7656,19.875 Z "/><text fill="#000000" font-family="sans-serif" font-size="12" lengthAdjust="spacingAndGlyphs" textLength="107" x="35" y="28.9102">SystemUserBuilder</text><line style="stroke: #A80036; stroke-width: 1.5;" x1="7" x2="144" y1="40" y2="40"/><line style="stroke: #A80036; stroke-width: 1.5;" x1="7" x2="144" y1="48" y2="48"/><!--link SystemUserBuilder to SystemUser--><path d="M75.5,56.214 C75.5,73.896 75.5,98.456 75.5,118.077 " fill="none" id="SystemUserBuilder-SystemUser" style="stroke: #A80036; stroke-width: 1.0; stroke-dasharray: 7.0,7.0;"/><polygon fill="#A80036" points="75.5,123.211,79.5,114.211,75.5,118.211,71.5,114.211,75.5,123.211" style="stroke: #A80036; stroke-width: 1.0;"/><!--link SystemUser to Username--><path d="M101.9902,123.5 C117.387,109.304 138.048,93.512 160,86 C191.958,75.064 204.139,74.784 236,86 C251.983,91.627 267.146,101.858 279.962,112.589 " fill="none" id="SystemUser-Username" style="stroke: #A80036; stroke-width: 1.0;"/><polygon fill="#A80036" points="283.862,115.93,279.6294,107.037,280.0648,112.6771,274.4247,113.1125,283.862,115.93" style="stroke: #A80036; stroke-width: 1.0;"/><!--link SystemUser to Password--><path d="M101.9902,123.5 C117.387,109.304 138.048,93.512 160,86 C245.363,56.79 278.081,55.523 363,86 C382.078,92.847 399.847,106.471 413.726,119.528 " fill="none" id="SystemUser-Password" style="stroke: #A80036; stroke-width: 1.0;"/><polygon fill="#A80036" points="417.535,123.19,413.82,114.0687,413.9309,119.7244,408.2751,119.8353,417.535,123.19" style="stroke: #A80036; stroke-width: 1.0;"/><!--link SystemUser to Name--><path d="M101.9902,123.5 C117.387,109.304 138.048,93.512 160,86 C228.543,62.545 418.479,59.748 486,86 C503.632,92.855 519.562,106.313 531.886,119.256 " fill="none" id="SystemUser-Name" style="stroke: #A80036; stroke-width: 1.0;"/><polygon fill="#A80036" points="535.593,123.249,532.4016,113.9315,532.1913,119.5845,526.5384,119.3742,535.593,123.249" style="stroke: #A80036; stroke-width: 1.0;"/><!--link SystemUser to RoleSet--><path d="M125.949,151.5 C135.683,151.5 145.417,151.5 155.151,151.5 " fill="none" id="SystemUser-RoleSet" style="stroke: #A80036; stroke-width: 1.0;"/><polygon fill="#A80036" points="160.241,151.5,151.241,147.5,155.241,151.5,151.241,155.5,160.241,151.5" style="stroke: #A80036; stroke-width: 1.0;"/><!--link RoleSet to Set--><path d="M198.5,175.639 C198.5,191.178 198.5,212.13 198.5,230.703 " fill="none" id="RoleSet-Set" style="stroke: #A80036; stroke-width: 1.0; stroke-dasharray: 7.0,7.0;"/><polygon fill="none" points="205.5,230.947,198.5,250.947,191.5,230.947,205.5,230.947" style="stroke: #A80036; stroke-width: 1.0;"/><!--link Set to RoleAssignment--><path d="M245.853,299.07 C282.299,316.825 332.92,341.4868 372.251,360.6479 " fill="none" id="Set-RoleAssignment" style="stroke: #A80036; stroke-width: 1.0; stroke-dasharray: 7.0,7.0;"/><polygon fill="#A80036" points="376.99,362.9565,370.6512,355.4186,372.4951,360.7665,367.1472,362.6104,376.99,362.9565" style="stroke: #A80036; stroke-width: 1.0;"/><!--link Role to RoleAssignment--><path d="M625.486,296.579 C621.106,298.755 616.714,300.928 612.5,303 C571.229,323.2904 524.46,345.8833 488.941,362.9596 " fill="none" id="Role-RoleAssignment" style="stroke: #A80036; stroke-width: 1.0;"/><polygon fill="#A80036" points="630.224,294.221,620.3845,294.6494,625.7476,296.4485,623.9484,301.8116,630.224,294.221" style="stroke: #A80036; stroke-width: 1.0;"/><!--link Password to PasswordPolicy--><path d="M425.444,179.767 C413.808,198.37 398.36,223.065 386.199,242.508 " fill="none" id="Password-PasswordPolicy" style="stroke: #A80036; stroke-width: 1.0; stroke-dasharray: 7.0,7.0;"/><polygon fill="#A80036" points="383.499,246.824,391.6632,241.3152,386.1507,242.5851,384.8808,237.0726,383.499,246.824" style="stroke: #A80036; stroke-width: 1.0;"/><!--link Password to PasswordEncoder--><path d="M461.8,179.767 C474.968,198.37 492.447,223.065 506.209,242.508 " fill="none" id="Password-PasswordEncoder" style="stroke: #A80036; stroke-width: 1.0; stroke-dasharray: 7.0,7.0;"/><polygon fill="#A80036" points="509.264,246.824,507.3298,237.1669,506.3755,242.7427,500.7998,241.7885,509.264,246.824" style="stroke: #A80036; stroke-width: 1.0;"/><!--
@startuml
class Username <<value>><<id>>

           class SystemUser <<root>>

           class Password <<value>>

           class PasswordPolicy <<service>>

           class PasswordEncoder <<service>>

           class Name <<value>>

           class RoleSet

           class RoleAssignment <<entity>>

           class Role <<value>>

           interface Set<RoleAssignment>

           class SystemUserBuilder

           SystemUserBuilder ..> SystemUser

           SystemUser -> Username
           SystemUser -> Password
           SystemUser -> Name
           SystemUser -> RoleSet
           RoleSet ..|> Set
           Set ..> RoleAssignment
           Role <- - RoleAssignment
           Password ..> PasswordPolicy
           Password ..> PasswordEncoder
@enduml

PlantUML version 1.2017.18(Fri Oct 06 17:56:32 BST 2017)
(GPL source distribution)
Java Runtime: Java(TM) SE Runtime Environment
JVM: Java HotSpot(TM) 64-Bit Server VM
Java Version: 1.8.0_202-b08
Operating System: Windows 10
OS Version: 10.0
Default Encoding: Cp1252
Language: en
Country: US
--></g></svg>