<?xml version="1.0" encoding="UTF-8" standalone="no"?><svg xmlns="http://www.w3.org/2000/svg" xmlns:xlink="http://www.w3.org/1999/xlink" contentScriptType="application/ecmascript" contentStyleType="text/css" height="233px" preserveAspectRatio="none" style="width:1154px;height:233px;" version="1.1" viewBox="0 0 1154 233" width="1154px" zoomAndPan="magnify"><defs><filter height="300%" id="ftf7gc1hd6fy1" width="300%" x="-1" y="-1"><feGaussianBlur result="blurOut" stdDeviation="2.0"/><feColorMatrix in="blurOut" result="blurOut2" type="matrix" values="0 0 0 0 0 0 0 0 0 0 0 0 0 0 0 0 0 0 .4 0"/><feOffset dx="4.0" dy="4.0" in="blurOut2" result="blurOut3"/><feBlend in="SourceGraphic" in2="blurOut3" mode="normal"/></filter></defs><g><!--MD5=[5dbf4d5fd3beeaf3db7975f038e1f7f5]
class eapli.framework.infrastructure.eventpubsub.impl.simplepersistent.SpringDataEventConsumptionRepository--><a href="../../../../../../eapli/framework/infrastructure/eventpubsub/impl/simplepersistent/SpringDataEventConsumptionRepository.html" target="_parent" title="eapli.framework.infrastructure.eventpubsub.impl.simplepersistent.SpringDataEventConsumptionRepository" xlink:actuate="onRequest" xlink:href="../../../../../../eapli/framework/infrastructure/eventpubsub/impl/simplepersistent/SpringDataEventConsumptionRepository.html" xlink:show="new" xlink:title="eapli.framework.infrastructure.eventpubsub.impl.simplepersistent.SpringDataEventConsumptionRepository" xlink:type="simple"><rect fill="#FEFECE" filter="url(#ftf7gc1hd6fy1)" height="83.8594" id="eapli.framework.infrastructure.eventpubsub.impl.simplepersistent.SpringDataEventConsumptionRepository" style="stroke: #A80036; stroke-width: 1.5;" width="335" x="407" y="8"/><ellipse cx="422" cy="28.0938" fill="#B4A7E5" rx="11" ry="11" style="stroke: #A80036; stroke-width: 1.0;"/><path d="M422.9531,24.7344 L422.9531,31.3906 L424.6719,31.3906 Q425.2813,31.3906 425.5469,31.625 Q425.8125,31.8594 425.8125,32.25 Q425.8125,32.625 425.5469,32.8594 Q425.2813,33.0938 424.6719,33.0938 L419.5313,33.0938 Q418.9219,33.0938 418.6563,32.8594 Q418.3906,32.625 418.3906,32.2344 Q418.3906,31.8594 418.6563,31.625 Q418.9219,31.3906 419.5313,31.3906 L421.25,31.3906 L421.25,24.7344 L419.5313,24.7344 Q418.9219,24.7344 418.6563,24.5 Q418.3906,24.2656 418.3906,23.875 Q418.3906,23.5 418.6563,23.2656 Q418.9219,23.0313 419.5313,23.0313 L424.6719,23.0313 Q425.2813,23.0313 425.5469,23.2656 Q425.8125,23.5 425.8125,23.875 Q425.8125,24.2656 425.5469,24.5 Q425.2813,24.7344 424.6719,24.7344 L422.9531,24.7344 Z "/><text fill="#000000" font-family="sans-serif" font-size="14" font-style="italic" font-weight="bold" lengthAdjust="spacingAndGlyphs" textLength="274" x="450.5" y="27.5332">SpringDataEventConsumptionRepository</text><text fill="#000000" font-family="sans-serif" font-size="10" font-style="italic" lengthAdjust="spacingAndGlyphs" textLength="303" x="436" y="40.9902">eapli.framework.infrastructure.eventpubsub.impl.simplepersistent</text><line style="stroke: #A80036; stroke-width: 1.5;" x1="408" x2="741" y1="48.1875" y2="48.1875"/><line style="stroke: #A80036; stroke-width: 1.5;" x1="408" x2="741" y1="56.1875" y2="56.1875"/><ellipse cx="418" cy="67.1875" fill="#84BE84" rx="3" ry="3" style="stroke: #038048; stroke-width: 1.0;"/><text fill="#000000" font-family="sans-serif" font-size="11" font-style="italic" lengthAdjust="spacingAndGlyphs" textLength="263" x="427" y="71.6064">Optional&lt;EventConsumption&gt; ofIdentity(Long entityId)</text><ellipse cx="418" cy="81.0234" fill="#84BE84" rx="3" ry="3" style="stroke: #038048; stroke-width: 1.0;"/><text fill="#000000" font-family="sans-serif" font-size="11" font-style="italic" lengthAdjust="spacingAndGlyphs" textLength="170" x="427" y="85.4424">void deleteOfIdentity(Long entityId)</text></a><!--MD5=[c71a1ff15f4d4ac22ff591d65bae06b3]
class eapli.framework.infrastructure.eventpubsub.impl.simplepersistent.EventConsumptionRepository--><a href="../../../../../../eapli/framework/infrastructure/eventpubsub/impl/simplepersistent/EventConsumptionRepository.html" target="_parent" title="eapli.framework.infrastructure.eventpubsub.impl.simplepersistent.EventConsumptionRepository" xlink:actuate="onRequest" xlink:href="../../../../../../eapli/framework/infrastructure/eventpubsub/impl/simplepersistent/EventConsumptionRepository.html" xlink:show="new" xlink:title="eapli.framework.infrastructure.eventpubsub.impl.simplepersistent.EventConsumptionRepository" xlink:type="simple"><rect fill="#FEFECE" filter="url(#ftf7gc1hd6fy1)" height="40.1875" id="eapli.framework.infrastructure.eventpubsub.impl.simplepersistent.EventConsumptionRepository" style="stroke: #A80036; stroke-width: 1.5;" width="335" x="6" y="167"/><ellipse cx="21" cy="187.0938" fill="#B4A7E5" rx="11" ry="11" style="stroke: #A80036; stroke-width: 1.0;"/><path d="M21.9531,183.7344 L21.9531,190.3906 L23.6719,190.3906 Q24.2813,190.3906 24.5469,190.625 Q24.8125,190.8594 24.8125,191.25 Q24.8125,191.625 24.5469,191.8594 Q24.2813,192.0938 23.6719,192.0938 L18.5313,192.0938 Q17.9219,192.0938 17.6563,191.8594 Q17.3906,191.625 17.3906,191.2344 Q17.3906,190.8594 17.6563,190.625 Q17.9219,190.3906 18.5313,190.3906 L20.25,190.3906 L20.25,183.7344 L18.5313,183.7344 Q17.9219,183.7344 17.6563,183.5 Q17.3906,183.2656 17.3906,182.875 Q17.3906,182.5 17.6563,182.2656 Q17.9219,182.0313 18.5313,182.0313 L23.6719,182.0313 Q24.2813,182.0313 24.5469,182.2656 Q24.8125,182.5 24.8125,182.875 Q24.8125,183.2656 24.5469,183.5 Q24.2813,183.7344 23.6719,183.7344 L21.9531,183.7344 Z "/><text fill="#000000" font-family="sans-serif" font-size="14" font-style="italic" font-weight="bold" lengthAdjust="spacingAndGlyphs" textLength="199" x="87" y="186.5332">EventConsumptionRepository</text><text fill="#000000" font-family="sans-serif" font-size="10" font-style="italic" lengthAdjust="spacingAndGlyphs" textLength="303" x="35" y="199.9902">eapli.framework.infrastructure.eventpubsub.impl.simplepersistent</text></a><!--MD5=[a8e9d3dca4243f8de02fa75a8b97ff89]
class eapli.framework.infrastructure.repositories.impl.springdata.SpringDataBaseRepositoryEventConsumptionLong--><rect fill="#D3D3D3" filter="url(#ftf7gc1hd6fy1)" height="55.2813" id="eapli.framework.infrastructure.repositories.impl.springdata.SpringDataBaseRepositoryEventConsumptionLong" style="stroke: #A80036; stroke-width: 1.5;" width="396" x="376.5" y="159.5"/><rect fill="#D3D3D3" height="55.2813" style="stroke: #A80036; stroke-width: 1.5;" width="396" x="376.5" y="159.5"/><ellipse cx="391.5" cy="187.1406" fill="#B4A7E5" rx="11" ry="11" style="stroke: #A80036; stroke-width: 1.0;"/><path d="M392.4531,183.7813 L392.4531,190.4375 L394.1719,190.4375 Q394.7813,190.4375 395.0469,190.6719 Q395.3125,190.9063 395.3125,191.2969 Q395.3125,191.6719 395.0469,191.9063 Q394.7813,192.1406 394.1719,192.1406 L389.0313,192.1406 Q388.4219,192.1406 388.1563,191.9063 Q387.8906,191.6719 387.8906,191.2813 Q387.8906,190.9063 388.1563,190.6719 Q388.4219,190.4375 389.0313,190.4375 L390.75,190.4375 L390.75,183.7813 L389.0313,183.7813 Q388.4219,183.7813 388.1563,183.5469 Q387.8906,183.3125 387.8906,182.9219 Q387.8906,182.5469 388.1563,182.3125 Q388.4219,182.0781 389.0313,182.0781 L394.1719,182.0781 Q394.7813,182.0781 395.0469,182.3125 Q395.3125,182.5469 395.3125,182.9219 Q395.3125,183.3125 395.0469,183.5469 Q394.7813,183.7813 394.1719,183.7813 L392.4531,183.7813 Z "/><text fill="#000000" font-family="sans-serif" font-size="12" font-style="italic" lengthAdjust="spacingAndGlyphs" textLength="118" x="528.5" y="176.957">«NoRepositoryBean»</text><text fill="#000000" font-family="sans-serif" font-size="14" font-style="italic" font-weight="bold" lengthAdjust="spacingAndGlyphs" textLength="364" x="405.5" y="194.127">SpringDataBaseRepository&lt;EventConsumption, Long&gt;</text><text fill="#000000" font-family="sans-serif" font-size="10" font-style="italic" lengthAdjust="spacingAndGlyphs" textLength="271" x="452" y="207.584">eapli.framework.infrastructure.repositories.impl.springdata</text><!--MD5=[7bef1e93c9e945dfe6d45965a73ceffe]
class eapli.framework.infrastructure.eventpubsub.impl.simplepersistent.EventConsumption--><a href="../../../../../../eapli/framework/infrastructure/eventpubsub/impl/simplepersistent/EventConsumption.html" target="_parent" title="eapli.framework.infrastructure.eventpubsub.impl.simplepersistent.EventConsumption" xlink:actuate="onRequest" xlink:href="../../../../../../eapli/framework/infrastructure/eventpubsub/impl/simplepersistent/EventConsumption.html" xlink:show="new" xlink:title="eapli.framework.infrastructure.eventpubsub.impl.simplepersistent.EventConsumption" xlink:type="simple"><rect fill="#FEFECE" filter="url(#ftf7gc1hd6fy1)" height="70.375" id="eapli.framework.infrastructure.eventpubsub.impl.simplepersistent.EventConsumption" style="stroke: #A80036; stroke-width: 1.5;" width="335" x="808" y="152"/><ellipse cx="823" cy="187.1875" fill="#ADD1B2" rx="11" ry="11" style="stroke: #A80036; stroke-width: 1.0;"/><path d="M825.7656,183.0625 Q825.9219,182.8438 826.1094,182.7344 Q826.2969,182.625 826.5156,182.625 Q826.8906,182.625 827.125,182.8828 Q827.3594,183.1406 827.3594,183.75 L827.3594,185.2031 Q827.3594,185.8125 827.125,186.0781 Q826.8906,186.3438 826.5156,186.3438 Q826.1719,186.3438 825.9688,186.1406 Q825.7656,185.9531 825.6563,185.4375 Q825.6094,185.0781 825.4219,184.8906 Q825.0938,184.5156 824.4844,184.2969 Q823.875,184.0781 823.25,184.0781 Q822.4844,184.0781 821.8516,184.4063 Q821.2188,184.7344 820.7266,185.4844 Q820.2344,186.2344 820.2344,187.2656 L820.2344,188.3594 Q820.2344,189.5938 821.125,190.4141 Q822.0156,191.2344 823.6094,191.2344 Q824.5469,191.2344 825.2031,190.9844 Q825.5938,190.8281 826.0156,190.3906 Q826.2813,190.125 826.4297,190.0469 Q826.5781,189.9688 826.7813,189.9688 Q827.1094,189.9688 827.3672,190.2266 Q827.625,190.4844 827.625,190.8281 Q827.625,191.1719 827.2813,191.5781 Q826.7813,192.1563 825.9844,192.4844 Q824.9063,192.9375 823.6094,192.9375 Q822.0938,192.9375 820.8906,192.3125 Q819.9063,191.8125 819.2188,190.7422 Q818.5313,189.6719 818.5313,188.3906 L818.5313,187.2344 Q818.5313,185.9063 819.1484,184.7578 Q819.7656,183.6094 820.8594,182.9922 Q821.9531,182.375 823.1875,182.375 Q823.9219,182.375 824.5703,182.5391 Q825.2188,182.7031 825.7656,183.0625 Z "/><text fill="#000000" font-family="sans-serif" font-size="12" font-style="italic" lengthAdjust="spacingAndGlyphs" textLength="44" x="966.5" y="169.457">«Entity»</text><text fill="#000000" font-family="sans-serif" font-size="12" font-style="italic" lengthAdjust="spacingAndGlyphs" textLength="46" x="965.5" y="184.5508">«Table»</text><text fill="#000000" font-family="sans-serif" font-size="14" font-weight="bold" lengthAdjust="spacingAndGlyphs" textLength="134" x="921.5" y="201.7207">EventConsumption</text><text fill="#000000" font-family="sans-serif" font-size="10" lengthAdjust="spacingAndGlyphs" textLength="303" x="837" y="215.1777">eapli.framework.infrastructure.eventpubsub.impl.simplepersistent</text></a><!--MD5=[37c134366b034f9ae3df61e3b64cfdc0]
link eapli.framework.infrastructure.eventpubsub.impl.simplepersistent.SpringDataEventConsumptionRepository to eapli.framework.infrastructure.eventpubsub.impl.simplepersistent.EventConsumptionRepository--><path d="M406.763,50 C296.879,50 173.5,50 173.5,50 C173.5,50 173.5,146.7852 173.5,146.7852 " fill="none" id="eapli.framework.infrastructure.eventpubsub.impl.simplepersistent.SpringDataEventConsumptionRepository-&gt;eapli.framework.infrastructure.eventpubsub.impl.simplepersistent.EventConsumptionRepository" style="stroke: #A80036; stroke-width: 1.0;"/><polygon fill="none" points="180.5,146.7852,173.5,166.7852,166.5,146.7851,180.5,146.7852" style="stroke: #A80036; stroke-width: 1.0;"/><!--MD5=[4be43b04b3c6ee081f700126d888ef5f]
link eapli.framework.infrastructure.eventpubsub.impl.simplepersistent.SpringDataEventConsumptionRepository to eapli.framework.infrastructure.repositories.impl.springdata.SpringDataBaseRepositoryEventConsumptionLong--><path d="M518.667,92.222 C518.667,92.222 518.667,139.4009 518.667,139.4009 " fill="none" id="eapli.framework.infrastructure.eventpubsub.impl.simplepersistent.SpringDataEventConsumptionRepository-&gt;eapli.framework.infrastructure.repositories.impl.springdata.SpringDataBaseRepositoryEventConsumptionLong" style="stroke: #A80036; stroke-width: 1.0;"/><polygon fill="none" points="525.667,139.401,518.667,159.4009,511.667,139.4009,525.667,139.401" style="stroke: #A80036; stroke-width: 1.0;"/><!--MD5=[6e369aed9f3d912a30da6592117f7618]
link eapli.framework.infrastructure.eventpubsub.impl.simplepersistent.SpringDataEventConsumptionRepository to eapli.framework.infrastructure.eventpubsub.impl.simplepersistent.EventConsumption--><path d="M630.333,92.199 C630.333,121.759 630.333,156 630.333,156 C630.333,156 802.972,156 802.972,156 " fill="none" id="eapli.framework.infrastructure.eventpubsub.impl.simplepersistent.SpringDataEventConsumptionRepository-&gt;eapli.framework.infrastructure.eventpubsub.impl.simplepersistent.EventConsumption" style="stroke: #A80036; stroke-width: 1.0; stroke-dasharray: 7.0,7.0;"/><polygon fill="#A80036" points="807.972,156,798.972,152,802.972,156,798.972,160,807.972,156" style="stroke: #A80036; stroke-width: 1.0;"/><!--MD5=[eb8081d59acbae6ca0529961ad5ab8a4]
@startuml

skinparam svgLinkTarget _parent
skinparam linetype ortho
set namespaceSeparator none
interface "<b><size:14>SpringDataEventConsumptionRepository</b>\n<size:10>eapli.framework.infrastructure.eventpubsub.impl.simplepersistent" as eapli.framework.infrastructure.eventpubsub.impl.simplepersistent.SpringDataEventConsumptionRepository  [[../../../../../../eapli/framework/infrastructure/eventpubsub/impl/simplepersistent/SpringDataEventConsumptionRepository.html{eapli.framework.infrastructure.eventpubsub.impl.simplepersistent.SpringDataEventConsumptionRepository}]] {
{abstract} +Optional<EventConsumption> ofIdentity(Long entityId)
{abstract} +void deleteOfIdentity(Long entityId)
}


interface "<b><size:14>EventConsumptionRepository</b>\n<size:10>eapli.framework.infrastructure.eventpubsub.impl.simplepersistent" as eapli.framework.infrastructure.eventpubsub.impl.simplepersistent.EventConsumptionRepository  [[../../../../../../eapli/framework/infrastructure/eventpubsub/impl/simplepersistent/EventConsumptionRepository.html{eapli.framework.infrastructure.eventpubsub.impl.simplepersistent.EventConsumptionRepository}]] {
}

hide eapli.framework.infrastructure.eventpubsub.impl.simplepersistent.EventConsumptionRepository fields
hide eapli.framework.infrastructure.eventpubsub.impl.simplepersistent.EventConsumptionRepository methods

eapli.framework.infrastructure.eventpubsub.impl.simplepersistent.SpringDataEventConsumptionRepository - -|> eapli.framework.infrastructure.eventpubsub.impl.simplepersistent.EventConsumptionRepository

interface "<b><size:14>SpringDataBaseRepository<EventConsumption, Long></b>\n<size:10>eapli.framework.infrastructure.repositories.impl.springdata" as eapli.framework.infrastructure.repositories.impl.springdata.SpringDataBaseRepositoryEventConsumptionLong <<NoRepositoryBean>> #lightgrey {
}

hide eapli.framework.infrastructure.repositories.impl.springdata.SpringDataBaseRepositoryEventConsumptionLong fields
hide eapli.framework.infrastructure.repositories.impl.springdata.SpringDataBaseRepositoryEventConsumptionLong methods

eapli.framework.infrastructure.eventpubsub.impl.simplepersistent.SpringDataEventConsumptionRepository - -|> eapli.framework.infrastructure.repositories.impl.springdata.SpringDataBaseRepositoryEventConsumptionLong

class "<b><size:14>EventConsumption</b>\n<size:10>eapli.framework.infrastructure.eventpubsub.impl.simplepersistent" as eapli.framework.infrastructure.eventpubsub.impl.simplepersistent.EventConsumption <<Entity>><<Table>> [[../../../../../../eapli/framework/infrastructure/eventpubsub/impl/simplepersistent/EventConsumption.html{eapli.framework.infrastructure.eventpubsub.impl.simplepersistent.EventConsumption}]] {
}

hide eapli.framework.infrastructure.eventpubsub.impl.simplepersistent.EventConsumption fields
hide eapli.framework.infrastructure.eventpubsub.impl.simplepersistent.EventConsumption methods

eapli.framework.infrastructure.eventpubsub.impl.simplepersistent.SpringDataEventConsumptionRepository ..> eapli.framework.infrastructure.eventpubsub.impl.simplepersistent.EventConsumption



@enduml

PlantUML version 1.2020.04(Thu Mar 19 10:16:49 GMT 2020)
(GPL source distribution)
Java Runtime: Java(TM) SE Runtime Environment
JVM: Java HotSpot(TM) 64-Bit Server VM
Java Version: 1.8.0_202-b08
Operating System: Windows 10
Default Encoding: Cp1252
Language: en
Country: US
--></g></svg>