<?xml version="1.0" encoding="UTF-8" standalone="no"?><svg xmlns="http://www.w3.org/2000/svg" xmlns:xlink="http://www.w3.org/1999/xlink" contentScriptType="application/ecmascript" contentStyleType="text/css" height="301px" preserveAspectRatio="none" style="width:346px;height:301px;" version="1.1" viewBox="0 0 346 301" width="346px" zoomAndPan="magnify"><defs><filter height="300%" id="fpa22vl3lgx7l" width="300%" x="-1" y="-1"><feGaussianBlur result="blurOut" stdDeviation="2.0"/><feColorMatrix in="blurOut" result="blurOut2" type="matrix" values="0 0 0 0 0 0 0 0 0 0 0 0 0 0 0 0 0 0 .4 0"/><feOffset dx="4.0" dy="4.0" in="blurOut2" result="blurOut3"/><feBlend in="SourceGraphic" in2="blurOut3" mode="normal"/></filter></defs><g><!--MD5=[dfebd7193a448c8994b1c2f8888d1ece]
class eapli.framework.util.Arrays--><a href="../../../eapli/framework/util/Arrays.html" target="_parent" title="eapli.framework.util.Arrays" xlink:actuate="onRequest" xlink:href="../../../eapli/framework/util/Arrays.html" xlink:show="new" xlink:title="eapli.framework.util.Arrays" xlink:type="simple"><rect fill="#FEFECE" filter="url(#fpa22vl3lgx7l)" height="181.9688" id="eapli.framework.util.Arrays" style="stroke: #A80036; stroke-width: 1.5;" width="329" x="6" y="8"/><ellipse cx="120.25" cy="35.6406" fill="#ADD1B2" rx="11" ry="11" style="stroke: #A80036; stroke-width: 1.0;"/><path d="M123.0156,31.5156 Q123.1719,31.2969 123.3594,31.1875 Q123.5469,31.0781 123.7656,31.0781 Q124.1406,31.0781 124.375,31.3359 Q124.6094,31.5938 124.6094,32.2031 L124.6094,33.6563 Q124.6094,34.2656 124.375,34.5313 Q124.1406,34.7969 123.7656,34.7969 Q123.4219,34.7969 123.2188,34.5938 Q123.0156,34.4063 122.9063,33.8906 Q122.8594,33.5313 122.6719,33.3438 Q122.3438,32.9688 121.7344,32.75 Q121.125,32.5313 120.5,32.5313 Q119.7344,32.5313 119.1016,32.8594 Q118.4688,33.1875 117.9766,33.9375 Q117.4844,34.6875 117.4844,35.7188 L117.4844,36.8125 Q117.4844,38.0469 118.375,38.8672 Q119.2656,39.6875 120.8594,39.6875 Q121.7969,39.6875 122.4531,39.4375 Q122.8438,39.2813 123.2656,38.8438 Q123.5313,38.5781 123.6797,38.5 Q123.8281,38.4219 124.0313,38.4219 Q124.3594,38.4219 124.6172,38.6797 Q124.875,38.9375 124.875,39.2813 Q124.875,39.625 124.5313,40.0313 Q124.0313,40.6094 123.2344,40.9375 Q122.1563,41.3906 120.8594,41.3906 Q119.3438,41.3906 118.1406,40.7656 Q117.1563,40.2656 116.4688,39.1953 Q115.7813,38.125 115.7813,36.8438 L115.7813,35.6875 Q115.7813,34.3594 116.3984,33.2109 Q117.0156,32.0625 118.1094,31.4453 Q119.2031,30.8281 120.4375,30.8281 Q121.1719,30.8281 121.8203,30.9922 Q122.4688,31.1563 123.0156,31.5156 Z "/><text fill="#000000" font-family="sans-serif" font-size="12" font-style="italic" lengthAdjust="spacingAndGlyphs" textLength="44" x="164.75" y="25.457">«Utility»</text><text fill="#000000" font-family="sans-serif" font-size="14" font-weight="bold" lengthAdjust="spacingAndGlyphs" textLength="44" x="164.75" y="42.627">Arrays</text><text fill="#000000" font-family="sans-serif" font-size="10" lengthAdjust="spacingAndGlyphs" textLength="92" x="140.75" y="56.084">eapli.framework.util</text><line style="stroke: #A80036; stroke-width: 1.5;" x1="7" x2="334" y1="63.2813" y2="63.2813"/><line style="stroke: #A80036; stroke-width: 1.5;" x1="7" x2="334" y1="71.2813" y2="71.2813"/><rect fill="#F24D5C" height="6" style="stroke: #C82930; stroke-width: 1.0;" width="6" x="14" y="79.2813"/><text fill="#000000" font-family="sans-serif" font-size="11" lengthAdjust="spacingAndGlyphs" textLength="42" x="26" y="86.7002">Arrays()</text><ellipse cx="17" cy="96.1172" fill="#84BE84" rx="3" ry="3" style="stroke: #038048; stroke-width: 1.0;"/><text fill="#000000" font-family="sans-serif" font-size="11" lengthAdjust="spacingAndGlyphs" text-decoration="underline" textLength="267" x="26" y="100.5361">double zip(double a,double b,DoubleBinaryOperator op)</text><ellipse cx="17" cy="109.9531" fill="#84BE84" rx="3" ry="3" style="stroke: #038048; stroke-width: 1.0;"/><text fill="#000000" font-family="sans-serif" font-size="11" lengthAdjust="spacingAndGlyphs" text-decoration="underline" textLength="245" x="26" y="114.3721">double map(double src,DoubleUnaryOperator map)</text><ellipse cx="17" cy="123.7891" fill="#84BE84" rx="3" ry="3" style="stroke: #038048; stroke-width: 1.0;"/><text fill="#000000" font-family="sans-serif" font-size="11" lengthAdjust="spacingAndGlyphs" text-decoration="underline" textLength="163" x="26" y="128.208">Object map(Object src,IntFunction</text><text fill="#000000" font-family="sans-serif" font-size="11" lengthAdjust="spacingAndGlyphs" text-decoration="underline" textLength="137" x="192" y="128.208">creator,Function&lt;T, U&gt; map)</text><ellipse cx="17" cy="137.625" fill="#84BE84" rx="3" ry="3" style="stroke: #038048; stroke-width: 1.0;"/><text fill="#000000" font-family="sans-serif" font-size="11" lengthAdjust="spacingAndGlyphs" text-decoration="underline" textLength="265" x="26" y="142.0439">void transform(double dest,DoubleUnaryOperator map)</text><ellipse cx="17" cy="151.4609" fill="#84BE84" rx="3" ry="3" style="stroke: #038048; stroke-width: 1.0;"/><text fill="#000000" font-family="sans-serif" font-size="11" lengthAdjust="spacingAndGlyphs" text-decoration="underline" textLength="249" x="26" y="155.8799">void transform(Object dest,UnaryOperator&lt;T&gt; map)</text><ellipse cx="17" cy="165.2969" fill="#84BE84" rx="3" ry="3" style="stroke: #038048; stroke-width: 1.0;"/><text fill="#000000" font-family="sans-serif" font-size="11" lengthAdjust="spacingAndGlyphs" text-decoration="underline" textLength="199" x="26" y="169.7158">boolean contains(Object src,Object elem)</text><ellipse cx="17" cy="179.1328" fill="#84BE84" rx="3" ry="3" style="stroke: #038048; stroke-width: 1.0;"/><text fill="#000000" font-family="sans-serif" font-size="11" lengthAdjust="spacingAndGlyphs" text-decoration="underline" textLength="169" x="26" y="183.5518">int indexOf(Object src,Object elem)</text></a><!--MD5=[274ad5661286b626a93603d287cbf95a]
class java.lang.Object--><rect fill="#D3D3D3" filter="url(#fpa22vl3lgx7l)" height="40.1875" id="java.lang.Object" style="stroke: #A80036; stroke-width: 1.5;" width="78" x="131.5" y="250"/><rect fill="#D3D3D3" height="40.1875" style="stroke: #A80036; stroke-width: 1.5;" width="78" x="131.5" y="250"/><ellipse cx="146.5" cy="270.0938" fill="#ADD1B2" rx="11" ry="11" style="stroke: #A80036; stroke-width: 1.0;"/><path d="M149.2656,265.9688 Q149.4219,265.75 149.6094,265.6406 Q149.7969,265.5313 150.0156,265.5313 Q150.3906,265.5313 150.625,265.7891 Q150.8594,266.0469 150.8594,266.6563 L150.8594,268.1094 Q150.8594,268.7188 150.625,268.9844 Q150.3906,269.25 150.0156,269.25 Q149.6719,269.25 149.4688,269.0469 Q149.2656,268.8594 149.1563,268.3438 Q149.1094,267.9844 148.9219,267.7969 Q148.5938,267.4219 147.9844,267.2031 Q147.375,266.9844 146.75,266.9844 Q145.9844,266.9844 145.3516,267.3125 Q144.7188,267.6406 144.2266,268.3906 Q143.7344,269.1406 143.7344,270.1719 L143.7344,271.2656 Q143.7344,272.5 144.625,273.3203 Q145.5156,274.1406 147.1094,274.1406 Q148.0469,274.1406 148.7031,273.8906 Q149.0938,273.7344 149.5156,273.2969 Q149.7813,273.0313 149.9297,272.9531 Q150.0781,272.875 150.2813,272.875 Q150.6094,272.875 150.8672,273.1328 Q151.125,273.3906 151.125,273.7344 Q151.125,274.0781 150.7813,274.4844 Q150.2813,275.0625 149.4844,275.3906 Q148.4063,275.8438 147.1094,275.8438 Q145.5938,275.8438 144.3906,275.2188 Q143.4063,274.7188 142.7188,273.6484 Q142.0313,272.5781 142.0313,271.2969 L142.0313,270.1406 Q142.0313,268.8125 142.6484,267.6641 Q143.2656,266.5156 144.3594,265.8984 Q145.4531,265.2813 146.6875,265.2813 Q147.4219,265.2813 148.0703,265.4453 Q148.7188,265.6094 149.2656,265.9688 Z "/><text fill="#000000" font-family="sans-serif" font-size="14" font-weight="bold" lengthAdjust="spacingAndGlyphs" textLength="46" x="160.5" y="269.5332">Object</text><text fill="#000000" font-family="sans-serif" font-size="10" lengthAdjust="spacingAndGlyphs" textLength="44" x="161.5" y="282.9902">java.lang</text><!--MD5=[9c621575f0fbd0427c3642210baa92ab]
link eapli.framework.util.Arrays to java.lang.Object--><path d="M170.5,190.0074 C170.5,190.0074 170.5,244.6927 170.5,244.6927 " fill="none" id="eapli.framework.util.Arrays-&gt;java.lang.Object" style="stroke: #A80036; stroke-width: 1.0; stroke-dasharray: 7.0,7.0;"/><polygon fill="#A80036" points="170.5,249.6927,174.5,240.6927,170.5,244.6927,166.5,240.6927,170.5,249.6927" style="stroke: #A80036; stroke-width: 1.0;"/><!--MD5=[9af26977c14125d401198bf6869c4a01]
@startuml

skinparam svgLinkTarget _parent
skinparam linetype ortho
set namespaceSeparator none
class "<b><size:14>Arrays</b>\n<size:10>eapli.framework.util" as eapli.framework.util.Arrays <<Utility>> [[../../../eapli/framework/util/Arrays.html{eapli.framework.util.Arrays}]] {
-Arrays()
{static} +double zip(double a,double b,DoubleBinaryOperator op)
{static} +double map(double src,DoubleUnaryOperator map)
{static} +Object map(Object src,IntFunction<U> creator,Function<T, U> map)
{static} +void transform(double dest,DoubleUnaryOperator map)
{static} +void transform(Object dest,UnaryOperator<T> map)
{static} +boolean contains(Object src,Object elem)
{static} +int indexOf(Object src,Object elem)
}




class "<b><size:14>Object</b>\n<size:10>java.lang" as java.lang.Object  #lightgrey {
}

hide java.lang.Object fields
hide java.lang.Object methods

eapli.framework.util.Arrays ..> java.lang.Object





@enduml

PlantUML version 1.2020.04(Thu Mar 19 10:16:49 GMT 2020)
(GPL source distribution)
Java Runtime: Java(TM) SE Runtime Environment
JVM: Java HotSpot(TM) 64-Bit Server VM
Java Version: 1.8.0_202-b08
Operating System: Windows 10
Default Encoding: Cp1252
Language: en
Country: US
--></g></svg>