<?xml version="1.0" encoding="UTF-8" standalone="no"?><svg xmlns="http://www.w3.org/2000/svg" xmlns:xlink="http://www.w3.org/1999/xlink" contentScriptType="application/ecmascript" contentStyleType="text/css" height="357px" preserveAspectRatio="none" style="width:391px;height:357px;" version="1.1" viewBox="0 0 391 357" width="391px" zoomAndPan="magnify"><defs><filter height="300%" id="f15o1zv5lkhvf0" width="300%" x="-1" y="-1"><feGaussianBlur result="blurOut" stdDeviation="2.0"/><feColorMatrix in="blurOut" result="blurOut2" type="matrix" values="0 0 0 0 0 0 0 0 0 0 0 0 0 0 0 0 0 0 .4 0"/><feOffset dx="4.0" dy="4.0" in="blurOut2" result="blurOut3"/><feBlend in="SourceGraphic" in2="blurOut3" mode="normal"/></filter></defs><g><!--class X--><rect fill="#FEFECE" filter="url(#f15o1zv5lkhvf0)" height="61.8359" id="X" style="stroke: #A80036; stroke-width: 1.5;" width="54" x="280.5" y="31"/><ellipse cx="301.8" cy="47" fill="#B4A7E5" rx="11" ry="11" style="stroke: #A80036; stroke-width: 1.0;"/><path d="M302.7531,43.6406 L302.7531,50.2969 L304.4719,50.2969 Q305.0813,50.2969 305.3469,50.5313 Q305.6125,50.7656 305.6125,51.1563 Q305.6125,51.5313 305.3469,51.7656 Q305.0813,52 304.4719,52 L299.3313,52 Q298.7219,52 298.4563,51.7656 Q298.1906,51.5313 298.1906,51.1406 Q298.1906,50.7656 298.4563,50.5313 Q298.7219,50.2969 299.3313,50.2969 L301.05,50.2969 L301.05,43.6406 L299.3313,43.6406 Q298.7219,43.6406 298.4563,43.4063 Q298.1906,43.1719 298.1906,42.7813 Q298.1906,42.4063 298.4563,42.1719 Q298.7219,41.9375 299.3313,41.9375 L304.4719,41.9375 Q305.0813,41.9375 305.3469,42.1719 Q305.6125,42.4063 305.6125,42.7813 Q305.6125,43.1719 305.3469,43.4063 Q305.0813,43.6406 304.4719,43.6406 L302.7531,43.6406 Z "/><text fill="#000000" font-family="sans-serif" font-size="12" font-style="italic" lengthAdjust="spacingAndGlyphs" textLength="8" x="317.2" y="51.9102">X</text><line style="stroke: #A80036; stroke-width: 1.5;" x1="281.5" x2="333.5" y1="63" y2="63"/><line style="stroke: #A80036; stroke-width: 1.5;" x1="281.5" x2="333.5" y1="71" y2="71"/><ellipse cx="291.5" cy="83.418" fill="#84BE84" rx="3" ry="3" style="stroke: #038048; stroke-width: 1.0;"/><text fill="#000000" font-family="sans-serif" font-size="11" lengthAdjust="spacingAndGlyphs" textLength="28" x="300.5" y="86.4189">mxa()</text><!--class Client--><rect fill="#FEFECE" filter="url(#f15o1zv5lkhvf0)" height="61.8359" id="Client" style="stroke: #A80036; stroke-width: 1.5;" width="64" x="178.5" y="31"/><ellipse cx="193.5" cy="47" fill="#ADD1B2" rx="11" ry="11" style="stroke: #A80036; stroke-width: 1.0;"/><path d="M196.2656,42.875 Q196.4219,42.6563 196.6094,42.5469 Q196.7969,42.4375 197.0156,42.4375 Q197.3906,42.4375 197.625,42.6953 Q197.8594,42.9531 197.8594,43.5625 L197.8594,45.0156 Q197.8594,45.625 197.625,45.8906 Q197.3906,46.1563 197.0156,46.1563 Q196.6719,46.1563 196.4688,45.9531 Q196.2656,45.7656 196.1563,45.25 Q196.1094,44.8906 195.9219,44.7031 Q195.5938,44.3281 194.9844,44.1094 Q194.375,43.8906 193.75,43.8906 Q192.9844,43.8906 192.3516,44.2188 Q191.7188,44.5469 191.2266,45.2969 Q190.7344,46.0469 190.7344,47.0781 L190.7344,48.1719 Q190.7344,49.4063 191.625,50.2266 Q192.5156,51.0469 194.1094,51.0469 Q195.0469,51.0469 195.7031,50.7969 Q196.0938,50.6406 196.5156,50.2031 Q196.7813,49.9375 196.9297,49.8594 Q197.0781,49.7813 197.2813,49.7813 Q197.6094,49.7813 197.8672,50.0391 Q198.125,50.2969 198.125,50.6406 Q198.125,50.9844 197.7813,51.3906 Q197.2813,51.9688 196.4844,52.2969 Q195.4063,52.75 194.1094,52.75 Q192.5938,52.75 191.3906,52.125 Q190.4063,51.625 189.7188,50.5547 Q189.0313,49.4844 189.0313,48.2031 L189.0313,47.0469 Q189.0313,45.7188 189.6484,44.5703 Q190.2656,43.4219 191.3594,42.8047 Q192.4531,42.1875 193.6875,42.1875 Q194.4219,42.1875 195.0703,42.3516 Q195.7188,42.5156 196.2656,42.875 Z "/><text fill="#000000" font-family="sans-serif" font-size="12" lengthAdjust="spacingAndGlyphs" textLength="32" x="207.5" y="51.9102">Client</text><line style="stroke: #A80036; stroke-width: 1.5;" x1="179.5" x2="241.5" y1="63" y2="63"/><line style="stroke: #A80036; stroke-width: 1.5;" x1="179.5" x2="241.5" y1="71" y2="71"/><ellipse cx="189.5" cy="83.418" fill="#84BE84" rx="3" ry="3" style="stroke: #038048; stroke-width: 1.0;"/><text fill="#000000" font-family="sans-serif" font-size="11" lengthAdjust="spacingAndGlyphs" textLength="16" x="198.5" y="86.4189">m()</text><polygon fill="#FBFB77" filter="url(#f15o1zv5lkhvf0)" points="6,8,6,116.1094,143,116.1094,143,18,133,8,6,8" style="stroke: #A80036; stroke-width: 1.0;"/><polygon fill="#FBFB77" points="6,8,6,116.1094,143,116.1094,143,66,178.347,62,143,58,143,18,133,8,6,8" style="stroke: #A80036; stroke-width: 1.0;"/><line style="stroke: #A80036; stroke-width: 1.0;" x1="133" x2="133" y1="8" y2="18"/><line style="stroke: #A80036; stroke-width: 1.0;" x1="143" x2="133" y1="18" y2="18"/><text fill="#000000" font-family="sans-serif" font-size="13" lengthAdjust="spacingAndGlyphs" textLength="27" x="12" y="26.4951">m() {</text><text fill="#000000" font-family="sans-serif" font-size="13" lengthAdjust="spacingAndGlyphs" textLength="116" x="12" y="42.8467">X x = factory.build();</text><text fill="#000000" font-family="sans-serif" font-size="13" lengthAdjust="spacingAndGlyphs" textLength="20" x="12" y="59.1982">. . .</text><text fill="#000000" font-family="sans-serif" font-size="13" lengthAdjust="spacingAndGlyphs" textLength="48" x="12" y="75.5498">x.mxa();</text><text fill="#000000" font-family="sans-serif" font-size="13" lengthAdjust="spacingAndGlyphs" textLength="20" x="12" y="91.9014">. . .</text><text fill="#000000" font-family="sans-serif" font-size="13" lengthAdjust="spacingAndGlyphs" textLength="4" x="12" y="108.2529">}</text><!--class XptoFactory--><rect fill="#FEFECE" filter="url(#f15o1zv5lkhvf0)" height="61.8359" id="XptoFactory" style="stroke: #A80036; stroke-width: 1.5;" width="95" x="161" y="176"/><ellipse cx="176" cy="192" fill="#ADD1B2" rx="11" ry="11" style="stroke: #A80036; stroke-width: 1.0;"/><path d="M178.7656,187.875 Q178.9219,187.6563 179.1094,187.5469 Q179.2969,187.4375 179.5156,187.4375 Q179.8906,187.4375 180.125,187.6953 Q180.3594,187.9531 180.3594,188.5625 L180.3594,190.0156 Q180.3594,190.625 180.125,190.8906 Q179.8906,191.1563 179.5156,191.1563 Q179.1719,191.1563 178.9688,190.9531 Q178.7656,190.7656 178.6563,190.25 Q178.6094,189.8906 178.4219,189.7031 Q178.0938,189.3281 177.4844,189.1094 Q176.875,188.8906 176.25,188.8906 Q175.4844,188.8906 174.8516,189.2188 Q174.2188,189.5469 173.7266,190.2969 Q173.2344,191.0469 173.2344,192.0781 L173.2344,193.1719 Q173.2344,194.4063 174.125,195.2266 Q175.0156,196.0469 176.6094,196.0469 Q177.5469,196.0469 178.2031,195.7969 Q178.5938,195.6406 179.0156,195.2031 Q179.2813,194.9375 179.4297,194.8594 Q179.5781,194.7813 179.7813,194.7813 Q180.1094,194.7813 180.3672,195.0391 Q180.625,195.2969 180.625,195.6406 Q180.625,195.9844 180.2813,196.3906 Q179.7813,196.9688 178.9844,197.2969 Q177.9063,197.75 176.6094,197.75 Q175.0938,197.75 173.8906,197.125 Q172.9063,196.625 172.2188,195.5547 Q171.5313,194.4844 171.5313,193.2031 L171.5313,192.0469 Q171.5313,190.7188 172.1484,189.5703 Q172.7656,188.4219 173.8594,187.8047 Q174.9531,187.1875 176.1875,187.1875 Q176.9219,187.1875 177.5703,187.3516 Q178.2188,187.5156 178.7656,187.875 Z "/><text fill="#000000" font-family="sans-serif" font-size="12" lengthAdjust="spacingAndGlyphs" textLength="63" x="190" y="196.9102">XptoFactory</text><line style="stroke: #A80036; stroke-width: 1.5;" x1="162" x2="255" y1="208" y2="208"/><line style="stroke: #A80036; stroke-width: 1.5;" x1="162" x2="255" y1="216" y2="216"/><ellipse cx="172" cy="228.418" fill="#84BE84" rx="3" ry="3" style="stroke: #038048; stroke-width: 1.0;"/><text fill="#000000" font-family="sans-serif" font-size="11" lengthAdjust="spacingAndGlyphs" textLength="30" x="181" y="231.4189">build()</text><!--class X1--><rect fill="#FEFECE" filter="url(#f15o1zv5lkhvf0)" height="48" id="X1" style="stroke: #A80036; stroke-width: 1.5;" width="46" x="230.5" y="298"/><ellipse cx="245.5" cy="314" fill="#ADD1B2" rx="11" ry="11" style="stroke: #A80036; stroke-width: 1.0;"/><path d="M248.2656,309.875 Q248.4219,309.6563 248.6094,309.5469 Q248.7969,309.4375 249.0156,309.4375 Q249.3906,309.4375 249.625,309.6953 Q249.8594,309.9531 249.8594,310.5625 L249.8594,312.0156 Q249.8594,312.625 249.625,312.8906 Q249.3906,313.1563 249.0156,313.1563 Q248.6719,313.1563 248.4688,312.9531 Q248.2656,312.7656 248.1563,312.25 Q248.1094,311.8906 247.9219,311.7031 Q247.5938,311.3281 246.9844,311.1094 Q246.375,310.8906 245.75,310.8906 Q244.9844,310.8906 244.3516,311.2188 Q243.7188,311.5469 243.2266,312.2969 Q242.7344,313.0469 242.7344,314.0781 L242.7344,315.1719 Q242.7344,316.4063 243.625,317.2266 Q244.5156,318.0469 246.1094,318.0469 Q247.0469,318.0469 247.7031,317.7969 Q248.0938,317.6406 248.5156,317.2031 Q248.7813,316.9375 248.9297,316.8594 Q249.0781,316.7813 249.2813,316.7813 Q249.6094,316.7813 249.8672,317.0391 Q250.125,317.2969 250.125,317.6406 Q250.125,317.9844 249.7813,318.3906 Q249.2813,318.9688 248.4844,319.2969 Q247.4063,319.75 246.1094,319.75 Q244.5938,319.75 243.3906,319.125 Q242.4063,318.625 241.7188,317.5547 Q241.0313,316.4844 241.0313,315.2031 L241.0313,314.0469 Q241.0313,312.7188 241.6484,311.5703 Q242.2656,310.4219 243.3594,309.8047 Q244.4531,309.1875 245.6875,309.1875 Q246.4219,309.1875 247.0703,309.3516 Q247.7188,309.5156 248.2656,309.875 Z "/><text fill="#000000" font-family="sans-serif" font-size="12" lengthAdjust="spacingAndGlyphs" textLength="14" x="259.5" y="318.9102">X1</text><line style="stroke: #A80036; stroke-width: 1.5;" x1="231.5" x2="275.5" y1="330" y2="330"/><line style="stroke: #A80036; stroke-width: 1.5;" x1="231.5" x2="275.5" y1="338" y2="338"/><!--class X2--><rect fill="#FEFECE" filter="url(#f15o1zv5lkhvf0)" height="48" id="X2" style="stroke: #A80036; stroke-width: 1.5;" width="46" x="334.5" y="298"/><ellipse cx="349.5" cy="314" fill="#ADD1B2" rx="11" ry="11" style="stroke: #A80036; stroke-width: 1.0;"/><path d="M352.2656,309.875 Q352.4219,309.6563 352.6094,309.5469 Q352.7969,309.4375 353.0156,309.4375 Q353.3906,309.4375 353.625,309.6953 Q353.8594,309.9531 353.8594,310.5625 L353.8594,312.0156 Q353.8594,312.625 353.625,312.8906 Q353.3906,313.1563 353.0156,313.1563 Q352.6719,313.1563 352.4688,312.9531 Q352.2656,312.7656 352.1563,312.25 Q352.1094,311.8906 351.9219,311.7031 Q351.5938,311.3281 350.9844,311.1094 Q350.375,310.8906 349.75,310.8906 Q348.9844,310.8906 348.3516,311.2188 Q347.7188,311.5469 347.2266,312.2969 Q346.7344,313.0469 346.7344,314.0781 L346.7344,315.1719 Q346.7344,316.4063 347.625,317.2266 Q348.5156,318.0469 350.1094,318.0469 Q351.0469,318.0469 351.7031,317.7969 Q352.0938,317.6406 352.5156,317.2031 Q352.7813,316.9375 352.9297,316.8594 Q353.0781,316.7813 353.2813,316.7813 Q353.6094,316.7813 353.8672,317.0391 Q354.125,317.2969 354.125,317.6406 Q354.125,317.9844 353.7813,318.3906 Q353.2813,318.9688 352.4844,319.2969 Q351.4063,319.75 350.1094,319.75 Q348.5938,319.75 347.3906,319.125 Q346.4063,318.625 345.7188,317.5547 Q345.0313,316.4844 345.0313,315.2031 L345.0313,314.0469 Q345.0313,312.7188 345.6484,311.5703 Q346.2656,310.4219 347.3594,309.8047 Q348.4531,309.1875 349.6875,309.1875 Q350.4219,309.1875 351.0703,309.3516 Q351.7188,309.5156 352.2656,309.875 Z "/><text fill="#000000" font-family="sans-serif" font-size="12" lengthAdjust="spacingAndGlyphs" textLength="14" x="363.5" y="318.9102">X2</text><line style="stroke: #A80036; stroke-width: 1.5;" x1="335.5" x2="379.5" y1="330" y2="330"/><line style="stroke: #A80036; stroke-width: 1.5;" x1="335.5" x2="379.5" y1="338" y2="338"/><!--link Client to X--><path d="M242.707,62 C253.608,62 264.509,62 275.41,62 " fill="none" id="Client-X" style="stroke: #A80036; stroke-width: 1.0; stroke-dasharray: 7.0,7.0;"/><polygon fill="#A80036" points="280.419,62,271.419,58,275.419,62,271.419,66,280.419,62" style="stroke: #A80036; stroke-width: 1.0;"/><!--link Client to XptoFactory--><path d="M210.076,93.327 C209.76,115.888 209.329,146.746 208.997,170.465 " fill="none" id="Client-XptoFactory" style="stroke: #A80036; stroke-width: 1.0; stroke-dasharray: 7.0,7.0;"/><polygon fill="#A80036" points="208.924,175.717,213.0496,166.7739,208.994,170.7175,205.0504,166.6619,208.924,175.717" style="stroke: #A80036; stroke-width: 1.0;"/><!--link X1 to X--><path d="M259.381,297.8087 C263.522,281.1989 269.09,258.2769 273.5,238 C282.625,196.05 291.843,148.182 298.375,113.125 " fill="none" id="X1-X" style="stroke: #A80036; stroke-width: 1.0;"/><polygon fill="none" points="291.554,111.517,302.07,93.121,305.321,114.059,291.554,111.517" style="stroke: #A80036; stroke-width: 1.0;"/><!--link X2 to X--><path d="M354.649,297.7811 C350.968,269.0517 344.011,218.7 335.5,176 C331.329,155.074 325.836,132.189 320.821,112.52 " fill="none" id="X2-X" style="stroke: #A80036; stroke-width: 1.0;"/><polygon fill="none" points="314.016,114.165,315.748,93.046,327.564,110.635,314.016,114.165" style="stroke: #A80036; stroke-width: 1.0;"/><!--link X to XptoFactory--><path d="M283.486,97.687 C266.979,121.53 245.274,152.882 229.465,175.717 " fill="none" id="X-XptoFactory" style="stroke: #A80036; stroke-width: 1.0; stroke-dasharray: 7.0,7.0;"/><polygon fill="#A80036" points="286.505,93.327,278.0919,98.4475,283.6578,97.4371,284.6681,103.003,286.505,93.327" style="stroke: #A80036; stroke-width: 1.0;"/><!--link XptoFactory to X1--><path d="M220.559,238.282 C227.307,255.2263 235.664,276.213 242.273,292.8072 " fill="none" id="XptoFactory-X1" style="stroke: #A80036; stroke-width: 1.0; stroke-dasharray: 7.0,7.0;"/><polygon fill="#A80036" points="244.264,297.8067,244.6505,287.9654,242.4142,293.1615,237.2182,290.9251,244.264,297.8067" style="stroke: #A80036; stroke-width: 1.0;"/><!--link XptoFactory to X2--><path d="M248.429,238.282 C274.235,257.853 307.152,282.8169 330.042,300.1764 " fill="none" id="XptoFactory-X2" style="stroke: #A80036; stroke-width: 1.0; stroke-dasharray: 7.0,7.0;"/><polygon fill="#A80036" points="334.196,303.3263,329.4421,294.7008,330.2121,300.3049,324.6079,301.075,334.196,303.3263" style="stroke: #A80036; stroke-width: 1.0;"/><!--
@startuml
interface X{
           +mxa()
           }

           class Client{
           +m()
           }

           note left of Client
           m() {
           X x = factory.build();
           . . .
           x.mxa();
           . . .
           }
           end note

           class XptoFactory{
           +build()
           }

           Client .right..> X
           Client .down.> XptoFactory

           X <|-up- X1
           X <|-up- X2

           XptoFactory .up.> X
           XptoFactory ..> X1
           XptoFactory ..> X2
@enduml

PlantUML version 1.2017.18(Fri Oct 06 17:56:32 BST 2017)
(GPL source distribution)
Java Runtime: Java(TM) SE Runtime Environment
JVM: Java HotSpot(TM) 64-Bit Server VM
Java Version: 1.8.0_202-b08
Operating System: Windows 10
OS Version: 10.0
Default Encoding: Cp1252
Language: en
Country: US
--></g></svg>