<?xml version="1.0" encoding="UTF-8" standalone="no"?><svg xmlns="http://www.w3.org/2000/svg" xmlns:xlink="http://www.w3.org/1999/xlink" contentScriptType="application/ecmascript" contentStyleType="text/css" height="259px" preserveAspectRatio="none" style="width:315px;height:259px;" version="1.1" viewBox="0 0 315 259" width="315px" zoomAndPan="magnify"><defs><filter height="300%" id="fs62xjlltbk5i" width="300%" x="-1" y="-1"><feGaussianBlur result="blurOut" stdDeviation="2.0"/><feColorMatrix in="blurOut" result="blurOut2" type="matrix" values="0 0 0 0 0 0 0 0 0 0 0 0 0 0 0 0 0 0 .4 0"/><feOffset dx="4.0" dy="4.0" in="blurOut2" result="blurOut3"/><feBlend in="SourceGraphic" in2="blurOut3" mode="normal"/></filter></defs><g><!--MD5=[f9449f84a913af629470c92bdb7d5930]
class eapli.framework.util.Files--><a href="../../../eapli/framework/util/Files.html" target="_parent" title="eapli.framework.util.Files" xlink:actuate="onRequest" xlink:href="../../../eapli/framework/util/Files.html" xlink:show="new" xlink:title="eapli.framework.util.Files" xlink:type="simple"><rect fill="#FEFECE" filter="url(#fs62xjlltbk5i)" height="140.4609" id="eapli.framework.util.Files" style="stroke: #A80036; stroke-width: 1.5;" width="298" x="6" y="8"/><ellipse cx="104.75" cy="35.6406" fill="#ADD1B2" rx="11" ry="11" style="stroke: #A80036; stroke-width: 1.0;"/><path d="M107.5156,31.5156 Q107.6719,31.2969 107.8594,31.1875 Q108.0469,31.0781 108.2656,31.0781 Q108.6406,31.0781 108.875,31.3359 Q109.1094,31.5938 109.1094,32.2031 L109.1094,33.6563 Q109.1094,34.2656 108.875,34.5313 Q108.6406,34.7969 108.2656,34.7969 Q107.9219,34.7969 107.7188,34.5938 Q107.5156,34.4063 107.4063,33.8906 Q107.3594,33.5313 107.1719,33.3438 Q106.8438,32.9688 106.2344,32.75 Q105.625,32.5313 105,32.5313 Q104.2344,32.5313 103.6016,32.8594 Q102.9688,33.1875 102.4766,33.9375 Q101.9844,34.6875 101.9844,35.7188 L101.9844,36.8125 Q101.9844,38.0469 102.875,38.8672 Q103.7656,39.6875 105.3594,39.6875 Q106.2969,39.6875 106.9531,39.4375 Q107.3438,39.2813 107.7656,38.8438 Q108.0313,38.5781 108.1797,38.5 Q108.3281,38.4219 108.5313,38.4219 Q108.8594,38.4219 109.1172,38.6797 Q109.375,38.9375 109.375,39.2813 Q109.375,39.625 109.0313,40.0313 Q108.5313,40.6094 107.7344,40.9375 Q106.6563,41.3906 105.3594,41.3906 Q103.8438,41.3906 102.6406,40.7656 Q101.6563,40.2656 100.9688,39.1953 Q100.2813,38.125 100.2813,36.8438 L100.2813,35.6875 Q100.2813,34.3594 100.8984,33.2109 Q101.5156,32.0625 102.6094,31.4453 Q103.7031,30.8281 104.9375,30.8281 Q105.6719,30.8281 106.3203,30.9922 Q106.9688,31.1563 107.5156,31.5156 Z "/><text fill="#000000" font-family="sans-serif" font-size="12" font-style="italic" lengthAdjust="spacingAndGlyphs" textLength="44" x="149.25" y="25.457">«Utility»</text><text fill="#000000" font-family="sans-serif" font-size="14" font-weight="bold" lengthAdjust="spacingAndGlyphs" textLength="34" x="154.25" y="42.627">Files</text><text fill="#000000" font-family="sans-serif" font-size="10" lengthAdjust="spacingAndGlyphs" textLength="92" x="125.25" y="56.084">eapli.framework.util</text><line style="stroke: #A80036; stroke-width: 1.5;" x1="7" x2="303" y1="63.2813" y2="63.2813"/><line style="stroke: #A80036; stroke-width: 1.5;" x1="7" x2="303" y1="71.2813" y2="71.2813"/><rect fill="#F24D5C" height="6" style="stroke: #C82930; stroke-width: 1.0;" width="6" x="14" y="79.2813"/><text fill="#000000" font-family="sans-serif" font-size="11" lengthAdjust="spacingAndGlyphs" textLength="30" x="26" y="86.7002">Files()</text><ellipse cx="17" cy="96.1172" fill="#84BE84" rx="3" ry="3" style="stroke: #038048; stroke-width: 1.0;"/><text fill="#000000" font-family="sans-serif" font-size="11" lengthAdjust="spacingAndGlyphs" text-decoration="underline" textLength="118" x="26" y="100.5361">String currentDirectory()</text><ellipse cx="17" cy="109.9531" fill="#84BE84" rx="3" ry="3" style="stroke: #038048; stroke-width: 1.0;"/><text fill="#000000" font-family="sans-serif" font-size="11" lengthAdjust="spacingAndGlyphs" text-decoration="underline" textLength="272" x="26" y="114.3721">String ensureExtension(String filename,String extension)</text><ellipse cx="17" cy="123.7891" fill="#84BE84" rx="3" ry="3" style="stroke: #038048; stroke-width: 1.0;"/><text fill="#000000" font-family="sans-serif" font-size="11" lengthAdjust="spacingAndGlyphs" text-decoration="underline" textLength="233" x="26" y="128.208">String contentOf(InputStream is,String encoding)</text><ellipse cx="17" cy="137.625" fill="#84BE84" rx="3" ry="3" style="stroke: #038048; stroke-width: 1.0;"/><text fill="#000000" font-family="sans-serif" font-size="11" lengthAdjust="spacingAndGlyphs" text-decoration="underline" textLength="155" x="26" y="142.0439">String contentOf(InputStream is)</text></a><!--MD5=[fa9a3b769145f837d7bc2faadf88dde7]
class java.io.InputStream--><rect fill="#D3D3D3" filter="url(#fs62xjlltbk5i)" height="40.1875" id="java.io.InputStream" style="stroke: #A80036; stroke-width: 1.5;" width="117" x="96.5" y="208"/><rect fill="#D3D3D3" height="40.1875" style="stroke: #A80036; stroke-width: 1.5;" width="117" x="96.5" y="208"/><ellipse cx="111.5" cy="228.0938" fill="#ADD1B2" rx="11" ry="11" style="stroke: #A80036; stroke-width: 1.0;"/><path d="M114.2656,223.9688 Q114.4219,223.75 114.6094,223.6406 Q114.7969,223.5313 115.0156,223.5313 Q115.3906,223.5313 115.625,223.7891 Q115.8594,224.0469 115.8594,224.6563 L115.8594,226.1094 Q115.8594,226.7188 115.625,226.9844 Q115.3906,227.25 115.0156,227.25 Q114.6719,227.25 114.4688,227.0469 Q114.2656,226.8594 114.1563,226.3438 Q114.1094,225.9844 113.9219,225.7969 Q113.5938,225.4219 112.9844,225.2031 Q112.375,224.9844 111.75,224.9844 Q110.9844,224.9844 110.3516,225.3125 Q109.7188,225.6406 109.2266,226.3906 Q108.7344,227.1406 108.7344,228.1719 L108.7344,229.2656 Q108.7344,230.5 109.625,231.3203 Q110.5156,232.1406 112.1094,232.1406 Q113.0469,232.1406 113.7031,231.8906 Q114.0938,231.7344 114.5156,231.2969 Q114.7813,231.0313 114.9297,230.9531 Q115.0781,230.875 115.2813,230.875 Q115.6094,230.875 115.8672,231.1328 Q116.125,231.3906 116.125,231.7344 Q116.125,232.0781 115.7813,232.4844 Q115.2813,233.0625 114.4844,233.3906 Q113.4063,233.8438 112.1094,233.8438 Q110.5938,233.8438 109.3906,233.2188 Q108.4063,232.7188 107.7188,231.6484 Q107.0313,230.5781 107.0313,229.2969 L107.0313,228.1406 Q107.0313,226.8125 107.6484,225.6641 Q108.2656,224.5156 109.3594,223.8984 Q110.4531,223.2813 111.6875,223.2813 Q112.4219,223.2813 113.0703,223.4453 Q113.7188,223.6094 114.2656,223.9688 Z "/><text fill="#000000" font-family="sans-serif" font-size="14" font-weight="bold" lengthAdjust="spacingAndGlyphs" textLength="85" x="125.5" y="227.5332">InputStream</text><text fill="#000000" font-family="sans-serif" font-size="10" lengthAdjust="spacingAndGlyphs" textLength="32" x="152" y="240.9902">java.io</text><!--MD5=[e41f1d3c084fc1daeb895b0ade9a8a83]
link eapli.framework.util.Files to java.io.InputStream--><path d="M155,148.169 C155,148.169 155,202.8154 155,202.8154 " fill="none" id="eapli.framework.util.Files-&gt;java.io.InputStream" style="stroke: #A80036; stroke-width: 1.0; stroke-dasharray: 7.0,7.0;"/><polygon fill="#A80036" points="155,207.8154,159,198.8154,155,202.8154,151,198.8154,155,207.8154" style="stroke: #A80036; stroke-width: 1.0;"/><!--MD5=[b0c4712ca88c3b0c5c0543daa16c3e65]
@startuml

skinparam svgLinkTarget _parent
skinparam linetype ortho
set namespaceSeparator none
class "<b><size:14>Files</b>\n<size:10>eapli.framework.util" as eapli.framework.util.Files <<Utility>> [[../../../eapli/framework/util/Files.html{eapli.framework.util.Files}]] {
-Files()
{static} +String currentDirectory()
{static} +String ensureExtension(String filename,String extension)
{static} +String contentOf(InputStream is,String encoding)
{static} +String contentOf(InputStream is)
}


class "<b><size:14>InputStream</b>\n<size:10>java.io" as java.io.InputStream  #lightgrey {
}

hide java.io.InputStream fields
hide java.io.InputStream methods

eapli.framework.util.Files ..> java.io.InputStream


@enduml

PlantUML version 1.2020.04(Thu Mar 19 10:16:49 GMT 2020)
(GPL source distribution)
Java Runtime: Java(TM) SE Runtime Environment
JVM: Java HotSpot(TM) 64-Bit Server VM
Java Version: 1.8.0_202-b08
Operating System: Windows 10
Default Encoding: Cp1252
Language: en
Country: US
--></g></svg>