@startuml

skinparam svgLinkTarget _parent
skinparam linetype ortho
set namespaceSeparator none
class "<b><size:14>HashCoder</b>\n<size:10>eapli.framework.util" as eapli.framework.util.HashCoder  [[../../../eapli/framework/util/HashCoder.html{eapli.framework.util.HashCoder}]] {
-int result
+HashCoder()
+HashCoder(int seed)
{static} +int part(boolean f)
{static} +int part(byte f)
{static} +int part(char f)
{static} +int part(short f)
{static} +int part(int f)
{static} +int part(long f)
{static} +int part(float f)
{static} +int part(double f)
{static} +int part(Object f)
{static} +int compute(int currentHash,int partHash)
{static} +int hash(Object f)
+HashCoder with(boolean f)
+HashCoder with(boolean f)
+HashCoder with(byte f)
+HashCoder with(byte f)
+HashCoder with(char f)
+HashCoder with(char f)
+HashCoder with(short f)
+HashCoder with(short f)
+HashCoder with(int f)
+HashCoder with(int f)
+HashCoder with(long f)
+HashCoder with(long f)
+HashCoder with(float f)
+HashCoder with(float f)
+HashCoder with(double f)
+HashCoder with(double f)
+HashCoder with(Object f)
+HashCoder with(Object f)
+int code()
}



@enduml
