@startuml

skinparam svgLinkTarget _parent
skinparam linetype ortho
set namespaceSeparator none
class "<b><size:14>NumberGenerator</b>\n<size:10>eapli.framework.util" as eapli.framework.util.NumberGenerator <<Utility>> [[../../../eapli/framework/util/NumberGenerator.html{eapli.framework.util.NumberGenerator}]] {
{static} -Random RANDOM_GEN
-NumberGenerator()
{static} +int anInt()
{static} +int anInt(int bound)
{static} +float aFloat()
{static} +boolean heads()
}




@enduml
