@startuml

skinparam svgLinkTarget _parent
skinparam linetype ortho
set namespaceSeparator none
interface "<b><size:14>Strategy</b>\n<size:10>eapli.framework.util" as eapli.framework.util.Strategy  [[../../../eapli/framework/util/Strategy.html{eapli.framework.util.Strategy}]] {
}



@enduml
