@startuml

skinparam svgLinkTarget _parent
skinparam linetype ortho
set namespaceSeparator none
class "<b><size:14>StringFormater</b>\n<size:10>eapli.framework.util" as eapli.framework.util.StringFormater <<Utility>> [[../../../eapli/framework/util/StringFormater.html{eapli.framework.util.StringFormater}]] {
-StringFormater()
{static} +String prettyformatJson(String input)
{static} +String prettyFormatXml(String input)
{static} +String prettyFormatXml(String input,int indent)
}



@enduml
