<?xml version="1.0" encoding="UTF-8" standalone="no"?><svg xmlns="http://www.w3.org/2000/svg" xmlns:xlink="http://www.w3.org/1999/xlink" contentScriptType="application/ecmascript" contentStyleType="text/css" height="266px" preserveAspectRatio="none" style="width:449px;height:266px;" version="1.1" viewBox="0 0 449 266" width="449px" zoomAndPan="magnify"><defs><filter height="300%" id="fc44xm73r7obk" width="300%" x="-1" y="-1"><feGaussianBlur result="blurOut" stdDeviation="2.0"/><feColorMatrix in="blurOut" result="blurOut2" type="matrix" values="0 0 0 0 0 0 0 0 0 0 0 0 0 0 0 0 0 0 .4 0"/><feOffset dx="4.0" dy="4.0" in="blurOut2" result="blurOut3"/><feBlend in="SourceGraphic" in2="blurOut3" mode="normal"/></filter></defs><g><!--class ECafeteriaBaseApplication--><rect fill="#FEFECE" filter="url(#fc44xm73r7obk)" height="111.5313" id="ECafeteriaBaseApplication" style="stroke: #A80036; stroke-width: 1.5;" width="179" x="20.5" y="8"/><ellipse cx="35.5" cy="28.0938" fill="#ADD1B2" rx="11" ry="11" style="stroke: #A80036; stroke-width: 1.0;"/><path d="M38.2656,23.9688 Q38.4219,23.75 38.6094,23.6406 Q38.7969,23.5313 39.0156,23.5313 Q39.3906,23.5313 39.625,23.7891 Q39.8594,24.0469 39.8594,24.6563 L39.8594,26.1094 Q39.8594,26.7188 39.625,26.9844 Q39.3906,27.25 39.0156,27.25 Q38.6719,27.25 38.4688,27.0469 Q38.2656,26.8594 38.1563,26.3438 Q38.1094,25.9844 37.9219,25.7969 Q37.5938,25.4219 36.9844,25.2031 Q36.375,24.9844 35.75,24.9844 Q34.9844,24.9844 34.3516,25.3125 Q33.7188,25.6406 33.2266,26.3906 Q32.7344,27.1406 32.7344,28.1719 L32.7344,29.2656 Q32.7344,30.5 33.625,31.3203 Q34.5156,32.1406 36.1094,32.1406 Q37.0469,32.1406 37.7031,31.8906 Q38.0938,31.7344 38.5156,31.2969 Q38.7813,31.0313 38.9297,30.9531 Q39.0781,30.875 39.2813,30.875 Q39.6094,30.875 39.8672,31.1328 Q40.125,31.3906 40.125,31.7344 Q40.125,32.0781 39.7813,32.4844 Q39.2813,33.0625 38.4844,33.3906 Q37.4063,33.8438 36.1094,33.8438 Q34.5938,33.8438 33.3906,33.2188 Q32.4063,32.7188 31.7188,31.6484 Q31.0313,30.5781 31.0313,29.2969 L31.0313,28.1406 Q31.0313,26.8125 31.6484,25.6641 Q32.2656,24.5156 33.3594,23.8984 Q34.4531,23.2813 35.6875,23.2813 Q36.4219,23.2813 37.0703,23.4453 Q37.7188,23.6094 38.2656,23.9688 Z "/><text fill="#000000" font-family="sans-serif" font-size="12" font-style="italic" lengthAdjust="spacingAndGlyphs" textLength="58" x="94" y="25.457">«abstract»</text><text fill="#000000" font-family="sans-serif" font-size="12" lengthAdjust="spacingAndGlyphs" textLength="147" x="49.5" y="40.5508">ECafeteriaBaseApplication</text><line style="stroke: #A80036; stroke-width: 1.5;" x1="21.5" x2="198.5" y1="48.1875" y2="48.1875"/><line style="stroke: #A80036; stroke-width: 1.5;" x1="21.5" x2="198.5" y1="56.1875" y2="56.1875"/><ellipse cx="31.5" cy="68.6055" fill="#84BE84" rx="3" ry="3" style="stroke: #038048; stroke-width: 1.0;"/><text fill="#000000" font-family="sans-serif" font-size="11" lengthAdjust="spacingAndGlyphs" textLength="59" x="40.5" y="71.6064">«final» run()</text><ellipse cx="31.5" cy="82.4414" fill="#84BE84" rx="3" ry="3" style="stroke: #038048; stroke-width: 1.0;"/><text fill="#000000" font-family="sans-serif" font-size="11" lengthAdjust="spacingAndGlyphs" textLength="60" x="40.5" y="85.4424">printFooter()</text><ellipse cx="31.5" cy="96.2773" fill="#84BE84" rx="3" ry="3" style="stroke: #038048; stroke-width: 1.0;"/><text fill="#000000" font-family="sans-serif" font-size="11" lengthAdjust="spacingAndGlyphs" textLength="64" x="40.5" y="99.2783">printHeader()</text><ellipse cx="31.5" cy="110.1133" fill="#84BE84" rx="3" ry="3" style="stroke: #038048; stroke-width: 1.0;"/><text fill="#000000" font-family="sans-serif" font-size="11" font-style="italic" lengthAdjust="spacingAndGlyphs" textLength="44" x="40.5" y="113.1143">doMain()</text><polygon fill="#FBFB77" filter="url(#fc44xm73r7obk)" points="235,10,235,118.1094,427,118.1094,427,20,417,10,235,10" style="stroke: #A80036; stroke-width: 1.0;"/><polygon fill="#FBFB77" points="235,10,235,60,199.781,64,235,68,235,118.1094,427,118.1094,427,20,417,10,235,10" style="stroke: #A80036; stroke-width: 1.0;"/><line style="stroke: #A80036; stroke-width: 1.0;" x1="417" x2="417" y1="10" y2="20"/><line style="stroke: #A80036; stroke-width: 1.0;" x1="427" x2="417" y1="20" y2="20"/><text fill="#008000" font-family="sans-serif" font-size="13" lengthAdjust="spacingAndGlyphs" textLength="171" x="241" y="28.4951">//run() is the template method</text><text fill="#000000" font-family="sans-serif" font-size="13" lengthAdjust="spacingAndGlyphs" textLength="60" x="241" y="44.8467">void run() {</text><text fill="#000000" font-family="sans-serif" font-size="13" lengthAdjust="spacingAndGlyphs" textLength="78" x="241" y="61.1982">printHeader();</text><text fill="#000000" font-family="sans-serif" font-size="13" lengthAdjust="spacingAndGlyphs" textLength="54" x="241" y="77.5498">doMain();</text><text fill="#000000" font-family="sans-serif" font-size="13" lengthAdjust="spacingAndGlyphs" textLength="74" x="241" y="93.9014">printFooter();</text><text fill="#000000" font-family="sans-serif" font-size="13" lengthAdjust="spacingAndGlyphs" textLength="4" x="241" y="110.2529">}</text><!--class ECafeteriaBackOfficeApplication--><rect fill="#FEFECE" filter="url(#fc44xm73r7obk)" height="75.6719" id="ECafeteriaBackOfficeApplication" style="stroke: #A80036; stroke-width: 1.5;" width="208" x="6" y="180"/><ellipse cx="21" cy="196" fill="#ADD1B2" rx="11" ry="11" style="stroke: #A80036; stroke-width: 1.0;"/><path d="M23.7656,191.875 Q23.9219,191.6563 24.1094,191.5469 Q24.2969,191.4375 24.5156,191.4375 Q24.8906,191.4375 25.125,191.6953 Q25.3594,191.9531 25.3594,192.5625 L25.3594,194.0156 Q25.3594,194.625 25.125,194.8906 Q24.8906,195.1563 24.5156,195.1563 Q24.1719,195.1563 23.9688,194.9531 Q23.7656,194.7656 23.6563,194.25 Q23.6094,193.8906 23.4219,193.7031 Q23.0938,193.3281 22.4844,193.1094 Q21.875,192.8906 21.25,192.8906 Q20.4844,192.8906 19.8516,193.2188 Q19.2188,193.5469 18.7266,194.2969 Q18.2344,195.0469 18.2344,196.0781 L18.2344,197.1719 Q18.2344,198.4063 19.125,199.2266 Q20.0156,200.0469 21.6094,200.0469 Q22.5469,200.0469 23.2031,199.7969 Q23.5938,199.6406 24.0156,199.2031 Q24.2813,198.9375 24.4297,198.8594 Q24.5781,198.7813 24.7813,198.7813 Q25.1094,198.7813 25.3672,199.0391 Q25.625,199.2969 25.625,199.6406 Q25.625,199.9844 25.2813,200.3906 Q24.7813,200.9688 23.9844,201.2969 Q22.9063,201.75 21.6094,201.75 Q20.0938,201.75 18.8906,201.125 Q17.9063,200.625 17.2188,199.5547 Q16.5313,198.4844 16.5313,197.2031 L16.5313,196.0469 Q16.5313,194.7188 17.1484,193.5703 Q17.7656,192.4219 18.8594,191.8047 Q19.9531,191.1875 21.1875,191.1875 Q21.9219,191.1875 22.5703,191.3516 Q23.2188,191.5156 23.7656,191.875 Z "/><text fill="#000000" font-family="sans-serif" font-size="12" lengthAdjust="spacingAndGlyphs" textLength="176" x="35" y="200.9102">ECafeteriaBackOfficeApplication</text><line style="stroke: #A80036; stroke-width: 1.5;" x1="7" x2="213" y1="212" y2="212"/><line style="stroke: #A80036; stroke-width: 1.5;" x1="7" x2="213" y1="220" y2="220"/><ellipse cx="17" cy="232.418" fill="#84BE84" rx="3" ry="3" style="stroke: #038048; stroke-width: 1.0;"/><text fill="#000000" font-family="sans-serif" font-size="11" lengthAdjust="spacingAndGlyphs" textLength="42" x="26" y="235.4189">doMain()</text><ellipse cx="17" cy="246.2539" fill="#84BE84" rx="3" ry="3" style="stroke: #038048; stroke-width: 1.0;"/><text fill="#000000" font-family="sans-serif" font-size="11" lengthAdjust="spacingAndGlyphs" textLength="45" x="26" y="249.2549">appTitle()</text><!--link ECafeteriaBaseApplication to ECafeteriaBackOfficeApplication--><path d="M110,140.61 C110,154.143 110,167.6929 110,179.5428 " fill="none" id="ECafeteriaBaseApplication-ECafeteriaBackOfficeApplication" style="stroke: #A80036; stroke-width: 1.0;"/><polygon fill="none" points="103.0001,140.306,110,120.305,117,140.305,103.0001,140.306" style="stroke: #A80036; stroke-width: 1.0;"/><!--
@startuml
class ECafeteriaBaseApplication <<abstract>> {
           +<<final>> run()
           +printFooter()
           +printHeader()
           + {abstract} doMain()
           }

           note right of ECafeteriaBaseApplication
           <font color="green">//run() is the template method
           void run() {
           printHeader();
           doMain();
           printFooter();
           }
           end note

           class ECafeteriaBackOfficeApplication {
           +doMain()
           +appTitle()
           }

           ECafeteriaBaseApplication <|- - ECafeteriaBackOfficeApplication
@enduml

PlantUML version 1.2017.18(Fri Oct 06 17:56:32 BST 2017)
(GPL source distribution)
Java Runtime: Java(TM) SE Runtime Environment
JVM: Java HotSpot(TM) 64-Bit Server VM
Java Version: 1.8.0_202-b08
Operating System: Windows 10
OS Version: 10.0
Default Encoding: Cp1252
Language: en
Country: US
--></g></svg>