@startuml

skinparam svgLinkTarget _parent
skinparam linetype ortho
set namespaceSeparator none
class "<b><size:14>TemplateMethod</b>\n<size:10>eapli.framework.util" as eapli.framework.util.TemplateMethod <<Documented>><<Retention>><<Target>> [[../../../eapli/framework/util/TemplateMethod.html{eapli.framework.util.TemplateMethod}]] {
}


interface "<b><size:14>Annotation</b>\n<size:10>java.lang.annotation" as java.lang.annotation.Annotation  #lightgrey {
}

hide java.lang.annotation.Annotation fields
hide java.lang.annotation.Annotation methods

eapli.framework.util.TemplateMethod ..|> java.lang.annotation.Annotation


@enduml
