<?xml version="1.0" encoding="UTF-8" standalone="no"?><svg xmlns="http://www.w3.org/2000/svg" xmlns:xlink="http://www.w3.org/1999/xlink" contentScriptType="application/ecmascript" contentStyleType="text/css" height="131px" preserveAspectRatio="none" style="width:478px;height:131px;" version="1.1" viewBox="0 0 478 131" width="478px" zoomAndPan="magnify"><defs><filter height="300%" id="f1rcsvsgnbip73" width="300%" x="-1" y="-1"><feGaussianBlur result="blurOut" stdDeviation="2.0"/><feColorMatrix in="blurOut" result="blurOut2" type="matrix" values="0 0 0 0 0 0 0 0 0 0 0 0 0 0 0 0 0 0 .4 0"/><feOffset dx="4.0" dy="4.0" in="blurOut2" result="blurOut3"/><feBlend in="SourceGraphic" in2="blurOut3" mode="normal"/></filter></defs><g><!--MD5=[9c478736b393422d56724133228d9faf]
cluster eapli.framework.infrastructure.eventpubsub.impl.inprocess--><a href="../../../../../../eapli/framework/infrastructure/eventpubsub/impl/inprocess/package-summary.html" target="_parent" title="eapli.framework.infrastructure.eventpubsub.impl.inprocess" xlink:actuate="onRequest" xlink:href="../../../../../../eapli/framework/infrastructure/eventpubsub/impl/inprocess/package-summary.html" xlink:show="new" xlink:title="eapli.framework.infrastructure.eventpubsub.impl.inprocess" xlink:type="simple"><polygon fill="#FFFFE0" filter="url(#f1rcsvsgnbip73)" points="22,24,446,24,453,47.6094,456,47.6094,456,119,22,119,22,24" style="stroke: #000000; stroke-width: 1.5;"/><line style="stroke: #000000; stroke-width: 1.5;" x1="22" x2="453" y1="47.6094" y2="47.6094"/><text fill="#000000" font-family="sans-serif" font-size="14" font-weight="bold" lengthAdjust="spacingAndGlyphs" textLength="418" x="26" y="40.5332">eapli.framework.infrastructure.eventpubsub.impl.inprocess</text></a><!--MD5=[83969dcc1aec12ed63d8f19291a1d0fb]
class eapli.framework.infrastructure.eventpubsub.impl.inprocess.InProcessPubSub--><a href="../../../../../../eapli/framework/infrastructure/eventpubsub/impl/inprocess/InProcessPubSub.html" target="_parent" title="eapli.framework.infrastructure.eventpubsub.impl.inprocess.InProcessPubSub" xlink:actuate="onRequest" xlink:href="../../../../../../eapli/framework/infrastructure/eventpubsub/impl/inprocess/InProcessPubSub.html" xlink:show="new" xlink:title="eapli.framework.infrastructure.eventpubsub.impl.inprocess.InProcessPubSub" xlink:type="simple"><rect fill="#FEFECE" filter="url(#f1rcsvsgnbip73)" height="42.7031" id="eapli.framework.infrastructure.eventpubsub.impl.inprocess.InProcessPubSub" style="stroke: #A80036; stroke-width: 1.5;" width="156" x="161" y="60"/><ellipse cx="176" cy="81.3516" fill="#ADD1B2" rx="11" ry="11" style="stroke: #A80036; stroke-width: 1.0;"/><path d="M178.7656,77.2266 Q178.9219,77.0078 179.1094,76.8984 Q179.2969,76.7891 179.5156,76.7891 Q179.8906,76.7891 180.125,77.0469 Q180.3594,77.3047 180.3594,77.9141 L180.3594,79.3672 Q180.3594,79.9766 180.125,80.2422 Q179.8906,80.5078 179.5156,80.5078 Q179.1719,80.5078 178.9688,80.3047 Q178.7656,80.1172 178.6563,79.6016 Q178.6094,79.2422 178.4219,79.0547 Q178.0938,78.6797 177.4844,78.4609 Q176.875,78.2422 176.25,78.2422 Q175.4844,78.2422 174.8516,78.5703 Q174.2188,78.8984 173.7266,79.6484 Q173.2344,80.3984 173.2344,81.4297 L173.2344,82.5234 Q173.2344,83.7578 174.125,84.5781 Q175.0156,85.3984 176.6094,85.3984 Q177.5469,85.3984 178.2031,85.1484 Q178.5938,84.9922 179.0156,84.5547 Q179.2813,84.2891 179.4297,84.2109 Q179.5781,84.1328 179.7813,84.1328 Q180.1094,84.1328 180.3672,84.3906 Q180.625,84.6484 180.625,84.9922 Q180.625,85.3359 180.2813,85.7422 Q179.7813,86.3203 178.9844,86.6484 Q177.9063,87.1016 176.6094,87.1016 Q175.0938,87.1016 173.8906,86.4766 Q172.9063,85.9766 172.2188,84.9063 Q171.5313,83.8359 171.5313,82.5547 L171.5313,81.3984 Q171.5313,80.0703 172.1484,78.9219 Q172.7656,77.7734 173.8594,77.1563 Q174.9531,76.5391 176.1875,76.5391 Q176.9219,76.5391 177.5703,76.7031 Q178.2188,76.8672 178.7656,77.2266 Z "/><text fill="#000000" font-family="sans-serif" font-size="12" font-style="italic" lengthAdjust="spacingAndGlyphs" textLength="44" x="230" y="77.457">«Utility»</text><text fill="#000000" font-family="sans-serif" font-size="14" font-weight="bold" lengthAdjust="spacingAndGlyphs" textLength="124" x="190" y="94.627">InProcessPubSub</text></a><!--MD5=[9f383cbd80246757a922306cf5cc7c37]
@startuml

skinparam svgLinkTarget _parent
skinparam linetype ortho
package eapli.framework.infrastructure.eventpubsub.impl.inprocess [[../../../../../../eapli/framework/infrastructure/eventpubsub/impl/inprocess/package-summary.html{eapli.framework.infrastructure.eventpubsub.impl.inprocess}]] #lightyellow {
}

class "<b><size:14>InProcessPubSub</b>" as eapli.framework.infrastructure.eventpubsub.impl.inprocess.InProcessPubSub <<Utility>> [[../../../../../../eapli/framework/infrastructure/eventpubsub/impl/inprocess/InProcessPubSub.html{eapli.framework.infrastructure.eventpubsub.impl.inprocess.InProcessPubSub}]] {
}

hide eapli.framework.infrastructure.eventpubsub.impl.inprocess.InProcessPubSub fields
hide eapli.framework.infrastructure.eventpubsub.impl.inprocess.InProcessPubSub methods


@enduml

PlantUML version 1.2020.04(Thu Mar 19 10:16:49 GMT 2020)
(GPL source distribution)
Java Runtime: Java(TM) SE Runtime Environment
JVM: Java HotSpot(TM) 64-Bit Server VM
Java Version: 1.8.0_202-b08
Operating System: Windows 10
Default Encoding: Cp1252
Language: en
Country: US
--></g></svg>