<?xml version="1.0" encoding="UTF-8" standalone="no"?><svg xmlns="http://www.w3.org/2000/svg" xmlns:xlink="http://www.w3.org/1999/xlink" contentScriptType="application/ecmascript" contentStyleType="text/css" height="565px" preserveAspectRatio="none" style="width:366px;height:565px;" version="1.1" viewBox="0 0 366 565" width="366px" zoomAndPan="magnify"><defs><filter height="300%" id="f4xc43mjlf5cs" width="300%" x="-1" y="-1"><feGaussianBlur result="blurOut" stdDeviation="2.0"/><feColorMatrix in="blurOut" result="blurOut2" type="matrix" values="0 0 0 0 0 0 0 0 0 0 0 0 0 0 0 0 0 0 .4 0"/><feOffset dx="4.0" dy="4.0" in="blurOut2" result="blurOut3"/><feBlend in="SourceGraphic" in2="blurOut3" mode="normal"/></filter></defs><g><!--class DomainEntity--><rect fill="#FEFECE" filter="url(#f4xc43mjlf5cs)" height="48" id="DomainEntity" style="stroke: #A80036; stroke-width: 1.5;" width="106" x="149.5" y="271"/><ellipse cx="164.5" cy="287" fill="#B4A7E5" rx="11" ry="11" style="stroke: #A80036; stroke-width: 1.0;"/><path d="M165.4531,283.6406 L165.4531,290.2969 L167.1719,290.2969 Q167.7813,290.2969 168.0469,290.5313 Q168.3125,290.7656 168.3125,291.1563 Q168.3125,291.5313 168.0469,291.7656 Q167.7813,292 167.1719,292 L162.0313,292 Q161.4219,292 161.1563,291.7656 Q160.8906,291.5313 160.8906,291.1406 Q160.8906,290.7656 161.1563,290.5313 Q161.4219,290.2969 162.0313,290.2969 L163.75,290.2969 L163.75,283.6406 L162.0313,283.6406 Q161.4219,283.6406 161.1563,283.4063 Q160.8906,283.1719 160.8906,282.7813 Q160.8906,282.4063 161.1563,282.1719 Q161.4219,281.9375 162.0313,281.9375 L167.1719,281.9375 Q167.7813,281.9375 168.0469,282.1719 Q168.3125,282.4063 168.3125,282.7813 Q168.3125,283.1719 168.0469,283.4063 Q167.7813,283.6406 167.1719,283.6406 L165.4531,283.6406 Z "/><text fill="#000000" font-family="sans-serif" font-size="12" font-style="italic" lengthAdjust="spacingAndGlyphs" textLength="74" x="178.5" y="291.9102">DomainEntity</text><line style="stroke: #A80036; stroke-width: 1.5;" x1="150.5" x2="254.5" y1="303" y2="303"/><line style="stroke: #A80036; stroke-width: 1.5;" x1="150.5" x2="254.5" y1="311" y2="311"/><!--class DomainEvent--><rect fill="#FEFECE" filter="url(#f4xc43mjlf5cs)" height="48" id="DomainEvent" style="stroke: #A80036; stroke-width: 1.5;" width="107" x="88" y="506"/><ellipse cx="103" cy="522" fill="#B4A7E5" rx="11" ry="11" style="stroke: #A80036; stroke-width: 1.0;"/><path d="M103.9531,518.6406 L103.9531,525.2969 L105.6719,525.2969 Q106.2813,525.2969 106.5469,525.5313 Q106.8125,525.7656 106.8125,526.1563 Q106.8125,526.5313 106.5469,526.7656 Q106.2813,527 105.6719,527 L100.5313,527 Q99.9219,527 99.6563,526.7656 Q99.3906,526.5313 99.3906,526.1406 Q99.3906,525.7656 99.6563,525.5313 Q99.9219,525.2969 100.5313,525.2969 L102.25,525.2969 L102.25,518.6406 L100.5313,518.6406 Q99.9219,518.6406 99.6563,518.4063 Q99.3906,518.1719 99.3906,517.7813 Q99.3906,517.4063 99.6563,517.1719 Q99.9219,516.9375 100.5313,516.9375 L105.6719,516.9375 Q106.2813,516.9375 106.5469,517.1719 Q106.8125,517.4063 106.8125,517.7813 Q106.8125,518.1719 106.5469,518.4063 Q106.2813,518.6406 105.6719,518.6406 L103.9531,518.6406 Z "/><text fill="#000000" font-family="sans-serif" font-size="12" font-style="italic" lengthAdjust="spacingAndGlyphs" textLength="75" x="117" y="526.9102">DomainEvent</text><line style="stroke: #A80036; stroke-width: 1.5;" x1="89" x2="194" y1="538" y2="538"/><line style="stroke: #A80036; stroke-width: 1.5;" x1="89" x2="194" y1="546" y2="546"/><!--class ValueObject--><rect fill="#FEFECE" filter="url(#f4xc43mjlf5cs)" height="48" id="ValueObject" style="stroke: #A80036; stroke-width: 1.5;" width="100" x="255.5" y="397"/><ellipse cx="270.5" cy="413" fill="#B4A7E5" rx="11" ry="11" style="stroke: #A80036; stroke-width: 1.0;"/><path d="M271.4531,409.6406 L271.4531,416.2969 L273.1719,416.2969 Q273.7813,416.2969 274.0469,416.5313 Q274.3125,416.7656 274.3125,417.1563 Q274.3125,417.5313 274.0469,417.7656 Q273.7813,418 273.1719,418 L268.0313,418 Q267.4219,418 267.1563,417.7656 Q266.8906,417.5313 266.8906,417.1406 Q266.8906,416.7656 267.1563,416.5313 Q267.4219,416.2969 268.0313,416.2969 L269.75,416.2969 L269.75,409.6406 L268.0313,409.6406 Q267.4219,409.6406 267.1563,409.4063 Q266.8906,409.1719 266.8906,408.7813 Q266.8906,408.4063 267.1563,408.1719 Q267.4219,407.9375 268.0313,407.9375 L273.1719,407.9375 Q273.7813,407.9375 274.0469,408.1719 Q274.3125,408.4063 274.3125,408.7813 Q274.3125,409.1719 274.0469,409.4063 Q273.7813,409.6406 273.1719,409.6406 L271.4531,409.6406 Z "/><text fill="#000000" font-family="sans-serif" font-size="12" font-style="italic" lengthAdjust="spacingAndGlyphs" textLength="68" x="284.5" y="417.9102">ValueObject</text><line style="stroke: #A80036; stroke-width: 1.5;" x1="256.5" x2="354.5" y1="429" y2="429"/><line style="stroke: #A80036; stroke-width: 1.5;" x1="256.5" x2="354.5" y1="437" y2="437"/><!--class AggregateRoot--><rect fill="#FEFECE" filter="url(#f4xc43mjlf5cs)" height="48" id="AggregateRoot" style="stroke: #A80036; stroke-width: 1.5;" width="115" x="16" y="145"/><ellipse cx="31" cy="161" fill="#B4A7E5" rx="11" ry="11" style="stroke: #A80036; stroke-width: 1.0;"/><path d="M31.9531,157.6406 L31.9531,164.2969 L33.6719,164.2969 Q34.2813,164.2969 34.5469,164.5313 Q34.8125,164.7656 34.8125,165.1563 Q34.8125,165.5313 34.5469,165.7656 Q34.2813,166 33.6719,166 L28.5313,166 Q27.9219,166 27.6563,165.7656 Q27.3906,165.5313 27.3906,165.1406 Q27.3906,164.7656 27.6563,164.5313 Q27.9219,164.2969 28.5313,164.2969 L30.25,164.2969 L30.25,157.6406 L28.5313,157.6406 Q27.9219,157.6406 27.6563,157.4063 Q27.3906,157.1719 27.3906,156.7813 Q27.3906,156.4063 27.6563,156.1719 Q27.9219,155.9375 28.5313,155.9375 L33.6719,155.9375 Q34.2813,155.9375 34.5469,156.1719 Q34.8125,156.4063 34.8125,156.7813 Q34.8125,157.1719 34.5469,157.4063 Q34.2813,157.6406 33.6719,157.6406 L31.9531,157.6406 Z "/><text fill="#000000" font-family="sans-serif" font-size="12" font-style="italic" lengthAdjust="spacingAndGlyphs" textLength="83" x="45" y="165.9102">AggregateRoot</text><line style="stroke: #A80036; stroke-width: 1.5;" x1="17" x2="130" y1="177" y2="177"/><line style="stroke: #A80036; stroke-width: 1.5;" x1="17" x2="130" y1="185" y2="185"/><!--class Identifiable--><rect fill="#FEFECE" filter="url(#f4xc43mjlf5cs)" height="48" id="Identifiable" style="stroke: #A80036; stroke-width: 1.5;" width="94" x="126.5" y="397"/><ellipse cx="141.5" cy="413" fill="#B4A7E5" rx="11" ry="11" style="stroke: #A80036; stroke-width: 1.0;"/><path d="M142.4531,409.6406 L142.4531,416.2969 L144.1719,416.2969 Q144.7813,416.2969 145.0469,416.5313 Q145.3125,416.7656 145.3125,417.1563 Q145.3125,417.5313 145.0469,417.7656 Q144.7813,418 144.1719,418 L139.0313,418 Q138.4219,418 138.1563,417.7656 Q137.8906,417.5313 137.8906,417.1406 Q137.8906,416.7656 138.1563,416.5313 Q138.4219,416.2969 139.0313,416.2969 L140.75,416.2969 L140.75,409.6406 L139.0313,409.6406 Q138.4219,409.6406 138.1563,409.4063 Q137.8906,409.1719 137.8906,408.7813 Q137.8906,408.4063 138.1563,408.1719 Q138.4219,407.9375 139.0313,407.9375 L144.1719,407.9375 Q144.7813,407.9375 145.0469,408.1719 Q145.3125,408.4063 145.3125,408.7813 Q145.3125,409.1719 145.0469,409.4063 Q144.7813,409.6406 144.1719,409.6406 L142.4531,409.6406 Z "/><text fill="#000000" font-family="sans-serif" font-size="12" font-style="italic" lengthAdjust="spacingAndGlyphs" textLength="62" x="155.5" y="417.9102">Identifiable</text><line style="stroke: #A80036; stroke-width: 1.5;" x1="127.5" x2="219.5" y1="429" y2="429"/><line style="stroke: #A80036; stroke-width: 1.5;" x1="127.5" x2="219.5" y1="437" y2="437"/><!--class DomainFactory--><rect fill="#FEFECE" filter="url(#f4xc43mjlf5cs)" height="48" id="DomainFactory" style="stroke: #A80036; stroke-width: 1.5;" width="116" x="166.5" y="145"/><ellipse cx="181.5" cy="161" fill="#B4A7E5" rx="11" ry="11" style="stroke: #A80036; stroke-width: 1.0;"/><path d="M182.4531,157.6406 L182.4531,164.2969 L184.1719,164.2969 Q184.7813,164.2969 185.0469,164.5313 Q185.3125,164.7656 185.3125,165.1563 Q185.3125,165.5313 185.0469,165.7656 Q184.7813,166 184.1719,166 L179.0313,166 Q178.4219,166 178.1563,165.7656 Q177.8906,165.5313 177.8906,165.1406 Q177.8906,164.7656 178.1563,164.5313 Q178.4219,164.2969 179.0313,164.2969 L180.75,164.2969 L180.75,157.6406 L179.0313,157.6406 Q178.4219,157.6406 178.1563,157.4063 Q177.8906,157.1719 177.8906,156.7813 Q177.8906,156.4063 178.1563,156.1719 Q178.4219,155.9375 179.0313,155.9375 L184.1719,155.9375 Q184.7813,155.9375 185.0469,156.1719 Q185.3125,156.4063 185.3125,156.7813 Q185.3125,157.1719 185.0469,157.4063 Q184.7813,157.6406 184.1719,157.6406 L182.4531,157.6406 Z "/><text fill="#000000" font-family="sans-serif" font-size="12" font-style="italic" lengthAdjust="spacingAndGlyphs" textLength="84" x="195.5" y="165.9102">DomainFactory</text><line style="stroke: #A80036; stroke-width: 1.5;" x1="167.5" x2="281.5" y1="177" y2="177"/><line style="stroke: #A80036; stroke-width: 1.5;" x1="167.5" x2="281.5" y1="185" y2="185"/><!--class DomainRepository--><rect fill="#FEFECE" filter="url(#f4xc43mjlf5cs)" height="75.6719" id="DomainRepository" style="stroke: #A80036; stroke-width: 1.5;" width="135" x="6" y="8"/><ellipse cx="21" cy="24" fill="#B4A7E5" rx="11" ry="11" style="stroke: #A80036; stroke-width: 1.0;"/><path d="M21.9531,20.6406 L21.9531,27.2969 L23.6719,27.2969 Q24.2813,27.2969 24.5469,27.5313 Q24.8125,27.7656 24.8125,28.1563 Q24.8125,28.5313 24.5469,28.7656 Q24.2813,29 23.6719,29 L18.5313,29 Q17.9219,29 17.6563,28.7656 Q17.3906,28.5313 17.3906,28.1406 Q17.3906,27.7656 17.6563,27.5313 Q17.9219,27.2969 18.5313,27.2969 L20.25,27.2969 L20.25,20.6406 L18.5313,20.6406 Q17.9219,20.6406 17.6563,20.4063 Q17.3906,20.1719 17.3906,19.7813 Q17.3906,19.4063 17.6563,19.1719 Q17.9219,18.9375 18.5313,18.9375 L23.6719,18.9375 Q24.2813,18.9375 24.5469,19.1719 Q24.8125,19.4063 24.8125,19.7813 Q24.8125,20.1719 24.5469,20.4063 Q24.2813,20.6406 23.6719,20.6406 L21.9531,20.6406 Z "/><text fill="#000000" font-family="sans-serif" font-size="12" font-style="italic" lengthAdjust="spacingAndGlyphs" textLength="103" x="35" y="28.9102">DomainRepository</text><line style="stroke: #A80036; stroke-width: 1.5;" x1="7" x2="140" y1="40" y2="40"/><line style="stroke: #A80036; stroke-width: 1.5;" x1="7" x2="140" y1="48" y2="48"/><ellipse cx="17" cy="60.418" fill="#84BE84" rx="3" ry="3" style="stroke: #038048; stroke-width: 1.0;"/><text fill="#000000" font-family="sans-serif" font-size="11" lengthAdjust="spacingAndGlyphs" textLength="32" x="26" y="63.4189">save()</text><ellipse cx="17" cy="74.2539" fill="#84BE84" rx="3" ry="3" style="stroke: #038048; stroke-width: 1.0;"/><text fill="#000000" font-family="sans-serif" font-size="11" lengthAdjust="spacingAndGlyphs" textLength="26" x="26" y="77.2549">find()</text><!--link ValueObject to DomainEvent--><path d="M253.122,456.1732 C228.279,472.3819 199.245,491.3249 177.016,505.8279 " fill="none" id="ValueObject-DomainEvent" style="stroke: #A80036; stroke-width: 1.0;"/><polygon fill="none" points="249.339,450.283,269.914,445.217,256.989,462.0085,249.339,450.283" style="stroke: #A80036; stroke-width: 1.0;"/><!--link AggregateRoot to DomainEntity--><path d="M97.4616,193.033 C115.989,210.842 142.022,235.866 163.535,256.545 " fill="none" id="AggregateRoot-DomainEntity" style="stroke: #A80036; stroke-width: 1.0;"/><polygon fill="none" points="168.661,251.763,178.229,270.67,158.959,261.856,168.661,251.763" style="stroke: #A80036; stroke-width: 1.0;"/><!--link DomainEntity to Identifiable--><path d="M197.113,319.033 C193.312,335.286 188.106,357.548 183.549,377.033 " fill="none" id="DomainEntity-Identifiable" style="stroke: #A80036; stroke-width: 1.0;"/><polygon fill="none" points="190.327,378.789,178.956,396.67,176.695,375.601,190.327,378.789" style="stroke: #A80036; stroke-width: 1.0;"/><!--link DomainFactory to DomainEntity--><path d="M220.414,193.033 C216.778,213.522 211.449,243.561 207.548,265.546 " fill="none" id="DomainFactory-DomainEntity" style="stroke: #A80036; stroke-width: 1.0; stroke-dasharray: 7.0,7.0;"/><polygon fill="#A80036" points="206.639,270.67,212.1488,262.5066,207.5119,265.7468,204.2717,261.1099,206.639,270.67" style="stroke: #A80036; stroke-width: 1.0;"/><text fill="#000000" font-family="sans-serif" font-size="13" lengthAdjust="spacingAndGlyphs" textLength="43" x="216.5" y="237.4951">creates</text><!--link DomainRepository to AggregateRoot--><path d="M73.5,84.291 C73.5,102.009 73.5,122.857 73.5,139.315 " fill="none" id="DomainRepository-AggregateRoot" style="stroke: #A80036; stroke-width: 1.0; stroke-dasharray: 7.0,7.0;"/><polygon fill="#A80036" points="73.5,144.717,77.5,135.717,73.5,139.717,69.5,135.717,73.5,144.717" style="stroke: #A80036; stroke-width: 1.0;"/><!--link DomainEntity to ValueObject--><path d="M230.128,329.26 C247.814,350.552 270.323,377.651 286.121,396.67 " fill="none" id="DomainEntity-ValueObject" style="stroke: #A80036; stroke-width: 1.0;"/><polygon fill="#A80036" points="221.632,319.033,222.3885,326.2043,229.2992,328.2642,228.5426,321.0929,221.632,319.033" style="stroke: #A80036; stroke-width: 1.0;"/><text fill="#000000" font-family="sans-serif" font-size="13" lengthAdjust="spacingAndGlyphs" textLength="54" x="261.5" y="363.4951">attributes</text><!--link AggregateRoot to DomainEvent--><path d="M74.5137,193.177 C77.0242,240.962 85.1198,353.612 108.5,445 C113.427,464.2589 121.576,485.0607 128.543,501.1455 " fill="none" id="AggregateRoot-DomainEvent" style="stroke: #A80036; stroke-width: 1.0; stroke-dasharray: 7.0,7.0;"/><polygon fill="#A80036" points="130.662,505.979,130.7107,496.1303,128.6539,501.4,123.3842,499.3432,130.662,505.979" style="stroke: #A80036; stroke-width: 1.0;"/><text fill="#000000" font-family="sans-serif" font-size="13" lengthAdjust="spacingAndGlyphs" textLength="55" x="93.5" y="363.4951">publishes</text><!--
@startuml
interface DomainEntity

           interface DomainEvent extends ValueObject

           interface AggregateRoot

           interface ValueObject

           interface Identifiable

           interface DomainFactory

           interface DomainRepository {
           +save()
           +find()
           }

           AggregateRoot - -|> DomainEntity

           DomainEntity - -|> Identifiable

           DomainFactory ..> DomainEntity : creates

           DomainRepository ..> AggregateRoot

           DomainEntity *- - ValueObject : attributes

           AggregateRoot ..> DomainEvent: publishes
@enduml

PlantUML version 1.2017.18(Fri Oct 06 17:56:32 BST 2017)
(GPL source distribution)
Java Runtime: Java(TM) SE Runtime Environment
JVM: Java HotSpot(TM) 64-Bit Server VM
Java Version: 1.8.0_202-b08
Operating System: Windows 10
OS Version: 10.0
Default Encoding: Cp1252
Language: en
Country: US
--></g></svg>