@startuml

skinparam svgLinkTarget _parent
skinparam linetype ortho
set namespaceSeparator none
class "<b><size:14>ResourceNotFoundException</b>\n<size:10>eapli.framework.services" as eapli.framework.services.ResourceNotFoundException <<ResponseStatus>> [[../../../eapli/framework/services/ResourceNotFoundException.html{eapli.framework.services.ResourceNotFoundException}]] {
{static} -long serialVersionUID
+ResourceNotFoundException()
+ResourceNotFoundException(String message,Throwable cause,boolean enableSuppression,boolean writableStackTrace)
+ResourceNotFoundException(String message,Throwable cause)
+ResourceNotFoundException(String message)
+ResourceNotFoundException(Throwable cause)
}


class "<b><size:14>RuntimeException</b>\n<size:10>java.lang" as java.lang.RuntimeException  #lightgrey {
}

hide java.lang.RuntimeException fields
hide java.lang.RuntimeException methods

eapli.framework.services.ResourceNotFoundException --|> java.lang.RuntimeException


@enduml
