<?xml version="1.0" encoding="UTF-8" standalone="no"?><svg xmlns="http://www.w3.org/2000/svg" xmlns:xlink="http://www.w3.org/1999/xlink" contentScriptType="application/ecmascript" contentStyleType="text/css" height="246px" preserveAspectRatio="none" style="width:521px;height:246px;" version="1.1" viewBox="0 0 521 246" width="521px" zoomAndPan="magnify"><defs><filter height="300%" id="f1s4hlqo9xjbkz" width="300%" x="-1" y="-1"><feGaussianBlur result="blurOut" stdDeviation="2.0"/><feColorMatrix in="blurOut" result="blurOut2" type="matrix" values="0 0 0 0 0 0 0 0 0 0 0 0 0 0 0 0 0 0 .4 0"/><feOffset dx="4.0" dy="4.0" in="blurOut2" result="blurOut3"/><feBlend in="SourceGraphic" in2="blurOut3" mode="normal"/></filter></defs><g><!--MD5=[b57ca0e471a4d2960388046f8fc3527a]
class eapli.framework.domain.model.identities.impl.HexSequenceGenerator--><a href="../../../../../../eapli/framework/domain/model/identities/impl/HexSequenceGenerator.html" target="_parent" title="eapli.framework.domain.model.identities.impl.HexSequenceGenerator" xlink:actuate="onRequest" xlink:href="../../../../../../eapli/framework/domain/model/identities/impl/HexSequenceGenerator.html" xlink:show="new" xlink:title="eapli.framework.domain.model.identities.impl.HexSequenceGenerator" xlink:type="simple"><rect fill="#FEFECE" filter="url(#f1s4hlqo9xjbkz)" height="111.5313" id="eapli.framework.domain.model.identities.impl.HexSequenceGenerator" style="stroke: #A80036; stroke-width: 1.5;" width="248" x="141" y="8"/><ellipse cx="156" cy="28.0938" fill="#ADD1B2" rx="11" ry="11" style="stroke: #A80036; stroke-width: 1.0;"/><path d="M158.7656,23.9688 Q158.9219,23.75 159.1094,23.6406 Q159.2969,23.5313 159.5156,23.5313 Q159.8906,23.5313 160.125,23.7891 Q160.3594,24.0469 160.3594,24.6563 L160.3594,26.1094 Q160.3594,26.7188 160.125,26.9844 Q159.8906,27.25 159.5156,27.25 Q159.1719,27.25 158.9688,27.0469 Q158.7656,26.8594 158.6563,26.3438 Q158.6094,25.9844 158.4219,25.7969 Q158.0938,25.4219 157.4844,25.2031 Q156.875,24.9844 156.25,24.9844 Q155.4844,24.9844 154.8516,25.3125 Q154.2188,25.6406 153.7266,26.3906 Q153.2344,27.1406 153.2344,28.1719 L153.2344,29.2656 Q153.2344,30.5 154.125,31.3203 Q155.0156,32.1406 156.6094,32.1406 Q157.5469,32.1406 158.2031,31.8906 Q158.5938,31.7344 159.0156,31.2969 Q159.2813,31.0313 159.4297,30.9531 Q159.5781,30.875 159.7813,30.875 Q160.1094,30.875 160.3672,31.1328 Q160.625,31.3906 160.625,31.7344 Q160.625,32.0781 160.2813,32.4844 Q159.7813,33.0625 158.9844,33.3906 Q157.9063,33.8438 156.6094,33.8438 Q155.0938,33.8438 153.8906,33.2188 Q152.9063,32.7188 152.2188,31.6484 Q151.5313,30.5781 151.5313,29.2969 L151.5313,28.1406 Q151.5313,26.8125 152.1484,25.6641 Q152.7656,24.5156 153.8594,23.8984 Q154.9531,23.2813 156.1875,23.2813 Q156.9219,23.2813 157.5703,23.4453 Q158.2188,23.6094 158.7656,23.9688 Z "/><text fill="#000000" font-family="sans-serif" font-size="14" font-weight="bold" lengthAdjust="spacingAndGlyphs" textLength="170" x="193" y="27.5332">HexSequenceGenerator</text><text fill="#000000" font-family="sans-serif" font-size="10" lengthAdjust="spacingAndGlyphs" textLength="216" x="170" y="40.9902">eapli.framework.domain.model.identities.impl</text><line style="stroke: #A80036; stroke-width: 1.5;" x1="142" x2="388" y1="48.1875" y2="48.1875"/><rect fill="none" height="6" style="stroke: #C82930; stroke-width: 1.0;" width="6" x="149" y="56.1875"/><text fill="#000000" font-family="sans-serif" font-size="11" lengthAdjust="spacingAndGlyphs" textLength="185" x="161" y="63.6064">NumberSequenceGenerator generator</text><line style="stroke: #A80036; stroke-width: 1.5;" x1="142" x2="388" y1="70.0234" y2="70.0234"/><ellipse cx="152" cy="81.0234" fill="#84BE84" rx="3" ry="3" style="stroke: #038048; stroke-width: 1.0;"/><text fill="#000000" font-family="sans-serif" font-size="11" lengthAdjust="spacingAndGlyphs" textLength="125" x="161" y="85.4424">HexSequenceGenerator()</text><ellipse cx="152" cy="94.8594" fill="#84BE84" rx="3" ry="3" style="stroke: #038048; stroke-width: 1.0;"/><text fill="#000000" font-family="sans-serif" font-size="11" lengthAdjust="spacingAndGlyphs" textLength="176" x="161" y="99.2783">HexSequenceGenerator(Long seed)</text><ellipse cx="152" cy="108.6953" fill="#84BE84" rx="3" ry="3" style="stroke: #038048; stroke-width: 1.0;"/><text fill="#000000" font-family="sans-serif" font-size="11" lengthAdjust="spacingAndGlyphs" textLength="69" x="161" y="113.1143">String newId()</text></a><!--MD5=[71b2dc542b739c96e37f4accbbcef489]
class eapli.framework.domain.model.identities.impl.NumberSequenceGenerator--><a href="../../../../../../eapli/framework/domain/model/identities/impl/NumberSequenceGenerator.html" target="_parent" title="eapli.framework.domain.model.identities.impl.NumberSequenceGenerator" xlink:actuate="onRequest" xlink:href="../../../../../../eapli/framework/domain/model/identities/impl/NumberSequenceGenerator.html" xlink:show="new" xlink:title="eapli.framework.domain.model.identities.impl.NumberSequenceGenerator" xlink:type="simple"><rect fill="#FEFECE" filter="url(#f1s4hlqo9xjbkz)" height="40.1875" id="eapli.framework.domain.model.identities.impl.NumberSequenceGenerator" style="stroke: #A80036; stroke-width: 1.5;" width="248" x="6" y="187.5"/><ellipse cx="21" cy="207.5938" fill="#ADD1B2" rx="11" ry="11" style="stroke: #A80036; stroke-width: 1.0;"/><path d="M23.7656,203.4688 Q23.9219,203.25 24.1094,203.1406 Q24.2969,203.0313 24.5156,203.0313 Q24.8906,203.0313 25.125,203.2891 Q25.3594,203.5469 25.3594,204.1563 L25.3594,205.6094 Q25.3594,206.2188 25.125,206.4844 Q24.8906,206.75 24.5156,206.75 Q24.1719,206.75 23.9688,206.5469 Q23.7656,206.3594 23.6563,205.8438 Q23.6094,205.4844 23.4219,205.2969 Q23.0938,204.9219 22.4844,204.7031 Q21.875,204.4844 21.25,204.4844 Q20.4844,204.4844 19.8516,204.8125 Q19.2188,205.1406 18.7266,205.8906 Q18.2344,206.6406 18.2344,207.6719 L18.2344,208.7656 Q18.2344,210 19.125,210.8203 Q20.0156,211.6406 21.6094,211.6406 Q22.5469,211.6406 23.2031,211.3906 Q23.5938,211.2344 24.0156,210.7969 Q24.2813,210.5313 24.4297,210.4531 Q24.5781,210.375 24.7813,210.375 Q25.1094,210.375 25.3672,210.6328 Q25.625,210.8906 25.625,211.2344 Q25.625,211.5781 25.2813,211.9844 Q24.7813,212.5625 23.9844,212.8906 Q22.9063,213.3438 21.6094,213.3438 Q20.0938,213.3438 18.8906,212.7188 Q17.9063,212.2188 17.2188,211.1484 Q16.5313,210.0781 16.5313,208.7969 L16.5313,207.6406 Q16.5313,206.3125 17.1484,205.1641 Q17.7656,204.0156 18.8594,203.3984 Q19.9531,202.7813 21.1875,202.7813 Q21.9219,202.7813 22.5703,202.9453 Q23.2188,203.1094 23.7656,203.4688 Z "/><text fill="#000000" font-family="sans-serif" font-size="14" font-weight="bold" lengthAdjust="spacingAndGlyphs" textLength="198" x="44" y="207.0332">NumberSequenceGenerator</text><text fill="#000000" font-family="sans-serif" font-size="10" lengthAdjust="spacingAndGlyphs" textLength="216" x="35" y="220.4902">eapli.framework.domain.model.identities.impl</text></a><!--MD5=[5ac12f419ce24ef04408191908f7e290]
class eapli.framework.domain.model.identities.IdentityGeneratorString--><a href="../../../../../../eapli/framework/domain/model/identities/IdentityGenerator.html" target="_parent" title="eapli.framework.domain.model.identities.IdentityGenerator" xlink:actuate="onRequest" xlink:href="../../../../../../eapli/framework/domain/model/identities/IdentityGenerator.html" xlink:show="new" xlink:title="eapli.framework.domain.model.identities.IdentityGenerator" xlink:type="simple"><rect fill="#D3D3D3" filter="url(#f1s4hlqo9xjbkz)" height="55.2813" id="eapli.framework.domain.model.identities.IdentityGeneratorString" style="stroke: #A80036; stroke-width: 1.5;" width="221" x="289.5" y="180"/><rect fill="#D3D3D3" height="55.2813" style="stroke: #A80036; stroke-width: 1.5;" width="221" x="289.5" y="180"/><ellipse cx="304.5" cy="207.6406" fill="#B4A7E5" rx="11" ry="11" style="stroke: #A80036; stroke-width: 1.0;"/><path d="M305.4531,204.2813 L305.4531,210.9375 L307.1719,210.9375 Q307.7813,210.9375 308.0469,211.1719 Q308.3125,211.4063 308.3125,211.7969 Q308.3125,212.1719 308.0469,212.4063 Q307.7813,212.6406 307.1719,212.6406 L302.0313,212.6406 Q301.4219,212.6406 301.1563,212.4063 Q300.8906,212.1719 300.8906,211.7813 Q300.8906,211.4063 301.1563,211.1719 Q301.4219,210.9375 302.0313,210.9375 L303.75,210.9375 L303.75,204.2813 L302.0313,204.2813 Q301.4219,204.2813 301.1563,204.0469 Q300.8906,203.8125 300.8906,203.4219 Q300.8906,203.0469 301.1563,202.8125 Q301.4219,202.5781 302.0313,202.5781 L307.1719,202.5781 Q307.7813,202.5781 308.0469,202.8125 Q308.3125,203.0469 308.3125,203.4219 Q308.3125,203.8125 308.0469,204.0469 Q307.7813,204.2813 307.1719,204.2813 L305.4531,204.2813 Z "/><text fill="#000000" font-family="sans-serif" font-size="12" font-style="italic" lengthAdjust="spacingAndGlyphs" textLength="119" x="353.5" y="197.457">«FunctionalInterface»</text><text fill="#000000" font-family="sans-serif" font-size="14" font-style="italic" font-weight="bold" lengthAdjust="spacingAndGlyphs" textLength="175" x="325.5" y="214.627">IdentityGenerator&lt;String&gt;</text><text fill="#000000" font-family="sans-serif" font-size="10" font-style="italic" lengthAdjust="spacingAndGlyphs" textLength="189" x="318.5" y="228.084">eapli.framework.domain.model.identities</text></a><!--MD5=[4ead785aea1eacd38c7da0c91673820b]
link eapli.framework.domain.model.identities.impl.HexSequenceGenerator to eapli.framework.domain.model.identities.impl.NumberSequenceGenerator--><path d="M197.5,120.303 C197.5,120.303 197.5,182.4939 197.5,182.4939 " fill="none" id="eapli.framework.domain.model.identities.impl.HexSequenceGenerator-&gt;eapli.framework.domain.model.identities.impl.NumberSequenceGenerator" style="stroke: #A80036; stroke-width: 1.0;"/><polygon fill="#A80036" points="197.5,187.4939,201.5,178.4939,197.5,182.4939,193.5,178.4939,197.5,187.4939" style="stroke: #A80036; stroke-width: 1.0;"/><text fill="#000000" font-family="sans-serif" font-size="13" lengthAdjust="spacingAndGlyphs" textLength="54" x="155.3969" y="176.7863">generator</text><!--MD5=[096a51c45ae597d6fe06781b35fc13ca]
link eapli.framework.domain.model.identities.impl.HexSequenceGenerator to eapli.framework.domain.model.identities.IdentityGeneratorString--><path d="M339.25,120.303 C339.25,120.303 339.25,159.76 339.25,159.76 " fill="none" id="eapli.framework.domain.model.identities.impl.HexSequenceGenerator-&gt;eapli.framework.domain.model.identities.IdentityGeneratorString" style="stroke: #A80036; stroke-width: 1.0; stroke-dasharray: 7.0,7.0;"/><polygon fill="none" points="346.25,159.7601,339.25,179.76,332.25,159.76,346.25,159.7601" style="stroke: #A80036; stroke-width: 1.0;"/><!--MD5=[4b8549dd4bfa11055e13f8af63db9fa3]
@startuml

skinparam svgLinkTarget _parent
skinparam linetype ortho
set namespaceSeparator none
class "<b><size:14>HexSequenceGenerator</b>\n<size:10>eapli.framework.domain.model.identities.impl" as eapli.framework.domain.model.identities.impl.HexSequenceGenerator  [[../../../../../../eapli/framework/domain/model/identities/impl/HexSequenceGenerator.html{eapli.framework.domain.model.identities.impl.HexSequenceGenerator}]] {
-NumberSequenceGenerator generator
+HexSequenceGenerator()
+HexSequenceGenerator(Long seed)
+String newId()
}


class "<b><size:14>NumberSequenceGenerator</b>\n<size:10>eapli.framework.domain.model.identities.impl" as eapli.framework.domain.model.identities.impl.NumberSequenceGenerator  [[../../../../../../eapli/framework/domain/model/identities/impl/NumberSequenceGenerator.html{eapli.framework.domain.model.identities.impl.NumberSequenceGenerator}]] {
}

hide eapli.framework.domain.model.identities.impl.NumberSequenceGenerator fields
hide eapli.framework.domain.model.identities.impl.NumberSequenceGenerator methods

eapli.framework.domain.model.identities.impl.HexSequenceGenerator - ->  "generator" eapli.framework.domain.model.identities.impl.NumberSequenceGenerator

interface "<b><size:14>IdentityGenerator<String></b>\n<size:10>eapli.framework.domain.model.identities" as eapli.framework.domain.model.identities.IdentityGeneratorString <<FunctionalInterface>> [[../../../../../../eapli/framework/domain/model/identities/IdentityGenerator.html{eapli.framework.domain.model.identities.IdentityGenerator}]] #lightgrey {
}

hide eapli.framework.domain.model.identities.IdentityGeneratorString fields
hide eapli.framework.domain.model.identities.IdentityGeneratorString methods

eapli.framework.domain.model.identities.impl.HexSequenceGenerator ..|> eapli.framework.domain.model.identities.IdentityGeneratorString


@enduml

PlantUML version 1.2020.04(Thu Mar 19 10:16:49 GMT 2020)
(GPL source distribution)
Java Runtime: Java(TM) SE Runtime Environment
JVM: Java HotSpot(TM) 64-Bit Server VM
Java Version: 1.8.0_202-b08
Operating System: Windows 10
Default Encoding: Cp1252
Language: en
Country: US
--></g></svg>