@startuml

skinparam svgLinkTarget _parent
skinparam linetype ortho
set namespaceSeparator none
class "<b><size:14>PrefixedNumberSequenceGenerator</b>\n<size:10>eapli.framework.domain.model.identities.impl" as eapli.framework.domain.model.identities.impl.PrefixedNumberSequenceGenerator  [[../../../../../../eapli/framework/domain/model/identities/impl/PrefixedNumberSequenceGenerator.html{eapli.framework.domain.model.identities.impl.PrefixedNumberSequenceGenerator}]] {
-String prefix
-String mask
-NumberSequenceGenerator numberPartGenerator
+PrefixedNumberSequenceGenerator(String prefix,int length)
+PrefixedNumberSequenceGenerator(String prefix,int length,Long seed)
+String newId()
}


class "<b><size:14>NumberSequenceGenerator</b>\n<size:10>eapli.framework.domain.model.identities.impl" as eapli.framework.domain.model.identities.impl.NumberSequenceGenerator  [[../../../../../../eapli/framework/domain/model/identities/impl/NumberSequenceGenerator.html{eapli.framework.domain.model.identities.impl.NumberSequenceGenerator}]] {
}

hide eapli.framework.domain.model.identities.impl.NumberSequenceGenerator fields
hide eapli.framework.domain.model.identities.impl.NumberSequenceGenerator methods

eapli.framework.domain.model.identities.impl.PrefixedNumberSequenceGenerator -->  "numberPartGenerator" eapli.framework.domain.model.identities.impl.NumberSequenceGenerator

interface "<b><size:14>IdentityGenerator<String></b>\n<size:10>eapli.framework.domain.model.identities" as eapli.framework.domain.model.identities.IdentityGeneratorString <<FunctionalInterface>> [[../../../../../../eapli/framework/domain/model/identities/IdentityGenerator.html{eapli.framework.domain.model.identities.IdentityGenerator}]] #lightgrey {
}

hide eapli.framework.domain.model.identities.IdentityGeneratorString fields
hide eapli.framework.domain.model.identities.IdentityGeneratorString methods

eapli.framework.domain.model.identities.impl.PrefixedNumberSequenceGenerator ..|> eapli.framework.domain.model.identities.IdentityGeneratorString


@enduml
