<?xml version="1.0" encoding="UTF-8" standalone="no"?><svg xmlns="http://www.w3.org/2000/svg" xmlns:xlink="http://www.w3.org/1999/xlink" contentScriptType="application/ecmascript" contentStyleType="text/css" height="218px" preserveAspectRatio="none" style="width:265px;height:218px;" version="1.1" viewBox="0 0 265 218" width="265px" zoomAndPan="magnify"><defs><filter height="300%" id="f1rnbfj5tk9f29" width="300%" x="-1" y="-1"><feGaussianBlur result="blurOut" stdDeviation="2.0"/><feColorMatrix in="blurOut" result="blurOut2" type="matrix" values="0 0 0 0 0 0 0 0 0 0 0 0 0 0 0 0 0 0 .4 0"/><feOffset dx="4.0" dy="4.0" in="blurOut2" result="blurOut3"/><feBlend in="SourceGraphic" in2="blurOut3" mode="normal"/></filter></defs><g><!--MD5=[62125135ac28e67896a58ed0e1e5175d]
class eapli.framework.domain.model.identities.impl.UUIDGenerator--><a href="../../../../../../eapli/framework/domain/model/identities/impl/UUIDGenerator.html" target="_parent" title="eapli.framework.domain.model.identities.impl.UUIDGenerator" xlink:actuate="onRequest" xlink:href="../../../../../../eapli/framework/domain/model/identities/impl/UUIDGenerator.html" xlink:show="new" xlink:title="eapli.framework.domain.model.identities.impl.UUIDGenerator" xlink:type="simple"><rect fill="#FEFECE" filter="url(#f1rnbfj5tk9f29)" height="83.8594" id="eapli.framework.domain.model.identities.impl.UUIDGenerator" style="stroke: #A80036; stroke-width: 1.5;" width="248" x="6" y="8"/><ellipse cx="21" cy="28.0938" fill="#ADD1B2" rx="11" ry="11" style="stroke: #A80036; stroke-width: 1.0;"/><path d="M23.7656,23.9688 Q23.9219,23.75 24.1094,23.6406 Q24.2969,23.5313 24.5156,23.5313 Q24.8906,23.5313 25.125,23.7891 Q25.3594,24.0469 25.3594,24.6563 L25.3594,26.1094 Q25.3594,26.7188 25.125,26.9844 Q24.8906,27.25 24.5156,27.25 Q24.1719,27.25 23.9688,27.0469 Q23.7656,26.8594 23.6563,26.3438 Q23.6094,25.9844 23.4219,25.7969 Q23.0938,25.4219 22.4844,25.2031 Q21.875,24.9844 21.25,24.9844 Q20.4844,24.9844 19.8516,25.3125 Q19.2188,25.6406 18.7266,26.3906 Q18.2344,27.1406 18.2344,28.1719 L18.2344,29.2656 Q18.2344,30.5 19.125,31.3203 Q20.0156,32.1406 21.6094,32.1406 Q22.5469,32.1406 23.2031,31.8906 Q23.5938,31.7344 24.0156,31.2969 Q24.2813,31.0313 24.4297,30.9531 Q24.5781,30.875 24.7813,30.875 Q25.1094,30.875 25.3672,31.1328 Q25.625,31.3906 25.625,31.7344 Q25.625,32.0781 25.2813,32.4844 Q24.7813,33.0625 23.9844,33.3906 Q22.9063,33.8438 21.6094,33.8438 Q20.0938,33.8438 18.8906,33.2188 Q17.9063,32.7188 17.2188,31.6484 Q16.5313,30.5781 16.5313,29.2969 L16.5313,28.1406 Q16.5313,26.8125 17.1484,25.6641 Q17.7656,24.5156 18.8594,23.8984 Q19.9531,23.2813 21.1875,23.2813 Q21.9219,23.2813 22.5703,23.4453 Q23.2188,23.6094 23.7656,23.9688 Z "/><text fill="#000000" font-family="sans-serif" font-size="14" font-weight="bold" lengthAdjust="spacingAndGlyphs" textLength="106" x="90" y="27.5332">UUIDGenerator</text><text fill="#000000" font-family="sans-serif" font-size="10" lengthAdjust="spacingAndGlyphs" textLength="216" x="35" y="40.9902">eapli.framework.domain.model.identities.impl</text><line style="stroke: #A80036; stroke-width: 1.5;" x1="7" x2="253" y1="48.1875" y2="48.1875"/><line style="stroke: #A80036; stroke-width: 1.5;" x1="7" x2="253" y1="56.1875" y2="56.1875"/><ellipse cx="17" cy="67.1875" fill="#84BE84" rx="3" ry="3" style="stroke: #038048; stroke-width: 1.0;"/><text fill="#000000" font-family="sans-serif" font-size="11" lengthAdjust="spacingAndGlyphs" textLength="80" x="26" y="71.6064">UUIDGenerator()</text><ellipse cx="17" cy="81.0234" fill="#84BE84" rx="3" ry="3" style="stroke: #038048; stroke-width: 1.0;"/><text fill="#000000" font-family="sans-serif" font-size="11" lengthAdjust="spacingAndGlyphs" textLength="64" x="26" y="85.4424">UUID newId()</text></a><!--MD5=[ee97ad098433b4b8a5b9497a5b7a33ff]
class eapli.framework.domain.model.identities.IdentityGeneratorUUID--><a href="../../../../../../eapli/framework/domain/model/identities/IdentityGenerator.html" target="_parent" title="eapli.framework.domain.model.identities.IdentityGenerator" xlink:actuate="onRequest" xlink:href="../../../../../../eapli/framework/domain/model/identities/IdentityGenerator.html" xlink:show="new" xlink:title="eapli.framework.domain.model.identities.IdentityGenerator" xlink:type="simple"><rect fill="#D3D3D3" filter="url(#f1rnbfj5tk9f29)" height="55.2813" id="eapli.framework.domain.model.identities.IdentityGeneratorUUID" style="stroke: #A80036; stroke-width: 1.5;" width="221" x="19.5" y="152"/><rect fill="#D3D3D3" height="55.2813" style="stroke: #A80036; stroke-width: 1.5;" width="221" x="19.5" y="152"/><ellipse cx="34.5" cy="179.6406" fill="#B4A7E5" rx="11" ry="11" style="stroke: #A80036; stroke-width: 1.0;"/><path d="M35.4531,176.2813 L35.4531,182.9375 L37.1719,182.9375 Q37.7813,182.9375 38.0469,183.1719 Q38.3125,183.4063 38.3125,183.7969 Q38.3125,184.1719 38.0469,184.4063 Q37.7813,184.6406 37.1719,184.6406 L32.0313,184.6406 Q31.4219,184.6406 31.1563,184.4063 Q30.8906,184.1719 30.8906,183.7813 Q30.8906,183.4063 31.1563,183.1719 Q31.4219,182.9375 32.0313,182.9375 L33.75,182.9375 L33.75,176.2813 L32.0313,176.2813 Q31.4219,176.2813 31.1563,176.0469 Q30.8906,175.8125 30.8906,175.4219 Q30.8906,175.0469 31.1563,174.8125 Q31.4219,174.5781 32.0313,174.5781 L37.1719,174.5781 Q37.7813,174.5781 38.0469,174.8125 Q38.3125,175.0469 38.3125,175.4219 Q38.3125,175.8125 38.0469,176.0469 Q37.7813,176.2813 37.1719,176.2813 L35.4531,176.2813 Z "/><text fill="#000000" font-family="sans-serif" font-size="12" font-style="italic" lengthAdjust="spacingAndGlyphs" textLength="119" x="83.5" y="169.457">«FunctionalInterface»</text><text fill="#000000" font-family="sans-serif" font-size="14" font-style="italic" font-weight="bold" lengthAdjust="spacingAndGlyphs" textLength="165" x="60.5" y="186.627">IdentityGenerator&lt;UUID&gt;</text><text fill="#000000" font-family="sans-serif" font-size="10" font-style="italic" lengthAdjust="spacingAndGlyphs" textLength="189" x="48.5" y="200.084">eapli.framework.domain.model.identities</text></a><!--MD5=[135a585a3a3ffee4864ac2bbca1841c4]
link eapli.framework.domain.model.identities.impl.UUIDGenerator to eapli.framework.domain.model.identities.IdentityGeneratorUUID--><path d="M130,92.045 C130,92.045 130,131.9386 130,131.9386 " fill="none" id="eapli.framework.domain.model.identities.impl.UUIDGenerator-&gt;eapli.framework.domain.model.identities.IdentityGeneratorUUID" style="stroke: #A80036; stroke-width: 1.0; stroke-dasharray: 7.0,7.0;"/><polygon fill="none" points="137,131.9386,130,151.9386,123,131.9385,137,131.9386" style="stroke: #A80036; stroke-width: 1.0;"/><!--MD5=[e0d72e688c149bf712df89b19ffb5e55]
@startuml

skinparam svgLinkTarget _parent
skinparam linetype ortho
set namespaceSeparator none
class "<b><size:14>UUIDGenerator</b>\n<size:10>eapli.framework.domain.model.identities.impl" as eapli.framework.domain.model.identities.impl.UUIDGenerator  [[../../../../../../eapli/framework/domain/model/identities/impl/UUIDGenerator.html{eapli.framework.domain.model.identities.impl.UUIDGenerator}]] {
+UUIDGenerator()
+UUID newId()
}


interface "<b><size:14>IdentityGenerator<UUID></b>\n<size:10>eapli.framework.domain.model.identities" as eapli.framework.domain.model.identities.IdentityGeneratorUUID <<FunctionalInterface>> [[../../../../../../eapli/framework/domain/model/identities/IdentityGenerator.html{eapli.framework.domain.model.identities.IdentityGenerator}]] #lightgrey {
}

hide eapli.framework.domain.model.identities.IdentityGeneratorUUID fields
hide eapli.framework.domain.model.identities.IdentityGeneratorUUID methods

eapli.framework.domain.model.identities.impl.UUIDGenerator ..|> eapli.framework.domain.model.identities.IdentityGeneratorUUID



@enduml

PlantUML version 1.2020.04(Thu Mar 19 10:16:49 GMT 2020)
(GPL source distribution)
Java Runtime: Java(TM) SE Runtime Environment
JVM: Java HotSpot(TM) 64-Bit Server VM
Java Version: 1.8.0_202-b08
Operating System: Windows 10
Default Encoding: Cp1252
Language: en
Country: US
--></g></svg>