@startuml

skinparam svgLinkTarget _parent
skinparam linetype ortho
set namespaceSeparator none
class "<b><size:14>AggregateRootBase</b>\n<size:10>eapli.framework.domain.model" as eapli.framework.domain.model.AggregateRootBase  [[../../../../eapli/framework/domain/model/AggregateRootBase.html{eapli.framework.domain.model.AggregateRootBase}]] {
{static} -long serialVersionUID
+AggregateRootBase()
}


class "<b><size:14>DomainEntityBase<I></b>\n<size:10>eapli.framework.domain.model" as eapli.framework.domain.model.DomainEntityBaseValueObject  [[../../../../eapli/framework/domain/model/DomainEntityBase.html{eapli.framework.domain.model.DomainEntityBase}]] {
}

hide eapli.framework.domain.model.DomainEntityBaseValueObject fields
hide eapli.framework.domain.model.DomainEntityBaseValueObject methods

eapli.framework.domain.model.AggregateRootBase --|> eapli.framework.domain.model.DomainEntityBaseValueObject

interface "<b><size:14>ValueObject</b>\n<size:10>eapli.framework.domain.model" as eapli.framework.domain.model.ValueObject  [[../../../../eapli/framework/domain/model/ValueObject.html{eapli.framework.domain.model.ValueObject}]] {
}

hide eapli.framework.domain.model.ValueObject fields
hide eapli.framework.domain.model.ValueObject methods

eapli.framework.domain.model.AggregateRootBase ..> eapli.framework.domain.model.ValueObject

interface "<b><size:14>AggregateRoot<I></b>\n<size:10>eapli.framework.domain.model" as eapli.framework.domain.model.AggregateRootValueObject  [[../../../../eapli/framework/domain/model/AggregateRoot.html{eapli.framework.domain.model.AggregateRoot}]] {
}

hide eapli.framework.domain.model.AggregateRootValueObject fields
hide eapli.framework.domain.model.AggregateRootValueObject methods

eapli.framework.domain.model.AggregateRootBase ..|> eapli.framework.domain.model.AggregateRootValueObject


@enduml
