<?xml version="1.0" encoding="UTF-8" standalone="no"?><svg xmlns="http://www.w3.org/2000/svg" xmlns:xlink="http://www.w3.org/1999/xlink" contentScriptType="application/ecmascript" contentStyleType="text/css" height="290px" preserveAspectRatio="none" style="width:1483px;height:290px;" version="1.1" viewBox="0 0 1483 290" width="1483px" zoomAndPan="magnify"><defs><filter height="300%" id="f1b580ovfm7b3k" width="300%" x="-1" y="-1"><feGaussianBlur result="blurOut" stdDeviation="2.0"/><feColorMatrix in="blurOut" result="blurOut2" type="matrix" values="0 0 0 0 0 0 0 0 0 0 0 0 0 0 0 0 0 0 .4 0"/><feOffset dx="4.0" dy="4.0" in="blurOut2" result="blurOut3"/><feBlend in="SourceGraphic" in2="blurOut3" mode="normal"/></filter></defs><g><!--MD5=[aaa3afea0423f8bbe6dedd0d6399df18]
class eapli.framework.domain.model.AggregateRoot--><a href="../../../../eapli/framework/domain/model/AggregateRoot.html" target="_parent" title="eapli.framework.domain.model.AggregateRoot" xlink:actuate="onRequest" xlink:href="../../../../eapli/framework/domain/model/AggregateRoot.html" xlink:show="new" xlink:title="eapli.framework.domain.model.AggregateRoot" xlink:type="simple"><rect fill="#FEFECE" filter="url(#f1b580ovfm7b3k)" height="56.1875" id="eapli.framework.domain.model.AggregateRoot" style="stroke: #A80036; stroke-width: 1.5;" width="174" x="553.5" y="123"/><ellipse cx="568.5" cy="143.0938" fill="#B4A7E5" rx="11" ry="11" style="stroke: #A80036; stroke-width: 1.0;"/><path d="M569.4531,139.7344 L569.4531,146.3906 L571.1719,146.3906 Q571.7813,146.3906 572.0469,146.625 Q572.3125,146.8594 572.3125,147.25 Q572.3125,147.625 572.0469,147.8594 Q571.7813,148.0938 571.1719,148.0938 L566.0313,148.0938 Q565.4219,148.0938 565.1563,147.8594 Q564.8906,147.625 564.8906,147.2344 Q564.8906,146.8594 565.1563,146.625 Q565.4219,146.3906 566.0313,146.3906 L567.75,146.3906 L567.75,139.7344 L566.0313,139.7344 Q565.4219,139.7344 565.1563,139.5 Q564.8906,139.2656 564.8906,138.875 Q564.8906,138.5 565.1563,138.2656 Q565.4219,138.0313 566.0313,138.0313 L571.1719,138.0313 Q571.7813,138.0313 572.0469,138.2656 Q572.3125,138.5 572.3125,138.875 Q572.3125,139.2656 572.0469,139.5 Q571.7813,139.7344 571.1719,139.7344 L569.4531,139.7344 Z "/><text fill="#000000" font-family="sans-serif" font-size="14" font-style="italic" font-weight="bold" lengthAdjust="spacingAndGlyphs" textLength="100" x="603.5" y="142.5332">AggregateRoot</text><text fill="#000000" font-family="sans-serif" font-size="10" font-style="italic" lengthAdjust="spacingAndGlyphs" textLength="142" x="582.5" y="155.9902">eapli.framework.domain.model</text><line style="stroke: #A80036; stroke-width: 1.5;" x1="554.5" x2="726.5" y1="163.1875" y2="163.1875"/><line style="stroke: #A80036; stroke-width: 1.5;" x1="554.5" x2="726.5" y1="171.1875" y2="171.1875"/></a><!--MD5=[1ba110f9dce7e9d95a97d4dc719d994d]
class eapli.framework.domain.model.DomainEntityComparable--><a href="../../../../eapli/framework/domain/model/DomainEntity.html" target="_parent" title="eapli.framework.domain.model.DomainEntity" xlink:actuate="onRequest" xlink:href="../../../../eapli/framework/domain/model/DomainEntity.html" xlink:show="new" xlink:title="eapli.framework.domain.model.DomainEntity" xlink:type="simple"><rect fill="#FEFECE" filter="url(#f1b580ovfm7b3k)" height="40.1875" id="eapli.framework.domain.model.DomainEntityComparable" style="stroke: #A80036; stroke-width: 1.5;" width="174" x="464.5" y="239"/><ellipse cx="479.5" cy="259.0938" fill="#B4A7E5" rx="11" ry="11" style="stroke: #A80036; stroke-width: 1.0;"/><path d="M480.4531,255.7344 L480.4531,262.3906 L482.1719,262.3906 Q482.7813,262.3906 483.0469,262.625 Q483.3125,262.8594 483.3125,263.25 Q483.3125,263.625 483.0469,263.8594 Q482.7813,264.0938 482.1719,264.0938 L477.0313,264.0938 Q476.4219,264.0938 476.1563,263.8594 Q475.8906,263.625 475.8906,263.2344 Q475.8906,262.8594 476.1563,262.625 Q476.4219,262.3906 477.0313,262.3906 L478.75,262.3906 L478.75,255.7344 L477.0313,255.7344 Q476.4219,255.7344 476.1563,255.5 Q475.8906,255.2656 475.8906,254.875 Q475.8906,254.5 476.1563,254.2656 Q476.4219,254.0313 477.0313,254.0313 L482.1719,254.0313 Q482.7813,254.0313 483.0469,254.2656 Q483.3125,254.5 483.3125,254.875 Q483.3125,255.2656 483.0469,255.5 Q482.7813,255.7344 482.1719,255.7344 L480.4531,255.7344 Z "/><text fill="#000000" font-family="sans-serif" font-size="14" font-style="italic" font-weight="bold" lengthAdjust="spacingAndGlyphs" textLength="109" x="510" y="258.5332">DomainEntity&lt;I&gt;</text><text fill="#000000" font-family="sans-serif" font-size="10" font-style="italic" lengthAdjust="spacingAndGlyphs" textLength="142" x="493.5" y="271.9902">eapli.framework.domain.model</text></a><!--MD5=[008d82c49f85b4d489e041917c99c847]
class java.lang.Comparable--><rect fill="#D3D3D3" filter="url(#f1b580ovfm7b3k)" height="40.1875" id="java.lang.Comparable" style="stroke: #A80036; stroke-width: 1.5;" width="113" x="674" y="239"/><rect fill="#D3D3D3" height="40.1875" style="stroke: #A80036; stroke-width: 1.5;" width="113" x="674" y="239"/><ellipse cx="689" cy="259.0938" fill="#B4A7E5" rx="11" ry="11" style="stroke: #A80036; stroke-width: 1.0;"/><path d="M689.9531,255.7344 L689.9531,262.3906 L691.6719,262.3906 Q692.2813,262.3906 692.5469,262.625 Q692.8125,262.8594 692.8125,263.25 Q692.8125,263.625 692.5469,263.8594 Q692.2813,264.0938 691.6719,264.0938 L686.5313,264.0938 Q685.9219,264.0938 685.6563,263.8594 Q685.3906,263.625 685.3906,263.2344 Q685.3906,262.8594 685.6563,262.625 Q685.9219,262.3906 686.5313,262.3906 L688.25,262.3906 L688.25,255.7344 L686.5313,255.7344 Q685.9219,255.7344 685.6563,255.5 Q685.3906,255.2656 685.3906,254.875 Q685.3906,254.5 685.6563,254.2656 Q685.9219,254.0313 686.5313,254.0313 L691.6719,254.0313 Q692.2813,254.0313 692.5469,254.2656 Q692.8125,254.5 692.8125,254.875 Q692.8125,255.2656 692.5469,255.5 Q692.2813,255.7344 691.6719,255.7344 L689.9531,255.7344 Z "/><text fill="#000000" font-family="sans-serif" font-size="14" font-style="italic" font-weight="bold" lengthAdjust="spacingAndGlyphs" textLength="81" x="703" y="258.5332">Comparable</text><text fill="#000000" font-family="sans-serif" font-size="10" font-style="italic" lengthAdjust="spacingAndGlyphs" textLength="43" x="722" y="271.9902">java.lang</text><!--MD5=[bd9c2ca7f638fe5bea686079b02825b2]
class eapli.framework.domain.repositories.DomainRepository--><a href="../../../../eapli/framework/domain/repositories/DomainRepository.html" target="_parent" title="eapli.framework.domain.repositories.DomainRepository" xlink:actuate="onRequest" xlink:href="../../../../eapli/framework/domain/repositories/DomainRepository.html" xlink:show="new" xlink:title="eapli.framework.domain.repositories.DomainRepository" xlink:type="simple"><rect fill="#FFFFFF" filter="url(#f1b580ovfm7b3k)" height="40.1875" id="eapli.framework.domain.repositories.DomainRepository" style="stroke: #A80036; stroke-width: 1.5;" width="201" x="6" y="15.5"/><rect fill="#FFFFFF" height="40.1875" style="stroke: #A80036; stroke-width: 1.5;" width="201" x="6" y="15.5"/><ellipse cx="21" cy="35.5938" fill="#B4A7E5" rx="11" ry="11" style="stroke: #A80036; stroke-width: 1.0;"/><path d="M21.9531,32.2344 L21.9531,38.8906 L23.6719,38.8906 Q24.2813,38.8906 24.5469,39.125 Q24.8125,39.3594 24.8125,39.75 Q24.8125,40.125 24.5469,40.3594 Q24.2813,40.5938 23.6719,40.5938 L18.5313,40.5938 Q17.9219,40.5938 17.6563,40.3594 Q17.3906,40.125 17.3906,39.7344 Q17.3906,39.3594 17.6563,39.125 Q17.9219,38.8906 18.5313,38.8906 L20.25,38.8906 L20.25,32.2344 L18.5313,32.2344 Q17.9219,32.2344 17.6563,32 Q17.3906,31.7656 17.3906,31.375 Q17.3906,31 17.6563,30.7656 Q17.9219,30.5313 18.5313,30.5313 L23.6719,30.5313 Q24.2813,30.5313 24.5469,30.7656 Q24.8125,31 24.8125,31.375 Q24.8125,31.7656 24.5469,32 Q24.2813,32.2344 23.6719,32.2344 L21.9531,32.2344 Z "/><text fill="#000000" font-family="sans-serif" font-size="14" font-style="italic" font-weight="bold" lengthAdjust="spacingAndGlyphs" textLength="122" x="58.5" y="35.0332">DomainRepository</text><text fill="#000000" font-family="sans-serif" font-size="10" font-style="italic" lengthAdjust="spacingAndGlyphs" textLength="169" x="35" y="48.4902">eapli.framework.domain.repositories</text></a><!--MD5=[f8f2db03471c5e5d17cf172382c4798a]
class eapli.framework.domain.repositories.IterableDomainRepository--><a href="../../../../eapli/framework/domain/repositories/IterableDomainRepository.html" target="_parent" title="eapli.framework.domain.repositories.IterableDomainRepository" xlink:actuate="onRequest" xlink:href="../../../../eapli/framework/domain/repositories/IterableDomainRepository.html" xlink:show="new" xlink:title="eapli.framework.domain.repositories.IterableDomainRepository" xlink:type="simple"><rect fill="#FFFFFF" filter="url(#f1b580ovfm7b3k)" height="40.1875" id="eapli.framework.domain.repositories.IterableDomainRepository" style="stroke: #A80036; stroke-width: 1.5;" width="205" x="242" y="15.5"/><rect fill="#FFFFFF" height="40.1875" style="stroke: #A80036; stroke-width: 1.5;" width="205" x="242" y="15.5"/><ellipse cx="257" cy="35.5938" fill="#B4A7E5" rx="11" ry="11" style="stroke: #A80036; stroke-width: 1.0;"/><path d="M257.9531,32.2344 L257.9531,38.8906 L259.6719,38.8906 Q260.2813,38.8906 260.5469,39.125 Q260.8125,39.3594 260.8125,39.75 Q260.8125,40.125 260.5469,40.3594 Q260.2813,40.5938 259.6719,40.5938 L254.5313,40.5938 Q253.9219,40.5938 253.6563,40.3594 Q253.3906,40.125 253.3906,39.7344 Q253.3906,39.3594 253.6563,39.125 Q253.9219,38.8906 254.5313,38.8906 L256.25,38.8906 L256.25,32.2344 L254.5313,32.2344 Q253.9219,32.2344 253.6563,32 Q253.3906,31.7656 253.3906,31.375 Q253.3906,31 253.6563,30.7656 Q253.9219,30.5313 254.5313,30.5313 L259.6719,30.5313 Q260.2813,30.5313 260.5469,30.7656 Q260.8125,31 260.8125,31.375 Q260.8125,31.7656 260.5469,32 Q260.2813,32.2344 259.6719,32.2344 L257.9531,32.2344 Z "/><text fill="#000000" font-family="sans-serif" font-size="14" font-style="italic" font-weight="bold" lengthAdjust="spacingAndGlyphs" textLength="173" x="271" y="35.0332">IterableDomainRepository</text><text fill="#000000" font-family="sans-serif" font-size="10" font-style="italic" lengthAdjust="spacingAndGlyphs" textLength="169" x="273" y="48.4902">eapli.framework.domain.repositories</text></a><!--MD5=[fc8361fdefc0c85eede2ab5de280d6c9]
class eapli.framework.infrastructure.repositories.impl.inmemory.InMemoryDomainAutoNumberRepository--><a href="../../../../eapli/framework/infrastructure/repositories/impl/inmemory/InMemoryDomainAutoNumberRepository.html" target="_parent" title="eapli.framework.infrastructure.repositories.impl.inmemory.InMemoryDomainAutoNumberRepository" xlink:actuate="onRequest" xlink:href="../../../../eapli/framework/infrastructure/repositories/impl/inmemory/InMemoryDomainAutoNumberRepository.html" xlink:show="new" xlink:title="eapli.framework.infrastructure.repositories.impl.inmemory.InMemoryDomainAutoNumberRepository" xlink:type="simple"><rect fill="#FFFFFF" filter="url(#f1b580ovfm7b3k)" height="40.1875" id="eapli.framework.infrastructure.repositories.impl.inmemory.InMemoryDomainAutoNumberRepository" style="stroke: #A80036; stroke-width: 1.5;" width="316" x="482.5" y="15.5"/><rect fill="#FFFFFF" height="40.1875" style="stroke: #A80036; stroke-width: 1.5;" width="316" x="482.5" y="15.5"/><ellipse cx="497.5" cy="35.5938" fill="#ADD1B2" rx="11" ry="11" style="stroke: #A80036; stroke-width: 1.0;"/><path d="M500.2656,31.4688 Q500.4219,31.25 500.6094,31.1406 Q500.7969,31.0313 501.0156,31.0313 Q501.3906,31.0313 501.625,31.2891 Q501.8594,31.5469 501.8594,32.1563 L501.8594,33.6094 Q501.8594,34.2188 501.625,34.4844 Q501.3906,34.75 501.0156,34.75 Q500.6719,34.75 500.4688,34.5469 Q500.2656,34.3594 500.1563,33.8438 Q500.1094,33.4844 499.9219,33.2969 Q499.5938,32.9219 498.9844,32.7031 Q498.375,32.4844 497.75,32.4844 Q496.9844,32.4844 496.3516,32.8125 Q495.7188,33.1406 495.2266,33.8906 Q494.7344,34.6406 494.7344,35.6719 L494.7344,36.7656 Q494.7344,38 495.625,38.8203 Q496.5156,39.6406 498.1094,39.6406 Q499.0469,39.6406 499.7031,39.3906 Q500.0938,39.2344 500.5156,38.7969 Q500.7813,38.5313 500.9297,38.4531 Q501.0781,38.375 501.2813,38.375 Q501.6094,38.375 501.8672,38.6328 Q502.125,38.8906 502.125,39.2344 Q502.125,39.5781 501.7813,39.9844 Q501.2813,40.5625 500.4844,40.8906 Q499.4063,41.3438 498.1094,41.3438 Q496.5938,41.3438 495.3906,40.7188 Q494.4063,40.2188 493.7188,39.1484 Q493.0313,38.0781 493.0313,36.7969 L493.0313,35.6406 Q493.0313,34.3125 493.6484,33.1641 Q494.2656,32.0156 495.3594,31.3984 Q496.4531,30.7813 497.6875,30.7813 Q498.4219,30.7813 499.0703,30.9453 Q499.7188,31.1094 500.2656,31.4688 Z "/><text fill="#000000" font-family="sans-serif" font-size="14" font-weight="bold" lengthAdjust="spacingAndGlyphs" textLength="284" x="511.5" y="35.0332">InMemoryDomainAutoNumberRepository</text><text fill="#000000" font-family="sans-serif" font-size="10" lengthAdjust="spacingAndGlyphs" textLength="268" x="519.5" y="48.4902">eapli.framework.infrastructure.repositories.impl.inmemory</text></a><!--MD5=[e33e9c8a8faf20b8072deee35366ebac]
class eapli.framework.infrastructure.repositories.impl.inmemory.InMemoryDomainRepository--><a href="../../../../eapli/framework/infrastructure/repositories/impl/inmemory/InMemoryDomainRepository.html" target="_parent" title="eapli.framework.infrastructure.repositories.impl.inmemory.InMemoryDomainRepository" xlink:actuate="onRequest" xlink:href="../../../../eapli/framework/infrastructure/repositories/impl/inmemory/InMemoryDomainRepository.html" xlink:show="new" xlink:title="eapli.framework.infrastructure.repositories.impl.inmemory.InMemoryDomainRepository" xlink:type="simple"><rect fill="#FFFFFF" filter="url(#f1b580ovfm7b3k)" height="40.1875" id="eapli.framework.infrastructure.repositories.impl.inmemory.InMemoryDomainRepository" style="stroke: #A80036; stroke-width: 1.5;" width="300" x="833.5" y="15.5"/><rect fill="#FFFFFF" height="40.1875" style="stroke: #A80036; stroke-width: 1.5;" width="300" x="833.5" y="15.5"/><ellipse cx="848.5" cy="35.5938" fill="#ADD1B2" rx="11" ry="11" style="stroke: #A80036; stroke-width: 1.0;"/><path d="M851.2656,31.4688 Q851.4219,31.25 851.6094,31.1406 Q851.7969,31.0313 852.0156,31.0313 Q852.3906,31.0313 852.625,31.2891 Q852.8594,31.5469 852.8594,32.1563 L852.8594,33.6094 Q852.8594,34.2188 852.625,34.4844 Q852.3906,34.75 852.0156,34.75 Q851.6719,34.75 851.4688,34.5469 Q851.2656,34.3594 851.1563,33.8438 Q851.1094,33.4844 850.9219,33.2969 Q850.5938,32.9219 849.9844,32.7031 Q849.375,32.4844 848.75,32.4844 Q847.9844,32.4844 847.3516,32.8125 Q846.7188,33.1406 846.2266,33.8906 Q845.7344,34.6406 845.7344,35.6719 L845.7344,36.7656 Q845.7344,38 846.625,38.8203 Q847.5156,39.6406 849.1094,39.6406 Q850.0469,39.6406 850.7031,39.3906 Q851.0938,39.2344 851.5156,38.7969 Q851.7813,38.5313 851.9297,38.4531 Q852.0781,38.375 852.2813,38.375 Q852.6094,38.375 852.8672,38.6328 Q853.125,38.8906 853.125,39.2344 Q853.125,39.5781 852.7813,39.9844 Q852.2813,40.5625 851.4844,40.8906 Q850.4063,41.3438 849.1094,41.3438 Q847.5938,41.3438 846.3906,40.7188 Q845.4063,40.2188 844.7188,39.1484 Q844.0313,38.0781 844.0313,36.7969 L844.0313,35.6406 Q844.0313,34.3125 844.6484,33.1641 Q845.2656,32.0156 846.3594,31.3984 Q847.4531,30.7813 848.6875,30.7813 Q849.4219,30.7813 850.0703,30.9453 Q850.7188,31.1094 851.2656,31.4688 Z "/><text fill="#000000" font-family="sans-serif" font-size="14" font-weight="bold" lengthAdjust="spacingAndGlyphs" textLength="197" x="898" y="35.0332">InMemoryDomainRepository</text><text fill="#000000" font-family="sans-serif" font-size="10" lengthAdjust="spacingAndGlyphs" textLength="268" x="862.5" y="48.4902">eapli.framework.infrastructure.repositories.impl.inmemory</text></a><!--MD5=[be1d60014dc61cbeaee705e5a11479de]
class eapli.framework.infrastructure.repositories.impl.springdata.SpringDataDomainBaseRepository--><a href="../../../../eapli/framework/infrastructure/repositories/impl/springdata/SpringDataDomainBaseRepository.html" target="_parent" title="eapli.framework.infrastructure.repositories.impl.springdata.SpringDataDomainBaseRepository" xlink:actuate="onRequest" xlink:href="../../../../eapli/framework/infrastructure/repositories/impl/springdata/SpringDataDomainBaseRepository.html" xlink:show="new" xlink:title="eapli.framework.infrastructure.repositories.impl.springdata.SpringDataDomainBaseRepository" xlink:type="simple"><rect fill="#FFFFFF" filter="url(#f1b580ovfm7b3k)" height="55.2813" id="eapli.framework.infrastructure.repositories.impl.springdata.SpringDataDomainBaseRepository" style="stroke: #A80036; stroke-width: 1.5;" width="303" x="1169" y="8"/><rect fill="#FFFFFF" height="55.2813" style="stroke: #A80036; stroke-width: 1.5;" width="303" x="1169" y="8"/><ellipse cx="1184" cy="35.6406" fill="#B4A7E5" rx="11" ry="11" style="stroke: #A80036; stroke-width: 1.0;"/><path d="M1184.9531,32.2813 L1184.9531,38.9375 L1186.6719,38.9375 Q1187.2813,38.9375 1187.5469,39.1719 Q1187.8125,39.4063 1187.8125,39.7969 Q1187.8125,40.1719 1187.5469,40.4063 Q1187.2813,40.6406 1186.6719,40.6406 L1181.5313,40.6406 Q1180.9219,40.6406 1180.6563,40.4063 Q1180.3906,40.1719 1180.3906,39.7813 Q1180.3906,39.4063 1180.6563,39.1719 Q1180.9219,38.9375 1181.5313,38.9375 L1183.25,38.9375 L1183.25,32.2813 L1181.5313,32.2813 Q1180.9219,32.2813 1180.6563,32.0469 Q1180.3906,31.8125 1180.3906,31.4219 Q1180.3906,31.0469 1180.6563,30.8125 Q1180.9219,30.5781 1181.5313,30.5781 L1186.6719,30.5781 Q1187.2813,30.5781 1187.5469,30.8125 Q1187.8125,31.0469 1187.8125,31.4219 Q1187.8125,31.8125 1187.5469,32.0469 Q1187.2813,32.2813 1186.6719,32.2813 L1184.9531,32.2813 Z "/><text fill="#000000" font-family="sans-serif" font-size="12" font-style="italic" lengthAdjust="spacingAndGlyphs" textLength="118" x="1274.5" y="25.457">«NoRepositoryBean»</text><text fill="#000000" font-family="sans-serif" font-size="14" font-style="italic" font-weight="bold" lengthAdjust="spacingAndGlyphs" textLength="230" x="1218.5" y="42.627">SpringDataDomainBaseRepository</text><text fill="#000000" font-family="sans-serif" font-size="10" font-style="italic" lengthAdjust="spacingAndGlyphs" textLength="271" x="1198" y="56.084">eapli.framework.infrastructure.repositories.impl.springdata</text></a><!--MD5=[490a24a4c495b7a689dbfced938d40bc]
link eapli.framework.domain.model.AggregateRoot to eapli.framework.domain.model.DomainEntityComparable--><path d="M596,179.0938 C596,179.0938 596,218.8898 596,218.8898 " fill="none" id="eapli.framework.domain.model.AggregateRoot-&gt;eapli.framework.domain.model.DomainEntityComparable" style="stroke: #A80036; stroke-width: 1.0;"/><polygon fill="none" points="603,218.8898,596,238.8898,589,218.8898,603,218.8898" style="stroke: #A80036; stroke-width: 1.0;"/><!--MD5=[be46d3f9672d0b3ba794baf6025477a5]
link eapli.framework.domain.model.AggregateRoot to java.lang.Comparable--><path d="M700.75,179.0938 C700.75,179.0938 700.75,233.8898 700.75,233.8898 " fill="none" id="eapli.framework.domain.model.AggregateRoot-&gt;java.lang.Comparable" style="stroke: #A80036; stroke-width: 1.0; stroke-dasharray: 7.0,7.0;"/><polygon fill="#A80036" points="700.75,238.8898,704.75,229.8898,700.75,233.8898,696.75,229.8898,700.75,238.8898" style="stroke: #A80036; stroke-width: 1.0;"/><!--MD5=[b7b51e952328f8ee0166590173d7f3c4]
link eapli.framework.domain.repositories.DomainRepository to eapli.framework.domain.model.AggregateRoot--><path d="M106.5,55.664 C106.5,91.14 106.5,161 106.5,161 C106.5,161 548.217,161 548.217,161 " fill="none" id="eapli.framework.domain.repositories.DomainRepository-&gt;eapli.framework.domain.model.AggregateRoot" style="stroke: #A80036; stroke-width: 1.0; stroke-dasharray: 7.0,7.0;"/><polygon fill="#A80036" points="553.217,161,544.217,157,548.217,161,544.217,165,553.217,161" style="stroke: #A80036; stroke-width: 1.0;"/><!--MD5=[ba68618a212f957d098eaa23f54c98d6]
link eapli.framework.domain.repositories.IterableDomainRepository to eapli.framework.domain.model.AggregateRoot--><path d="M344.5,55.532 C344.5,86.382 344.5,142 344.5,142 C344.5,142 548.291,142 548.291,142 " fill="none" id="eapli.framework.domain.repositories.IterableDomainRepository-&gt;eapli.framework.domain.model.AggregateRoot" style="stroke: #A80036; stroke-width: 1.0; stroke-dasharray: 7.0,7.0;"/><polygon fill="#A80036" points="553.291,142,544.291,138,548.291,142,544.291,146,553.291,142" style="stroke: #A80036; stroke-width: 1.0;"/><!--MD5=[2aae6aa192fcb5217090bd2600b853d2]
link eapli.framework.infrastructure.repositories.impl.inmemory.InMemoryDomainAutoNumberRepository to eapli.framework.domain.model.AggregateRoot--><path d="M611.5,55.619 C611.5,55.619 611.5,117.893 611.5,117.893 " fill="none" id="eapli.framework.infrastructure.repositories.impl.inmemory.InMemoryDomainAutoNumberRepository-&gt;eapli.framework.domain.model.AggregateRoot" style="stroke: #A80036; stroke-width: 1.0; stroke-dasharray: 7.0,7.0;"/><polygon fill="#A80036" points="611.5,122.893,615.5,113.893,611.5,117.893,607.5,113.893,611.5,122.893" style="stroke: #A80036; stroke-width: 1.0;"/><!--MD5=[f3642073c3d2297012cad46308c383d7]
link eapli.framework.infrastructure.repositories.impl.inmemory.InMemoryDomainRepository to eapli.framework.domain.model.AggregateRoot--><path d="M983.5,55.619 C983.5,88.71 983.5,151 983.5,151 C983.5,151 732.941,151 732.941,151 " fill="none" id="eapli.framework.infrastructure.repositories.impl.inmemory.InMemoryDomainRepository-&gt;eapli.framework.domain.model.AggregateRoot" style="stroke: #A80036; stroke-width: 1.0; stroke-dasharray: 7.0,7.0;"/><polygon fill="#A80036" points="727.941,151,736.941,155,732.941,151,736.941,147,727.941,151" style="stroke: #A80036; stroke-width: 1.0;"/><!--MD5=[69dc54e6e4a88ab9afb0c1c327a7d8e4]
link eapli.framework.infrastructure.repositories.impl.springdata.SpringDataDomainBaseRepository to eapli.framework.domain.model.AggregateRoot--><path d="M1168.69,60 C976.326,60 669.5,60 669.5,60 C669.5,60 669.5,117.706 669.5,117.706 " fill="none" id="eapli.framework.infrastructure.repositories.impl.springdata.SpringDataDomainBaseRepository-&gt;eapli.framework.domain.model.AggregateRoot" style="stroke: #A80036; stroke-width: 1.0; stroke-dasharray: 7.0,7.0;"/><polygon fill="#A80036" points="669.5,122.706,673.5,113.706,669.5,117.706,665.5,113.706,669.5,122.706" style="stroke: #A80036; stroke-width: 1.0;"/><!--MD5=[0d72ad0b7724cac2718477a7a5bfffbf]
@startuml

skinparam svgLinkTarget _parent
skinparam linetype ortho
set namespaceSeparator none
interface "<b><size:14>AggregateRoot</b>\n<size:10>eapli.framework.domain.model" as eapli.framework.domain.model.AggregateRoot  [[../../../../eapli/framework/domain/model/AggregateRoot.html{eapli.framework.domain.model.AggregateRoot}]] {
}


interface "<b><size:14>DomainEntity<I></b>\n<size:10>eapli.framework.domain.model" as eapli.framework.domain.model.DomainEntityComparable  [[../../../../eapli/framework/domain/model/DomainEntity.html{eapli.framework.domain.model.DomainEntity}]] {
}

hide eapli.framework.domain.model.DomainEntityComparable fields
hide eapli.framework.domain.model.DomainEntityComparable methods

eapli.framework.domain.model.AggregateRoot - -|> eapli.framework.domain.model.DomainEntityComparable

interface "<b><size:14>Comparable</b>\n<size:10>java.lang" as java.lang.Comparable  #lightgrey {
}

hide java.lang.Comparable fields
hide java.lang.Comparable methods

eapli.framework.domain.model.AggregateRoot ..> java.lang.Comparable

interface "<b><size:14>DomainRepository</b>\n<size:10>eapli.framework.domain.repositories" as eapli.framework.domain.repositories.DomainRepository  [[../../../../eapli/framework/domain/repositories/DomainRepository.html{eapli.framework.domain.repositories.DomainRepository}]] #white {
}

hide eapli.framework.domain.repositories.DomainRepository fields
hide eapli.framework.domain.repositories.DomainRepository methods

eapli.framework.domain.repositories.DomainRepository ..> eapli.framework.domain.model.AggregateRoot

interface "<b><size:14>IterableDomainRepository</b>\n<size:10>eapli.framework.domain.repositories" as eapli.framework.domain.repositories.IterableDomainRepository  [[../../../../eapli/framework/domain/repositories/IterableDomainRepository.html{eapli.framework.domain.repositories.IterableDomainRepository}]] #white {
}

hide eapli.framework.domain.repositories.IterableDomainRepository fields
hide eapli.framework.domain.repositories.IterableDomainRepository methods

eapli.framework.domain.repositories.IterableDomainRepository ..> eapli.framework.domain.model.AggregateRoot

class "<b><size:14>InMemoryDomainAutoNumberRepository</b>\n<size:10>eapli.framework.infrastructure.repositories.impl.inmemory" as eapli.framework.infrastructure.repositories.impl.inmemory.InMemoryDomainAutoNumberRepository  [[../../../../eapli/framework/infrastructure/repositories/impl/inmemory/InMemoryDomainAutoNumberRepository.html{eapli.framework.infrastructure.repositories.impl.inmemory.InMemoryDomainAutoNumberRepository}]] #white {
}

hide eapli.framework.infrastructure.repositories.impl.inmemory.InMemoryDomainAutoNumberRepository fields
hide eapli.framework.infrastructure.repositories.impl.inmemory.InMemoryDomainAutoNumberRepository methods

eapli.framework.infrastructure.repositories.impl.inmemory.InMemoryDomainAutoNumberRepository ..> eapli.framework.domain.model.AggregateRoot

class "<b><size:14>InMemoryDomainRepository</b>\n<size:10>eapli.framework.infrastructure.repositories.impl.inmemory" as eapli.framework.infrastructure.repositories.impl.inmemory.InMemoryDomainRepository  [[../../../../eapli/framework/infrastructure/repositories/impl/inmemory/InMemoryDomainRepository.html{eapli.framework.infrastructure.repositories.impl.inmemory.InMemoryDomainRepository}]] #white {
}

hide eapli.framework.infrastructure.repositories.impl.inmemory.InMemoryDomainRepository fields
hide eapli.framework.infrastructure.repositories.impl.inmemory.InMemoryDomainRepository methods

eapli.framework.infrastructure.repositories.impl.inmemory.InMemoryDomainRepository ..> eapli.framework.domain.model.AggregateRoot

interface "<b><size:14>SpringDataDomainBaseRepository</b>\n<size:10>eapli.framework.infrastructure.repositories.impl.springdata" as eapli.framework.infrastructure.repositories.impl.springdata.SpringDataDomainBaseRepository <<NoRepositoryBean>> [[../../../../eapli/framework/infrastructure/repositories/impl/springdata/SpringDataDomainBaseRepository.html{eapli.framework.infrastructure.repositories.impl.springdata.SpringDataDomainBaseRepository}]] #white {
}

hide eapli.framework.infrastructure.repositories.impl.springdata.SpringDataDomainBaseRepository fields
hide eapli.framework.infrastructure.repositories.impl.springdata.SpringDataDomainBaseRepository methods

eapli.framework.infrastructure.repositories.impl.springdata.SpringDataDomainBaseRepository ..> eapli.framework.domain.model.AggregateRoot


@enduml

PlantUML version 1.2020.04(Thu Mar 19 10:16:49 GMT 2020)
(GPL source distribution)
Java Runtime: Java(TM) SE Runtime Environment
JVM: Java HotSpot(TM) 64-Bit Server VM
Java Version: 1.8.0_202-b08
Operating System: Windows 10
Default Encoding: Cp1252
Language: en
Country: US
--></g></svg>