@startuml

skinparam svgLinkTarget _parent
skinparam linetype ortho
set namespaceSeparator none
class "<b><size:14>DomainEntities</b>\n<size:10>eapli.framework.domain.model" as eapli.framework.domain.model.DomainEntities  [[../../../../eapli/framework/domain/model/DomainEntities.html{eapli.framework.domain.model.DomainEntities}]] {
-DomainEntities()
{static} +boolean areEqual(DomainEntity<?> one,Object other)
{static} +int hashCode(DomainEntity<?> aDomainEntity)
}


interface "<b><size:14>DomainEntity<?></b>\n<size:10>eapli.framework.domain.model" as eapli.framework.domain.model.DomainEntityComparable  [[../../../../eapli/framework/domain/model/DomainEntity.html{eapli.framework.domain.model.DomainEntity}]] {
}

hide eapli.framework.domain.model.DomainEntityComparable fields
hide eapli.framework.domain.model.DomainEntityComparable methods

eapli.framework.domain.model.DomainEntities ..> eapli.framework.domain.model.DomainEntityComparable

interface "<b><size:14>Comparable</b>\n<size:10>java.lang" as java.lang.Comparable  #lightgrey {
}

hide java.lang.Comparable fields
hide java.lang.Comparable methods

eapli.framework.domain.model.DomainEntities ..> java.lang.Comparable


@enduml
