<?xml version="1.0" encoding="UTF-8" standalone="no"?><svg xmlns="http://www.w3.org/2000/svg" xmlns:xlink="http://www.w3.org/1999/xlink" contentScriptType="application/ecmascript" contentStyleType="text/css" height="204px" preserveAspectRatio="none" style="width:191px;height:204px;" version="1.1" viewBox="0 0 191 204" width="191px" zoomAndPan="magnify"><defs><filter height="300%" id="f16eg2eatqb8bh" width="300%" x="-1" y="-1"><feGaussianBlur result="blurOut" stdDeviation="2.0"/><feColorMatrix in="blurOut" result="blurOut2" type="matrix" values="0 0 0 0 0 0 0 0 0 0 0 0 0 0 0 0 0 0 .4 0"/><feOffset dx="4.0" dy="4.0" in="blurOut2" result="blurOut3"/><feBlend in="SourceGraphic" in2="blurOut3" mode="normal"/></filter></defs><g><!--MD5=[e2d268cf9ed8c63b2fbfa9dd65f8d87c]
class eapli.framework.domain.model.DomainFactory--><a href="../../../../eapli/framework/domain/model/DomainFactory.html" target="_parent" title="eapli.framework.domain.model.DomainFactory" xlink:actuate="onRequest" xlink:href="../../../../eapli/framework/domain/model/DomainFactory.html" xlink:show="new" xlink:title="eapli.framework.domain.model.DomainFactory" xlink:type="simple"><rect fill="#FEFECE" filter="url(#f16eg2eatqb8bh)" height="85.1172" id="eapli.framework.domain.model.DomainFactory" style="stroke: #A80036; stroke-width: 1.5;" width="174" x="6" y="8"/><ellipse cx="21" cy="35.6406" fill="#B4A7E5" rx="11" ry="11" style="stroke: #A80036; stroke-width: 1.0;"/><path d="M21.9531,32.2813 L21.9531,38.9375 L23.6719,38.9375 Q24.2813,38.9375 24.5469,39.1719 Q24.8125,39.4063 24.8125,39.7969 Q24.8125,40.1719 24.5469,40.4063 Q24.2813,40.6406 23.6719,40.6406 L18.5313,40.6406 Q17.9219,40.6406 17.6563,40.4063 Q17.3906,40.1719 17.3906,39.7813 Q17.3906,39.4063 17.6563,39.1719 Q17.9219,38.9375 18.5313,38.9375 L20.25,38.9375 L20.25,32.2813 L18.5313,32.2813 Q17.9219,32.2813 17.6563,32.0469 Q17.3906,31.8125 17.3906,31.4219 Q17.3906,31.0469 17.6563,30.8125 Q17.9219,30.5781 18.5313,30.5781 L23.6719,30.5781 Q24.2813,30.5781 24.5469,30.8125 Q24.8125,31.0469 24.8125,31.4219 Q24.8125,31.8125 24.5469,32.0469 Q24.2813,32.2813 23.6719,32.2813 L21.9531,32.2813 Z "/><text fill="#000000" font-family="sans-serif" font-size="12" font-style="italic" lengthAdjust="spacingAndGlyphs" textLength="119" x="46.5" y="25.457">«FunctionalInterface»</text><text fill="#000000" font-family="sans-serif" font-size="14" font-style="italic" font-weight="bold" lengthAdjust="spacingAndGlyphs" textLength="101" x="55.5" y="42.627">DomainFactory</text><text fill="#000000" font-family="sans-serif" font-size="10" font-style="italic" lengthAdjust="spacingAndGlyphs" textLength="142" x="35" y="56.084">eapli.framework.domain.model</text><line style="stroke: #A80036; stroke-width: 1.5;" x1="7" x2="179" y1="63.2813" y2="63.2813"/><line style="stroke: #A80036; stroke-width: 1.5;" x1="7" x2="179" y1="71.2813" y2="71.2813"/><ellipse cx="17" cy="82.2813" fill="#84BE84" rx="3" ry="3" style="stroke: #038048; stroke-width: 1.0;"/><text fill="#000000" font-family="sans-serif" font-size="11" font-style="italic" lengthAdjust="spacingAndGlyphs" textLength="101" x="26" y="86.7002">DomainEntity build()</text></a><!--MD5=[3747dc24631888be2105b7978ad252ce]
class eapli.framework.domain.model.DomainEntity--><a href="../../../../eapli/framework/domain/model/DomainEntity.html" target="_parent" title="eapli.framework.domain.model.DomainEntity" xlink:actuate="onRequest" xlink:href="../../../../eapli/framework/domain/model/DomainEntity.html" xlink:show="new" xlink:title="eapli.framework.domain.model.DomainEntity" xlink:type="simple"><rect fill="#FEFECE" filter="url(#f16eg2eatqb8bh)" height="40.1875" id="eapli.framework.domain.model.DomainEntity" style="stroke: #A80036; stroke-width: 1.5;" width="174" x="6" y="153"/><ellipse cx="21" cy="173.0938" fill="#B4A7E5" rx="11" ry="11" style="stroke: #A80036; stroke-width: 1.0;"/><path d="M21.9531,169.7344 L21.9531,176.3906 L23.6719,176.3906 Q24.2813,176.3906 24.5469,176.625 Q24.8125,176.8594 24.8125,177.25 Q24.8125,177.625 24.5469,177.8594 Q24.2813,178.0938 23.6719,178.0938 L18.5313,178.0938 Q17.9219,178.0938 17.6563,177.8594 Q17.3906,177.625 17.3906,177.2344 Q17.3906,176.8594 17.6563,176.625 Q17.9219,176.3906 18.5313,176.3906 L20.25,176.3906 L20.25,169.7344 L18.5313,169.7344 Q17.9219,169.7344 17.6563,169.5 Q17.3906,169.2656 17.3906,168.875 Q17.3906,168.5 17.6563,168.2656 Q17.9219,168.0313 18.5313,168.0313 L23.6719,168.0313 Q24.2813,168.0313 24.5469,168.2656 Q24.8125,168.5 24.8125,168.875 Q24.8125,169.2656 24.5469,169.5 Q24.2813,169.7344 23.6719,169.7344 L21.9531,169.7344 Z "/><text fill="#000000" font-family="sans-serif" font-size="14" font-style="italic" font-weight="bold" lengthAdjust="spacingAndGlyphs" textLength="90" x="61" y="172.5332">DomainEntity</text><text fill="#000000" font-family="sans-serif" font-size="10" font-style="italic" lengthAdjust="spacingAndGlyphs" textLength="142" x="35" y="185.9902">eapli.framework.domain.model</text></a><!--MD5=[0d24209b613a1889998ca6eca110f207]
link eapli.framework.domain.model.DomainFactory to eapli.framework.domain.model.DomainEntity--><path d="M93,93.0008 C93,93.0008 93,147.8906 93,147.8906 " fill="none" id="eapli.framework.domain.model.DomainFactory-&gt;eapli.framework.domain.model.DomainEntity" style="stroke: #A80036; stroke-width: 1.0; stroke-dasharray: 7.0,7.0;"/><polygon fill="#A80036" points="93,152.8906,97,143.8906,93,147.8906,89,143.8906,93,152.8906" style="stroke: #A80036; stroke-width: 1.0;"/><!--MD5=[546512d7c9854819e8ae650bdbc67b55]
@startuml

skinparam svgLinkTarget _parent
skinparam linetype ortho
set namespaceSeparator none
interface "<b><size:14>DomainFactory</b>\n<size:10>eapli.framework.domain.model" as eapli.framework.domain.model.DomainFactory <<FunctionalInterface>> [[../../../../eapli/framework/domain/model/DomainFactory.html{eapli.framework.domain.model.DomainFactory}]] {
{abstract} +DomainEntity build()
}


interface "<b><size:14>DomainEntity</b>\n<size:10>eapli.framework.domain.model" as eapli.framework.domain.model.DomainEntity  [[../../../../eapli/framework/domain/model/DomainEntity.html{eapli.framework.domain.model.DomainEntity}]] {
}

hide eapli.framework.domain.model.DomainEntity fields
hide eapli.framework.domain.model.DomainEntity methods

eapli.framework.domain.model.DomainFactory ..> eapli.framework.domain.model.DomainEntity


@enduml

PlantUML version 1.2020.04(Thu Mar 19 10:16:49 GMT 2020)
(GPL source distribution)
Java Runtime: Java(TM) SE Runtime Environment
JVM: Java HotSpot(TM) 64-Bit Server VM
Java Version: 1.8.0_202-b08
Operating System: Windows 10
Default Encoding: Cp1252
Language: en
Country: US
--></g></svg>