<?xml version="1.0" encoding="UTF-8" standalone="no"?><svg xmlns="http://www.w3.org/2000/svg" xmlns:xlink="http://www.w3.org/1999/xlink" contentScriptType="application/ecmascript" contentStyleType="text/css" height="970px" preserveAspectRatio="none" style="width:1205px;height:970px;" version="1.1" viewBox="0 0 1205 970" width="1205px" zoomAndPan="magnify"><defs><filter height="300%" id="f1j5d2z9uz9uqr" width="300%" x="-1" y="-1"><feGaussianBlur result="blurOut" stdDeviation="2.0"/><feColorMatrix in="blurOut" result="blurOut2" type="matrix" values="0 0 0 0 0 0 0 0 0 0 0 0 0 0 0 0 0 0 .4 0"/><feOffset dx="4.0" dy="4.0" in="blurOut2" result="blurOut3"/><feBlend in="SourceGraphic" in2="blurOut3" mode="normal"/></filter></defs><g><!--class SimplePersistentEventPubSub--><rect fill="#FEFECE" filter="url(#f1j5d2z9uz9uqr)" height="283.2109" id="SimplePersistentEventPubSub" style="stroke: #A80036; stroke-width: 1.5;" width="428" x="272" y="676"/><ellipse cx="397.25" cy="692" fill="#ADD1B2" rx="11" ry="11" style="stroke: #A80036; stroke-width: 1.0;"/><path d="M400.0156,687.875 Q400.1719,687.6563 400.3594,687.5469 Q400.5469,687.4375 400.7656,687.4375 Q401.1406,687.4375 401.375,687.6953 Q401.6094,687.9531 401.6094,688.5625 L401.6094,690.0156 Q401.6094,690.625 401.375,690.8906 Q401.1406,691.1563 400.7656,691.1563 Q400.4219,691.1563 400.2188,690.9531 Q400.0156,690.7656 399.9063,690.25 Q399.8594,689.8906 399.6719,689.7031 Q399.3438,689.3281 398.7344,689.1094 Q398.125,688.8906 397.5,688.8906 Q396.7344,688.8906 396.1016,689.2188 Q395.4688,689.5469 394.9766,690.2969 Q394.4844,691.0469 394.4844,692.0781 L394.4844,693.1719 Q394.4844,694.4063 395.375,695.2266 Q396.2656,696.0469 397.8594,696.0469 Q398.7969,696.0469 399.4531,695.7969 Q399.8438,695.6406 400.2656,695.2031 Q400.5313,694.9375 400.6797,694.8594 Q400.8281,694.7813 401.0313,694.7813 Q401.3594,694.7813 401.6172,695.0391 Q401.875,695.2969 401.875,695.6406 Q401.875,695.9844 401.5313,696.3906 Q401.0313,696.9688 400.2344,697.2969 Q399.1563,697.75 397.8594,697.75 Q396.3438,697.75 395.1406,697.125 Q394.1563,696.625 393.4688,695.5547 Q392.7813,694.4844 392.7813,693.2031 L392.7813,692.0469 Q392.7813,690.7188 393.3984,689.5703 Q394.0156,688.4219 395.1094,687.8047 Q396.2031,687.1875 397.4375,687.1875 Q398.1719,687.1875 398.8203,687.3516 Q399.4688,687.5156 400.0156,687.875 Z "/><text fill="#000000" font-family="sans-serif" font-size="12" lengthAdjust="spacingAndGlyphs" textLength="169" x="417.75" y="696.9102">SimplePersistentEventPubSub</text><line style="stroke: #A80036; stroke-width: 1.5;" x1="273" x2="699" y1="708" y2="708"/><rect fill="none" height="6" style="stroke: #C82930; stroke-width: 1.0;" width="6" x="280" y="717.418"/><text fill="#000000" font-family="sans-serif" font-size="11" lengthAdjust="spacingAndGlyphs" text-decoration="underline" textLength="142" x="292" y="723.4189">int POLL_EVENTS_INTERVAL</text><line style="stroke: #000000; stroke-width: 1.0;" x1="292" x2="434" y1="725.4189" y2="725.4189"/><rect fill="none" height="6" style="stroke: #C82930; stroke-width: 1.0;" width="6" x="280" y="731.2539"/><text fill="#000000" font-family="sans-serif" font-size="11" lengthAdjust="spacingAndGlyphs" text-decoration="underline" textLength="80" x="292" y="737.2549">Logger LOGGER</text><line style="stroke: #000000; stroke-width: 1.0;" x1="292" x2="372" y1="739.2549" y2="739.2549"/><rect fill="none" height="6" style="stroke: #C82930; stroke-width: 1.0;" width="6" x="280" y="745.0898"/><text fill="#000000" font-family="sans-serif" font-size="11" lengthAdjust="spacingAndGlyphs" textLength="169" x="292" y="751.0908">EventRecordRepository eventRepo</text><rect fill="none" height="6" style="stroke: #C82930; stroke-width: 1.0;" width="6" x="280" y="758.9258"/><text fill="#000000" font-family="sans-serif" font-size="11" lengthAdjust="spacingAndGlyphs" textLength="230" x="292" y="764.9268">EventConsumptionRepository consumptionRepo</text><rect fill="none" height="6" style="stroke: #C82930; stroke-width: 1.0;" width="6" x="280" y="772.7617"/><text fill="#000000" font-family="sans-serif" font-size="11" lengthAdjust="spacingAndGlyphs" textLength="164" x="292" y="778.7627">EventDispatcher inprocDispatcher</text><rect fill="none" height="6" style="stroke: #C82930; stroke-width: 1.0;" width="6" x="280" y="786.5977"/><text fill="#000000" font-family="sans-serif" font-size="11" lengthAdjust="spacingAndGlyphs" textLength="148" x="292" y="792.5986">EventPublisher inprocPublisher</text><rect fill="none" height="6" style="stroke: #C82930; stroke-width: 1.0;" width="6" x="280" y="800.4336"/><text fill="#000000" font-family="sans-serif" font-size="11" lengthAdjust="spacingAndGlyphs" textLength="91" x="292" y="806.4346">String instanceKey</text><line style="stroke: #A80036; stroke-width: 1.5;" x1="273" x2="699" y1="812.8516" y2="812.8516"/><polygon fill="#FFFF44" points="283,820.2695,287,824.2695,283,828.2695,279,824.2695" style="stroke: #B38D22; stroke-width: 1.0;"/><text fill="#000000" font-family="sans-serif" font-size="11" lengthAdjust="spacingAndGlyphs" textLength="242" x="292" y="828.2705">SimplePersistentEventPubSub(String instanceKey)</text><rect fill="#F24D5C" height="6" style="stroke: #C82930; stroke-width: 1.0;" width="6" x="280" y="836.1055"/><text fill="#000000" font-family="sans-serif" font-size="11" lengthAdjust="spacingAndGlyphs" textLength="243" x="292" y="842.1064">void storeConsumptionAndPublish(EventRecord x)</text><rect fill="#F24D5C" height="6" style="stroke: #C82930; stroke-width: 1.0;" width="6" x="280" y="849.9414"/><text fill="#000000" font-family="sans-serif" font-size="11" lengthAdjust="spacingAndGlyphs" textLength="98" x="292" y="855.9424">boolean pollEvents()</text><rect fill="#F24D5C" height="6" style="stroke: #C82930; stroke-width: 1.0;" width="6" x="280" y="863.7773"/><text fill="#000000" font-family="sans-serif" font-size="11" lengthAdjust="spacingAndGlyphs" textLength="44" x="292" y="869.7783">void init()</text><ellipse cx="283" cy="880.6133" fill="#84BE84" rx="3" ry="3" style="stroke: #038048; stroke-width: 1.0;"/><text fill="#000000" font-family="sans-serif" font-size="11" lengthAdjust="spacingAndGlyphs" textLength="157" x="292" y="883.6143">void publish(DomainEvent event)</text><rect fill="#F24D5C" height="6" style="stroke: #C82930; stroke-width: 1.0;" width="6" x="280" y="891.4492"/><text fill="#000000" font-family="sans-serif" font-size="11" lengthAdjust="spacingAndGlyphs" textLength="175" x="292" y="897.4502">void storeEvent(DomainEvent event)</text><ellipse cx="283" cy="908.2852" fill="#84BE84" rx="3" ry="3" style="stroke: #038048; stroke-width: 1.0;"/><text fill="#000000" font-family="sans-serif" font-size="11" lengthAdjust="spacingAndGlyphs" textLength="390" x="292" y="911.2861">void subscribe(EventHandler observer, Class&lt;? extends DomainEvent&gt;[] events)</text><ellipse cx="283" cy="922.1211" fill="#84BE84" rx="3" ry="3" style="stroke: #038048; stroke-width: 1.0;"/><text fill="#000000" font-family="sans-serif" font-size="11" lengthAdjust="spacingAndGlyphs" textLength="402" x="292" y="925.1221">void unsubscribe(EventHandler observer, Class&lt;? extends DomainEvent&gt;[] events)</text><ellipse cx="283" cy="935.957" fill="#84BE84" rx="3" ry="3" style="stroke: #038048; stroke-width: 1.0;"/><text fill="#000000" font-family="sans-serif" font-size="11" lengthAdjust="spacingAndGlyphs" textLength="202" x="292" y="938.958">void unsubscribe(EventHandler observer)</text><ellipse cx="283" cy="949.793" fill="#84BE84" rx="3" ry="3" style="stroke: #038048; stroke-width: 1.0;"/><text fill="#000000" font-family="sans-serif" font-size="11" lengthAdjust="spacingAndGlyphs" textLength="80" x="292" y="952.7939">void shutdown()</text><!--class EventDispatcher--><rect fill="#FEFECE" filter="url(#f1j5d2z9uz9uqr)" height="48" id="EventDispatcher" style="stroke: #A80036; stroke-width: 1.5;" width="122" x="6" y="568"/><ellipse cx="21" cy="584" fill="#B4A7E5" rx="11" ry="11" style="stroke: #A80036; stroke-width: 1.0;"/><path d="M21.9531,580.6406 L21.9531,587.2969 L23.6719,587.2969 Q24.2813,587.2969 24.5469,587.5313 Q24.8125,587.7656 24.8125,588.1563 Q24.8125,588.5313 24.5469,588.7656 Q24.2813,589 23.6719,589 L18.5313,589 Q17.9219,589 17.6563,588.7656 Q17.3906,588.5313 17.3906,588.1406 Q17.3906,587.7656 17.6563,587.5313 Q17.9219,587.2969 18.5313,587.2969 L20.25,587.2969 L20.25,580.6406 L18.5313,580.6406 Q17.9219,580.6406 17.6563,580.4063 Q17.3906,580.1719 17.3906,579.7813 Q17.3906,579.4063 17.6563,579.1719 Q17.9219,578.9375 18.5313,578.9375 L23.6719,578.9375 Q24.2813,578.9375 24.5469,579.1719 Q24.8125,579.4063 24.8125,579.7813 Q24.8125,580.1719 24.5469,580.4063 Q24.2813,580.6406 23.6719,580.6406 L21.9531,580.6406 Z "/><text fill="#000000" font-family="sans-serif" font-size="12" font-style="italic" lengthAdjust="spacingAndGlyphs" textLength="90" x="35" y="588.9102">EventDispatcher</text><line style="stroke: #A80036; stroke-width: 1.5;" x1="7" x2="127" y1="600" y2="600"/><line style="stroke: #A80036; stroke-width: 1.5;" x1="7" x2="127" y1="608" y2="608"/><!--class EventPublisher--><rect fill="#FEFECE" filter="url(#f1j5d2z9uz9uqr)" height="48" id="EventPublisher" style="stroke: #A80036; stroke-width: 1.5;" width="116" x="163" y="568"/><ellipse cx="178" cy="584" fill="#B4A7E5" rx="11" ry="11" style="stroke: #A80036; stroke-width: 1.0;"/><path d="M178.9531,580.6406 L178.9531,587.2969 L180.6719,587.2969 Q181.2813,587.2969 181.5469,587.5313 Q181.8125,587.7656 181.8125,588.1563 Q181.8125,588.5313 181.5469,588.7656 Q181.2813,589 180.6719,589 L175.5313,589 Q174.9219,589 174.6563,588.7656 Q174.3906,588.5313 174.3906,588.1406 Q174.3906,587.7656 174.6563,587.5313 Q174.9219,587.2969 175.5313,587.2969 L177.25,587.2969 L177.25,580.6406 L175.5313,580.6406 Q174.9219,580.6406 174.6563,580.4063 Q174.3906,580.1719 174.3906,579.7813 Q174.3906,579.4063 174.6563,579.1719 Q174.9219,578.9375 175.5313,578.9375 L180.6719,578.9375 Q181.2813,578.9375 181.5469,579.1719 Q181.8125,579.4063 181.8125,579.7813 Q181.8125,580.1719 181.5469,580.4063 Q181.2813,580.6406 180.6719,580.6406 L178.9531,580.6406 Z "/><text fill="#000000" font-family="sans-serif" font-size="12" font-style="italic" lengthAdjust="spacingAndGlyphs" textLength="84" x="192" y="588.9102">EventPublisher</text><line style="stroke: #A80036; stroke-width: 1.5;" x1="164" x2="278" y1="600" y2="600"/><line style="stroke: #A80036; stroke-width: 1.5;" x1="164" x2="278" y1="608" y2="608"/><!--class Singleton--><a target="_top" xlink:actuate="onRequest" xlink:href="java:eapli.framework.util.Singleton" xlink:show="new" xlink:title="java:eapli.framework.util.Singleton" xlink:type="simple"><rect fill="#FEFECE" filter="url(#f1j5d2z9uz9uqr)" height="48" id="Singleton" style="stroke: #A80036; stroke-width: 1.5;" width="84" x="314" y="568"/><ellipse cx="329" cy="584" fill="#B4A7E5" rx="11" ry="11" style="stroke: #A80036; stroke-width: 1.0;"/><path d="M329.9531,580.6406 L329.9531,587.2969 L331.6719,587.2969 Q332.2813,587.2969 332.5469,587.5313 Q332.8125,587.7656 332.8125,588.1563 Q332.8125,588.5313 332.5469,588.7656 Q332.2813,589 331.6719,589 L326.5313,589 Q325.9219,589 325.6563,588.7656 Q325.3906,588.5313 325.3906,588.1406 Q325.3906,587.7656 325.6563,587.5313 Q325.9219,587.2969 326.5313,587.2969 L328.25,587.2969 L328.25,580.6406 L326.5313,580.6406 Q325.9219,580.6406 325.6563,580.4063 Q325.3906,580.1719 325.3906,579.7813 Q325.3906,579.4063 325.6563,579.1719 Q325.9219,578.9375 326.5313,578.9375 L331.6719,578.9375 Q332.2813,578.9375 332.5469,579.1719 Q332.8125,579.4063 332.8125,579.7813 Q332.8125,580.1719 332.5469,580.4063 Q332.2813,580.6406 331.6719,580.6406 L329.9531,580.6406 Z "/><text fill="#000000" font-family="sans-serif" font-size="12" font-style="italic" lengthAdjust="spacingAndGlyphs" textLength="52" x="343" y="588.9102">Singleton</text><line style="stroke: #A80036; stroke-width: 1.5;" x1="315" x2="397" y1="600" y2="600"/><line style="stroke: #A80036; stroke-width: 1.5;" x1="315" x2="397" y1="608" y2="608"/></a><!--class EventRecordRepository--><rect fill="#FEFECE" filter="url(#f1j5d2z9uz9uqr)" height="61.8359" id="EventRecordRepository" style="stroke: #A80036; stroke-width: 1.5;" width="322" x="147" y="397.5"/><ellipse cx="238.75" cy="413.5" fill="#B4A7E5" rx="11" ry="11" style="stroke: #A80036; stroke-width: 1.0;"/><path d="M239.7031,410.1406 L239.7031,416.7969 L241.4219,416.7969 Q242.0313,416.7969 242.2969,417.0313 Q242.5625,417.2656 242.5625,417.6563 Q242.5625,418.0313 242.2969,418.2656 Q242.0313,418.5 241.4219,418.5 L236.2813,418.5 Q235.6719,418.5 235.4063,418.2656 Q235.1406,418.0313 235.1406,417.6406 Q235.1406,417.2656 235.4063,417.0313 Q235.6719,416.7969 236.2813,416.7969 L238,416.7969 L238,410.1406 L236.2813,410.1406 Q235.6719,410.1406 235.4063,409.9063 Q235.1406,409.6719 235.1406,409.2813 Q235.1406,408.9063 235.4063,408.6719 Q235.6719,408.4375 236.2813,408.4375 L241.4219,408.4375 Q242.0313,408.4375 242.2969,408.6719 Q242.5625,408.9063 242.5625,409.2813 Q242.5625,409.6719 242.2969,409.9063 Q242.0313,410.1406 241.4219,410.1406 L239.7031,410.1406 Z "/><text fill="#000000" font-family="sans-serif" font-size="12" font-style="italic" lengthAdjust="spacingAndGlyphs" textLength="130" x="259.25" y="418.4102">EventRecordRepository</text><line style="stroke: #A80036; stroke-width: 1.5;" x1="148" x2="468" y1="429.5" y2="429.5"/><line style="stroke: #A80036; stroke-width: 1.5;" x1="148" x2="468" y1="437.5" y2="437.5"/><ellipse cx="158" cy="449.918" fill="#84BE84" rx="3" ry="3" style="stroke: #038048; stroke-width: 1.0;"/><text fill="#000000" font-family="sans-serif" font-size="11" lengthAdjust="spacingAndGlyphs" textLength="296" x="167" y="452.9189">Iterable&lt;EventRecord&gt; findNotConsumed(String instanceKey)</text><!--class DataRepository_EventRecord_Long_--><rect fill="#FEFECE" filter="url(#f1j5d2z9uz9uqr)" height="48" id="DataRepository_EventRecord_Long_" style="stroke: #A80036; stroke-width: 1.5;" width="223" x="196.5" y="178.5"/><ellipse cx="211.5" cy="194.5" fill="#B4A7E5" rx="11" ry="11" style="stroke: #A80036; stroke-width: 1.0;"/><path d="M212.4531,191.1406 L212.4531,197.7969 L214.1719,197.7969 Q214.7813,197.7969 215.0469,198.0313 Q215.3125,198.2656 215.3125,198.6563 Q215.3125,199.0313 215.0469,199.2656 Q214.7813,199.5 214.1719,199.5 L209.0313,199.5 Q208.4219,199.5 208.1563,199.2656 Q207.8906,199.0313 207.8906,198.6406 Q207.8906,198.2656 208.1563,198.0313 Q208.4219,197.7969 209.0313,197.7969 L210.75,197.7969 L210.75,191.1406 L209.0313,191.1406 Q208.4219,191.1406 208.1563,190.9063 Q207.8906,190.6719 207.8906,190.2813 Q207.8906,189.9063 208.1563,189.6719 Q208.4219,189.4375 209.0313,189.4375 L214.1719,189.4375 Q214.7813,189.4375 215.0469,189.6719 Q215.3125,189.9063 215.3125,190.2813 Q215.3125,190.6719 215.0469,190.9063 Q214.7813,191.1406 214.1719,191.1406 L212.4531,191.1406 Z "/><text fill="#000000" font-family="sans-serif" font-size="12" font-style="italic" lengthAdjust="spacingAndGlyphs" textLength="85" x="225.5" y="199.4102">DataRepository</text><rect fill="#FFFFFF" height="17.0938" style="stroke: #000000; stroke-width: 1.0; stroke-dasharray: 2.0,2.0;" width="104" x="318.5" y="175.5"/><text fill="#000000" font-family="sans-serif" font-size="12" font-style="italic" lengthAdjust="spacingAndGlyphs" textLength="102" x="319.5" y="188.957">EventRecord,Long</text><line style="stroke: #A80036; stroke-width: 1.5;" x1="197.5" x2="418.5" y1="210.5" y2="210.5"/><line style="stroke: #A80036; stroke-width: 1.5;" x1="197.5" x2="418.5" y1="218.5" y2="218.5"/><!--class EventRecord--><rect fill="#FEFECE" filter="url(#f1j5d2z9uz9uqr)" height="172.5234" id="EventRecord" style="stroke: #A80036; stroke-width: 1.5;" width="188" x="615" y="116"/><ellipse cx="669.75" cy="132" fill="#ADD1B2" rx="11" ry="11" style="stroke: #A80036; stroke-width: 1.0;"/><path d="M672.5156,127.875 Q672.6719,127.6563 672.8594,127.5469 Q673.0469,127.4375 673.2656,127.4375 Q673.6406,127.4375 673.875,127.6953 Q674.1094,127.9531 674.1094,128.5625 L674.1094,130.0156 Q674.1094,130.625 673.875,130.8906 Q673.6406,131.1563 673.2656,131.1563 Q672.9219,131.1563 672.7188,130.9531 Q672.5156,130.7656 672.4063,130.25 Q672.3594,129.8906 672.1719,129.7031 Q671.8438,129.3281 671.2344,129.1094 Q670.625,128.8906 670,128.8906 Q669.2344,128.8906 668.6016,129.2188 Q667.9688,129.5469 667.4766,130.2969 Q666.9844,131.0469 666.9844,132.0781 L666.9844,133.1719 Q666.9844,134.4063 667.875,135.2266 Q668.7656,136.0469 670.3594,136.0469 Q671.2969,136.0469 671.9531,135.7969 Q672.3438,135.6406 672.7656,135.2031 Q673.0313,134.9375 673.1797,134.8594 Q673.3281,134.7813 673.5313,134.7813 Q673.8594,134.7813 674.1172,135.0391 Q674.375,135.2969 674.375,135.6406 Q674.375,135.9844 674.0313,136.3906 Q673.5313,136.9688 672.7344,137.2969 Q671.6563,137.75 670.3594,137.75 Q668.8438,137.75 667.6406,137.125 Q666.6563,136.625 665.9688,135.5547 Q665.2813,134.4844 665.2813,133.2031 L665.2813,132.0469 Q665.2813,130.7188 665.8984,129.5703 Q666.5156,128.4219 667.6094,127.8047 Q668.7031,127.1875 669.9375,127.1875 Q670.6719,127.1875 671.3203,127.3516 Q671.9688,127.5156 672.5156,127.875 Z "/><text fill="#000000" font-family="sans-serif" font-size="12" lengthAdjust="spacingAndGlyphs" textLength="70" x="690.25" y="136.9102">EventRecord</text><line style="stroke: #A80036; stroke-width: 1.5;" x1="616" x2="802" y1="148" y2="148"/><rect fill="none" height="6" style="stroke: #C82930; stroke-width: 1.0;" width="6" x="623" y="157.418"/><text fill="#000000" font-family="sans-serif" font-size="11" lengthAdjust="spacingAndGlyphs" textLength="38" x="635" y="163.4189">Long pk</text><rect fill="none" height="6" style="stroke: #C82930; stroke-width: 1.0;" width="6" x="623" y="171.2539"/><text fill="#000000" font-family="sans-serif" font-size="11" lengthAdjust="spacingAndGlyphs" textLength="85" x="635" y="177.2549">String eventName</text><rect fill="none" height="6" style="stroke: #C82930; stroke-width: 1.0;" width="6" x="623" y="185.0898"/><text fill="#000000" font-family="sans-serif" font-size="11" lengthAdjust="spacingAndGlyphs" textLength="57" x="635" y="191.0908">byte[] event</text><line style="stroke: #A80036; stroke-width: 1.5;" x1="616" x2="802" y1="197.5078" y2="197.5078"/><ellipse cx="626" cy="209.9258" fill="#84BE84" rx="3" ry="3" style="stroke: #038048; stroke-width: 1.0;"/><text fill="#000000" font-family="sans-serif" font-size="11" lengthAdjust="spacingAndGlyphs" textLength="162" x="635" y="212.9268">EventRecord(DomainEvent event)</text><polygon fill="#FFFF44" points="626,218.7617,630,222.7617,626,226.7617,622,222.7617" style="stroke: #B38D22; stroke-width: 1.0;"/><text fill="#000000" font-family="sans-serif" font-size="11" lengthAdjust="spacingAndGlyphs" textLength="70" x="635" y="226.7627">EventRecord()</text><ellipse cx="626" cy="237.5977" fill="#84BE84" rx="3" ry="3" style="stroke: #038048; stroke-width: 1.0;"/><text fill="#000000" font-family="sans-serif" font-size="11" lengthAdjust="spacingAndGlyphs" textLength="100" x="635" y="240.5986">DomainEvent event()</text><ellipse cx="626" cy="251.4336" fill="#84BE84" rx="3" ry="3" style="stroke: #038048; stroke-width: 1.0;"/><text fill="#000000" font-family="sans-serif" font-size="11" lengthAdjust="spacingAndGlyphs" textLength="148" x="635" y="254.4346">boolean sameAs(Object other)</text><ellipse cx="626" cy="265.2695" fill="#84BE84" rx="3" ry="3" style="stroke: #038048; stroke-width: 1.0;"/><text fill="#000000" font-family="sans-serif" font-size="11" lengthAdjust="spacingAndGlyphs" textLength="43" x="635" y="268.2705">Long id()</text><ellipse cx="626" cy="279.1055" fill="#84BE84" rx="3" ry="3" style="stroke: #038048; stroke-width: 1.0;"/><text fill="#000000" font-family="sans-serif" font-size="11" lengthAdjust="spacingAndGlyphs" textLength="76" x="635" y="282.1064">String toString()</text><!--class AggregateRoot_Long_--><rect fill="#FEFECE" filter="url(#f1j5d2z9uz9uqr)" height="48" id="AggregateRoot_Long_" style="stroke: #A80036; stroke-width: 1.5;" width="147" x="837.5" y="8"/><ellipse cx="852.5" cy="24" fill="#B4A7E5" rx="11" ry="11" style="stroke: #A80036; stroke-width: 1.0;"/><path d="M853.4531,20.6406 L853.4531,27.2969 L855.1719,27.2969 Q855.7813,27.2969 856.0469,27.5313 Q856.3125,27.7656 856.3125,28.1563 Q856.3125,28.5313 856.0469,28.7656 Q855.7813,29 855.1719,29 L850.0313,29 Q849.4219,29 849.1563,28.7656 Q848.8906,28.5313 848.8906,28.1406 Q848.8906,27.7656 849.1563,27.5313 Q849.4219,27.2969 850.0313,27.2969 L851.75,27.2969 L851.75,20.6406 L850.0313,20.6406 Q849.4219,20.6406 849.1563,20.4063 Q848.8906,20.1719 848.8906,19.7813 Q848.8906,19.4063 849.1563,19.1719 Q849.4219,18.9375 850.0313,18.9375 L855.1719,18.9375 Q855.7813,18.9375 856.0469,19.1719 Q856.3125,19.4063 856.3125,19.7813 Q856.3125,20.1719 856.0469,20.4063 Q855.7813,20.6406 855.1719,20.6406 L853.4531,20.6406 Z "/><text fill="#000000" font-family="sans-serif" font-size="12" font-style="italic" lengthAdjust="spacingAndGlyphs" textLength="83" x="866.5" y="28.9102">AggregateRoot</text><rect fill="#FFFFFF" height="17.0938" style="stroke: #000000; stroke-width: 1.0; stroke-dasharray: 2.0,2.0;" width="30" x="957.5" y="5"/><text fill="#000000" font-family="sans-serif" font-size="12" font-style="italic" lengthAdjust="spacingAndGlyphs" textLength="28" x="958.5" y="18.457">Long</text><line style="stroke: #A80036; stroke-width: 1.5;" x1="838.5" x2="983.5" y1="40" y2="40"/><line style="stroke: #A80036; stroke-width: 1.5;" x1="838.5" x2="983.5" y1="48" y2="48"/><!--class DomainEvent--><rect fill="#FEFECE" filter="url(#f1j5d2z9uz9uqr)" height="48" id="DomainEvent" style="stroke: #A80036; stroke-width: 1.5;" width="107" x="655.5" y="8"/><ellipse cx="670.5" cy="24" fill="#B4A7E5" rx="11" ry="11" style="stroke: #A80036; stroke-width: 1.0;"/><path d="M671.4531,20.6406 L671.4531,27.2969 L673.1719,27.2969 Q673.7813,27.2969 674.0469,27.5313 Q674.3125,27.7656 674.3125,28.1563 Q674.3125,28.5313 674.0469,28.7656 Q673.7813,29 673.1719,29 L668.0313,29 Q667.4219,29 667.1563,28.7656 Q666.8906,28.5313 666.8906,28.1406 Q666.8906,27.7656 667.1563,27.5313 Q667.4219,27.2969 668.0313,27.2969 L669.75,27.2969 L669.75,20.6406 L668.0313,20.6406 Q667.4219,20.6406 667.1563,20.4063 Q666.8906,20.1719 666.8906,19.7813 Q666.8906,19.4063 667.1563,19.1719 Q667.4219,18.9375 668.0313,18.9375 L673.1719,18.9375 Q673.7813,18.9375 674.0469,19.1719 Q674.3125,19.4063 674.3125,19.7813 Q674.3125,20.1719 674.0469,20.4063 Q673.7813,20.6406 673.1719,20.6406 L671.4531,20.6406 Z "/><text fill="#000000" font-family="sans-serif" font-size="12" font-style="italic" lengthAdjust="spacingAndGlyphs" textLength="75" x="684.5" y="28.9102">DomainEvent</text><line style="stroke: #A80036; stroke-width: 1.5;" x1="656.5" x2="761.5" y1="40" y2="40"/><line style="stroke: #A80036; stroke-width: 1.5;" x1="656.5" x2="761.5" y1="48" y2="48"/><!--class EventConsumptionRepository--><rect fill="#FEFECE" filter="url(#f1j5d2z9uz9uqr)" height="48" id="EventConsumptionRepository" style="stroke: #A80036; stroke-width: 1.5;" width="196" x="575" y="568"/><ellipse cx="590" cy="584" fill="#B4A7E5" rx="11" ry="11" style="stroke: #A80036; stroke-width: 1.0;"/><path d="M590.9531,580.6406 L590.9531,587.2969 L592.6719,587.2969 Q593.2813,587.2969 593.5469,587.5313 Q593.8125,587.7656 593.8125,588.1563 Q593.8125,588.5313 593.5469,588.7656 Q593.2813,589 592.6719,589 L587.5313,589 Q586.9219,589 586.6563,588.7656 Q586.3906,588.5313 586.3906,588.1406 Q586.3906,587.7656 586.6563,587.5313 Q586.9219,587.2969 587.5313,587.2969 L589.25,587.2969 L589.25,580.6406 L587.5313,580.6406 Q586.9219,580.6406 586.6563,580.4063 Q586.3906,580.1719 586.3906,579.7813 Q586.3906,579.4063 586.6563,579.1719 Q586.9219,578.9375 587.5313,578.9375 L592.6719,578.9375 Q593.2813,578.9375 593.5469,579.1719 Q593.8125,579.4063 593.8125,579.7813 Q593.8125,580.1719 593.5469,580.4063 Q593.2813,580.6406 592.6719,580.6406 L590.9531,580.6406 Z "/><text fill="#000000" font-family="sans-serif" font-size="12" font-style="italic" lengthAdjust="spacingAndGlyphs" textLength="164" x="604" y="588.9102">EventConsumptionRepository</text><line style="stroke: #A80036; stroke-width: 1.5;" x1="576" x2="770" y1="600" y2="600"/><line style="stroke: #A80036; stroke-width: 1.5;" x1="576" x2="770" y1="608" y2="608"/><!--class DataRepository_EventConsumption_Long_--><rect fill="#FEFECE" filter="url(#f1j5d2z9uz9uqr)" height="48" id="DataRepository_EventConsumption_Long_" style="stroke: #A80036; stroke-width: 1.5;" width="257" x="575.5" y="404.5"/><ellipse cx="590.5" cy="420.5" fill="#B4A7E5" rx="11" ry="11" style="stroke: #A80036; stroke-width: 1.0;"/><path d="M591.4531,417.1406 L591.4531,423.7969 L593.1719,423.7969 Q593.7813,423.7969 594.0469,424.0313 Q594.3125,424.2656 594.3125,424.6563 Q594.3125,425.0313 594.0469,425.2656 Q593.7813,425.5 593.1719,425.5 L588.0313,425.5 Q587.4219,425.5 587.1563,425.2656 Q586.8906,425.0313 586.8906,424.6406 Q586.8906,424.2656 587.1563,424.0313 Q587.4219,423.7969 588.0313,423.7969 L589.75,423.7969 L589.75,417.1406 L588.0313,417.1406 Q587.4219,417.1406 587.1563,416.9063 Q586.8906,416.6719 586.8906,416.2813 Q586.8906,415.9063 587.1563,415.6719 Q587.4219,415.4375 588.0313,415.4375 L593.1719,415.4375 Q593.7813,415.4375 594.0469,415.6719 Q594.3125,415.9063 594.3125,416.2813 Q594.3125,416.6719 594.0469,416.9063 Q593.7813,417.1406 593.1719,417.1406 L591.4531,417.1406 Z "/><text fill="#000000" font-family="sans-serif" font-size="12" font-style="italic" lengthAdjust="spacingAndGlyphs" textLength="85" x="604.5" y="425.4102">DataRepository</text><rect fill="#FFFFFF" height="17.0938" style="stroke: #000000; stroke-width: 1.0; stroke-dasharray: 2.0,2.0;" width="138" x="697.5" y="401.5"/><text fill="#000000" font-family="sans-serif" font-size="12" font-style="italic" lengthAdjust="spacingAndGlyphs" textLength="136" x="698.5" y="414.957">EventConsumption,Long</text><line style="stroke: #A80036; stroke-width: 1.5;" x1="576.5" x2="831.5" y1="436.5" y2="436.5"/><line style="stroke: #A80036; stroke-width: 1.5;" x1="576.5" x2="831.5" y1="444.5" y2="444.5"/><!--class EventConsumption--><rect fill="#FEFECE" filter="url(#f1j5d2z9uz9uqr)" height="158.6875" id="EventConsumption" style="stroke: #A80036; stroke-width: 1.5;" width="327" x="867.5" y="349"/><ellipse cx="974.25" cy="365" fill="#ADD1B2" rx="11" ry="11" style="stroke: #A80036; stroke-width: 1.0;"/><path d="M977.0156,360.875 Q977.1719,360.6563 977.3594,360.5469 Q977.5469,360.4375 977.7656,360.4375 Q978.1406,360.4375 978.375,360.6953 Q978.6094,360.9531 978.6094,361.5625 L978.6094,363.0156 Q978.6094,363.625 978.375,363.8906 Q978.1406,364.1563 977.7656,364.1563 Q977.4219,364.1563 977.2188,363.9531 Q977.0156,363.7656 976.9063,363.25 Q976.8594,362.8906 976.6719,362.7031 Q976.3438,362.3281 975.7344,362.1094 Q975.125,361.8906 974.5,361.8906 Q973.7344,361.8906 973.1016,362.2188 Q972.4688,362.5469 971.9766,363.2969 Q971.4844,364.0469 971.4844,365.0781 L971.4844,366.1719 Q971.4844,367.4063 972.375,368.2266 Q973.2656,369.0469 974.8594,369.0469 Q975.7969,369.0469 976.4531,368.7969 Q976.8438,368.6406 977.2656,368.2031 Q977.5313,367.9375 977.6797,367.8594 Q977.8281,367.7813 978.0313,367.7813 Q978.3594,367.7813 978.6172,368.0391 Q978.875,368.2969 978.875,368.6406 Q978.875,368.9844 978.5313,369.3906 Q978.0313,369.9688 977.2344,370.2969 Q976.1563,370.75 974.8594,370.75 Q973.3438,370.75 972.1406,370.125 Q971.1563,369.625 970.4688,368.5547 Q969.7813,367.4844 969.7813,366.2031 L969.7813,365.0469 Q969.7813,363.7188 970.3984,362.5703 Q971.0156,361.4219 972.1094,360.8047 Q973.2031,360.1875 974.4375,360.1875 Q975.1719,360.1875 975.8203,360.3516 Q976.4688,360.5156 977.0156,360.875 Z "/><text fill="#000000" font-family="sans-serif" font-size="12" lengthAdjust="spacingAndGlyphs" textLength="105" x="994.75" y="369.9102">EventConsumption</text><line style="stroke: #A80036; stroke-width: 1.5;" x1="868.5" x2="1193.5" y1="381" y2="381"/><rect fill="none" height="6" style="stroke: #C82930; stroke-width: 1.0;" width="6" x="875.5" y="390.418"/><text fill="#000000" font-family="sans-serif" font-size="11" lengthAdjust="spacingAndGlyphs" textLength="38" x="887.5" y="396.4189">Long pk</text><rect fill="none" height="6" style="stroke: #C82930; stroke-width: 1.0;" width="6" x="875.5" y="404.2539"/><text fill="#000000" font-family="sans-serif" font-size="11" lengthAdjust="spacingAndGlyphs" textLength="92" x="887.5" y="410.2549">EventRecord event</text><rect fill="none" height="6" style="stroke: #C82930; stroke-width: 1.0;" width="6" x="875.5" y="418.0898"/><text fill="#000000" font-family="sans-serif" font-size="11" lengthAdjust="spacingAndGlyphs" textLength="106" x="887.5" y="424.0908">String consumerName</text><line style="stroke: #A80036; stroke-width: 1.5;" x1="868.5" x2="1193.5" y1="430.5078" y2="430.5078"/><ellipse cx="878.5" cy="442.9258" fill="#84BE84" rx="3" ry="3" style="stroke: #038048; stroke-width: 1.0;"/><text fill="#000000" font-family="sans-serif" font-size="11" lengthAdjust="spacingAndGlyphs" textLength="301" x="887.5" y="445.9268">EventConsumption(String consumerName, EventRecord event)</text><polygon fill="#FFFF44" points="878.5,451.7617,882.5,455.7617,878.5,459.7617,874.5,455.7617" style="stroke: #B38D22; stroke-width: 1.0;"/><text fill="#000000" font-family="sans-serif" font-size="11" lengthAdjust="spacingAndGlyphs" textLength="97" x="887.5" y="459.7627">EventConsumption()</text><ellipse cx="878.5" cy="470.5977" fill="#84BE84" rx="3" ry="3" style="stroke: #038048; stroke-width: 1.0;"/><text fill="#000000" font-family="sans-serif" font-size="11" lengthAdjust="spacingAndGlyphs" textLength="148" x="887.5" y="473.5986">boolean sameAs(Object other)</text><ellipse cx="878.5" cy="484.4336" fill="#84BE84" rx="3" ry="3" style="stroke: #038048; stroke-width: 1.0;"/><text fill="#000000" font-family="sans-serif" font-size="11" lengthAdjust="spacingAndGlyphs" textLength="43" x="887.5" y="487.4346">Long id()</text><ellipse cx="878.5" cy="498.2695" fill="#84BE84" rx="3" ry="3" style="stroke: #038048; stroke-width: 1.0;"/><text fill="#000000" font-family="sans-serif" font-size="11" lengthAdjust="spacingAndGlyphs" textLength="76" x="887.5" y="501.2705">String toString()</text><!--class InProcessEventDispatcher--><rect fill="#FEFECE" filter="url(#f1j5d2z9uz9uqr)" height="48" id="InProcessEventDispatcher" style="stroke: #A80036; stroke-width: 1.5;" width="178" x="806" y="568"/><ellipse cx="821" cy="584" fill="#ADD1B2" rx="11" ry="11" style="stroke: #A80036; stroke-width: 1.0;"/><path d="M823.7656,579.875 Q823.9219,579.6563 824.1094,579.5469 Q824.2969,579.4375 824.5156,579.4375 Q824.8906,579.4375 825.125,579.6953 Q825.3594,579.9531 825.3594,580.5625 L825.3594,582.0156 Q825.3594,582.625 825.125,582.8906 Q824.8906,583.1563 824.5156,583.1563 Q824.1719,583.1563 823.9688,582.9531 Q823.7656,582.7656 823.6563,582.25 Q823.6094,581.8906 823.4219,581.7031 Q823.0938,581.3281 822.4844,581.1094 Q821.875,580.8906 821.25,580.8906 Q820.4844,580.8906 819.8516,581.2188 Q819.2188,581.5469 818.7266,582.2969 Q818.2344,583.0469 818.2344,584.0781 L818.2344,585.1719 Q818.2344,586.4063 819.125,587.2266 Q820.0156,588.0469 821.6094,588.0469 Q822.5469,588.0469 823.2031,587.7969 Q823.5938,587.6406 824.0156,587.2031 Q824.2813,586.9375 824.4297,586.8594 Q824.5781,586.7813 824.7813,586.7813 Q825.1094,586.7813 825.3672,587.0391 Q825.625,587.2969 825.625,587.6406 Q825.625,587.9844 825.2813,588.3906 Q824.7813,588.9688 823.9844,589.2969 Q822.9063,589.75 821.6094,589.75 Q820.0938,589.75 818.8906,589.125 Q817.9063,588.625 817.2188,587.5547 Q816.5313,586.4844 816.5313,585.2031 L816.5313,584.0469 Q816.5313,582.7188 817.1484,581.5703 Q817.7656,580.4219 818.8594,579.8047 Q819.9531,579.1875 821.1875,579.1875 Q821.9219,579.1875 822.5703,579.3516 Q823.2188,579.5156 823.7656,579.875 Z "/><text fill="#000000" font-family="sans-serif" font-size="12" lengthAdjust="spacingAndGlyphs" textLength="146" x="835" y="588.9102">InProcessEventDispatcher</text><line style="stroke: #A80036; stroke-width: 1.5;" x1="807" x2="983" y1="600" y2="600"/><line style="stroke: #A80036; stroke-width: 1.5;" x1="807" x2="983" y1="608" y2="608"/><!--class InProcessEventPublisher--><rect fill="#FEFECE" filter="url(#f1j5d2z9uz9uqr)" height="48" id="InProcessEventPublisher" style="stroke: #A80036; stroke-width: 1.5;" width="171" x="1019.5" y="568"/><ellipse cx="1034.5" cy="584" fill="#ADD1B2" rx="11" ry="11" style="stroke: #A80036; stroke-width: 1.0;"/><path d="M1037.2656,579.875 Q1037.4219,579.6563 1037.6094,579.5469 Q1037.7969,579.4375 1038.0156,579.4375 Q1038.3906,579.4375 1038.625,579.6953 Q1038.8594,579.9531 1038.8594,580.5625 L1038.8594,582.0156 Q1038.8594,582.625 1038.625,582.8906 Q1038.3906,583.1563 1038.0156,583.1563 Q1037.6719,583.1563 1037.4688,582.9531 Q1037.2656,582.7656 1037.1563,582.25 Q1037.1094,581.8906 1036.9219,581.7031 Q1036.5938,581.3281 1035.9844,581.1094 Q1035.375,580.8906 1034.75,580.8906 Q1033.9844,580.8906 1033.3516,581.2188 Q1032.7188,581.5469 1032.2266,582.2969 Q1031.7344,583.0469 1031.7344,584.0781 L1031.7344,585.1719 Q1031.7344,586.4063 1032.625,587.2266 Q1033.5156,588.0469 1035.1094,588.0469 Q1036.0469,588.0469 1036.7031,587.7969 Q1037.0938,587.6406 1037.5156,587.2031 Q1037.7813,586.9375 1037.9297,586.8594 Q1038.0781,586.7813 1038.2813,586.7813 Q1038.6094,586.7813 1038.8672,587.0391 Q1039.125,587.2969 1039.125,587.6406 Q1039.125,587.9844 1038.7813,588.3906 Q1038.2813,588.9688 1037.4844,589.2969 Q1036.4063,589.75 1035.1094,589.75 Q1033.5938,589.75 1032.3906,589.125 Q1031.4063,588.625 1030.7188,587.5547 Q1030.0313,586.4844 1030.0313,585.2031 L1030.0313,584.0469 Q1030.0313,582.7188 1030.6484,581.5703 Q1031.2656,580.4219 1032.3594,579.8047 Q1033.4531,579.1875 1034.6875,579.1875 Q1035.4219,579.1875 1036.0703,579.3516 Q1036.7188,579.5156 1037.2656,579.875 Z "/><text fill="#000000" font-family="sans-serif" font-size="12" lengthAdjust="spacingAndGlyphs" textLength="139" x="1048.5" y="588.9102">InProcessEventPublisher</text><line style="stroke: #A80036; stroke-width: 1.5;" x1="1020.5" x2="1189.5" y1="600" y2="600"/><line style="stroke: #A80036; stroke-width: 1.5;" x1="1020.5" x2="1189.5" y1="608" y2="608"/><!--link EventDispatcher to SimplePersistentEventPubSub--><path d="M128.029,625.554 C166.6,646.128 218.985,674.071 271.77,702.227 " fill="none" id="EventDispatcher-SimplePersistentEventPubSub" style="stroke: #A80036; stroke-width: 1.0; stroke-dasharray: 7.0,7.0;"/><polygon fill="none" points="124.614,631.666,110.262,616.077,131.203,619.313,124.614,631.666" style="stroke: #A80036; stroke-width: 1.0;"/><!--link EventPublisher to SimplePersistentEventPubSub--><path d="M263.683,628.999 C279.606,642.428 298.799,658.616 319.154,675.783 " fill="none" id="EventPublisher-SimplePersistentEventPubSub" style="stroke: #A80036; stroke-width: 1.0; stroke-dasharray: 7.0,7.0;"/><polygon fill="none" points="259.137,634.322,248.362,616.077,268.163,623.62,259.137,634.322" style="stroke: #A80036; stroke-width: 1.0;"/><!--link Singleton to SimplePersistentEventPubSub--><path d="M379.715,633.772 C386.938,646.19 395.322,660.604 404.151,675.783 " fill="none" id="Singleton-SimplePersistentEventPubSub" style="stroke: #A80036; stroke-width: 1.0; stroke-dasharray: 7.0,7.0;"/><polygon fill="none" points="373.428,636.884,369.423,616.077,385.529,629.845,373.428,636.884" style="stroke: #A80036; stroke-width: 1.0;"/><!--link DataRepository_EventRecord_Long_ to EventRecordRepository--><path d="M308,246.819 C308,291.092 308,358.686 308,397.423 " fill="none" id="DataRepository_EventRecord_Long_-EventRecordRepository" style="stroke: #A80036; stroke-width: 1.0;"/><polygon fill="none" points="301,246.628,308,226.628,315,246.628,301,246.628" style="stroke: #A80036; stroke-width: 1.0;"/><!--link EventRecordRepository to SimplePersistentEventPubSub--><path d="M340.225,463.454 C363.907,490.052 395.271,528.972 415,568 C431.953,601.536 445.412,639.726 455.85,675.935 " fill="none" id="EventRecordRepository-SimplePersistentEventPubSub" style="stroke: #A80036; stroke-width: 1.0;"/><polygon fill="#A80036" points="336.789,459.621,339.8178,468.9926,340.1264,463.3441,345.7748,463.6527,336.789,459.621" style="stroke: #A80036; stroke-width: 1.0;"/><!--link AggregateRoot_Long_ to EventRecord--><path d="M867.882,68.967 C848.97,84.743 825.97,103.929 803.41,122.747 " fill="none" id="AggregateRoot_Long_-EventRecord" style="stroke: #A80036; stroke-width: 1.0; stroke-dasharray: 7.0,7.0;"/><polygon fill="none" points="863.494,63.512,883.336,56.076,872.462,74.262,863.494,63.512" style="stroke: #A80036; stroke-width: 1.0;"/><!--link EventRecord to EventRecordRepository--><path d="M610.33,258.617 C531.89,302.434 425.143,362.063 361.724,397.49 " fill="none" id="EventRecord-EventRecordRepository" style="stroke: #A80036; stroke-width: 1.0; stroke-dasharray: 7.0,7.0;"/><polygon fill="#A80036" points="614.983,256.018,605.1752,256.9161,610.6182,258.4569,609.0774,263.8999,614.983,256.018" style="stroke: #A80036; stroke-width: 1.0;"/><!--link EventRecord to SimplePersistentEventPubSub--><path d="M611.199,279.42 C590.655,299.878 571.228,323.49 558,349 C505.548,450.151 488.803,578.987 484.467,675.783 " fill="none" id="EventRecord-SimplePersistentEventPubSub" style="stroke: #A80036; stroke-width: 1.0; stroke-dasharray: 7.0,7.0;"/><polygon fill="#A80036" points="614.775,275.901,605.5543,279.3621,611.211,279.4078,611.1653,285.0645,614.775,275.901" style="stroke: #A80036; stroke-width: 1.0;"/><!--link DomainEvent to EventRecord--><path d="M709,61.466 C709,76.659 709,96.246 709,115.93 " fill="none" id="DomainEvent-EventRecord" style="stroke: #A80036; stroke-width: 1.0; stroke-dasharray: 7.0,7.0;"/><polygon fill="#A80036" points="709,56.076,705,65.076,709,61.076,713,65.076,709,56.076" style="stroke: #A80036; stroke-width: 1.0;"/><!--link DataRepository_EventConsumption_Long_ to EventConsumptionRepository--><path d="M695.748,472.491 C689.869,503.118 682.195,543.097 677.433,567.904 " fill="none" id="DataRepository_EventConsumption_Long_-EventConsumptionRepository" style="stroke: #A80036; stroke-width: 1.0;"/><polygon fill="none" points="688.914,470.961,699.558,452.639,702.663,473.6,688.914,470.961" style="stroke: #A80036; stroke-width: 1.0;"/><!--link AggregateRoot_Long_ to EventConsumption--><path d="M923.927,75.498 C943.782,140.772 982.106,266.761 1007.11,348.959 " fill="none" id="AggregateRoot_Long_-EventConsumption" style="stroke: #A80036; stroke-width: 1.0; stroke-dasharray: 7.0,7.0;"/><polygon fill="none" points="917.182,77.376,918.059,56.205,930.576,73.302,917.182,77.376" style="stroke: #A80036; stroke-width: 1.0;"/><!--link EventRecord to EventConsumption--><path d="M807.246,271.845 C842.246,296.193 881.938,323.805 918.073,348.942 " fill="none" id="EventRecord-EventConsumption" style="stroke: #A80036; stroke-width: 1.0;"/><polygon fill="#A80036" points="803.001,268.892,808.1061,277.3145,807.1059,271.7467,812.6737,270.7466,803.001,268.892" style="stroke: #A80036; stroke-width: 1.0;"/><!--link EventConsumption to EventConsumptionRepository--><path d="M862.882,505.341 C812.358,528.133 760.673,551.449 724.008,567.989 " fill="none" id="EventConsumption-EventConsumptionRepository" style="stroke: #A80036; stroke-width: 1.0; stroke-dasharray: 7.0,7.0;"/><polygon fill="#A80036" points="867.453,503.279,857.6043,503.3336,862.8953,505.335,860.8939,510.626,867.453,503.279" style="stroke: #A80036; stroke-width: 1.0;"/><!--link EventConsumptionRepository to SimplePersistentEventPubSub--><path d="M650.297,620.135 C637.873,634.984 621.426,654.64 603.737,675.783 " fill="none" id="EventConsumptionRepository-SimplePersistentEventPubSub" style="stroke: #A80036; stroke-width: 1.0;"/><polygon fill="#A80036" points="653.692,616.077,644.8494,620.4138,650.4839,619.9121,650.9856,625.5467,653.692,616.077" style="stroke: #A80036; stroke-width: 1.0;"/><!--link InProcessEventDispatcher to SimplePersistentEventPubSub--><path d="M848.327,618.505 C811.163,638.813 756.271,668.809 700.391,699.345 " fill="none" id="InProcessEventDispatcher-SimplePersistentEventPubSub" style="stroke: #A80036; stroke-width: 1.0;"/><polygon fill="#A80036" points="852.77,616.077,842.9543,616.8847,848.3829,618.4756,846.792,623.9041,852.77,616.077" style="stroke: #A80036; stroke-width: 1.0;"/><!--link InProcessEventPublisher to SimplePersistentEventPubSub--><path d="M1036.33,617.794 C955.58,646.95 817.636,696.757 700.061,739.21 " fill="none" id="InProcessEventPublisher-SimplePersistentEventPubSub" style="stroke: #A80036; stroke-width: 1.0;"/><polygon fill="#A80036" points="1041.09,616.077,1031.2662,615.3748,1036.3878,617.7768,1033.9858,622.8983,1041.09,616.077" style="stroke: #A80036; stroke-width: 1.0;"/><!--
@startuml
class SimplePersistentEventPubSub {
           -{static}int POLL_EVENTS_INTERVAL
           -{static}Logger LOGGER
           -EventRecordRepository eventRepo
           -EventConsumptionRepository consumptionRepo
           -EventDispatcher inprocDispatcher
           -EventPublisher inprocPublisher
           -String instanceKey
           #SimplePersistentEventPubSub(String instanceKey)
           -void storeConsumptionAndPublish(EventRecord x)
           -boolean pollEvents()
           -void init()
           +void publish(DomainEvent event)
           -void storeEvent(DomainEvent event)
           +void subscribe(EventHandler observer, Class<? extends DomainEvent>[] events)
           +void unsubscribe(EventHandler observer, Class<? extends DomainEvent>[] events)
           +void unsubscribe(EventHandler observer)
           +void shutdown()
           }

           interface EventDispatcher {
           }

           EventDispatcher <|.. SimplePersistentEventPubSub

           interface EventPublisher {
           }

           EventPublisher <|.. SimplePersistentEventPubSub

           interface Singleton [[java:eapli.framework.util.Singleton]] {
           }

           Singleton <|.. SimplePersistentEventPubSub

           interface EventRecordRepository {
           +Iterable<EventRecord> findNotConsumed(String instanceKey)
           }

           interface "DataRepository<EventRecord,Long>" as DataRepository_EventRecord_Long_ {
           }

           DataRepository_EventRecord_Long_ <|- - EventRecordRepository

           EventRecordRepository <- - SimplePersistentEventPubSub

           class EventRecord {
           -Long pk
           -String eventName
           -byte[] event
           +EventRecord(DomainEvent event)
           #EventRecord()
           +DomainEvent event()
           +boolean sameAs(Object other)
           +Long id()
           +String toString()
           }

           interface "AggregateRoot<Long>" as AggregateRoot_Long_ {
           }

           AggregateRoot_Long_ <|.. EventRecord

           EventRecord <.. EventRecordRepository
           EventRecord <.. SimplePersistentEventPubSub

           interface DomainEvent

           DomainEvent <.. EventRecord

           interface EventConsumptionRepository {
           }

           interface "DataRepository<EventConsumption,Long>" as DataRepository_EventConsumption_Long_ {
           }

           DataRepository_EventConsumption_Long_ <|- - EventConsumptionRepository

           class EventConsumption {
           -Long pk
           -EventRecord event
           -String consumerName
           +EventConsumption(String consumerName, EventRecord event)
           #EventConsumption()
           +boolean sameAs(Object other)
           +Long id()
           +String toString()
           }

           AggregateRoot_Long_ <|.. EventConsumption

           EventRecord <- - EventConsumption

           EventConsumption <.. EventConsumptionRepository
           EventConsumptionRepository <- - SimplePersistentEventPubSub

           class InProcessEventDispatcher
           InProcessEventDispatcher <- - SimplePersistentEventPubSub

           class InProcessEventPublisher
           InProcessEventPublisher <- - SimplePersistentEventPubSub
@enduml

PlantUML version 1.2017.18(Fri Oct 06 17:56:32 BST 2017)
(GPL source distribution)
Java Runtime: Java(TM) SE Runtime Environment
JVM: Java HotSpot(TM) 64-Bit Server VM
Java Version: 1.8.0_202-b08
Operating System: Windows 10
OS Version: 10.0
Default Encoding: Cp1252
Language: en
Country: US
--></g></svg>