<?xml version="1.0" encoding="UTF-8" standalone="no"?><svg xmlns="http://www.w3.org/2000/svg" xmlns:xlink="http://www.w3.org/1999/xlink" contentScriptType="application/ecmascript" contentStyleType="text/css" height="287px" preserveAspectRatio="none" style="width:580px;height:287px;" version="1.1" viewBox="0 0 580 287" width="580px" zoomAndPan="magnify"><defs><filter height="300%" id="f1ovttwash9rgf" width="300%" x="-1" y="-1"><feGaussianBlur result="blurOut" stdDeviation="2.0"/><feColorMatrix in="blurOut" result="blurOut2" type="matrix" values="0 0 0 0 0 0 0 0 0 0 0 0 0 0 0 0 0 0 .4 0"/><feOffset dx="4.0" dy="4.0" in="blurOut2" result="blurOut3"/><feBlend in="SourceGraphic" in2="blurOut3" mode="normal"/></filter></defs><g><!--MD5=[78cd79221996dfb4120ff3979b8f25b0]
class eapli.framework.actions.menu.MenuItem.ActionableMenuItem--><a href="../../../../eapli/framework/actions/menu/MenuItem.ActionableMenuItem.html" target="_parent" title="eapli.framework.actions.menu.MenuItem.ActionableMenuItem" xlink:actuate="onRequest" xlink:href="../../../../eapli/framework/actions/menu/MenuItem.ActionableMenuItem.html" xlink:show="new" xlink:title="eapli.framework.actions.menu.MenuItem.ActionableMenuItem" xlink:type="simple"><rect fill="#FEFECE" filter="url(#f1ovttwash9rgf)" height="153.0391" id="eapli.framework.actions.menu.MenuItem.ActionableMenuItem" style="stroke: #A80036; stroke-width: 1.5;" width="291" x="129" y="8"/><ellipse cx="162.45" cy="28.0938" fill="#ADD1B2" rx="11" ry="11" style="stroke: #A80036; stroke-width: 1.0;"/><path d="M165.2156,23.9688 Q165.3719,23.75 165.5594,23.6406 Q165.7469,23.5313 165.9656,23.5313 Q166.3406,23.5313 166.575,23.7891 Q166.8094,24.0469 166.8094,24.6563 L166.8094,26.1094 Q166.8094,26.7188 166.575,26.9844 Q166.3406,27.25 165.9656,27.25 Q165.6219,27.25 165.4188,27.0469 Q165.2156,26.8594 165.1063,26.3438 Q165.0594,25.9844 164.8719,25.7969 Q164.5438,25.4219 163.9344,25.2031 Q163.325,24.9844 162.7,24.9844 Q161.9344,24.9844 161.3016,25.3125 Q160.6688,25.6406 160.1766,26.3906 Q159.6844,27.1406 159.6844,28.1719 L159.6844,29.2656 Q159.6844,30.5 160.575,31.3203 Q161.4656,32.1406 163.0594,32.1406 Q163.9969,32.1406 164.6531,31.8906 Q165.0438,31.7344 165.4656,31.2969 Q165.7313,31.0313 165.8797,30.9531 Q166.0281,30.875 166.2313,30.875 Q166.5594,30.875 166.8172,31.1328 Q167.075,31.3906 167.075,31.7344 Q167.075,32.0781 166.7313,32.4844 Q166.2313,33.0625 165.4344,33.3906 Q164.3563,33.8438 163.0594,33.8438 Q161.5438,33.8438 160.3406,33.2188 Q159.3563,32.7188 158.6688,31.6484 Q157.9813,30.5781 157.9813,29.2969 L157.9813,28.1406 Q157.9813,26.8125 158.5984,25.6641 Q159.2156,24.5156 160.3094,23.8984 Q161.4031,23.2813 162.6375,23.2813 Q163.3719,23.2813 164.0203,23.4453 Q164.6688,23.6094 165.2156,23.9688 Z "/><text fill="#000000" font-family="sans-serif" font-size="14" font-weight="bold" lengthAdjust="spacingAndGlyphs" textLength="218" x="180.55" y="27.5332">MenuItem.ActionableMenuItem</text><text fill="#000000" font-family="sans-serif" font-size="10" lengthAdjust="spacingAndGlyphs" textLength="141" x="219.05" y="40.9902">eapli.framework.actions.menu</text><line style="stroke: #A80036; stroke-width: 1.5;" x1="130" x2="419" y1="48.1875" y2="48.1875"/><rect fill="none" height="6" style="stroke: #C82930; stroke-width: 1.0;" width="6" x="137" y="56.1875"/><text fill="#000000" font-family="sans-serif" font-size="11" lengthAdjust="spacingAndGlyphs" textLength="43" x="149" y="63.6064">int option</text><rect fill="none" height="6" style="stroke: #C82930; stroke-width: 1.0;" width="6" x="137" y="70.0234"/><text fill="#000000" font-family="sans-serif" font-size="11" lengthAdjust="spacingAndGlyphs" textLength="63" x="149" y="77.4424">Action action</text><line style="stroke: #A80036; stroke-width: 1.5;" x1="130" x2="419" y1="83.8594" y2="83.8594"/><polygon fill="#FFFF44" points="140,89.8594,144,93.8594,140,97.8594,136,93.8594" style="stroke: #B38D22; stroke-width: 1.0;"/><text fill="#000000" font-family="sans-serif" font-size="11" lengthAdjust="spacingAndGlyphs" textLength="265" x="149" y="99.2783">ActionableMenuItem(int option,String text,Action action)</text><ellipse cx="140" cy="108.6953" fill="#84BE84" rx="3" ry="3" style="stroke: #038048; stroke-width: 1.0;"/><text fill="#000000" font-family="sans-serif" font-size="11" lengthAdjust="spacingAndGlyphs" textLength="78" x="149" y="113.1143">boolean select()</text><ellipse cx="140" cy="122.5313" fill="#84BE84" rx="3" ry="3" style="stroke: #038048; stroke-width: 1.0;"/><text fill="#000000" font-family="sans-serif" font-size="11" lengthAdjust="spacingAndGlyphs" textLength="124" x="149" y="126.9502">Optional&lt;Integer&gt; option()</text><ellipse cx="140" cy="136.3672" fill="#84BE84" rx="3" ry="3" style="stroke: #038048; stroke-width: 1.0;"/><text fill="#000000" font-family="sans-serif" font-size="11" lengthAdjust="spacingAndGlyphs" textLength="102" x="149" y="140.7861">boolean isSubmenu()</text><ellipse cx="140" cy="150.2031" fill="#84BE84" rx="3" ry="3" style="stroke: #038048; stroke-width: 1.0;"/><text fill="#000000" font-family="sans-serif" font-size="11" lengthAdjust="spacingAndGlyphs" textLength="132" x="149" y="154.6221">Optional&lt;Menu&gt; submenu()</text></a><!--MD5=[ef8b130fed61c1e1b3c1a2a618d68bbd]
class eapli.framework.actions.Action--><a href="../../../../eapli/framework/actions/Action.html" target="_parent" title="eapli.framework.actions.Action" xlink:actuate="onRequest" xlink:href="../../../../eapli/framework/actions/Action.html" xlink:show="new" xlink:title="eapli.framework.actions.Action" xlink:type="simple"><rect fill="#FFFFFF" filter="url(#f1ovttwash9rgf)" height="55.2813" id="eapli.framework.actions.Action" style="stroke: #A80036; stroke-width: 1.5;" width="147" x="6" y="221"/><rect fill="#FFFFFF" height="55.2813" style="stroke: #A80036; stroke-width: 1.5;" width="147" x="6" y="221"/><ellipse cx="21" cy="248.6406" fill="#B4A7E5" rx="11" ry="11" style="stroke: #A80036; stroke-width: 1.0;"/><path d="M21.9531,245.2813 L21.9531,251.9375 L23.6719,251.9375 Q24.2813,251.9375 24.5469,252.1719 Q24.8125,252.4063 24.8125,252.7969 Q24.8125,253.1719 24.5469,253.4063 Q24.2813,253.6406 23.6719,253.6406 L18.5313,253.6406 Q17.9219,253.6406 17.6563,253.4063 Q17.3906,253.1719 17.3906,252.7813 Q17.3906,252.4063 17.6563,252.1719 Q17.9219,251.9375 18.5313,251.9375 L20.25,251.9375 L20.25,245.2813 L18.5313,245.2813 Q17.9219,245.2813 17.6563,245.0469 Q17.3906,244.8125 17.3906,244.4219 Q17.3906,244.0469 17.6563,243.8125 Q17.9219,243.5781 18.5313,243.5781 L23.6719,243.5781 Q24.2813,243.5781 24.5469,243.8125 Q24.8125,244.0469 24.8125,244.4219 Q24.8125,244.8125 24.5469,245.0469 Q24.2813,245.2813 23.6719,245.2813 L21.9531,245.2813 Z "/><text fill="#000000" font-family="sans-serif" font-size="12" font-style="italic" lengthAdjust="spacingAndGlyphs" textLength="119" x="33" y="238.457">«FunctionalInterface»</text><text fill="#000000" font-family="sans-serif" font-size="14" font-style="italic" font-weight="bold" lengthAdjust="spacingAndGlyphs" textLength="44" x="70.5" y="255.627">Action</text><text fill="#000000" font-family="sans-serif" font-size="10" font-style="italic" lengthAdjust="spacingAndGlyphs" textLength="111" x="37" y="269.084">eapli.framework.actions</text></a><!--MD5=[997e9759af51b6bb0b155e6901c74880]
class eapli.framework.actions.menu.MenuItem--><a href="../../../../eapli/framework/actions/menu/MenuItem.html" target="_parent" title="eapli.framework.actions.menu.MenuItem" xlink:actuate="onRequest" xlink:href="../../../../eapli/framework/actions/menu/MenuItem.html" xlink:show="new" xlink:title="eapli.framework.actions.menu.MenuItem" xlink:type="simple"><rect fill="#FEFECE" filter="url(#f1ovttwash9rgf)" height="40.1875" id="eapli.framework.actions.menu.MenuItem" style="stroke: #A80036; stroke-width: 1.5;" width="173" x="188" y="228.5"/><ellipse cx="203" cy="248.5938" fill="#ADD1B2" rx="11" ry="11" style="stroke: #A80036; stroke-width: 1.0;"/><path d="M205.7656,244.4688 Q205.9219,244.25 206.1094,244.1406 Q206.2969,244.0313 206.5156,244.0313 Q206.8906,244.0313 207.125,244.2891 Q207.3594,244.5469 207.3594,245.1563 L207.3594,246.6094 Q207.3594,247.2188 207.125,247.4844 Q206.8906,247.75 206.5156,247.75 Q206.1719,247.75 205.9688,247.5469 Q205.7656,247.3594 205.6563,246.8438 Q205.6094,246.4844 205.4219,246.2969 Q205.0938,245.9219 204.4844,245.7031 Q203.875,245.4844 203.25,245.4844 Q202.4844,245.4844 201.8516,245.8125 Q201.2188,246.1406 200.7266,246.8906 Q200.2344,247.6406 200.2344,248.6719 L200.2344,249.7656 Q200.2344,251 201.125,251.8203 Q202.0156,252.6406 203.6094,252.6406 Q204.5469,252.6406 205.2031,252.3906 Q205.5938,252.2344 206.0156,251.7969 Q206.2813,251.5313 206.4297,251.4531 Q206.5781,251.375 206.7813,251.375 Q207.1094,251.375 207.3672,251.6328 Q207.625,251.8906 207.625,252.2344 Q207.625,252.5781 207.2813,252.9844 Q206.7813,253.5625 205.9844,253.8906 Q204.9063,254.3438 203.6094,254.3438 Q202.0938,254.3438 200.8906,253.7188 Q199.9063,253.2188 199.2188,252.1484 Q198.5313,251.0781 198.5313,249.7969 L198.5313,248.6406 Q198.5313,247.3125 199.1484,246.1641 Q199.7656,245.0156 200.8594,244.3984 Q201.9531,243.7813 203.1875,243.7813 Q203.9219,243.7813 204.5703,243.9453 Q205.2188,244.1094 205.7656,244.4688 Z "/><text fill="#000000" font-family="sans-serif" font-size="14" font-weight="bold" lengthAdjust="spacingAndGlyphs" textLength="70" x="252.5" y="248.0332">MenuItem</text><text fill="#000000" font-family="sans-serif" font-size="10" lengthAdjust="spacingAndGlyphs" textLength="141" x="217" y="261.4902">eapli.framework.actions.menu</text></a><!--MD5=[e26dd25449c1bb2fa7a2d2d66898429b]
class eapli.framework.actions.menu.Menu--><a href="../../../../eapli/framework/actions/menu/Menu.html" target="_parent" title="eapli.framework.actions.menu.Menu" xlink:actuate="onRequest" xlink:href="../../../../eapli/framework/actions/menu/Menu.html" xlink:show="new" xlink:title="eapli.framework.actions.menu.Menu" xlink:type="simple"><rect fill="#FEFECE" filter="url(#f1ovttwash9rgf)" height="40.1875" id="eapli.framework.actions.menu.Menu" style="stroke: #A80036; stroke-width: 1.5;" width="173" x="396" y="228.5"/><ellipse cx="411" cy="248.5938" fill="#ADD1B2" rx="11" ry="11" style="stroke: #A80036; stroke-width: 1.0;"/><path d="M413.7656,244.4688 Q413.9219,244.25 414.1094,244.1406 Q414.2969,244.0313 414.5156,244.0313 Q414.8906,244.0313 415.125,244.2891 Q415.3594,244.5469 415.3594,245.1563 L415.3594,246.6094 Q415.3594,247.2188 415.125,247.4844 Q414.8906,247.75 414.5156,247.75 Q414.1719,247.75 413.9688,247.5469 Q413.7656,247.3594 413.6563,246.8438 Q413.6094,246.4844 413.4219,246.2969 Q413.0938,245.9219 412.4844,245.7031 Q411.875,245.4844 411.25,245.4844 Q410.4844,245.4844 409.8516,245.8125 Q409.2188,246.1406 408.7266,246.8906 Q408.2344,247.6406 408.2344,248.6719 L408.2344,249.7656 Q408.2344,251 409.125,251.8203 Q410.0156,252.6406 411.6094,252.6406 Q412.5469,252.6406 413.2031,252.3906 Q413.5938,252.2344 414.0156,251.7969 Q414.2813,251.5313 414.4297,251.4531 Q414.5781,251.375 414.7813,251.375 Q415.1094,251.375 415.3672,251.6328 Q415.625,251.8906 415.625,252.2344 Q415.625,252.5781 415.2813,252.9844 Q414.7813,253.5625 413.9844,253.8906 Q412.9063,254.3438 411.6094,254.3438 Q410.0938,254.3438 408.8906,253.7188 Q407.9063,253.2188 407.2188,252.1484 Q406.5313,251.0781 406.5313,249.7969 L406.5313,248.6406 Q406.5313,247.3125 407.1484,246.1641 Q407.7656,245.0156 408.8594,244.3984 Q409.9531,243.7813 411.1875,243.7813 Q411.9219,243.7813 412.5703,243.9453 Q413.2188,244.1094 413.7656,244.4688 Z "/><text fill="#000000" font-family="sans-serif" font-size="14" font-weight="bold" lengthAdjust="spacingAndGlyphs" textLength="40" x="475.5" y="248.0332">Menu</text><text fill="#000000" font-family="sans-serif" font-size="10" lengthAdjust="spacingAndGlyphs" textLength="141" x="425" y="261.4902">eapli.framework.actions.menu</text></a><!--MD5=[99a6b8c8633d5531bd30293356904bac]
link eapli.framework.actions.menu.MenuItem.ActionableMenuItem to eapli.framework.actions.Action--><path d="M141,161.218 C141,161.218 141,215.8651 141,215.8651 " fill="none" id="eapli.framework.actions.menu.MenuItem.ActionableMenuItem-&gt;eapli.framework.actions.Action" style="stroke: #A80036; stroke-width: 1.0;"/><polygon fill="#A80036" points="141,220.8651,145,211.8651,141,215.8651,137,211.8651,141,220.8651" style="stroke: #A80036; stroke-width: 1.0;"/><text fill="#000000" font-family="sans-serif" font-size="13" lengthAdjust="spacingAndGlyphs" textLength="35" x="116.175" y="210.1278">action</text><!--MD5=[983319bf4906eeb35e15b2a6e2927e77]
link eapli.framework.actions.menu.MenuItem.ActionableMenuItem to eapli.framework.actions.menu.MenuItem--><path d="M274.5,161.218 C274.5,161.218 274.5,208.1795 274.5,208.1795 " fill="none" id="eapli.framework.actions.menu.MenuItem.ActionableMenuItem-&gt;eapli.framework.actions.menu.MenuItem" style="stroke: #A80036; stroke-width: 1.0;"/><polygon fill="none" points="281.5,208.1796,274.5,228.1795,267.5,208.1795,281.5,208.1796" style="stroke: #A80036; stroke-width: 1.0;"/><!--MD5=[d4751268b9caef37bb4c2ecd53598411]
link eapli.framework.actions.menu.MenuItem.ActionableMenuItem to eapli.framework.actions.menu.Menu--><path d="M408,161.218 C408,161.218 408,223.1795 408,223.1795 " fill="none" id="eapli.framework.actions.menu.MenuItem.ActionableMenuItem-&gt;eapli.framework.actions.menu.Menu" style="stroke: #A80036; stroke-width: 1.0; stroke-dasharray: 7.0,7.0;"/><polygon fill="#A80036" points="408,228.1795,412,219.1795,408,223.1795,404,219.1795,408,228.1795" style="stroke: #A80036; stroke-width: 1.0;"/><!--MD5=[ca4a6481e2268b28f02d4804e84f6d2e]
@startuml

skinparam svgLinkTarget _parent
skinparam linetype ortho
set namespaceSeparator none
class "<b><size:14>MenuItem.ActionableMenuItem</b>\n<size:10>eapli.framework.actions.menu" as eapli.framework.actions.menu.MenuItem.ActionableMenuItem  [[../../../../eapli/framework/actions/menu/MenuItem.ActionableMenuItem.html{eapli.framework.actions.menu.MenuItem.ActionableMenuItem}]] {
-int option
-Action action
#ActionableMenuItem(int option,String text,Action action)
+boolean select()
+Optional<Integer> option()
+boolean isSubmenu()
+Optional<Menu> submenu()
}


interface "<b><size:14>Action</b>\n<size:10>eapli.framework.actions" as eapli.framework.actions.Action <<FunctionalInterface>> [[../../../../eapli/framework/actions/Action.html{eapli.framework.actions.Action}]] #white {
}

hide eapli.framework.actions.Action fields
hide eapli.framework.actions.Action methods

eapli.framework.actions.menu.MenuItem.ActionableMenuItem - ->  "action" eapli.framework.actions.Action

class "<b><size:14>MenuItem</b>\n<size:10>eapli.framework.actions.menu" as eapli.framework.actions.menu.MenuItem  [[../../../../eapli/framework/actions/menu/MenuItem.html{eapli.framework.actions.menu.MenuItem}]] {
}

hide eapli.framework.actions.menu.MenuItem fields
hide eapli.framework.actions.menu.MenuItem methods

eapli.framework.actions.menu.MenuItem.ActionableMenuItem - -|> eapli.framework.actions.menu.MenuItem



class "<b><size:14>Menu</b>\n<size:10>eapli.framework.actions.menu" as eapli.framework.actions.menu.Menu  [[../../../../eapli/framework/actions/menu/Menu.html{eapli.framework.actions.menu.Menu}]] {
}

hide eapli.framework.actions.menu.Menu fields
hide eapli.framework.actions.menu.Menu methods

eapli.framework.actions.menu.MenuItem.ActionableMenuItem ..> eapli.framework.actions.menu.Menu


@enduml

PlantUML version 1.2020.04(Thu Mar 19 10:16:49 GMT 2020)
(GPL source distribution)
Java Runtime: Java(TM) SE Runtime Environment
JVM: Java HotSpot(TM) 64-Bit Server VM
Java Version: 1.8.0_202-b08
Operating System: Windows 10
Default Encoding: Cp1252
Language: en
Country: US
--></g></svg>