@startuml

skinparam svgLinkTarget _parent
skinparam linetype ortho
set namespaceSeparator none
class "<b><size:14>MenuItem.NonActionableMenuItem</b>\n<size:10>eapli.framework.actions.menu" as eapli.framework.actions.menu.MenuItem.NonActionableMenuItem  [[../../../../eapli/framework/actions/menu/MenuItem.NonActionableMenuItem.html{eapli.framework.actions.menu.MenuItem.NonActionableMenuItem}]] {
#NonActionableMenuItem(String label)
+boolean select()
+Optional<Integer> option()
+boolean isSubmenu()
+Optional<Menu> submenu()
}


class "<b><size:14>MenuItem</b>\n<size:10>eapli.framework.actions.menu" as eapli.framework.actions.menu.MenuItem  [[../../../../eapli/framework/actions/menu/MenuItem.html{eapli.framework.actions.menu.MenuItem}]] {
}

hide eapli.framework.actions.menu.MenuItem fields
hide eapli.framework.actions.menu.MenuItem methods

eapli.framework.actions.menu.MenuItem.NonActionableMenuItem --|> eapli.framework.actions.menu.MenuItem



class "<b><size:14>Menu</b>\n<size:10>eapli.framework.actions.menu" as eapli.framework.actions.menu.Menu  [[../../../../eapli/framework/actions/menu/Menu.html{eapli.framework.actions.menu.Menu}]] {
}

hide eapli.framework.actions.menu.Menu fields
hide eapli.framework.actions.menu.Menu methods

eapli.framework.actions.menu.MenuItem.NonActionableMenuItem ..> eapli.framework.actions.menu.Menu


@enduml
