<?xml version="1.0" encoding="UTF-8" standalone="no"?><svg xmlns="http://www.w3.org/2000/svg" xmlns:xlink="http://www.w3.org/1999/xlink" contentScriptType="application/ecmascript" contentStyleType="text/css" height="120px" preserveAspectRatio="none" style="width:525px;height:120px;" version="1.1" viewBox="0 0 525 120" width="525px" zoomAndPan="magnify"><defs><filter height="300%" id="f12a289u5p9c70" width="300%" x="-1" y="-1"><feGaussianBlur result="blurOut" stdDeviation="2.0"/><feColorMatrix in="blurOut" result="blurOut2" type="matrix" values="0 0 0 0 0 0 0 0 0 0 0 0 0 0 0 0 0 0 .4 0"/><feOffset dx="4.0" dy="4.0" in="blurOut2" result="blurOut3"/><feBlend in="SourceGraphic" in2="blurOut3" mode="normal"/></filter></defs><g><!--MD5=[07958315114afe61635b4d54fe026115]
cluster eapli.framework.infrastructure.authz.application.exceptions--><a href="../../../../../../eapli/framework/infrastructure/authz/application/exceptions/package-summary.html" target="_parent" title="eapli.framework.infrastructure.authz.application.exceptions" xlink:actuate="onRequest" xlink:href="../../../../../../eapli/framework/infrastructure/authz/application/exceptions/package-summary.html" xlink:show="new" xlink:title="eapli.framework.infrastructure.authz.application.exceptions" xlink:type="simple"><polygon fill="#FFFFE0" filter="url(#f12a289u5p9c70)" points="22,24,446,24,453,47.6094,503,47.6094,503,108,22,108,22,24" style="stroke: #000000; stroke-width: 1.5;"/><line style="stroke: #000000; stroke-width: 1.5;" x1="22" x2="453" y1="47.6094" y2="47.6094"/><text fill="#000000" font-family="sans-serif" font-size="14" font-weight="bold" lengthAdjust="spacingAndGlyphs" textLength="418" x="26" y="40.5332">eapli.framework.infrastructure.authz.application.exceptions</text></a><!--MD5=[01a4f710863861b4f4e3461042d3ce76]
class eapli.framework.infrastructure.authz.application.exceptions.UnauthenticatedException--><a href="../../../../../../eapli/framework/infrastructure/authz/application/exceptions/UnauthenticatedException.html" target="_parent" title="eapli.framework.infrastructure.authz.application.exceptions.UnauthenticatedException" xlink:actuate="onRequest" xlink:href="../../../../../../eapli/framework/infrastructure/authz/application/exceptions/UnauthenticatedException.html" xlink:show="new" xlink:title="eapli.framework.infrastructure.authz.application.exceptions.UnauthenticatedException" xlink:type="simple"><rect fill="#FEFECE" filter="url(#f12a289u5p9c70)" height="32" id="eapli.framework.infrastructure.authz.application.exceptions.UnauthenticatedException" style="stroke: #A80036; stroke-width: 1.5;" width="218" x="269" y="60"/><ellipse cx="284" cy="76" fill="#ADD1B2" rx="11" ry="11" style="stroke: #A80036; stroke-width: 1.0;"/><path d="M286.7656,71.875 Q286.9219,71.6563 287.1094,71.5469 Q287.2969,71.4375 287.5156,71.4375 Q287.8906,71.4375 288.125,71.6953 Q288.3594,71.9531 288.3594,72.5625 L288.3594,74.0156 Q288.3594,74.625 288.125,74.8906 Q287.8906,75.1563 287.5156,75.1563 Q287.1719,75.1563 286.9688,74.9531 Q286.7656,74.7656 286.6563,74.25 Q286.6094,73.8906 286.4219,73.7031 Q286.0938,73.3281 285.4844,73.1094 Q284.875,72.8906 284.25,72.8906 Q283.4844,72.8906 282.8516,73.2188 Q282.2188,73.5469 281.7266,74.2969 Q281.2344,75.0469 281.2344,76.0781 L281.2344,77.1719 Q281.2344,78.4063 282.125,79.2266 Q283.0156,80.0469 284.6094,80.0469 Q285.5469,80.0469 286.2031,79.7969 Q286.5938,79.6406 287.0156,79.2031 Q287.2813,78.9375 287.4297,78.8594 Q287.5781,78.7813 287.7813,78.7813 Q288.1094,78.7813 288.3672,79.0391 Q288.625,79.2969 288.625,79.6406 Q288.625,79.9844 288.2813,80.3906 Q287.7813,80.9688 286.9844,81.2969 Q285.9063,81.75 284.6094,81.75 Q283.0938,81.75 281.8906,81.125 Q280.9063,80.625 280.2188,79.5547 Q279.5313,78.4844 279.5313,77.2031 L279.5313,76.0469 Q279.5313,74.7188 280.1484,73.5703 Q280.7656,72.4219 281.8594,71.8047 Q282.9531,71.1875 284.1875,71.1875 Q284.9219,71.1875 285.5703,71.3516 Q286.2188,71.5156 286.7656,71.875 Z "/><text fill="#000000" font-family="sans-serif" font-size="14" font-weight="bold" lengthAdjust="spacingAndGlyphs" textLength="186" x="298" y="81.7285">UnauthenticatedException</text></a><!--MD5=[8a24d9a6e107c7111121574f5b26f4e0]
class eapli.framework.infrastructure.authz.application.exceptions.UnauthorizedException--><a href="../../../../../../eapli/framework/infrastructure/authz/application/exceptions/UnauthorizedException.html" target="_parent" title="eapli.framework.infrastructure.authz.application.exceptions.UnauthorizedException" xlink:actuate="onRequest" xlink:href="../../../../../../eapli/framework/infrastructure/authz/application/exceptions/UnauthorizedException.html" xlink:show="new" xlink:title="eapli.framework.infrastructure.authz.application.exceptions.UnauthorizedException" xlink:type="simple"><rect fill="#FEFECE" filter="url(#f12a289u5p9c70)" height="32" id="eapli.framework.infrastructure.authz.application.exceptions.UnauthorizedException" style="stroke: #A80036; stroke-width: 1.5;" width="196" x="38" y="60"/><ellipse cx="53" cy="76" fill="#ADD1B2" rx="11" ry="11" style="stroke: #A80036; stroke-width: 1.0;"/><path d="M55.7656,71.875 Q55.9219,71.6563 56.1094,71.5469 Q56.2969,71.4375 56.5156,71.4375 Q56.8906,71.4375 57.125,71.6953 Q57.3594,71.9531 57.3594,72.5625 L57.3594,74.0156 Q57.3594,74.625 57.125,74.8906 Q56.8906,75.1563 56.5156,75.1563 Q56.1719,75.1563 55.9688,74.9531 Q55.7656,74.7656 55.6563,74.25 Q55.6094,73.8906 55.4219,73.7031 Q55.0938,73.3281 54.4844,73.1094 Q53.875,72.8906 53.25,72.8906 Q52.4844,72.8906 51.8516,73.2188 Q51.2188,73.5469 50.7266,74.2969 Q50.2344,75.0469 50.2344,76.0781 L50.2344,77.1719 Q50.2344,78.4063 51.125,79.2266 Q52.0156,80.0469 53.6094,80.0469 Q54.5469,80.0469 55.2031,79.7969 Q55.5938,79.6406 56.0156,79.2031 Q56.2813,78.9375 56.4297,78.8594 Q56.5781,78.7813 56.7813,78.7813 Q57.1094,78.7813 57.3672,79.0391 Q57.625,79.2969 57.625,79.6406 Q57.625,79.9844 57.2813,80.3906 Q56.7813,80.9688 55.9844,81.2969 Q54.9063,81.75 53.6094,81.75 Q52.0938,81.75 50.8906,81.125 Q49.9063,80.625 49.2188,79.5547 Q48.5313,78.4844 48.5313,77.2031 L48.5313,76.0469 Q48.5313,74.7188 49.1484,73.5703 Q49.7656,72.4219 50.8594,71.8047 Q51.9531,71.1875 53.1875,71.1875 Q53.9219,71.1875 54.5703,71.3516 Q55.2188,71.5156 55.7656,71.875 Z "/><text fill="#000000" font-family="sans-serif" font-size="14" font-weight="bold" lengthAdjust="spacingAndGlyphs" textLength="164" x="67" y="81.7285">UnauthorizedException</text></a><!--MD5=[bc19d86914fcb4e391749d24abead424]
@startuml

skinparam svgLinkTarget _parent
skinparam linetype ortho
package eapli.framework.infrastructure.authz.application.exceptions [[../../../../../../eapli/framework/infrastructure/authz/application/exceptions/package-summary.html{eapli.framework.infrastructure.authz.application.exceptions}]] #lightyellow {
}

class "<b><size:14>UnauthenticatedException</b>" as eapli.framework.infrastructure.authz.application.exceptions.UnauthenticatedException  [[../../../../../../eapli/framework/infrastructure/authz/application/exceptions/UnauthenticatedException.html{eapli.framework.infrastructure.authz.application.exceptions.UnauthenticatedException}]] {
}

hide eapli.framework.infrastructure.authz.application.exceptions.UnauthenticatedException fields
hide eapli.framework.infrastructure.authz.application.exceptions.UnauthenticatedException methods

class "<b><size:14>UnauthorizedException</b>" as eapli.framework.infrastructure.authz.application.exceptions.UnauthorizedException  [[../../../../../../eapli/framework/infrastructure/authz/application/exceptions/UnauthorizedException.html{eapli.framework.infrastructure.authz.application.exceptions.UnauthorizedException}]] {
}

hide eapli.framework.infrastructure.authz.application.exceptions.UnauthorizedException fields
hide eapli.framework.infrastructure.authz.application.exceptions.UnauthorizedException methods


@enduml

PlantUML version 1.2020.04(Thu Mar 19 10:16:49 GMT 2020)
(GPL source distribution)
Java Runtime: Java(TM) SE Runtime Environment
JVM: Java HotSpot(TM) 64-Bit Server VM
Java Version: 1.8.0_202-b08
Operating System: Windows 10
Default Encoding: Cp1252
Language: en
Country: US
--></g></svg>