<?xml version="1.0" encoding="UTF-8" standalone="no"?><svg xmlns="http://www.w3.org/2000/svg" xmlns:xlink="http://www.w3.org/1999/xlink" contentScriptType="application/ecmascript" contentStyleType="text/css" height="217px" preserveAspectRatio="none" style="width:327px;height:217px;" version="1.1" viewBox="0 0 327 217" width="327px" zoomAndPan="magnify"><defs><filter height="300%" id="f1sl9qknb96wh7" width="300%" x="-1" y="-1"><feGaussianBlur result="blurOut" stdDeviation="2.0"/><feColorMatrix in="blurOut" result="blurOut2" type="matrix" values="0 0 0 0 0 0 0 0 0 0 0 0 0 0 0 0 0 0 .4 0"/><feOffset dx="4.0" dy="4.0" in="blurOut2" result="blurOut3"/><feBlend in="SourceGraphic" in2="blurOut3" mode="normal"/></filter></defs><g><!--MD5=[01a4f710863861b4f4e3461042d3ce76]
class eapli.framework.infrastructure.authz.application.exceptions.UnauthenticatedException--><a href="../../../../../../eapli/framework/infrastructure/authz/application/exceptions/UnauthenticatedException.html" target="_parent" title="eapli.framework.infrastructure.authz.application.exceptions.UnauthenticatedException" xlink:actuate="onRequest" xlink:href="../../../../../../eapli/framework/infrastructure/authz/application/exceptions/UnauthenticatedException.html" xlink:show="new" xlink:title="eapli.framework.infrastructure.authz.application.exceptions.UnauthenticatedException" xlink:type="simple"><rect fill="#FEFECE" filter="url(#f1sl9qknb96wh7)" height="97.6953" id="eapli.framework.infrastructure.authz.application.exceptions.UnauthenticatedException" style="stroke: #A80036; stroke-width: 1.5;" width="310" x="6" y="8"/><ellipse cx="21" cy="28.0938" fill="#ADD1B2" rx="11" ry="11" style="stroke: #A80036; stroke-width: 1.0;"/><path d="M23.7656,23.9688 Q23.9219,23.75 24.1094,23.6406 Q24.2969,23.5313 24.5156,23.5313 Q24.8906,23.5313 25.125,23.7891 Q25.3594,24.0469 25.3594,24.6563 L25.3594,26.1094 Q25.3594,26.7188 25.125,26.9844 Q24.8906,27.25 24.5156,27.25 Q24.1719,27.25 23.9688,27.0469 Q23.7656,26.8594 23.6563,26.3438 Q23.6094,25.9844 23.4219,25.7969 Q23.0938,25.4219 22.4844,25.2031 Q21.875,24.9844 21.25,24.9844 Q20.4844,24.9844 19.8516,25.3125 Q19.2188,25.6406 18.7266,26.3906 Q18.2344,27.1406 18.2344,28.1719 L18.2344,29.2656 Q18.2344,30.5 19.125,31.3203 Q20.0156,32.1406 21.6094,32.1406 Q22.5469,32.1406 23.2031,31.8906 Q23.5938,31.7344 24.0156,31.2969 Q24.2813,31.0313 24.4297,30.9531 Q24.5781,30.875 24.7813,30.875 Q25.1094,30.875 25.3672,31.1328 Q25.625,31.3906 25.625,31.7344 Q25.625,32.0781 25.2813,32.4844 Q24.7813,33.0625 23.9844,33.3906 Q22.9063,33.8438 21.6094,33.8438 Q20.0938,33.8438 18.8906,33.2188 Q17.9063,32.7188 17.2188,31.6484 Q16.5313,30.5781 16.5313,29.2969 L16.5313,28.1406 Q16.5313,26.8125 17.1484,25.6641 Q17.7656,24.5156 18.8594,23.8984 Q19.9531,23.2813 21.1875,23.2813 Q21.9219,23.2813 22.5703,23.4453 Q23.2188,23.6094 23.7656,23.9688 Z "/><text fill="#000000" font-family="sans-serif" font-size="14" font-weight="bold" lengthAdjust="spacingAndGlyphs" textLength="186" x="81" y="27.5332">UnauthenticatedException</text><text fill="#000000" font-family="sans-serif" font-size="10" lengthAdjust="spacingAndGlyphs" textLength="278" x="35" y="40.9902">eapli.framework.infrastructure.authz.application.exceptions</text><line style="stroke: #A80036; stroke-width: 1.5;" x1="7" x2="315" y1="48.1875" y2="48.1875"/><rect fill="none" height="6" style="stroke: #C82930; stroke-width: 1.0;" width="6" x="14" y="56.1875"/><text fill="#000000" font-family="sans-serif" font-size="11" lengthAdjust="spacingAndGlyphs" text-decoration="underline" textLength="103" x="26" y="63.6064">long serialVersionUID</text><line style="stroke: #A80036; stroke-width: 1.5;" x1="7" x2="315" y1="70.0234" y2="70.0234"/><ellipse cx="17" cy="81.0234" fill="#84BE84" rx="3" ry="3" style="stroke: #038048; stroke-width: 1.0;"/><text fill="#000000" font-family="sans-serif" font-size="11" lengthAdjust="spacingAndGlyphs" textLength="133" x="26" y="85.4424">UnauthenticatedException()</text><ellipse cx="17" cy="94.8594" fill="#84BE84" rx="3" ry="3" style="stroke: #038048; stroke-width: 1.0;"/><text fill="#000000" font-family="sans-serif" font-size="11" lengthAdjust="spacingAndGlyphs" textLength="208" x="26" y="99.2783">UnauthenticatedException(String message)</text></a><!--MD5=[a4d8c85934e7c2286da27481ca2471bd]
class java.lang.RuntimeException--><rect fill="#D3D3D3" filter="url(#f1sl9qknb96wh7)" height="40.1875" id="java.lang.RuntimeException" style="stroke: #A80036; stroke-width: 1.5;" width="160" x="81" y="166"/><rect fill="#D3D3D3" height="40.1875" style="stroke: #A80036; stroke-width: 1.5;" width="160" x="81" y="166"/><ellipse cx="96" cy="186.0938" fill="#ADD1B2" rx="11" ry="11" style="stroke: #A80036; stroke-width: 1.0;"/><path d="M98.7656,181.9688 Q98.9219,181.75 99.1094,181.6406 Q99.2969,181.5313 99.5156,181.5313 Q99.8906,181.5313 100.125,181.7891 Q100.3594,182.0469 100.3594,182.6563 L100.3594,184.1094 Q100.3594,184.7188 100.125,184.9844 Q99.8906,185.25 99.5156,185.25 Q99.1719,185.25 98.9688,185.0469 Q98.7656,184.8594 98.6563,184.3438 Q98.6094,183.9844 98.4219,183.7969 Q98.0938,183.4219 97.4844,183.2031 Q96.875,182.9844 96.25,182.9844 Q95.4844,182.9844 94.8516,183.3125 Q94.2188,183.6406 93.7266,184.3906 Q93.2344,185.1406 93.2344,186.1719 L93.2344,187.2656 Q93.2344,188.5 94.125,189.3203 Q95.0156,190.1406 96.6094,190.1406 Q97.5469,190.1406 98.2031,189.8906 Q98.5938,189.7344 99.0156,189.2969 Q99.2813,189.0313 99.4297,188.9531 Q99.5781,188.875 99.7813,188.875 Q100.1094,188.875 100.3672,189.1328 Q100.625,189.3906 100.625,189.7344 Q100.625,190.0781 100.2813,190.4844 Q99.7813,191.0625 98.9844,191.3906 Q97.9063,191.8438 96.6094,191.8438 Q95.0938,191.8438 93.8906,191.2188 Q92.9063,190.7188 92.2188,189.6484 Q91.5313,188.5781 91.5313,187.2969 L91.5313,186.1406 Q91.5313,184.8125 92.1484,183.6641 Q92.7656,182.5156 93.8594,181.8984 Q94.9531,181.2813 96.1875,181.2813 Q96.9219,181.2813 97.5703,181.4453 Q98.2188,181.6094 98.7656,181.9688 Z "/><text fill="#000000" font-family="sans-serif" font-size="14" font-weight="bold" lengthAdjust="spacingAndGlyphs" textLength="128" x="110" y="185.5332">RuntimeException</text><text fill="#000000" font-family="sans-serif" font-size="10" lengthAdjust="spacingAndGlyphs" textLength="44" x="152" y="198.9902">java.lang</text><!--MD5=[1de3f0ae5b64e61f5975da91efab3837]
link eapli.framework.infrastructure.authz.application.exceptions.UnauthenticatedException to java.lang.RuntimeException--><path d="M161,106.1374 C161,106.1374 161,145.9521 161,145.9521 " fill="none" id="eapli.framework.infrastructure.authz.application.exceptions.UnauthenticatedException-&gt;java.lang.RuntimeException" style="stroke: #A80036; stroke-width: 1.0;"/><polygon fill="none" points="168,145.9522,161,165.9521,154,145.9521,168,145.9522" style="stroke: #A80036; stroke-width: 1.0;"/><!--MD5=[58a4d5635164d883b6141468e114f9d8]
@startuml

skinparam svgLinkTarget _parent
skinparam linetype ortho
set namespaceSeparator none
class "<b><size:14>UnauthenticatedException</b>\n<size:10>eapli.framework.infrastructure.authz.application.exceptions" as eapli.framework.infrastructure.authz.application.exceptions.UnauthenticatedException  [[../../../../../../eapli/framework/infrastructure/authz/application/exceptions/UnauthenticatedException.html{eapli.framework.infrastructure.authz.application.exceptions.UnauthenticatedException}]] {
{static} -long serialVersionUID
+UnauthenticatedException()
+UnauthenticatedException(String message)
}


class "<b><size:14>RuntimeException</b>\n<size:10>java.lang" as java.lang.RuntimeException  #lightgrey {
}

hide java.lang.RuntimeException fields
hide java.lang.RuntimeException methods

eapli.framework.infrastructure.authz.application.exceptions.UnauthenticatedException - -|> java.lang.RuntimeException


@enduml

PlantUML version 1.2020.04(Thu Mar 19 10:16:49 GMT 2020)
(GPL source distribution)
Java Runtime: Java(TM) SE Runtime Environment
JVM: Java HotSpot(TM) 64-Bit Server VM
Java Version: 1.8.0_202-b08
Operating System: Windows 10
Default Encoding: Cp1252
Language: en
Country: US
--></g></svg>