<?xml version="1.0" encoding="UTF-8" standalone="no"?><svg xmlns="http://www.w3.org/2000/svg" xmlns:xlink="http://www.w3.org/1999/xlink" contentScriptType="application/ecmascript" contentStyleType="text/css" height="315px" preserveAspectRatio="none" style="width:644px;height:315px;" version="1.1" viewBox="0 0 644 315" width="644px" zoomAndPan="magnify"><defs><filter height="300%" id="f5jov4gq52ozm" width="300%" x="-1" y="-1"><feGaussianBlur result="blurOut" stdDeviation="2.0"/><feColorMatrix in="blurOut" result="blurOut2" type="matrix" values="0 0 0 0 0 0 0 0 0 0 0 0 0 0 0 0 0 0 .4 0"/><feOffset dx="4.0" dy="4.0" in="blurOut2" result="blurOut3"/><feBlend in="SourceGraphic" in2="blurOut3" mode="normal"/></filter></defs><g><!--MD5=[1d87bc244bba4605fddf6e5bbe607c05]
class eapli.framework.domain.model.domains.Interval.IntervalBuilder--><a href="../../../../../eapli/framework/domain/model/domains/Interval.IntervalBuilder.html" target="_parent" title="eapli.framework.domain.model.domains.Interval.IntervalBuilder" xlink:actuate="onRequest" xlink:href="../../../../../eapli/framework/domain/model/domains/Interval.IntervalBuilder.html" xlink:show="new" xlink:title="eapli.framework.domain.model.domains.Interval.IntervalBuilder" xlink:type="simple"><rect fill="#FEFECE" filter="url(#f5jov4gq52ozm)" height="180.7109" id="eapli.framework.domain.model.domains.Interval.IntervalBuilder" style="stroke: #A80036; stroke-width: 1.5;" width="389" x="71" y="8"/><ellipse cx="166.75" cy="28.0938" fill="#ADD1B2" rx="11" ry="11" style="stroke: #A80036; stroke-width: 1.0;"/><path d="M169.5156,23.9688 Q169.6719,23.75 169.8594,23.6406 Q170.0469,23.5313 170.2656,23.5313 Q170.6406,23.5313 170.875,23.7891 Q171.1094,24.0469 171.1094,24.6563 L171.1094,26.1094 Q171.1094,26.7188 170.875,26.9844 Q170.6406,27.25 170.2656,27.25 Q169.9219,27.25 169.7188,27.0469 Q169.5156,26.8594 169.4063,26.3438 Q169.3594,25.9844 169.1719,25.7969 Q168.8438,25.4219 168.2344,25.2031 Q167.625,24.9844 167,24.9844 Q166.2344,24.9844 165.6016,25.3125 Q164.9688,25.6406 164.4766,26.3906 Q163.9844,27.1406 163.9844,28.1719 L163.9844,29.2656 Q163.9844,30.5 164.875,31.3203 Q165.7656,32.1406 167.3594,32.1406 Q168.2969,32.1406 168.9531,31.8906 Q169.3438,31.7344 169.7656,31.2969 Q170.0313,31.0313 170.1797,30.9531 Q170.3281,30.875 170.5313,30.875 Q170.8594,30.875 171.1172,31.1328 Q171.375,31.3906 171.375,31.7344 Q171.375,32.0781 171.0313,32.4844 Q170.5313,33.0625 169.7344,33.3906 Q168.6563,33.8438 167.3594,33.8438 Q165.8438,33.8438 164.6406,33.2188 Q163.6563,32.7188 162.9688,31.6484 Q162.2813,30.5781 162.2813,29.2969 L162.2813,28.1406 Q162.2813,26.8125 162.8984,25.6641 Q163.5156,24.5156 164.6094,23.8984 Q165.7031,23.2813 166.9375,23.2813 Q167.6719,23.2813 168.3203,23.4453 Q168.9688,23.6094 169.5156,23.9688 Z "/><text fill="#000000" font-family="sans-serif" font-size="14" font-weight="bold" lengthAdjust="spacingAndGlyphs" textLength="163" x="200.25" y="27.5332">Interval.IntervalBuilder</text><text fill="#000000" font-family="sans-serif" font-size="10" lengthAdjust="spacingAndGlyphs" textLength="189" x="187.25" y="40.9902">eapli.framework.domain.model.domains</text><line style="stroke: #A80036; stroke-width: 1.5;" x1="72" x2="459" y1="48.1875" y2="48.1875"/><rect fill="none" height="6" style="stroke: #C82930; stroke-width: 1.0;" width="6" x="79" y="56.1875"/><text fill="#000000" font-family="sans-serif" font-size="11" lengthAdjust="spacingAndGlyphs" textLength="82" x="91" y="63.6064">Comparable start</text><rect fill="none" height="6" style="stroke: #C82930; stroke-width: 1.0;" width="6" x="79" y="70.0234"/><text fill="#000000" font-family="sans-serif" font-size="11" lengthAdjust="spacingAndGlyphs" textLength="78" x="91" y="77.4424">Comparable end</text><rect fill="none" height="6" style="stroke: #C82930; stroke-width: 1.0;" width="6" x="79" y="83.8594"/><text fill="#000000" font-family="sans-serif" font-size="11" lengthAdjust="spacingAndGlyphs" textLength="202" x="91" y="91.2783">Interval.BoundaryLimitType startBoundary</text><rect fill="none" height="6" style="stroke: #C82930; stroke-width: 1.0;" width="6" x="79" y="97.6953"/><text fill="#000000" font-family="sans-serif" font-size="11" lengthAdjust="spacingAndGlyphs" textLength="198" x="91" y="105.1143">Interval.BoundaryLimitType endBoundary</text><line style="stroke: #A80036; stroke-width: 1.5;" x1="72" x2="459" y1="111.5313" y2="111.5313"/><rect fill="#F24D5C" height="6" style="stroke: #C82930; stroke-width: 1.0;" width="6" x="79" y="119.5313"/><text fill="#000000" font-family="sans-serif" font-size="11" lengthAdjust="spacingAndGlyphs" textLength="363" x="91" y="126.9502">IntervalBuilder(Comparable start,Interval.BoundaryLimitType startBoundary)</text><ellipse cx="82" cy="136.3672" fill="#84BE84" rx="3" ry="3" style="stroke: #038048; stroke-width: 1.0;"/><text fill="#000000" font-family="sans-serif" font-size="11" lengthAdjust="spacingAndGlyphs" textLength="203" x="91" y="140.7861">Interval&lt;R&gt; closedTo(Comparable anchor)</text><ellipse cx="82" cy="150.2031" fill="#84BE84" rx="3" ry="3" style="stroke: #038048; stroke-width: 1.0;"/><text fill="#000000" font-family="sans-serif" font-size="11" lengthAdjust="spacingAndGlyphs" textLength="195" x="91" y="154.6221">Interval&lt;R&gt; openTo(Comparable anchor)</text><ellipse cx="82" cy="164.0391" fill="#84BE84" rx="3" ry="3" style="stroke: #038048; stroke-width: 1.0;"/><text fill="#000000" font-family="sans-serif" font-size="11" lengthAdjust="spacingAndGlyphs" textLength="105" x="91" y="168.458">Interval&lt;R&gt; toInfinity()</text><rect fill="#F24D5C" height="6" style="stroke: #C82930; stroke-width: 1.0;" width="6" x="79" y="174.875"/><text fill="#000000" font-family="sans-serif" font-size="11" lengthAdjust="spacingAndGlyphs" textLength="87" x="91" y="182.2939">Interval&lt;R&gt; build()</text></a><!--MD5=[008d82c49f85b4d489e041917c99c847]
class java.lang.Comparable--><rect fill="#D3D3D3" filter="url(#f5jov4gq52ozm)" height="40.1875" id="java.lang.Comparable" style="stroke: #A80036; stroke-width: 1.5;" width="113" x="6" y="256.5"/><rect fill="#D3D3D3" height="40.1875" style="stroke: #A80036; stroke-width: 1.5;" width="113" x="6" y="256.5"/><ellipse cx="21" cy="276.5938" fill="#B4A7E5" rx="11" ry="11" style="stroke: #A80036; stroke-width: 1.0;"/><path d="M21.9531,273.2344 L21.9531,279.8906 L23.6719,279.8906 Q24.2813,279.8906 24.5469,280.125 Q24.8125,280.3594 24.8125,280.75 Q24.8125,281.125 24.5469,281.3594 Q24.2813,281.5938 23.6719,281.5938 L18.5313,281.5938 Q17.9219,281.5938 17.6563,281.3594 Q17.3906,281.125 17.3906,280.7344 Q17.3906,280.3594 17.6563,280.125 Q17.9219,279.8906 18.5313,279.8906 L20.25,279.8906 L20.25,273.2344 L18.5313,273.2344 Q17.9219,273.2344 17.6563,273 Q17.3906,272.7656 17.3906,272.375 Q17.3906,272 17.6563,271.7656 Q17.9219,271.5313 18.5313,271.5313 L23.6719,271.5313 Q24.2813,271.5313 24.5469,271.7656 Q24.8125,272 24.8125,272.375 Q24.8125,272.7656 24.5469,273 Q24.2813,273.2344 23.6719,273.2344 L21.9531,273.2344 Z "/><text fill="#000000" font-family="sans-serif" font-size="14" font-style="italic" font-weight="bold" lengthAdjust="spacingAndGlyphs" textLength="81" x="35" y="276.0332">Comparable</text><text fill="#000000" font-family="sans-serif" font-size="10" font-style="italic" lengthAdjust="spacingAndGlyphs" textLength="43" x="54" y="289.4902">java.lang</text><!--MD5=[515704f52d49621f8d4de50e67c9e291]
class eapli.framework.domain.model.domains.Interval.BoundaryLimitType--><a href="../../../../../eapli/framework/domain/model/domains/Interval.BoundaryLimitType.html" target="_parent" title="eapli.framework.domain.model.domains.Interval.BoundaryLimitType" xlink:actuate="onRequest" xlink:href="../../../../../eapli/framework/domain/model/domains/Interval.BoundaryLimitType.html" xlink:show="new" xlink:title="eapli.framework.domain.model.domains.Interval.BoundaryLimitType" xlink:type="simple"><rect fill="#FEFECE" filter="url(#f5jov4gq52ozm)" height="40.1875" id="eapli.framework.domain.model.domains.Interval.BoundaryLimitType" style="stroke: #A80036; stroke-width: 1.5;" width="223" x="154" y="256.5"/><ellipse cx="169" cy="276.5938" fill="#EB937F" rx="11" ry="11" style="stroke: #A80036; stroke-width: 1.0;"/><path d="M167.8594,277.3906 L167.8594,279.8906 L172.1875,279.8906 L172.1875,278.9688 Q172.1875,278.3594 172.4297,278.0938 Q172.6719,277.8281 173.0469,277.8281 Q173.4219,277.8281 173.6563,278.0938 Q173.8906,278.3594 173.8906,278.9688 L173.8906,281.5938 L165.8906,281.5938 Q165.2656,281.5938 165.0078,281.3594 Q164.75,281.125 164.75,280.7344 Q164.75,280.3594 165.0156,280.125 Q165.2813,279.8906 165.8906,279.8906 L166.1563,279.8906 L166.1563,273.2344 L165.8906,273.2344 Q165.2656,273.2344 165.0078,273 Q164.75,272.7656 164.75,272.375 Q164.75,272 165.0078,271.7656 Q165.2656,271.5313 165.8906,271.5313 L173.5156,271.5313 L173.5156,274.125 Q173.5156,274.7344 173.2891,274.9922 Q173.0625,275.25 172.6719,275.25 Q172.2969,275.25 172.0625,274.9922 Q171.8281,274.7344 171.8281,274.125 L171.8281,273.2344 L167.8594,273.2344 L167.8594,275.6875 L169.3438,275.6875 Q169.3438,275.0313 169.4688,274.8438 Q169.7344,274.4375 170.2031,274.4375 Q170.5781,274.4375 170.8125,274.6953 Q171.0469,274.9531 171.0469,275.5625 L171.0469,277.5313 Q171.0469,278.0781 170.9219,278.2656 Q170.6563,278.6563 170.2031,278.6563 Q169.7344,278.6563 169.4688,278.25 Q169.3438,278.0625 169.3438,277.3906 L167.8594,277.3906 Z "/><text fill="#000000" font-family="sans-serif" font-size="14" font-weight="bold" lengthAdjust="spacingAndGlyphs" textLength="191" x="183" y="276.0332">Interval.BoundaryLimitType</text><text fill="#000000" font-family="sans-serif" font-size="10" lengthAdjust="spacingAndGlyphs" textLength="189" x="184" y="289.4902">eapli.framework.domain.model.domains</text></a><!--MD5=[339064b02e4b8a3d990cc44210b60c39]
class eapli.framework.domain.model.domains.IntervalComparable--><a href="../../../../../eapli/framework/domain/model/domains/Interval.html" target="_parent" title="eapli.framework.domain.model.domains.Interval" xlink:actuate="onRequest" xlink:href="../../../../../eapli/framework/domain/model/domains/Interval.html" xlink:show="new" xlink:title="eapli.framework.domain.model.domains.Interval" xlink:type="simple"><rect fill="#FEFECE" filter="url(#f5jov4gq52ozm)" height="55.2813" id="eapli.framework.domain.model.domains.IntervalComparable" style="stroke: #A80036; stroke-width: 1.5;" width="221" x="412" y="249"/><ellipse cx="427" cy="276.6406" fill="#ADD1B2" rx="11" ry="11" style="stroke: #A80036; stroke-width: 1.0;"/><path d="M429.7656,272.5156 Q429.9219,272.2969 430.1094,272.1875 Q430.2969,272.0781 430.5156,272.0781 Q430.8906,272.0781 431.125,272.3359 Q431.3594,272.5938 431.3594,273.2031 L431.3594,274.6563 Q431.3594,275.2656 431.125,275.5313 Q430.8906,275.7969 430.5156,275.7969 Q430.1719,275.7969 429.9688,275.5938 Q429.7656,275.4063 429.6563,274.8906 Q429.6094,274.5313 429.4219,274.3438 Q429.0938,273.9688 428.4844,273.75 Q427.875,273.5313 427.25,273.5313 Q426.4844,273.5313 425.8516,273.8594 Q425.2188,274.1875 424.7266,274.9375 Q424.2344,275.6875 424.2344,276.7188 L424.2344,277.8125 Q424.2344,279.0469 425.125,279.8672 Q426.0156,280.6875 427.6094,280.6875 Q428.5469,280.6875 429.2031,280.4375 Q429.5938,280.2813 430.0156,279.8438 Q430.2813,279.5781 430.4297,279.5 Q430.5781,279.4219 430.7813,279.4219 Q431.1094,279.4219 431.3672,279.6797 Q431.625,279.9375 431.625,280.2813 Q431.625,280.625 431.2813,281.0313 Q430.7813,281.6094 429.9844,281.9375 Q428.9063,282.3906 427.6094,282.3906 Q426.0938,282.3906 424.8906,281.7656 Q423.9063,281.2656 423.2188,280.1953 Q422.5313,279.125 422.5313,277.8438 L422.5313,276.6875 Q422.5313,275.3594 423.1484,274.2109 Q423.7656,273.0625 424.8594,272.4453 Q425.9531,271.8281 427.1875,271.8281 Q427.9219,271.8281 428.5703,271.9922 Q429.2188,272.1563 429.7656,272.5156 Z "/><text fill="#000000" font-family="sans-serif" font-size="12" font-style="italic" lengthAdjust="spacingAndGlyphs" textLength="87" x="492" y="266.457">«Embeddable»</text><text fill="#000000" font-family="sans-serif" font-size="14" font-weight="bold" lengthAdjust="spacingAndGlyphs" textLength="80" x="495.5" y="283.627">Interval&lt;R&gt;</text><text fill="#000000" font-family="sans-serif" font-size="10" lengthAdjust="spacingAndGlyphs" textLength="189" x="441" y="297.084">eapli.framework.domain.model.domains</text></a><!--MD5=[3b8c527091d2913dc9eb732589d8db9a]
link eapli.framework.domain.model.domains.Interval.IntervalBuilder to java.lang.Comparable--><path d="M103,189.064 C103,189.064 103,251.1773 103,251.1773 " fill="none" id="eapli.framework.domain.model.domains.Interval.IntervalBuilder-&gt;java.lang.Comparable" style="stroke: #A80036; stroke-width: 1.0;"/><polygon fill="#A80036" points="103,256.1773,107,247.1773,103,251.1773,99,247.1773,103,256.1773" style="stroke: #A80036; stroke-width: 1.0;"/><text fill="#000000" font-family="sans-serif" font-size="13" lengthAdjust="spacingAndGlyphs" textLength="26" x="84.7344" y="245.7297">start</text><!--MD5=[3b8c527091d2913dc9eb732589d8db9a]
link eapli.framework.domain.model.domains.Interval.IntervalBuilder to java.lang.Comparable--><path d="M87,189.064 C87,189.064 87,251.1773 87,251.1773 " fill="none" id="eapli.framework.domain.model.domains.Interval.IntervalBuilder-&gt;java.lang.Comparable-1" style="stroke: #A80036; stroke-width: 1.0;"/><polygon fill="#A80036" points="87,256.1773,91,247.1773,87,251.1773,83,247.1773,87,256.1773" style="stroke: #A80036; stroke-width: 1.0;"/><text fill="#000000" font-family="sans-serif" font-size="13" lengthAdjust="spacingAndGlyphs" textLength="21" x="69.9375" y="245.7297">end</text><!--MD5=[2fb734249ca659c42bf0c24db2ca7285]
link eapli.framework.domain.model.domains.Interval.IntervalBuilder to eapli.framework.domain.model.domains.Interval.BoundaryLimitType--><path d="M228.333,189.064 C228.333,189.064 228.333,251.1773 228.333,251.1773 " fill="none" id="eapli.framework.domain.model.domains.Interval.IntervalBuilder-&gt;eapli.framework.domain.model.domains.Interval.BoundaryLimitType" style="stroke: #A80036; stroke-width: 1.0;"/><polygon fill="#A80036" points="228.333,256.1773,232.333,247.1773,228.333,251.1773,224.333,247.1773,228.333,256.1773" style="stroke: #A80036; stroke-width: 1.0;"/><text fill="#000000" font-family="sans-serif" font-size="13" lengthAdjust="spacingAndGlyphs" textLength="81" x="125.4892" y="245.7297">startBoundary</text><!--MD5=[2fb734249ca659c42bf0c24db2ca7285]
link eapli.framework.domain.model.domains.Interval.IntervalBuilder to eapli.framework.domain.model.domains.Interval.BoundaryLimitType--><path d="M302.667,189.064 C302.667,189.064 302.667,251.1773 302.667,251.1773 " fill="none" id="eapli.framework.domain.model.domains.Interval.IntervalBuilder-&gt;eapli.framework.domain.model.domains.Interval.BoundaryLimitType-1" style="stroke: #A80036; stroke-width: 1.0;"/><polygon fill="#A80036" points="302.667,256.1773,306.667,247.1773,302.667,251.1773,298.667,247.1773,302.667,256.1773" style="stroke: #A80036; stroke-width: 1.0;"/><text fill="#000000" font-family="sans-serif" font-size="13" lengthAdjust="spacingAndGlyphs" textLength="76" x="323.8077" y="245.7297">endBoundary</text><!--MD5=[35a231ecac8d9164eef84a4ba0f3fbf1]
link eapli.framework.domain.model.domains.Interval.IntervalBuilder to eapli.framework.domain.model.domains.IntervalComparable--><path d="M436,189.064 C436,189.064 436,243.8874 436,243.8874 " fill="none" id="eapli.framework.domain.model.domains.Interval.IntervalBuilder-&gt;eapli.framework.domain.model.domains.IntervalComparable" style="stroke: #A80036; stroke-width: 1.0; stroke-dasharray: 7.0,7.0;"/><polygon fill="#A80036" points="436,248.8874,440,239.8874,436,243.8874,432,239.8874,436,248.8874" style="stroke: #A80036; stroke-width: 1.0;"/><!--MD5=[029091c653fd66e6c5359ef7a35523f6]
@startuml

skinparam svgLinkTarget _parent
skinparam linetype ortho
set namespaceSeparator none
class "<b><size:14>Interval.IntervalBuilder</b>\n<size:10>eapli.framework.domain.model.domains" as eapli.framework.domain.model.domains.Interval.IntervalBuilder  [[../../../../../eapli/framework/domain/model/domains/Interval.IntervalBuilder.html{eapli.framework.domain.model.domains.Interval.IntervalBuilder}]] {
-Comparable start
-Comparable end
-Interval.BoundaryLimitType startBoundary
-Interval.BoundaryLimitType endBoundary
-IntervalBuilder(Comparable start,Interval.BoundaryLimitType startBoundary)
+Interval<R> closedTo(Comparable anchor)
+Interval<R> openTo(Comparable anchor)
+Interval<R> toInfinity()
-Interval<R> build()
}


interface "<b><size:14>Comparable</b>\n<size:10>java.lang" as java.lang.Comparable  #lightgrey {
}

hide java.lang.Comparable fields
hide java.lang.Comparable methods

eapli.framework.domain.model.domains.Interval.IntervalBuilder - ->  "start" java.lang.Comparable

eapli.framework.domain.model.domains.Interval.IntervalBuilder - ->  "end" java.lang.Comparable

enum "<b><size:14>Interval.BoundaryLimitType</b>\n<size:10>eapli.framework.domain.model.domains" as eapli.framework.domain.model.domains.Interval.BoundaryLimitType  [[../../../../../eapli/framework/domain/model/domains/Interval.BoundaryLimitType.html{eapli.framework.domain.model.domains.Interval.BoundaryLimitType}]] {
}

hide eapli.framework.domain.model.domains.Interval.BoundaryLimitType fields
hide eapli.framework.domain.model.domains.Interval.BoundaryLimitType methods

eapli.framework.domain.model.domains.Interval.IntervalBuilder - ->  "startBoundary" eapli.framework.domain.model.domains.Interval.BoundaryLimitType

eapli.framework.domain.model.domains.Interval.IntervalBuilder - ->  "endBoundary" eapli.framework.domain.model.domains.Interval.BoundaryLimitType

class "<b><size:14>Interval<R></b>\n<size:10>eapli.framework.domain.model.domains" as eapli.framework.domain.model.domains.IntervalComparable <<Embeddable>> [[../../../../../eapli/framework/domain/model/domains/Interval.html{eapli.framework.domain.model.domains.Interval}]] {
}

hide eapli.framework.domain.model.domains.IntervalComparable fields
hide eapli.framework.domain.model.domains.IntervalComparable methods

eapli.framework.domain.model.domains.Interval.IntervalBuilder ..> eapli.framework.domain.model.domains.IntervalComparable


@enduml

PlantUML version 1.2020.04(Thu Mar 19 10:16:49 GMT 2020)
(GPL source distribution)
Java Runtime: Java(TM) SE Runtime Environment
JVM: Java HotSpot(TM) 64-Bit Server VM
Java Version: 1.8.0_202-b08
Operating System: Windows 10
Default Encoding: Cp1252
Language: en
Country: US
--></g></svg>