@startuml

skinparam svgLinkTarget _parent
skinparam linetype ortho
set namespaceSeparator none
class "<b><size:14>Interval.IntervalBuilder</b>\n<size:10>eapli.framework.domain.model.domains" as eapli.framework.domain.model.domains.Interval.IntervalBuilder  [[../../../../../eapli/framework/domain/model/domains/Interval.IntervalBuilder.html{eapli.framework.domain.model.domains.Interval.IntervalBuilder}]] {
-Comparable start
-Comparable end
-Interval.BoundaryLimitType startBoundary
-Interval.BoundaryLimitType endBoundary
-IntervalBuilder(Comparable start,Interval.BoundaryLimitType startBoundary)
+Interval<R> closedTo(Comparable anchor)
+Interval<R> openTo(Comparable anchor)
+Interval<R> toInfinity()
-Interval<R> build()
}


interface "<b><size:14>Comparable</b>\n<size:10>java.lang" as java.lang.Comparable  #lightgrey {
}

hide java.lang.Comparable fields
hide java.lang.Comparable methods

eapli.framework.domain.model.domains.Interval.IntervalBuilder -->  "start" java.lang.Comparable

eapli.framework.domain.model.domains.Interval.IntervalBuilder -->  "end" java.lang.Comparable

enum "<b><size:14>Interval.BoundaryLimitType</b>\n<size:10>eapli.framework.domain.model.domains" as eapli.framework.domain.model.domains.Interval.BoundaryLimitType  [[../../../../../eapli/framework/domain/model/domains/Interval.BoundaryLimitType.html{eapli.framework.domain.model.domains.Interval.BoundaryLimitType}]] {
}

hide eapli.framework.domain.model.domains.Interval.BoundaryLimitType fields
hide eapli.framework.domain.model.domains.Interval.BoundaryLimitType methods

eapli.framework.domain.model.domains.Interval.IntervalBuilder -->  "startBoundary" eapli.framework.domain.model.domains.Interval.BoundaryLimitType

eapli.framework.domain.model.domains.Interval.IntervalBuilder -->  "endBoundary" eapli.framework.domain.model.domains.Interval.BoundaryLimitType

class "<b><size:14>Interval<R></b>\n<size:10>eapli.framework.domain.model.domains" as eapli.framework.domain.model.domains.IntervalComparable <<Embeddable>> [[../../../../../eapli/framework/domain/model/domains/Interval.html{eapli.framework.domain.model.domains.Interval}]] {
}

hide eapli.framework.domain.model.domains.IntervalComparable fields
hide eapli.framework.domain.model.domains.IntervalComparable methods

eapli.framework.domain.model.domains.Interval.IntervalBuilder ..> eapli.framework.domain.model.domains.IntervalComparable


@enduml
