<?xml version="1.0" encoding="UTF-8" standalone="no"?><svg xmlns="http://www.w3.org/2000/svg" xmlns:xlink="http://www.w3.org/1999/xlink" contentScriptType="application/ecmascript" contentStyleType="text/css" height="470px" preserveAspectRatio="none" style="width:675px;height:470px;" version="1.1" viewBox="0 0 675 470" width="675px" zoomAndPan="magnify"><defs><filter height="300%" id="f1iu025v3o9jvg" width="300%" x="-1" y="-1"><feGaussianBlur result="blurOut" stdDeviation="2.0"/><feColorMatrix in="blurOut" result="blurOut2" type="matrix" values="0 0 0 0 0 0 0 0 0 0 0 0 0 0 0 0 0 0 .4 0"/><feOffset dx="4.0" dy="4.0" in="blurOut2" result="blurOut3"/><feBlend in="SourceGraphic" in2="blurOut3" mode="normal"/></filter></defs><g><!--MD5=[fb3045a7f11c45dc7250f8e8f3954a5f]
class eapli.framework.functional.Either--><a href="../../../eapli/framework/functional/Either.html" target="_parent" title="eapli.framework.functional.Either" xlink:actuate="onRequest" xlink:href="../../../eapli/framework/functional/Either.html" xlink:show="new" xlink:title="eapli.framework.functional.Either" xlink:type="simple"><rect fill="#FEFECE" filter="url(#f1iu025v3o9jvg)" height="332.9063" id="eapli.framework.functional.Either" style="stroke: #A80036; stroke-width: 1.5;" width="436" x="172.5" y="26"/><ellipse cx="323.75" cy="46.0938" fill="#ADD1B2" rx="11" ry="11" style="stroke: #A80036; stroke-width: 1.0;"/><path d="M326.5156,41.9688 Q326.6719,41.75 326.8594,41.6406 Q327.0469,41.5313 327.2656,41.5313 Q327.6406,41.5313 327.875,41.7891 Q328.1094,42.0469 328.1094,42.6563 L328.1094,44.1094 Q328.1094,44.7188 327.875,44.9844 Q327.6406,45.25 327.2656,45.25 Q326.9219,45.25 326.7188,45.0469 Q326.5156,44.8594 326.4063,44.3438 Q326.3594,43.9844 326.1719,43.7969 Q325.8438,43.4219 325.2344,43.2031 Q324.625,42.9844 324,42.9844 Q323.2344,42.9844 322.6016,43.3125 Q321.9688,43.6406 321.4766,44.3906 Q320.9844,45.1406 320.9844,46.1719 L320.9844,47.2656 Q320.9844,48.5 321.875,49.3203 Q322.7656,50.1406 324.3594,50.1406 Q325.2969,50.1406 325.9531,49.8906 Q326.3438,49.7344 326.7656,49.2969 Q327.0313,49.0313 327.1797,48.9531 Q327.3281,48.875 327.5313,48.875 Q327.8594,48.875 328.1172,49.1328 Q328.375,49.3906 328.375,49.7344 Q328.375,50.0781 328.0313,50.4844 Q327.5313,51.0625 326.7344,51.3906 Q325.6563,51.8438 324.3594,51.8438 Q322.8438,51.8438 321.6406,51.2188 Q320.6563,50.7188 319.9688,49.6484 Q319.2813,48.5781 319.2813,47.2969 L319.2813,46.1406 Q319.2813,44.8125 319.8984,43.6641 Q320.5156,42.5156 321.6094,41.8984 Q322.7031,41.2813 323.9375,41.2813 Q324.6719,41.2813 325.3203,41.4453 Q325.9688,41.6094 326.5156,41.9688 Z "/><text fill="#000000" font-family="sans-serif" font-size="14" font-weight="bold" lengthAdjust="spacingAndGlyphs" textLength="42" x="385.75" y="45.5332">Either</text><text fill="#000000" font-family="sans-serif" font-size="10" lengthAdjust="spacingAndGlyphs" textLength="125" x="344.25" y="58.9902">eapli.framework.functional</text><line style="stroke: #A80036; stroke-width: 1.5;" x1="173.5" x2="607.5" y1="66.1875" y2="66.1875"/><rect fill="none" height="6" style="stroke: #C82930; stroke-width: 1.0;" width="6" x="180.5" y="74.1875"/><text fill="#000000" font-family="sans-serif" font-size="11" lengthAdjust="spacingAndGlyphs" text-decoration="underline" textLength="64" x="192.5" y="81.6064">Either EMPTY</text><rect fill="none" height="6" style="stroke: #C82930; stroke-width: 1.0;" width="6" x="180.5" y="88.0234"/><text fill="#000000" font-family="sans-serif" font-size="11" lengthAdjust="spacingAndGlyphs" textLength="99" x="192.5" y="95.4424">Either.SideType type</text><rect fill="none" height="6" style="stroke: #C82930; stroke-width: 1.0;" width="6" x="180.5" y="101.8594"/><text fill="#000000" font-family="sans-serif" font-size="11" lengthAdjust="spacingAndGlyphs" textLength="49" x="192.5" y="109.2783">Object left</text><rect fill="none" height="6" style="stroke: #C82930; stroke-width: 1.0;" width="6" x="180.5" y="115.6953"/><text fill="#000000" font-family="sans-serif" font-size="11" lengthAdjust="spacingAndGlyphs" textLength="55" x="192.5" y="123.1143">Object right</text><line style="stroke: #A80036; stroke-width: 1.5;" x1="173.5" x2="607.5" y1="129.5313" y2="129.5313"/><rect fill="#F24D5C" height="6" style="stroke: #C82930; stroke-width: 1.0;" width="6" x="180.5" y="137.5313"/><text fill="#000000" font-family="sans-serif" font-size="11" lengthAdjust="spacingAndGlyphs" textLength="161" x="192.5" y="144.9502">Either(Object left,boolean marker)</text><rect fill="#F24D5C" height="6" style="stroke: #C82930; stroke-width: 1.0;" width="6" x="180.5" y="151.3672"/><text fill="#000000" font-family="sans-serif" font-size="11" lengthAdjust="spacingAndGlyphs" textLength="90" x="192.5" y="158.7861">Either(Object right)</text><rect fill="#F24D5C" height="6" style="stroke: #C82930; stroke-width: 1.0;" width="6" x="180.5" y="165.2031"/><text fill="#000000" font-family="sans-serif" font-size="11" lengthAdjust="spacingAndGlyphs" textLength="35" x="192.5" y="172.6221">Either()</text><ellipse cx="183.5" cy="182.0391" fill="#84BE84" rx="3" ry="3" style="stroke: #038048; stroke-width: 1.0;"/><text fill="#000000" font-family="sans-serif" font-size="11" lengthAdjust="spacingAndGlyphs" text-decoration="underline" textLength="133" x="192.5" y="186.458">Either&lt;T, U&gt; left(Object left)</text><ellipse cx="183.5" cy="195.875" fill="#84BE84" rx="3" ry="3" style="stroke: #038048; stroke-width: 1.0;"/><text fill="#000000" font-family="sans-serif" font-size="11" lengthAdjust="spacingAndGlyphs" text-decoration="underline" textLength="145" x="192.5" y="200.2939">Either&lt;T, U&gt; right(Object right)</text><ellipse cx="183.5" cy="209.7109" fill="#84BE84" rx="3" ry="3" style="stroke: #038048; stroke-width: 1.0;"/><text fill="#000000" font-family="sans-serif" font-size="11" lengthAdjust="spacingAndGlyphs" textLength="348" x="192.5" y="214.1299">Either&lt;T, U&gt; map(Function&lt;?, ?&gt; leftMapper,Function&lt;?, ?&gt; rightMapper)</text><ellipse cx="183.5" cy="223.5469" fill="#84BE84" rx="3" ry="3" style="stroke: #038048; stroke-width: 1.0;"/><text fill="#000000" font-family="sans-serif" font-size="11" lengthAdjust="spacingAndGlyphs" textLength="351" x="192.5" y="227.9658">Either&lt;L, R&gt; filter(Predicate&lt;?&gt; leftPredicate,Predicate&lt;?&gt; rightPredicate)</text><ellipse cx="183.5" cy="237.3828" fill="#84BE84" rx="3" ry="3" style="stroke: #038048; stroke-width: 1.0;"/><text fill="#000000" font-family="sans-serif" font-size="11" lengthAdjust="spacingAndGlyphs" textLength="410" x="192.5" y="241.8018">Object fold(BiFunction&lt;T, ?, ?&gt; leftAccum,BiFunction&lt;T, ?, ?&gt; rightAccum,Object def)</text><ellipse cx="183.5" cy="251.2188" fill="#84BE84" rx="3" ry="3" style="stroke: #038048; stroke-width: 1.0;"/><text fill="#000000" font-family="sans-serif" font-size="11" lengthAdjust="spacingAndGlyphs" textLength="352" x="192.5" y="255.6377">void consume(Consumer&lt;?&gt; leftConsumer,Consumer&lt;?&gt; rightConsumer)</text><ellipse cx="183.5" cy="265.0547" fill="#84BE84" rx="3" ry="3" style="stroke: #038048; stroke-width: 1.0;"/><text fill="#000000" font-family="sans-serif" font-size="11" lengthAdjust="spacingAndGlyphs" textLength="289" x="192.5" y="269.4736">Object leftValueOrElseThrow(Supplier&lt;?&gt; exceptionBuilder)</text><ellipse cx="183.5" cy="278.8906" fill="#84BE84" rx="3" ry="3" style="stroke: #038048; stroke-width: 1.0;"/><text fill="#000000" font-family="sans-serif" font-size="11" lengthAdjust="spacingAndGlyphs" textLength="167" x="192.5" y="283.3096">Object leftValueOrElse(Object def)</text><ellipse cx="183.5" cy="292.7266" fill="#84BE84" rx="3" ry="3" style="stroke: #038048; stroke-width: 1.0;"/><text fill="#000000" font-family="sans-serif" font-size="11" lengthAdjust="spacingAndGlyphs" textLength="295" x="192.5" y="297.1455">Object rightValueOrElseThrow(Supplier&lt;?&gt; exceptionBuilder)</text><ellipse cx="183.5" cy="306.5625" fill="#84BE84" rx="3" ry="3" style="stroke: #038048; stroke-width: 1.0;"/><text fill="#000000" font-family="sans-serif" font-size="11" lengthAdjust="spacingAndGlyphs" textLength="173" x="192.5" y="310.9814">Object rightValueOrElse(Object def)</text><ellipse cx="183.5" cy="320.3984" fill="#84BE84" rx="3" ry="3" style="stroke: #038048; stroke-width: 1.0;"/><text fill="#000000" font-family="sans-serif" font-size="11" lengthAdjust="spacingAndGlyphs" textLength="97" x="192.5" y="324.8174">Either&lt;R, L&gt; swap()</text><polygon fill="#4177AF" points="183.5,330.2344,179.5,336.2344,187.5,336.2344" style="stroke: #1963A0; stroke-width: 1.0;"/><text fill="#000000" font-family="sans-serif" font-size="11" lengthAdjust="spacingAndGlyphs" text-decoration="underline" textLength="98" x="192.5" y="338.6533">Either&lt;T, U&gt; empty()</text><polygon fill="#4177AF" points="183.5,344.0703,179.5,350.0703,187.5,350.0703" style="stroke: #1963A0; stroke-width: 1.0;"/><text fill="#000000" font-family="sans-serif" font-size="11" lengthAdjust="spacingAndGlyphs" textLength="86" x="192.5" y="352.4893">boolean isEmpty()</text></a><!--MD5=[5c49928894124d575264c70f51270de1]
class eapli.framework.functional.Either.SideType--><a href="../../../eapli/framework/functional/Either.SideType.html" target="_parent" title="eapli.framework.functional.Either.SideType" xlink:actuate="onRequest" xlink:href="../../../eapli/framework/functional/Either.SideType.html" xlink:show="new" xlink:title="eapli.framework.functional.Either.SideType" xlink:type="simple"><rect fill="#FEFECE" filter="url(#f1iu025v3o9jvg)" height="40.1875" id="eapli.framework.functional.Either.SideType" style="stroke: #A80036; stroke-width: 1.5;" width="157" x="6" y="419"/><ellipse cx="21" cy="439.0938" fill="#EB937F" rx="11" ry="11" style="stroke: #A80036; stroke-width: 1.0;"/><path d="M19.8594,439.8906 L19.8594,442.3906 L24.1875,442.3906 L24.1875,441.4688 Q24.1875,440.8594 24.4297,440.5938 Q24.6719,440.3281 25.0469,440.3281 Q25.4219,440.3281 25.6563,440.5938 Q25.8906,440.8594 25.8906,441.4688 L25.8906,444.0938 L17.8906,444.0938 Q17.2656,444.0938 17.0078,443.8594 Q16.75,443.625 16.75,443.2344 Q16.75,442.8594 17.0156,442.625 Q17.2813,442.3906 17.8906,442.3906 L18.1563,442.3906 L18.1563,435.7344 L17.8906,435.7344 Q17.2656,435.7344 17.0078,435.5 Q16.75,435.2656 16.75,434.875 Q16.75,434.5 17.0078,434.2656 Q17.2656,434.0313 17.8906,434.0313 L25.5156,434.0313 L25.5156,436.625 Q25.5156,437.2344 25.2891,437.4922 Q25.0625,437.75 24.6719,437.75 Q24.2969,437.75 24.0625,437.4922 Q23.8281,437.2344 23.8281,436.625 L23.8281,435.7344 L19.8594,435.7344 L19.8594,438.1875 L21.3438,438.1875 Q21.3438,437.5313 21.4688,437.3438 Q21.7344,436.9375 22.2031,436.9375 Q22.5781,436.9375 22.8125,437.1953 Q23.0469,437.4531 23.0469,438.0625 L23.0469,440.0313 Q23.0469,440.5781 22.9219,440.7656 Q22.6563,441.1563 22.2031,441.1563 Q21.7344,441.1563 21.4688,440.75 Q21.3438,440.5625 21.3438,439.8906 L19.8594,439.8906 Z "/><text fill="#000000" font-family="sans-serif" font-size="14" font-weight="bold" lengthAdjust="spacingAndGlyphs" textLength="110" x="42.5" y="438.5332">Either.SideType</text><text fill="#000000" font-family="sans-serif" font-size="10" lengthAdjust="spacingAndGlyphs" textLength="125" x="35" y="451.9902">eapli.framework.functional</text></a><!--MD5=[274ad5661286b626a93603d287cbf95a]
class java.lang.Object--><rect fill="#D3D3D3" filter="url(#f1iu025v3o9jvg)" height="40.1875" id="java.lang.Object" style="stroke: #A80036; stroke-width: 1.5;" width="78" x="198.5" y="419"/><rect fill="#D3D3D3" height="40.1875" style="stroke: #A80036; stroke-width: 1.5;" width="78" x="198.5" y="419"/><ellipse cx="213.5" cy="439.0938" fill="#ADD1B2" rx="11" ry="11" style="stroke: #A80036; stroke-width: 1.0;"/><path d="M216.2656,434.9688 Q216.4219,434.75 216.6094,434.6406 Q216.7969,434.5313 217.0156,434.5313 Q217.3906,434.5313 217.625,434.7891 Q217.8594,435.0469 217.8594,435.6563 L217.8594,437.1094 Q217.8594,437.7188 217.625,437.9844 Q217.3906,438.25 217.0156,438.25 Q216.6719,438.25 216.4688,438.0469 Q216.2656,437.8594 216.1563,437.3438 Q216.1094,436.9844 215.9219,436.7969 Q215.5938,436.4219 214.9844,436.2031 Q214.375,435.9844 213.75,435.9844 Q212.9844,435.9844 212.3516,436.3125 Q211.7188,436.6406 211.2266,437.3906 Q210.7344,438.1406 210.7344,439.1719 L210.7344,440.2656 Q210.7344,441.5 211.625,442.3203 Q212.5156,443.1406 214.1094,443.1406 Q215.0469,443.1406 215.7031,442.8906 Q216.0938,442.7344 216.5156,442.2969 Q216.7813,442.0313 216.9297,441.9531 Q217.0781,441.875 217.2813,441.875 Q217.6094,441.875 217.8672,442.1328 Q218.125,442.3906 218.125,442.7344 Q218.125,443.0781 217.7813,443.4844 Q217.2813,444.0625 216.4844,444.3906 Q215.4063,444.8438 214.1094,444.8438 Q212.5938,444.8438 211.3906,444.2188 Q210.4063,443.7188 209.7188,442.6484 Q209.0313,441.5781 209.0313,440.2969 L209.0313,439.1406 Q209.0313,437.8125 209.6484,436.6641 Q210.2656,435.5156 211.3594,434.8984 Q212.4531,434.2813 213.6875,434.2813 Q214.4219,434.2813 215.0703,434.4453 Q215.7188,434.6094 216.2656,434.9688 Z "/><text fill="#000000" font-family="sans-serif" font-size="14" font-weight="bold" lengthAdjust="spacingAndGlyphs" textLength="46" x="227.5" y="438.5332">Object</text><text fill="#000000" font-family="sans-serif" font-size="10" lengthAdjust="spacingAndGlyphs" textLength="44" x="228.5" y="451.9902">java.lang</text><!--MD5=[b2af947bd711683970a339d27f4ce6cd]
class eapli.framework.functional.EitherObjectObject--><a href="../../../eapli/framework/functional/Either.html" target="_parent" title="eapli.framework.functional.Either" xlink:actuate="onRequest" xlink:href="../../../eapli/framework/functional/Either.html" xlink:show="new" xlink:title="eapli.framework.functional.Either" xlink:type="simple"><rect fill="#FEFECE" filter="url(#f1iu025v3o9jvg)" height="40.1875" id="eapli.framework.functional.EitherObjectObject" style="stroke: #A80036; stroke-width: 1.5;" width="157" x="312" y="419"/><ellipse cx="327" cy="439.0938" fill="#ADD1B2" rx="11" ry="11" style="stroke: #A80036; stroke-width: 1.0;"/><path d="M329.7656,434.9688 Q329.9219,434.75 330.1094,434.6406 Q330.2969,434.5313 330.5156,434.5313 Q330.8906,434.5313 331.125,434.7891 Q331.3594,435.0469 331.3594,435.6563 L331.3594,437.1094 Q331.3594,437.7188 331.125,437.9844 Q330.8906,438.25 330.5156,438.25 Q330.1719,438.25 329.9688,438.0469 Q329.7656,437.8594 329.6563,437.3438 Q329.6094,436.9844 329.4219,436.7969 Q329.0938,436.4219 328.4844,436.2031 Q327.875,435.9844 327.25,435.9844 Q326.4844,435.9844 325.8516,436.3125 Q325.2188,436.6406 324.7266,437.3906 Q324.2344,438.1406 324.2344,439.1719 L324.2344,440.2656 Q324.2344,441.5 325.125,442.3203 Q326.0156,443.1406 327.6094,443.1406 Q328.5469,443.1406 329.2031,442.8906 Q329.5938,442.7344 330.0156,442.2969 Q330.2813,442.0313 330.4297,441.9531 Q330.5781,441.875 330.7813,441.875 Q331.1094,441.875 331.3672,442.1328 Q331.625,442.3906 331.625,442.7344 Q331.625,443.0781 331.2813,443.4844 Q330.7813,444.0625 329.9844,444.3906 Q328.9063,444.8438 327.6094,444.8438 Q326.0938,444.8438 324.8906,444.2188 Q323.9063,443.7188 323.2188,442.6484 Q322.5313,441.5781 322.5313,440.2969 L322.5313,439.1406 Q322.5313,437.8125 323.1484,436.6641 Q323.7656,435.5156 324.8594,434.8984 Q325.9531,434.2813 327.1875,434.2813 Q327.9219,434.2813 328.5703,434.4453 Q329.2188,434.6094 329.7656,434.9688 Z "/><text fill="#000000" font-family="sans-serif" font-size="14" font-weight="bold" lengthAdjust="spacingAndGlyphs" textLength="84" x="361.5" y="438.5332">Either&lt;T, U&gt;</text><text fill="#000000" font-family="sans-serif" font-size="10" lengthAdjust="spacingAndGlyphs" textLength="125" x="341" y="451.9902">eapli.framework.functional</text></a><!--MD5=[a4d8c85934e7c2286da27481ca2471bd]
class java.lang.RuntimeException--><rect fill="#D3D3D3" filter="url(#f1iu025v3o9jvg)" height="40.1875" id="java.lang.RuntimeException" style="stroke: #A80036; stroke-width: 1.5;" width="160" x="504.5" y="419"/><rect fill="#D3D3D3" height="40.1875" style="stroke: #A80036; stroke-width: 1.5;" width="160" x="504.5" y="419"/><ellipse cx="519.5" cy="439.0938" fill="#ADD1B2" rx="11" ry="11" style="stroke: #A80036; stroke-width: 1.0;"/><path d="M522.2656,434.9688 Q522.4219,434.75 522.6094,434.6406 Q522.7969,434.5313 523.0156,434.5313 Q523.3906,434.5313 523.625,434.7891 Q523.8594,435.0469 523.8594,435.6563 L523.8594,437.1094 Q523.8594,437.7188 523.625,437.9844 Q523.3906,438.25 523.0156,438.25 Q522.6719,438.25 522.4688,438.0469 Q522.2656,437.8594 522.1563,437.3438 Q522.1094,436.9844 521.9219,436.7969 Q521.5938,436.4219 520.9844,436.2031 Q520.375,435.9844 519.75,435.9844 Q518.9844,435.9844 518.3516,436.3125 Q517.7188,436.6406 517.2266,437.3906 Q516.7344,438.1406 516.7344,439.1719 L516.7344,440.2656 Q516.7344,441.5 517.625,442.3203 Q518.5156,443.1406 520.1094,443.1406 Q521.0469,443.1406 521.7031,442.8906 Q522.0938,442.7344 522.5156,442.2969 Q522.7813,442.0313 522.9297,441.9531 Q523.0781,441.875 523.2813,441.875 Q523.6094,441.875 523.8672,442.1328 Q524.125,442.3906 524.125,442.7344 Q524.125,443.0781 523.7813,443.4844 Q523.2813,444.0625 522.4844,444.3906 Q521.4063,444.8438 520.1094,444.8438 Q518.5938,444.8438 517.3906,444.2188 Q516.4063,443.7188 515.7188,442.6484 Q515.0313,441.5781 515.0313,440.2969 L515.0313,439.1406 Q515.0313,437.8125 515.6484,436.6641 Q516.2656,435.5156 517.3594,434.8984 Q518.4531,434.2813 519.6875,434.2813 Q520.4219,434.2813 521.0703,434.4453 Q521.7188,434.6094 522.2656,434.9688 Z "/><text fill="#000000" font-family="sans-serif" font-size="14" font-weight="bold" lengthAdjust="spacingAndGlyphs" textLength="128" x="533.5" y="438.5332">RuntimeException</text><text fill="#000000" font-family="sans-serif" font-size="10" lengthAdjust="spacingAndGlyphs" textLength="44" x="575.5" y="451.9902">java.lang</text><!--MD5=[feba8aa4a95bcf184aa0123859df1eaf]
link eapli.framework.functional.Either to eapli.framework.functional.Either--><path d="M390.5,25.691 C390.5,14.759 390.5,8 390.5,8 C390.5,8 167.75,8 167.75,8 C167.75,8 167.75,389 167.75,389 C167.75,389 189.833,389 189.833,389 C189.833,389 189.833,364.1559 189.833,364.1559 " fill="none" id="eapli.framework.functional.Either-&gt;eapli.framework.functional.Either" style="stroke: #A80036; stroke-width: 1.0;"/><polygon fill="#A80036" points="189.833,359.1559,185.833,368.1559,189.833,364.1559,193.833,368.1559,189.833,359.1559" style="stroke: #A80036; stroke-width: 1.0;"/><text fill="#000000" font-family="sans-serif" font-size="13" lengthAdjust="spacingAndGlyphs" textLength="45" x="134.7207" y="380.5752">EMPTY</text><!--MD5=[e7d5aaef04de886caa2076e0c9d2b1c8]
link eapli.framework.functional.Either to eapli.framework.functional.Either.SideType--><path d="M181.167,359.3089 C181.167,403.4274 181.167,439 181.167,439 C181.167,439 168.437,439 168.437,439 " fill="none" id="eapli.framework.functional.Either-&gt;eapli.framework.functional.Either.SideType" style="stroke: #A80036; stroke-width: 1.0;"/><polygon fill="#A80036" points="163.437,439,172.437,443,168.437,439,172.437,435,163.437,439" style="stroke: #A80036; stroke-width: 1.0;"/><text fill="#000000" font-family="sans-serif" font-size="13" lengthAdjust="spacingAndGlyphs" textLength="25" x="165.4413" y="434.9553">type</text><!--MD5=[fabb06e393edf36a1592dedf289bbc9c]
link eapli.framework.functional.Either to java.lang.Object--><path d="M250.5,359.3089 C250.5,359.3089 250.5,413.9731 250.5,413.9731 " fill="none" id="eapli.framework.functional.Either-&gt;java.lang.Object" style="stroke: #A80036; stroke-width: 1.0;"/><polygon fill="#A80036" points="250.5,418.9731,254.5,409.9731,250.5,413.9731,246.5,409.9731,250.5,418.9731" style="stroke: #A80036; stroke-width: 1.0;"/><text fill="#000000" font-family="sans-serif" font-size="13" lengthAdjust="spacingAndGlyphs" textLength="17" x="234.8219" y="408.2594">left</text><!--MD5=[fabb06e393edf36a1592dedf289bbc9c]
link eapli.framework.functional.Either to java.lang.Object--><path d="M224.5,359.3089 C224.5,359.3089 224.5,413.9731 224.5,413.9731 " fill="none" id="eapli.framework.functional.Either-&gt;java.lang.Object-1" style="stroke: #A80036; stroke-width: 1.0;"/><polygon fill="#A80036" points="224.5,418.9731,228.5,409.9731,224.5,413.9731,220.5,409.9731,224.5,418.9731" style="stroke: #A80036; stroke-width: 1.0;"/><text fill="#000000" font-family="sans-serif" font-size="13" lengthAdjust="spacingAndGlyphs" textLength="25" x="192.0094" y="408.2594">right</text><!--MD5=[950b742f5b40d9af76cab0db36d4582e]
link eapli.framework.functional.Either to eapli.framework.functional.EitherObjectObject--><path d="M390.5,359.3089 C390.5,359.3089 390.5,413.9731 390.5,413.9731 " fill="none" id="eapli.framework.functional.Either-&gt;eapli.framework.functional.EitherObjectObject" style="stroke: #A80036; stroke-width: 1.0; stroke-dasharray: 7.0,7.0;"/><polygon fill="#A80036" points="390.5,418.9731,394.5,409.9731,390.5,413.9731,386.5,409.9731,390.5,418.9731" style="stroke: #A80036; stroke-width: 1.0;"/><!--MD5=[950b742f5b40d9af76cab0db36d4582e]
link eapli.framework.functional.Either to eapli.framework.functional.EitherObjectObject--><path d="M351.25,359.3089 C351.25,359.3089 351.25,413.9731 351.25,413.9731 " fill="none" id="eapli.framework.functional.Either-&gt;eapli.framework.functional.EitherObjectObject-1" style="stroke: #A80036; stroke-width: 1.0; stroke-dasharray: 7.0,7.0;"/><polygon fill="#A80036" points="351.25,418.9731,355.25,409.9731,351.25,413.9731,347.25,409.9731,351.25,418.9731" style="stroke: #A80036; stroke-width: 1.0;"/><!--MD5=[950b742f5b40d9af76cab0db36d4582e]
link eapli.framework.functional.Either to eapli.framework.functional.EitherObjectObject--><path d="M429.75,359.3089 C429.75,359.3089 429.75,413.9731 429.75,413.9731 " fill="none" id="eapli.framework.functional.Either-&gt;eapli.framework.functional.EitherObjectObject-2" style="stroke: #A80036; stroke-width: 1.0; stroke-dasharray: 7.0,7.0;"/><polygon fill="#A80036" points="429.75,418.9731,433.75,409.9731,429.75,413.9731,425.75,409.9731,429.75,418.9731" style="stroke: #A80036; stroke-width: 1.0;"/><!--MD5=[cc862601c96cf41c3a5aa8e7294aae44]
link eapli.framework.functional.Either to java.lang.RuntimeException--><path d="M556.5,359.3089 C556.5,359.3089 556.5,413.9731 556.5,413.9731 " fill="none" id="eapli.framework.functional.Either-&gt;java.lang.RuntimeException" style="stroke: #A80036; stroke-width: 1.0; stroke-dasharray: 7.0,7.0;"/><polygon fill="#A80036" points="556.5,418.9731,560.5,409.9731,556.5,413.9731,552.5,409.9731,556.5,418.9731" style="stroke: #A80036; stroke-width: 1.0;"/><!--MD5=[1e283bf74ba63489efe345d9b9f70e4e]
@startuml

skinparam svgLinkTarget _parent
skinparam linetype ortho
set namespaceSeparator none
class "<b><size:14>Either</b>\n<size:10>eapli.framework.functional" as eapli.framework.functional.Either  [[../../../eapli/framework/functional/Either.html{eapli.framework.functional.Either}]] {
{static} -Either EMPTY
-Either.SideType type
-Object left
-Object right
-Either(Object left,boolean marker)
-Either(Object right)
-Either()
{static} +Either<T, U> left(Object left)
{static} +Either<T, U> right(Object right)
+Either<T, U> map(Function<?, ?> leftMapper,Function<?, ?> rightMapper)
+Either<L, R> filter(Predicate<?> leftPredicate,Predicate<?> rightPredicate)
+Object fold(BiFunction<T, ?, ?> leftAccum,BiFunction<T, ?, ?> rightAccum,Object def)
+void consume(Consumer<?> leftConsumer,Consumer<?> rightConsumer)
+Object leftValueOrElseThrow(Supplier<?> exceptionBuilder)
+Object leftValueOrElse(Object def)
+Object rightValueOrElseThrow(Supplier<?> exceptionBuilder)
+Object rightValueOrElse(Object def)
+Either<R, L> swap()
{static} ~Either<T, U> empty()
~boolean isEmpty()
}


eapli.framework.functional.Either - ->  "EMPTY" eapli.framework.functional.Either

enum "<b><size:14>Either.SideType</b>\n<size:10>eapli.framework.functional" as eapli.framework.functional.Either.SideType  [[../../../eapli/framework/functional/Either.SideType.html{eapli.framework.functional.Either.SideType}]] {
}

hide eapli.framework.functional.Either.SideType fields
hide eapli.framework.functional.Either.SideType methods

eapli.framework.functional.Either - ->  "type" eapli.framework.functional.Either.SideType

class "<b><size:14>Object</b>\n<size:10>java.lang" as java.lang.Object  #lightgrey {
}

hide java.lang.Object fields
hide java.lang.Object methods

eapli.framework.functional.Either - ->  "left" java.lang.Object

eapli.framework.functional.Either - ->  "right" java.lang.Object

class "<b><size:14>Either<T, U></b>\n<size:10>eapli.framework.functional" as eapli.framework.functional.EitherObjectObject  [[../../../eapli/framework/functional/Either.html{eapli.framework.functional.Either}]] {
}

hide eapli.framework.functional.EitherObjectObject fields
hide eapli.framework.functional.EitherObjectObject methods

eapli.framework.functional.Either ..> eapli.framework.functional.EitherObjectObject




class "<b><size:14>Either<L, R></b>\n<size:10>eapli.framework.functional" as eapli.framework.functional.EitherObjectObject  [[../../../eapli/framework/functional/Either.html{eapli.framework.functional.Either}]] {
}

hide eapli.framework.functional.EitherObjectObject fields
hide eapli.framework.functional.EitherObjectObject methods

eapli.framework.functional.Either ..> eapli.framework.functional.EitherObjectObject




class "<b><size:14>RuntimeException</b>\n<size:10>java.lang" as java.lang.RuntimeException  #lightgrey {
}

hide java.lang.RuntimeException fields
hide java.lang.RuntimeException methods

eapli.framework.functional.Either ..> java.lang.RuntimeException

class "<b><size:14>Either<R, L></b>\n<size:10>eapli.framework.functional" as eapli.framework.functional.EitherObjectObject  [[../../../eapli/framework/functional/Either.html{eapli.framework.functional.Either}]] {
}

hide eapli.framework.functional.EitherObjectObject fields
hide eapli.framework.functional.EitherObjectObject methods

eapli.framework.functional.Either ..> eapli.framework.functional.EitherObjectObject


@enduml

PlantUML version 1.2020.04(Thu Mar 19 10:16:49 GMT 2020)
(GPL source distribution)
Java Runtime: Java(TM) SE Runtime Environment
JVM: Java HotSpot(TM) 64-Bit Server VM
Java Version: 1.8.0_202-b08
Operating System: Windows 10
Default Encoding: Cp1252
Language: en
Country: US
--></g></svg>