<?xml version="1.0" encoding="UTF-8" standalone="no"?><svg xmlns="http://www.w3.org/2000/svg" xmlns:xlink="http://www.w3.org/1999/xlink" contentScriptType="application/ecmascript" contentStyleType="text/css" height="216px" preserveAspectRatio="none" style="width:224px;height:216px;" version="1.1" viewBox="0 0 224 216" width="224px" zoomAndPan="magnify"><defs><filter height="300%" id="f1g714rf1kwb2c" width="300%" x="-1" y="-1"><feGaussianBlur result="blurOut" stdDeviation="2.0"/><feColorMatrix in="blurOut" result="blurOut2" type="matrix" values="0 0 0 0 0 0 0 0 0 0 0 0 0 0 0 0 0 0 .4 0"/><feOffset dx="4.0" dy="4.0" in="blurOut2" result="blurOut3"/><feBlend in="SourceGraphic" in2="blurOut3" mode="normal"/></filter></defs><g><!--MD5=[5c49928894124d575264c70f51270de1]
class eapli.framework.functional.Either.SideType--><a href="../../../eapli/framework/functional/Either.SideType.html" target="_parent" title="eapli.framework.functional.Either.SideType" xlink:actuate="onRequest" xlink:href="../../../eapli/framework/functional/Either.SideType.html" xlink:show="new" xlink:title="eapli.framework.functional.Either.SideType" xlink:type="simple"><rect fill="#FEFECE" filter="url(#f1g714rf1kwb2c)" height="97.6953" id="eapli.framework.functional.Either.SideType" style="stroke: #A80036; stroke-width: 1.5;" width="207" x="6" y="108"/><ellipse cx="43.5" cy="128.0938" fill="#EB937F" rx="11" ry="11" style="stroke: #A80036; stroke-width: 1.0;"/><path d="M42.3594,128.8906 L42.3594,131.3906 L46.6875,131.3906 L46.6875,130.4688 Q46.6875,129.8594 46.9297,129.5938 Q47.1719,129.3281 47.5469,129.3281 Q47.9219,129.3281 48.1563,129.5938 Q48.3906,129.8594 48.3906,130.4688 L48.3906,133.0938 L40.3906,133.0938 Q39.7656,133.0938 39.5078,132.8594 Q39.25,132.625 39.25,132.2344 Q39.25,131.8594 39.5156,131.625 Q39.7813,131.3906 40.3906,131.3906 L40.6563,131.3906 L40.6563,124.7344 L40.3906,124.7344 Q39.7656,124.7344 39.5078,124.5 Q39.25,124.2656 39.25,123.875 Q39.25,123.5 39.5078,123.2656 Q39.7656,123.0313 40.3906,123.0313 L48.0156,123.0313 L48.0156,125.625 Q48.0156,126.2344 47.7891,126.4922 Q47.5625,126.75 47.1719,126.75 Q46.7969,126.75 46.5625,126.4922 Q46.3281,126.2344 46.3281,125.625 L46.3281,124.7344 L42.3594,124.7344 L42.3594,127.1875 L43.8438,127.1875 Q43.8438,126.5313 43.9688,126.3438 Q44.2344,125.9375 44.7031,125.9375 Q45.0781,125.9375 45.3125,126.1953 Q45.5469,126.4531 45.5469,127.0625 L45.5469,129.0313 Q45.5469,129.5781 45.4219,129.7656 Q45.1563,130.1563 44.7031,130.1563 Q44.2344,130.1563 43.9688,129.75 Q43.8438,129.5625 43.8438,128.8906 L42.3594,128.8906 Z "/><text fill="#000000" font-family="sans-serif" font-size="14" font-weight="bold" lengthAdjust="spacingAndGlyphs" textLength="110" x="70" y="127.5332">Either.SideType</text><text fill="#000000" font-family="sans-serif" font-size="10" lengthAdjust="spacingAndGlyphs" textLength="125" x="62.5" y="140.9902">eapli.framework.functional</text><line style="stroke: #A80036; stroke-width: 1.5;" x1="7" x2="212" y1="148.1875" y2="148.1875"/><line style="stroke: #A80036; stroke-width: 1.5;" x1="7" x2="212" y1="156.1875" y2="156.1875"/><rect fill="#F24D5C" height="6" style="stroke: #C82930; stroke-width: 1.0;" width="6" x="14" y="164.1875"/><text fill="#000000" font-family="sans-serif" font-size="11" lengthAdjust="spacingAndGlyphs" textLength="53" x="26" y="171.6064">SideType()</text><ellipse cx="17" cy="181.0234" fill="#84BE84" rx="3" ry="3" style="stroke: #038048; stroke-width: 1.0;"/><text fill="#000000" font-family="sans-serif" font-size="11" lengthAdjust="spacingAndGlyphs" text-decoration="underline" textLength="118" x="26" y="185.4424">Either.SideType values()</text><ellipse cx="17" cy="194.8594" fill="#84BE84" rx="3" ry="3" style="stroke: #038048; stroke-width: 1.0;"/><text fill="#000000" font-family="sans-serif" font-size="11" lengthAdjust="spacingAndGlyphs" text-decoration="underline" textLength="181" x="26" y="199.2783">Either.SideType valueOf(String name)</text></a><!--MD5=[fb3045a7f11c45dc7250f8e8f3954a5f]
class eapli.framework.functional.Either--><a href="../../../eapli/framework/functional/Either.html" target="_parent" title="eapli.framework.functional.Either" xlink:actuate="onRequest" xlink:href="../../../eapli/framework/functional/Either.html" xlink:show="new" xlink:title="eapli.framework.functional.Either" xlink:type="simple"><rect fill="#FEFECE" filter="url(#f1g714rf1kwb2c)" height="40.1875" id="eapli.framework.functional.Either" style="stroke: #A80036; stroke-width: 1.5;" width="157" x="31" y="8"/><ellipse cx="46" cy="28.0938" fill="#ADD1B2" rx="11" ry="11" style="stroke: #A80036; stroke-width: 1.0;"/><path d="M48.7656,23.9688 Q48.9219,23.75 49.1094,23.6406 Q49.2969,23.5313 49.5156,23.5313 Q49.8906,23.5313 50.125,23.7891 Q50.3594,24.0469 50.3594,24.6563 L50.3594,26.1094 Q50.3594,26.7188 50.125,26.9844 Q49.8906,27.25 49.5156,27.25 Q49.1719,27.25 48.9688,27.0469 Q48.7656,26.8594 48.6563,26.3438 Q48.6094,25.9844 48.4219,25.7969 Q48.0938,25.4219 47.4844,25.2031 Q46.875,24.9844 46.25,24.9844 Q45.4844,24.9844 44.8516,25.3125 Q44.2188,25.6406 43.7266,26.3906 Q43.2344,27.1406 43.2344,28.1719 L43.2344,29.2656 Q43.2344,30.5 44.125,31.3203 Q45.0156,32.1406 46.6094,32.1406 Q47.5469,32.1406 48.2031,31.8906 Q48.5938,31.7344 49.0156,31.2969 Q49.2813,31.0313 49.4297,30.9531 Q49.5781,30.875 49.7813,30.875 Q50.1094,30.875 50.3672,31.1328 Q50.625,31.3906 50.625,31.7344 Q50.625,32.0781 50.2813,32.4844 Q49.7813,33.0625 48.9844,33.3906 Q47.9063,33.8438 46.6094,33.8438 Q45.0938,33.8438 43.8906,33.2188 Q42.9063,32.7188 42.2188,31.6484 Q41.5313,30.5781 41.5313,29.2969 L41.5313,28.1406 Q41.5313,26.8125 42.1484,25.6641 Q42.7656,24.5156 43.8594,23.8984 Q44.9531,23.2813 46.1875,23.2813 Q46.9219,23.2813 47.5703,23.4453 Q48.2188,23.6094 48.7656,23.9688 Z "/><text fill="#000000" font-family="sans-serif" font-size="14" font-weight="bold" lengthAdjust="spacingAndGlyphs" textLength="42" x="101.5" y="27.5332">Either</text><text fill="#000000" font-family="sans-serif" font-size="10" lengthAdjust="spacingAndGlyphs" textLength="125" x="60" y="40.9902">eapli.framework.functional</text></a><!--MD5=[e7d5aaef04de886caa2076e0c9d2b1c8]
link eapli.framework.functional.Either to eapli.framework.functional.Either.SideType--><path d="M109.5,48.156 C109.5,48.156 109.5,102.771 109.5,102.771 " fill="none" id="eapli.framework.functional.Either-&gt;eapli.framework.functional.Either.SideType" style="stroke: #A80036; stroke-width: 1.0;"/><polygon fill="#A80036" points="109.5,107.7706,113.5,98.7706,109.5,102.7706,105.5,98.7706,109.5,107.7706" style="stroke: #A80036; stroke-width: 1.0;"/><text fill="#000000" font-family="sans-serif" font-size="13" lengthAdjust="spacingAndGlyphs" textLength="25" x="82.7422" y="97.2644">type</text><!--MD5=[e89aea1d88f57e2101ae973bdf596d44]
@startuml

skinparam svgLinkTarget _parent
skinparam linetype ortho
set namespaceSeparator none
enum "<b><size:14>Either.SideType</b>\n<size:10>eapli.framework.functional" as eapli.framework.functional.Either.SideType  [[../../../eapli/framework/functional/Either.SideType.html{eapli.framework.functional.Either.SideType}]] {
-SideType()
{static} +Either.SideType values()
{static} +Either.SideType valueOf(String name)
}


class "<b><size:14>Either</b>\n<size:10>eapli.framework.functional" as eapli.framework.functional.Either  [[../../../eapli/framework/functional/Either.html{eapli.framework.functional.Either}]] {
}

hide eapli.framework.functional.Either fields
hide eapli.framework.functional.Either methods

eapli.framework.functional.Either - ->  "type" eapli.framework.functional.Either.SideType


@enduml

PlantUML version 1.2020.04(Thu Mar 19 10:16:49 GMT 2020)
(GPL source distribution)
Java Runtime: Java(TM) SE Runtime Environment
JVM: Java HotSpot(TM) 64-Bit Server VM
Java Version: 1.8.0_202-b08
Operating System: Windows 10
Default Encoding: Cp1252
Language: en
Country: US
--></g></svg>