<?xml version="1.0" encoding="UTF-8" standalone="no"?><svg xmlns="http://www.w3.org/2000/svg" xmlns:xlink="http://www.w3.org/1999/xlink" contentScriptType="application/ecmascript" contentStyleType="text/css" height="488px" preserveAspectRatio="none" style="width:611px;height:488px;" version="1.1" viewBox="0 0 611 488" width="611px" zoomAndPan="magnify"><defs><filter height="300%" id="f18a4ku5qmn1w4" width="300%" x="-1" y="-1"><feGaussianBlur result="blurOut" stdDeviation="2.0"/><feColorMatrix in="blurOut" result="blurOut2" type="matrix" values="0 0 0 0 0 0 0 0 0 0 0 0 0 0 0 0 0 0 .4 0"/><feOffset dx="4.0" dy="4.0" in="blurOut2" result="blurOut3"/><feBlend in="SourceGraphic" in2="blurOut3" mode="normal"/></filter></defs><g><!--class DomainEvent--><a target="_top" xlink:actuate="onRequest" xlink:href="java:eapli.framework.domain.events.DomainEvent" xlink:show="new" xlink:title="java:eapli.framework.domain.events.DomainEvent" xlink:type="simple"><rect fill="#FEFECE" filter="url(#f18a4ku5qmn1w4)" height="75.6719" id="DomainEvent" style="stroke: #A80036; stroke-width: 1.5;" width="126" x="229" y="116"/><ellipse cx="252.55" cy="132" fill="#B4A7E5" rx="11" ry="11" style="stroke: #A80036; stroke-width: 1.0;"/><path d="M253.5031,128.6406 L253.5031,135.2969 L255.2219,135.2969 Q255.8313,135.2969 256.0969,135.5313 Q256.3625,135.7656 256.3625,136.1563 Q256.3625,136.5313 256.0969,136.7656 Q255.8313,137 255.2219,137 L250.0813,137 Q249.4719,137 249.2063,136.7656 Q248.9406,136.5313 248.9406,136.1406 Q248.9406,135.7656 249.2063,135.5313 Q249.4719,135.2969 250.0813,135.2969 L251.8,135.2969 L251.8,128.6406 L250.0813,128.6406 Q249.4719,128.6406 249.2063,128.4063 Q248.9406,128.1719 248.9406,127.7813 Q248.9406,127.4063 249.2063,127.1719 Q249.4719,126.9375 250.0813,126.9375 L255.2219,126.9375 Q255.8313,126.9375 256.0969,127.1719 Q256.3625,127.4063 256.3625,127.7813 Q256.3625,128.1719 256.0969,128.4063 Q255.8313,128.6406 255.2219,128.6406 L253.5031,128.6406 Z "/><text fill="#000000" font-family="sans-serif" font-size="12" font-style="italic" lengthAdjust="spacingAndGlyphs" textLength="75" x="268.45" y="136.9102">DomainEvent</text><line style="stroke: #A80036; stroke-width: 1.5;" x1="230" x2="354" y1="148" y2="148"/><line style="stroke: #A80036; stroke-width: 1.5;" x1="230" x2="354" y1="156" y2="156"/><text fill="#000000" font-family="sans-serif" font-size="11" lengthAdjust="spacingAndGlyphs" textLength="109" x="235" y="171.4189">Calendar occurredAt()</text><text fill="#000000" font-family="sans-serif" font-size="11" lengthAdjust="spacingAndGlyphs" textLength="114" x="235" y="185.2549">Calendar registeredAt()</text></a><!--class ValueObject--><a target="_top" xlink:actuate="onRequest" xlink:href="java:eapli.framework.domain.ValueObject" xlink:show="new" xlink:title="java:eapli.framework.domain.ValueObject" xlink:type="simple"><rect fill="#FEFECE" filter="url(#f18a4ku5qmn1w4)" height="48" id="ValueObject" style="stroke: #A80036; stroke-width: 1.5;" width="100" x="175" y="8"/><ellipse cx="190" cy="24" fill="#B4A7E5" rx="11" ry="11" style="stroke: #A80036; stroke-width: 1.0;"/><path d="M190.9531,20.6406 L190.9531,27.2969 L192.6719,27.2969 Q193.2813,27.2969 193.5469,27.5313 Q193.8125,27.7656 193.8125,28.1563 Q193.8125,28.5313 193.5469,28.7656 Q193.2813,29 192.6719,29 L187.5313,29 Q186.9219,29 186.6563,28.7656 Q186.3906,28.5313 186.3906,28.1406 Q186.3906,27.7656 186.6563,27.5313 Q186.9219,27.2969 187.5313,27.2969 L189.25,27.2969 L189.25,20.6406 L187.5313,20.6406 Q186.9219,20.6406 186.6563,20.4063 Q186.3906,20.1719 186.3906,19.7813 Q186.3906,19.4063 186.6563,19.1719 Q186.9219,18.9375 187.5313,18.9375 L192.6719,18.9375 Q193.2813,18.9375 193.5469,19.1719 Q193.8125,19.4063 193.8125,19.7813 Q193.8125,20.1719 193.5469,20.4063 Q193.2813,20.6406 192.6719,20.6406 L190.9531,20.6406 Z "/><text fill="#000000" font-family="sans-serif" font-size="12" font-style="italic" lengthAdjust="spacingAndGlyphs" textLength="68" x="204" y="28.9102">ValueObject</text><line style="stroke: #A80036; stroke-width: 1.5;" x1="176" x2="274" y1="40" y2="40"/><line style="stroke: #A80036; stroke-width: 1.5;" x1="176" x2="274" y1="48" y2="48"/></a><!--class Serializable--><a target="_top" xlink:actuate="onRequest" xlink:href="java:java.io.Serializable" xlink:show="new" xlink:title="java:java.io.Serializable" xlink:type="simple"><rect fill="#FEFECE" filter="url(#f18a4ku5qmn1w4)" height="48" id="Serializable" style="stroke: #A80036; stroke-width: 1.5;" width="99" x="310.5" y="8"/><ellipse cx="325.5" cy="24" fill="#B4A7E5" rx="11" ry="11" style="stroke: #A80036; stroke-width: 1.0;"/><path d="M326.4531,20.6406 L326.4531,27.2969 L328.1719,27.2969 Q328.7813,27.2969 329.0469,27.5313 Q329.3125,27.7656 329.3125,28.1563 Q329.3125,28.5313 329.0469,28.7656 Q328.7813,29 328.1719,29 L323.0313,29 Q322.4219,29 322.1563,28.7656 Q321.8906,28.5313 321.8906,28.1406 Q321.8906,27.7656 322.1563,27.5313 Q322.4219,27.2969 323.0313,27.2969 L324.75,27.2969 L324.75,20.6406 L323.0313,20.6406 Q322.4219,20.6406 322.1563,20.4063 Q321.8906,20.1719 321.8906,19.7813 Q321.8906,19.4063 322.1563,19.1719 Q322.4219,18.9375 323.0313,18.9375 L328.1719,18.9375 Q328.7813,18.9375 329.0469,19.1719 Q329.3125,19.4063 329.3125,19.7813 Q329.3125,20.1719 329.0469,20.4063 Q328.7813,20.6406 328.1719,20.6406 L326.4531,20.6406 Z "/><text fill="#000000" font-family="sans-serif" font-size="12" font-style="italic" lengthAdjust="spacingAndGlyphs" textLength="67" x="339.5" y="28.9102">Serializable</text><line style="stroke: #A80036; stroke-width: 1.5;" x1="311.5" x2="408.5" y1="40" y2="40"/><line style="stroke: #A80036; stroke-width: 1.5;" x1="311.5" x2="408.5" y1="48" y2="48"/></a><!--class EventDispatcher--><a target="_top" xlink:actuate="onRequest" xlink:href="java:eapli.framework.infrastructure.eventpubsub.EventDispatcher" xlink:show="new" xlink:title="java:eapli.framework.infrastructure.eventpubsub.EventDispatcher" xlink:type="simple"><rect fill="#FEFECE" filter="url(#f18a4ku5qmn1w4)" height="103.3438" id="EventDispatcher" style="stroke: #A80036; stroke-width: 1.5;" width="414" x="6" y="374"/><ellipse cx="163.75" cy="390" fill="#B4A7E5" rx="11" ry="11" style="stroke: #A80036; stroke-width: 1.0;"/><path d="M164.7031,386.6406 L164.7031,393.2969 L166.4219,393.2969 Q167.0313,393.2969 167.2969,393.5313 Q167.5625,393.7656 167.5625,394.1563 Q167.5625,394.5313 167.2969,394.7656 Q167.0313,395 166.4219,395 L161.2813,395 Q160.6719,395 160.4063,394.7656 Q160.1406,394.5313 160.1406,394.1406 Q160.1406,393.7656 160.4063,393.5313 Q160.6719,393.2969 161.2813,393.2969 L163,393.2969 L163,386.6406 L161.2813,386.6406 Q160.6719,386.6406 160.4063,386.4063 Q160.1406,386.1719 160.1406,385.7813 Q160.1406,385.4063 160.4063,385.1719 Q160.6719,384.9375 161.2813,384.9375 L166.4219,384.9375 Q167.0313,384.9375 167.2969,385.1719 Q167.5625,385.4063 167.5625,385.7813 Q167.5625,386.1719 167.2969,386.4063 Q167.0313,386.6406 166.4219,386.6406 L164.7031,386.6406 Z "/><text fill="#000000" font-family="sans-serif" font-size="12" font-style="italic" lengthAdjust="spacingAndGlyphs" textLength="90" x="184.25" y="394.9102">EventDispatcher</text><line style="stroke: #A80036; stroke-width: 1.5;" x1="7" x2="419" y1="406" y2="406"/><line style="stroke: #A80036; stroke-width: 1.5;" x1="7" x2="419" y1="414" y2="414"/><text fill="#000000" font-family="sans-serif" font-size="11" lengthAdjust="spacingAndGlyphs" textLength="390" x="12" y="429.4189">void subscribe(EventHandler observer, Class&lt;? extends DomainEvent&gt;[] events)</text><text fill="#000000" font-family="sans-serif" font-size="11" lengthAdjust="spacingAndGlyphs" textLength="402" x="12" y="443.2549">void unsubscribe(EventHandler observer, Class&lt;? extends DomainEvent&gt;[] events)</text><text fill="#000000" font-family="sans-serif" font-size="11" lengthAdjust="spacingAndGlyphs" textLength="202" x="12" y="457.0908">void unsubscribe(EventHandler observer)</text><text fill="#000000" font-family="sans-serif" font-size="11" lengthAdjust="spacingAndGlyphs" textLength="80" x="12" y="470.9268">void shutdown()</text></a><!--class EventHandler--><a target="_top" xlink:actuate="onRequest" xlink:href="java:eapli.framework.infrastructure.eventpubsub.EventHandler" xlink:show="new" xlink:title="java:eapli.framework.infrastructure.eventpubsub.EventHandler" xlink:type="simple"><rect fill="#FEFECE" filter="url(#f18a4ku5qmn1w4)" height="61.8359" id="EventHandler" style="stroke: #A80036; stroke-width: 1.5;" width="208" x="188" y="252"/><ellipse cx="250.25" cy="268" fill="#B4A7E5" rx="11" ry="11" style="stroke: #A80036; stroke-width: 1.0;"/><path d="M251.2031,264.6406 L251.2031,271.2969 L252.9219,271.2969 Q253.5313,271.2969 253.7969,271.5313 Q254.0625,271.7656 254.0625,272.1563 Q254.0625,272.5313 253.7969,272.7656 Q253.5313,273 252.9219,273 L247.7813,273 Q247.1719,273 246.9063,272.7656 Q246.6406,272.5313 246.6406,272.1406 Q246.6406,271.7656 246.9063,271.5313 Q247.1719,271.2969 247.7813,271.2969 L249.5,271.2969 L249.5,264.6406 L247.7813,264.6406 Q247.1719,264.6406 246.9063,264.4063 Q246.6406,264.1719 246.6406,263.7813 Q246.6406,263.4063 246.9063,263.1719 Q247.1719,262.9375 247.7813,262.9375 L252.9219,262.9375 Q253.5313,262.9375 253.7969,263.1719 Q254.0625,263.4063 254.0625,263.7813 Q254.0625,264.1719 253.7969,264.4063 Q253.5313,264.6406 252.9219,264.6406 L251.2031,264.6406 Z "/><text fill="#000000" font-family="sans-serif" font-size="12" font-style="italic" lengthAdjust="spacingAndGlyphs" textLength="75" x="270.75" y="272.9102">EventHandler</text><line style="stroke: #A80036; stroke-width: 1.5;" x1="189" x2="395" y1="284" y2="284"/><line style="stroke: #A80036; stroke-width: 1.5;" x1="189" x2="395" y1="292" y2="292"/><text fill="#000000" font-family="sans-serif" font-size="11" lengthAdjust="spacingAndGlyphs" textLength="196" x="194" y="307.4189">void onEvent(DomainEvent domainEvent)</text></a><!--class EventPublisher--><a target="_top" xlink:actuate="onRequest" xlink:href="java:eapli.framework.infrastructure.eventpubsub.EventPublisher" xlink:show="new" xlink:title="java:eapli.framework.infrastructure.eventpubsub.EventPublisher" xlink:type="simple"><rect fill="#FEFECE" filter="url(#f18a4ku5qmn1w4)" height="61.8359" id="EventPublisher" style="stroke: #A80036; stroke-width: 1.5;" width="169" x="431.5" y="252"/><ellipse cx="470.35" cy="268" fill="#B4A7E5" rx="11" ry="11" style="stroke: #A80036; stroke-width: 1.0;"/><path d="M471.3031,264.6406 L471.3031,271.2969 L473.0219,271.2969 Q473.6313,271.2969 473.8969,271.5313 Q474.1625,271.7656 474.1625,272.1563 Q474.1625,272.5313 473.8969,272.7656 Q473.6313,273 473.0219,273 L467.8813,273 Q467.2719,273 467.0063,272.7656 Q466.7406,272.5313 466.7406,272.1406 Q466.7406,271.7656 467.0063,271.5313 Q467.2719,271.2969 467.8813,271.2969 L469.6,271.2969 L469.6,264.6406 L467.8813,264.6406 Q467.2719,264.6406 467.0063,264.4063 Q466.7406,264.1719 466.7406,263.7813 Q466.7406,263.4063 467.0063,263.1719 Q467.2719,262.9375 467.8813,262.9375 L473.0219,262.9375 Q473.6313,262.9375 473.8969,263.1719 Q474.1625,263.4063 474.1625,263.7813 Q474.1625,264.1719 473.8969,264.4063 Q473.6313,264.6406 473.0219,264.6406 L471.3031,264.6406 Z "/><text fill="#000000" font-family="sans-serif" font-size="12" font-style="italic" lengthAdjust="spacingAndGlyphs" textLength="84" x="489.65" y="272.9102">EventPublisher</text><line style="stroke: #A80036; stroke-width: 1.5;" x1="432.5" x2="599.5" y1="284" y2="284"/><line style="stroke: #A80036; stroke-width: 1.5;" x1="432.5" x2="599.5" y1="292" y2="292"/><text fill="#000000" font-family="sans-serif" font-size="11" lengthAdjust="spacingAndGlyphs" textLength="157" x="437.5" y="307.4189">void publish(DomainEvent event)</text></a><!--link ValueObject to DomainEvent--><path d="M247.888,73.994 C255.451,87.538 263.818,102.524 271.214,115.771 " fill="none" id="ValueObject-DomainEvent" style="stroke: #A80036; stroke-width: 1.0;"/><polygon fill="none" points="241.556,77.012,237.918,56.137,253.78,70.187,241.556,77.012" style="stroke: #A80036; stroke-width: 1.0;"/><!--link Serializable to DomainEvent--><path d="M336.77,73.994 C329.095,87.538 320.603,102.524 313.096,115.771 " fill="none" id="Serializable-DomainEvent" style="stroke: #A80036; stroke-width: 1.0;"/><polygon fill="none" points="330.938,70.087,346.889,56.137,343.119,76.989,330.938,70.087" style="stroke: #A80036; stroke-width: 1.0;"/><!--link DomainEvent to EventPublisher--><path d="M359.717,193.393 C392.864,212.186 432.178,234.476 463.083,251.998 " fill="none" id="DomainEvent-EventPublisher" style="stroke: #A80036; stroke-width: 1.0; stroke-dasharray: 7.0,7.0;"/><polygon fill="#A80036" points="355.291,190.884,361.147,198.8028,359.6405,193.3502,365.093,191.8436,355.291,190.884" style="stroke: #A80036; stroke-width: 1.0;"/><!--link DomainEvent to EventDispatcher--><path d="M224.604,191.865 C203.079,207.371 181.795,227.553 170,252 C151.29,290.778 165.74,338.516 182.766,373.935 " fill="none" id="DomainEvent-EventDispatcher" style="stroke: #A80036; stroke-width: 1.0; stroke-dasharray: 7.0,7.0;"/><polygon fill="#A80036" points="228.909,188.827,219.2492,190.7474,224.8236,191.7096,223.8614,197.2841,228.909,188.827" style="stroke: #A80036; stroke-width: 1.0;"/><!--link DomainEvent to EventHandler--><path d="M292,197.523 C292,215.359 292,235.683 292,251.925 " fill="none" id="DomainEvent-EventHandler" style="stroke: #A80036; stroke-width: 1.0; stroke-dasharray: 7.0,7.0;"/><polygon fill="#A80036" points="292,192.075,288,201.075,292,197.075,296,201.075,292,192.075" style="stroke: #A80036; stroke-width: 1.0;"/><!--link EventHandler to EventDispatcher--><path d="M272.469,318.736 C263.108,335.384 251.717,355.642 241.42,373.956 " fill="none" id="EventHandler-EventDispatcher" style="stroke: #A80036; stroke-width: 1.0; stroke-dasharray: 7.0,7.0;"/><polygon fill="#A80036" points="275.053,314.141,267.1546,320.0245,272.6019,318.499,274.1274,323.9463,275.053,314.141" style="stroke: #A80036; stroke-width: 1.0;"/><!--
@startuml
interface DomainEvent [[java:eapli.framework.domain.events.DomainEvent]] {
           Calendar occurredAt()
           Calendar registeredAt()
           }

           interface ValueObject [[java:eapli.framework.domain.ValueObject]] {
           }

           ValueObject <|- - DomainEvent

           interface Serializable [[java:java.io.Serializable]] {
           }

           Serializable <|- - DomainEvent

           interface EventDispatcher [[java:eapli.framework.infrastructure.eventpubsub.EventDispatcher]] {
           void subscribe(EventHandler observer, Class<? extends DomainEvent>[] events)
           void unsubscribe(EventHandler observer, Class<? extends DomainEvent>[] events)
           void unsubscribe(EventHandler observer)
           void shutdown()
           }

           interface EventHandler [[java:eapli.framework.infrastructure.eventpubsub.EventHandler]] {
           void onEvent(DomainEvent domainEvent)
           }

           interface EventPublisher [[java:eapli.framework.infrastructure.eventpubsub.EventPublisher]] {
           void publish(DomainEvent event)
           }

           DomainEvent <.. EventPublisher
           DomainEvent <.. EventDispatcher
           DomainEvent <.. EventHandler
           EventHandler <.. EventDispatcher
@enduml

PlantUML version 1.2017.18(Fri Oct 06 17:56:32 BST 2017)
(GPL source distribution)
Java Runtime: Java(TM) SE Runtime Environment
JVM: Java HotSpot(TM) 64-Bit Server VM
Java Version: 1.8.0_202-b08
Operating System: Windows 10
OS Version: 10.0
Default Encoding: Cp1252
Language: en
Country: US
--></g></svg>