<?xml version="1.0" encoding="UTF-8" standalone="no"?><svg xmlns="http://www.w3.org/2000/svg" xmlns:xlink="http://www.w3.org/1999/xlink" contentScriptType="application/ecmascript" contentStyleType="text/css" height="319px" preserveAspectRatio="none" style="width:217px;height:319px;" version="1.1" viewBox="0 0 217 319" width="217px" zoomAndPan="magnify"><defs><filter height="300%" id="f330obltgznod" width="300%" x="-1" y="-1"><feGaussianBlur result="blurOut" stdDeviation="2.0"/><feColorMatrix in="blurOut" result="blurOut2" type="matrix" values="0 0 0 0 0 0 0 0 0 0 0 0 0 0 0 0 0 0 .4 0"/><feOffset dx="4.0" dy="4.0" in="blurOut2" result="blurOut3"/><feBlend in="SourceGraphic" in2="blurOut3" mode="normal"/></filter></defs><g><!--MD5=[86db8baadac9180102aef230ed0bda53]
class eapli.framework.representations.dto.DTOable--><a href="../../../../eapli/framework/representations/dto/DTOable.html" target="_parent" title="eapli.framework.representations.dto.DTOable" xlink:actuate="onRequest" xlink:href="../../../../eapli/framework/representations/dto/DTOable.html" xlink:show="new" xlink:title="eapli.framework.representations.dto.DTOable" xlink:type="simple"><rect fill="#FEFECE" filter="url(#f330obltgznod)" height="85.1172" id="eapli.framework.representations.dto.DTOable" style="stroke: #A80036; stroke-width: 1.5;" width="200" x="6" y="123"/><ellipse cx="21" cy="150.6406" fill="#B4A7E5" rx="11" ry="11" style="stroke: #A80036; stroke-width: 1.0;"/><path d="M21.9531,147.2813 L21.9531,153.9375 L23.6719,153.9375 Q24.2813,153.9375 24.5469,154.1719 Q24.8125,154.4063 24.8125,154.7969 Q24.8125,155.1719 24.5469,155.4063 Q24.2813,155.6406 23.6719,155.6406 L18.5313,155.6406 Q17.9219,155.6406 17.6563,155.4063 Q17.3906,155.1719 17.3906,154.7813 Q17.3906,154.4063 17.6563,154.1719 Q17.9219,153.9375 18.5313,153.9375 L20.25,153.9375 L20.25,147.2813 L18.5313,147.2813 Q17.9219,147.2813 17.6563,147.0469 Q17.3906,146.8125 17.3906,146.4219 Q17.3906,146.0469 17.6563,145.8125 Q17.9219,145.5781 18.5313,145.5781 L23.6719,145.5781 Q24.2813,145.5781 24.5469,145.8125 Q24.8125,146.0469 24.8125,146.4219 Q24.8125,146.8125 24.5469,147.0469 Q24.2813,147.2813 23.6719,147.2813 L21.9531,147.2813 Z "/><text fill="#000000" font-family="sans-serif" font-size="12" font-style="italic" lengthAdjust="spacingAndGlyphs" textLength="119" x="59.5" y="140.457">«FunctionalInterface»</text><text fill="#000000" font-family="sans-serif" font-size="14" font-style="italic" font-weight="bold" lengthAdjust="spacingAndGlyphs" textLength="59" x="89.5" y="157.627">DTOable</text><text fill="#000000" font-family="sans-serif" font-size="10" font-style="italic" lengthAdjust="spacingAndGlyphs" textLength="168" x="35" y="171.084">eapli.framework.representations.dto</text><line style="stroke: #A80036; stroke-width: 1.5;" x1="7" x2="205" y1="178.2813" y2="178.2813"/><line style="stroke: #A80036; stroke-width: 1.5;" x1="7" x2="205" y1="186.2813" y2="186.2813"/><ellipse cx="17" cy="197.2813" fill="#84BE84" rx="3" ry="3" style="stroke: #038048; stroke-width: 1.0;"/><text fill="#000000" font-family="sans-serif" font-size="11" font-style="italic" lengthAdjust="spacingAndGlyphs" textLength="78" x="26" y="201.7002">Object toDTO()</text></a><!--MD5=[274ad5661286b626a93603d287cbf95a]
class java.lang.Object--><rect fill="#D3D3D3" filter="url(#f330obltgznod)" height="40.1875" id="java.lang.Object" style="stroke: #A80036; stroke-width: 1.5;" width="78" x="67" y="268"/><rect fill="#D3D3D3" height="40.1875" style="stroke: #A80036; stroke-width: 1.5;" width="78" x="67" y="268"/><ellipse cx="82" cy="288.0938" fill="#ADD1B2" rx="11" ry="11" style="stroke: #A80036; stroke-width: 1.0;"/><path d="M84.7656,283.9688 Q84.9219,283.75 85.1094,283.6406 Q85.2969,283.5313 85.5156,283.5313 Q85.8906,283.5313 86.125,283.7891 Q86.3594,284.0469 86.3594,284.6563 L86.3594,286.1094 Q86.3594,286.7188 86.125,286.9844 Q85.8906,287.25 85.5156,287.25 Q85.1719,287.25 84.9688,287.0469 Q84.7656,286.8594 84.6563,286.3438 Q84.6094,285.9844 84.4219,285.7969 Q84.0938,285.4219 83.4844,285.2031 Q82.875,284.9844 82.25,284.9844 Q81.4844,284.9844 80.8516,285.3125 Q80.2188,285.6406 79.7266,286.3906 Q79.2344,287.1406 79.2344,288.1719 L79.2344,289.2656 Q79.2344,290.5 80.125,291.3203 Q81.0156,292.1406 82.6094,292.1406 Q83.5469,292.1406 84.2031,291.8906 Q84.5938,291.7344 85.0156,291.2969 Q85.2813,291.0313 85.4297,290.9531 Q85.5781,290.875 85.7813,290.875 Q86.1094,290.875 86.3672,291.1328 Q86.625,291.3906 86.625,291.7344 Q86.625,292.0781 86.2813,292.4844 Q85.7813,293.0625 84.9844,293.3906 Q83.9063,293.8438 82.6094,293.8438 Q81.0938,293.8438 79.8906,293.2188 Q78.9063,292.7188 78.2188,291.6484 Q77.5313,290.5781 77.5313,289.2969 L77.5313,288.1406 Q77.5313,286.8125 78.1484,285.6641 Q78.7656,284.5156 79.8594,283.8984 Q80.9531,283.2813 82.1875,283.2813 Q82.9219,283.2813 83.5703,283.4453 Q84.2188,283.6094 84.7656,283.9688 Z "/><text fill="#000000" font-family="sans-serif" font-size="14" font-weight="bold" lengthAdjust="spacingAndGlyphs" textLength="46" x="96" y="287.5332">Object</text><text fill="#000000" font-family="sans-serif" font-size="10" lengthAdjust="spacingAndGlyphs" textLength="44" x="97" y="300.9902">java.lang</text><!--MD5=[3e11eb65d96fbc42d04237df054df6c3]
class eapli.framework.representations.dto.DTOParser--><a href="../../../../eapli/framework/representations/dto/DTOParser.html" target="_parent" title="eapli.framework.representations.dto.DTOParser" xlink:actuate="onRequest" xlink:href="../../../../eapli/framework/representations/dto/DTOParser.html" xlink:show="new" xlink:title="eapli.framework.representations.dto.DTOParser" xlink:type="simple"><rect fill="#FEFECE" filter="url(#f330obltgznod)" height="55.2813" id="eapli.framework.representations.dto.DTOParser" style="stroke: #A80036; stroke-width: 1.5;" width="200" x="6" y="8"/><ellipse cx="21" cy="35.6406" fill="#B4A7E5" rx="11" ry="11" style="stroke: #A80036; stroke-width: 1.0;"/><path d="M21.9531,32.2813 L21.9531,38.9375 L23.6719,38.9375 Q24.2813,38.9375 24.5469,39.1719 Q24.8125,39.4063 24.8125,39.7969 Q24.8125,40.1719 24.5469,40.4063 Q24.2813,40.6406 23.6719,40.6406 L18.5313,40.6406 Q17.9219,40.6406 17.6563,40.4063 Q17.3906,40.1719 17.3906,39.7813 Q17.3906,39.4063 17.6563,39.1719 Q17.9219,38.9375 18.5313,38.9375 L20.25,38.9375 L20.25,32.2813 L18.5313,32.2813 Q17.9219,32.2813 17.6563,32.0469 Q17.3906,31.8125 17.3906,31.4219 Q17.3906,31.0469 17.6563,30.8125 Q17.9219,30.5781 18.5313,30.5781 L23.6719,30.5781 Q24.2813,30.5781 24.5469,30.8125 Q24.8125,31.0469 24.8125,31.4219 Q24.8125,31.8125 24.5469,32.0469 Q24.2813,32.2813 23.6719,32.2813 L21.9531,32.2813 Z "/><text fill="#000000" font-family="sans-serif" font-size="12" font-style="italic" lengthAdjust="spacingAndGlyphs" textLength="119" x="59.5" y="25.457">«FunctionalInterface»</text><text fill="#000000" font-family="sans-serif" font-size="14" font-style="italic" font-weight="bold" lengthAdjust="spacingAndGlyphs" textLength="74" x="82" y="42.627">DTOParser</text><text fill="#000000" font-family="sans-serif" font-size="10" font-style="italic" lengthAdjust="spacingAndGlyphs" textLength="168" x="35" y="56.084">eapli.framework.representations.dto</text></a><!--MD5=[caa37d60522a2efa59da02672962bc6d]
link eapli.framework.representations.dto.DTOable to java.lang.Object--><path d="M106,208.0008 C106,208.0008 106,262.8906 106,262.8906 " fill="none" id="eapli.framework.representations.dto.DTOable-&gt;java.lang.Object" style="stroke: #A80036; stroke-width: 1.0; stroke-dasharray: 7.0,7.0;"/><polygon fill="#A80036" points="106,267.8906,110,258.8906,106,262.8906,102,258.8906,106,267.8906" style="stroke: #A80036; stroke-width: 1.0;"/><!--MD5=[2f57983b1a6b0009d333ff9f07bd5d2d]
link eapli.framework.representations.dto.DTOParser to eapli.framework.representations.dto.DTOable--><path d="M106,63.07 C106,63.07 106,117.871 106,117.871 " fill="none" id="eapli.framework.representations.dto.DTOParser-&gt;eapli.framework.representations.dto.DTOable" style="stroke: #A80036; stroke-width: 1.0; stroke-dasharray: 7.0,7.0;"/><polygon fill="#A80036" points="106,122.871,110,113.871,106,117.871,102,113.871,106,122.871" style="stroke: #A80036; stroke-width: 1.0;"/><!--MD5=[99a957d10c4de10f108e5b5a6b1f519b]
@startuml

skinparam svgLinkTarget _parent
skinparam linetype ortho
set namespaceSeparator none
interface "<b><size:14>DTOable</b>\n<size:10>eapli.framework.representations.dto" as eapli.framework.representations.dto.DTOable <<FunctionalInterface>> [[../../../../eapli/framework/representations/dto/DTOable.html{eapli.framework.representations.dto.DTOable}]] {
{abstract} +Object toDTO()
}


class "<b><size:14>Object</b>\n<size:10>java.lang" as java.lang.Object  #lightgrey {
}

hide java.lang.Object fields
hide java.lang.Object methods

eapli.framework.representations.dto.DTOable ..> java.lang.Object

interface "<b><size:14>DTOParser</b>\n<size:10>eapli.framework.representations.dto" as eapli.framework.representations.dto.DTOParser <<FunctionalInterface>> [[../../../../eapli/framework/representations/dto/DTOParser.html{eapli.framework.representations.dto.DTOParser}]] {
}

hide eapli.framework.representations.dto.DTOParser fields
hide eapli.framework.representations.dto.DTOParser methods

eapli.framework.representations.dto.DTOParser ..> eapli.framework.representations.dto.DTOable


@enduml

PlantUML version 1.2020.04(Thu Mar 19 10:16:49 GMT 2020)
(GPL source distribution)
Java Runtime: Java(TM) SE Runtime Environment
JVM: Java HotSpot(TM) 64-Bit Server VM
Java Version: 1.8.0_202-b08
Operating System: Windows 10
Default Encoding: Cp1252
Language: en
Country: US
--></g></svg>