@startuml

skinparam svgLinkTarget _parent
skinparam linetype ortho
set namespaceSeparator none
class "<b><size:14>GeneralDTO</b>\n<size:10>eapli.framework.representations.dto" as eapli.framework.representations.dto.GeneralDTO  [[../../../../eapli/framework/representations/dto/GeneralDTO.html{eapli.framework.representations.dto.GeneralDTO}]] {
{static} -Logger LOGGER
-Map<String, Object> data
-String type
+GeneralDTO(String type)
{static} +GeneralDTO of(Object subject)
{static} +Iterable<GeneralDTO> ofMany(Iterable<?> col)
{static} +Object valueOf(GeneralDTO dto)
+String type()
+void clear()
+boolean containsKey(Object arg0)
+boolean containsValue(Object arg0)
+Set<Entry> entrySet()
+Object get(Object arg0)
+boolean isEmpty()
+Set<String> keySet()
+Object put(String arg0,Object arg1)
+void putAll(Map<?, ?> arg0)
+Object remove(Object arg0)
+int size()
+Collection<Object> values()
{static} -void transformFieldToDTO(Object subject,Field aField,GeneralDTO dto)
{static} -void buildDtoForIterable(String name,Iterable<Object> col,GeneralDTO out)
{static} -void buildDtoForArray(Class<?> type,String name,Object array,GeneralDTO out)
{static} -List<Field> getInheritedFields(Class<?> type)
}


class "<b><size:14>GeneralDTORepresentationBuilder</b>\n<size:10>eapli.framework.representations.builders" as eapli.framework.representations.builders.GeneralDTORepresentationBuilder  [[../../../../eapli/framework/representations/builders/GeneralDTORepresentationBuilder.html{eapli.framework.representations.builders.GeneralDTORepresentationBuilder}]] #white {
}

hide eapli.framework.representations.builders.GeneralDTORepresentationBuilder fields
hide eapli.framework.representations.builders.GeneralDTORepresentationBuilder methods

eapli.framework.representations.builders.GeneralDTORepresentationBuilder -->  "dto" eapli.framework.representations.dto.GeneralDTO

interface "<b><size:14>Logger</b>\n<size:10>org.apache.logging.log4j" as org.apache.logging.log4j.Logger  #lightgrey {
}

hide org.apache.logging.log4j.Logger fields
hide org.apache.logging.log4j.Logger methods

eapli.framework.representations.dto.GeneralDTO -->  "LOGGER" org.apache.logging.log4j.Logger


interface "<b><size:14>DTO</b>\n<size:10>eapli.framework.representations.dto" as eapli.framework.representations.dto.DTO  [[../../../../eapli/framework/representations/dto/DTO.html{eapli.framework.representations.dto.DTO}]] {
}

hide eapli.framework.representations.dto.DTO fields
hide eapli.framework.representations.dto.DTO methods

eapli.framework.representations.dto.GeneralDTO ..|> eapli.framework.representations.dto.DTO







class "<b><size:14>String</b>\n<size:10>java.lang" as java.lang.String  #lightgrey {
}

hide java.lang.String fields
hide java.lang.String methods

eapli.framework.representations.dto.GeneralDTO ..> java.lang.String

class "<b><size:14>Object</b>\n<size:10>java.lang" as java.lang.Object  #lightgrey {
}

hide java.lang.Object fields
hide java.lang.Object methods

eapli.framework.representations.dto.GeneralDTO ..> java.lang.Object



@enduml
