<?xml version="1.0" encoding="UTF-8" standalone="no"?><svg xmlns="http://www.w3.org/2000/svg" xmlns:xlink="http://www.w3.org/1999/xlink" contentScriptType="application/ecmascript" contentStyleType="text/css" height="287px" preserveAspectRatio="none" style="width:337px;height:287px;" version="1.1" viewBox="0 0 337 287" width="337px" zoomAndPan="magnify"><defs><filter height="300%" id="f1mk2g2wcwgjnf" width="300%" x="-1" y="-1"><feGaussianBlur result="blurOut" stdDeviation="2.0"/><feColorMatrix in="blurOut" result="blurOut2" type="matrix" values="0 0 0 0 0 0 0 0 0 0 0 0 0 0 0 0 0 0 .4 0"/><feOffset dx="4.0" dy="4.0" in="blurOut2" result="blurOut3"/><feBlend in="SourceGraphic" in2="blurOut3" mode="normal"/></filter></defs><g><!--MD5=[f5c2c9ead141ffb1d2fd613527e065b3]
class eapli.framework.presentation.console.AbstractListUI--><a href="../../../../eapli/framework/presentation/console/AbstractListUI.html" target="_parent" title="eapli.framework.presentation.console.AbstractListUI" xlink:actuate="onRequest" xlink:href="../../../../eapli/framework/presentation/console/AbstractListUI.html" xlink:show="new" xlink:title="eapli.framework.presentation.console.AbstractListUI" xlink:type="simple"><rect fill="#FEFECE" filter="url(#f1mk2g2wcwgjnf)" height="153.0391" id="eapli.framework.presentation.console.AbstractListUI" style="stroke: #A80036; stroke-width: 1.5;" width="207" x="95" y="8"/><ellipse cx="110" cy="28.0938" fill="#ADD1B2" rx="11" ry="11" style="stroke: #A80036; stroke-width: 1.0;"/><path d="M112.7656,23.9688 Q112.9219,23.75 113.1094,23.6406 Q113.2969,23.5313 113.5156,23.5313 Q113.8906,23.5313 114.125,23.7891 Q114.3594,24.0469 114.3594,24.6563 L114.3594,26.1094 Q114.3594,26.7188 114.125,26.9844 Q113.8906,27.25 113.5156,27.25 Q113.1719,27.25 112.9688,27.0469 Q112.7656,26.8594 112.6563,26.3438 Q112.6094,25.9844 112.4219,25.7969 Q112.0938,25.4219 111.4844,25.2031 Q110.875,24.9844 110.25,24.9844 Q109.4844,24.9844 108.8516,25.3125 Q108.2188,25.6406 107.7266,26.3906 Q107.2344,27.1406 107.2344,28.1719 L107.2344,29.2656 Q107.2344,30.5 108.125,31.3203 Q109.0156,32.1406 110.6094,32.1406 Q111.5469,32.1406 112.2031,31.8906 Q112.5938,31.7344 113.0156,31.2969 Q113.2813,31.0313 113.4297,30.9531 Q113.5781,30.875 113.7813,30.875 Q114.1094,30.875 114.3672,31.1328 Q114.625,31.3906 114.625,31.7344 Q114.625,32.0781 114.2813,32.4844 Q113.7813,33.0625 112.9844,33.3906 Q111.9063,33.8438 110.6094,33.8438 Q109.0938,33.8438 107.8906,33.2188 Q106.9063,32.7188 106.2188,31.6484 Q105.5313,30.5781 105.5313,29.2969 L105.5313,28.1406 Q105.5313,26.8125 106.1484,25.6641 Q106.7656,24.5156 107.8594,23.8984 Q108.9531,23.2813 110.1875,23.2813 Q110.9219,23.2813 111.5703,23.4453 Q112.2188,23.6094 112.7656,23.9688 Z "/><text fill="#000000" font-family="sans-serif" font-size="14" font-weight="bold" lengthAdjust="spacingAndGlyphs" textLength="97" x="163" y="27.5332">AbstractListUI</text><text fill="#000000" font-family="sans-serif" font-size="10" lengthAdjust="spacingAndGlyphs" textLength="175" x="124" y="40.9902">eapli.framework.presentation.console</text><line style="stroke: #A80036; stroke-width: 1.5;" x1="96" x2="301" y1="48.1875" y2="48.1875"/><line style="stroke: #A80036; stroke-width: 1.5;" x1="96" x2="301" y1="56.1875" y2="56.1875"/><ellipse cx="106" cy="67.1875" fill="#84BE84" rx="3" ry="3" style="stroke: #038048; stroke-width: 1.0;"/><text fill="#000000" font-family="sans-serif" font-size="11" lengthAdjust="spacingAndGlyphs" textLength="76" x="115" y="71.6064">AbstractListUI()</text><ellipse cx="106" cy="81.0234" fill="#84BE84" rx="3" ry="3" style="stroke: #038048; stroke-width: 1.0;"/><text fill="#000000" font-family="sans-serif" font-size="11" lengthAdjust="spacingAndGlyphs" textLength="79" x="115" y="85.4424">String headline()</text><polygon fill="#FFFF44" points="106,89.8594,110,93.8594,106,97.8594,102,93.8594" style="stroke: #B38D22; stroke-width: 1.0;"/><text fill="#000000" font-family="sans-serif" font-size="11" font-style="italic" lengthAdjust="spacingAndGlyphs" textLength="113" x="115" y="99.2783">Iterable&lt;T&gt; elements()</text><polygon fill="#FFFF44" points="106,103.6953,110,107.6953,106,111.6953,102,107.6953" style="stroke: #B38D22; stroke-width: 1.0;"/><text fill="#000000" font-family="sans-serif" font-size="11" font-style="italic" lengthAdjust="spacingAndGlyphs" textLength="134" x="115" y="113.1143">Visitor&lt;T&gt; elementPrinter()</text><polygon fill="#FFFF44" points="106,117.5313,110,121.5313,106,125.5313,102,121.5313" style="stroke: #B38D22; stroke-width: 1.0;"/><text fill="#000000" font-family="sans-serif" font-size="11" font-style="italic" lengthAdjust="spacingAndGlyphs" textLength="108" x="115" y="126.9502">String elementName()</text><polygon fill="#FFFF44" points="106,131.3672,110,135.3672,106,139.3672,102,135.3672" style="stroke: #B38D22; stroke-width: 1.0;"/><text fill="#000000" font-family="sans-serif" font-size="11" font-style="italic" lengthAdjust="spacingAndGlyphs" textLength="91" x="115" y="140.7861">String listHeader()</text><polygon fill="#FFFF44" points="106,145.2031,110,149.2031,106,153.2031,102,149.2031" style="stroke: #B38D22; stroke-width: 1.0;"/><text fill="#000000" font-family="sans-serif" font-size="11" lengthAdjust="spacingAndGlyphs" textLength="90" x="115" y="154.6221">boolean doShow()</text></a><!--MD5=[c294c5ed6d39617b0f77065d2901fff1]
class eapli.framework.presentation.console.AbstractUI--><a href="../../../../eapli/framework/presentation/console/AbstractUI.html" target="_parent" title="eapli.framework.presentation.console.AbstractUI" xlink:actuate="onRequest" xlink:href="../../../../eapli/framework/presentation/console/AbstractUI.html" xlink:show="new" xlink:title="eapli.framework.presentation.console.AbstractUI" xlink:type="simple"><rect fill="#FEFECE" filter="url(#f1mk2g2wcwgjnf)" height="55.2813" id="eapli.framework.presentation.console.AbstractUI" style="stroke: #A80036; stroke-width: 1.5;" width="207" x="6" y="221"/><ellipse cx="21" cy="248.6406" fill="#ADD1B2" rx="11" ry="11" style="stroke: #A80036; stroke-width: 1.0;"/><path d="M23.7656,244.5156 Q23.9219,244.2969 24.1094,244.1875 Q24.2969,244.0781 24.5156,244.0781 Q24.8906,244.0781 25.125,244.3359 Q25.3594,244.5938 25.3594,245.2031 L25.3594,246.6563 Q25.3594,247.2656 25.125,247.5313 Q24.8906,247.7969 24.5156,247.7969 Q24.1719,247.7969 23.9688,247.5938 Q23.7656,247.4063 23.6563,246.8906 Q23.6094,246.5313 23.4219,246.3438 Q23.0938,245.9688 22.4844,245.75 Q21.875,245.5313 21.25,245.5313 Q20.4844,245.5313 19.8516,245.8594 Q19.2188,246.1875 18.7266,246.9375 Q18.2344,247.6875 18.2344,248.7188 L18.2344,249.8125 Q18.2344,251.0469 19.125,251.8672 Q20.0156,252.6875 21.6094,252.6875 Q22.5469,252.6875 23.2031,252.4375 Q23.5938,252.2813 24.0156,251.8438 Q24.2813,251.5781 24.4297,251.5 Q24.5781,251.4219 24.7813,251.4219 Q25.1094,251.4219 25.3672,251.6797 Q25.625,251.9375 25.625,252.2813 Q25.625,252.625 25.2813,253.0313 Q24.7813,253.6094 23.9844,253.9375 Q22.9063,254.3906 21.6094,254.3906 Q20.0938,254.3906 18.8906,253.7656 Q17.9063,253.2656 17.2188,252.1953 Q16.5313,251.125 16.5313,249.8438 L16.5313,248.6875 Q16.5313,247.3594 17.1484,246.2109 Q17.7656,245.0625 18.8594,244.4453 Q19.9531,243.8281 21.1875,243.8281 Q21.9219,243.8281 22.5703,243.9922 Q23.2188,244.1563 23.7656,244.5156 Z "/><text fill="#000000" font-family="sans-serif" font-size="12" font-style="italic" lengthAdjust="spacingAndGlyphs" textLength="118" x="63.5" y="238.457">«SuppressWarnings»</text><text fill="#000000" font-family="sans-serif" font-size="14" font-weight="bold" lengthAdjust="spacingAndGlyphs" textLength="72" x="86.5" y="255.627">AbstractUI</text><text fill="#000000" font-family="sans-serif" font-size="10" lengthAdjust="spacingAndGlyphs" textLength="175" x="35" y="269.084">eapli.framework.presentation.console</text></a><!--MD5=[274ad5661286b626a93603d287cbf95a]
class java.lang.Object--><rect fill="#D3D3D3" filter="url(#f1mk2g2wcwgjnf)" height="40.1875" id="java.lang.Object" style="stroke: #A80036; stroke-width: 1.5;" width="78" x="248.5" y="228.5"/><rect fill="#D3D3D3" height="40.1875" style="stroke: #A80036; stroke-width: 1.5;" width="78" x="248.5" y="228.5"/><ellipse cx="263.5" cy="248.5938" fill="#ADD1B2" rx="11" ry="11" style="stroke: #A80036; stroke-width: 1.0;"/><path d="M266.2656,244.4688 Q266.4219,244.25 266.6094,244.1406 Q266.7969,244.0313 267.0156,244.0313 Q267.3906,244.0313 267.625,244.2891 Q267.8594,244.5469 267.8594,245.1563 L267.8594,246.6094 Q267.8594,247.2188 267.625,247.4844 Q267.3906,247.75 267.0156,247.75 Q266.6719,247.75 266.4688,247.5469 Q266.2656,247.3594 266.1563,246.8438 Q266.1094,246.4844 265.9219,246.2969 Q265.5938,245.9219 264.9844,245.7031 Q264.375,245.4844 263.75,245.4844 Q262.9844,245.4844 262.3516,245.8125 Q261.7188,246.1406 261.2266,246.8906 Q260.7344,247.6406 260.7344,248.6719 L260.7344,249.7656 Q260.7344,251 261.625,251.8203 Q262.5156,252.6406 264.1094,252.6406 Q265.0469,252.6406 265.7031,252.3906 Q266.0938,252.2344 266.5156,251.7969 Q266.7813,251.5313 266.9297,251.4531 Q267.0781,251.375 267.2813,251.375 Q267.6094,251.375 267.8672,251.6328 Q268.125,251.8906 268.125,252.2344 Q268.125,252.5781 267.7813,252.9844 Q267.2813,253.5625 266.4844,253.8906 Q265.4063,254.3438 264.1094,254.3438 Q262.5938,254.3438 261.3906,253.7188 Q260.4063,253.2188 259.7188,252.1484 Q259.0313,251.0781 259.0313,249.7969 L259.0313,248.6406 Q259.0313,247.3125 259.6484,246.1641 Q260.2656,245.0156 261.3594,244.3984 Q262.4531,243.7813 263.6875,243.7813 Q264.4219,243.7813 265.0703,243.9453 Q265.7188,244.1094 266.2656,244.4688 Z "/><text fill="#000000" font-family="sans-serif" font-size="14" font-weight="bold" lengthAdjust="spacingAndGlyphs" textLength="46" x="277.5" y="248.0332">Object</text><text fill="#000000" font-family="sans-serif" font-size="10" lengthAdjust="spacingAndGlyphs" textLength="44" x="278.5" y="261.4902">java.lang</text><!--MD5=[8039744bc1c6d4ebcbb4ede04ccb9b1d]
link eapli.framework.presentation.console.AbstractListUI to eapli.framework.presentation.console.AbstractUI--><path d="M154,161.218 C154,161.218 154,200.8651 154,200.8651 " fill="none" id="eapli.framework.presentation.console.AbstractListUI-&gt;eapli.framework.presentation.console.AbstractUI" style="stroke: #A80036; stroke-width: 1.0;"/><polygon fill="none" points="161,200.8651,154,220.8651,147,200.8651,161,200.8651" style="stroke: #A80036; stroke-width: 1.0;"/><!--MD5=[89e3460580e1b21df28c4eafcd84b53a]
link eapli.framework.presentation.console.AbstractListUI to java.lang.Object--><path d="M275.25,161.218 C275.25,161.218 275.25,223.1795 275.25,223.1795 " fill="none" id="eapli.framework.presentation.console.AbstractListUI-&gt;java.lang.Object" style="stroke: #A80036; stroke-width: 1.0; stroke-dasharray: 7.0,7.0;"/><polygon fill="#A80036" points="275.25,228.1795,279.25,219.1795,275.25,223.1795,271.25,219.1795,275.25,228.1795" style="stroke: #A80036; stroke-width: 1.0;"/><!--MD5=[b201ab9333be1c8216f983271f16dd17]
@startuml

skinparam svgLinkTarget _parent
skinparam linetype ortho
set namespaceSeparator none
class "<b><size:14>AbstractListUI</b>\n<size:10>eapli.framework.presentation.console" as eapli.framework.presentation.console.AbstractListUI  [[../../../../eapli/framework/presentation/console/AbstractListUI.html{eapli.framework.presentation.console.AbstractListUI}]] {
+AbstractListUI()
+String headline()
{abstract} #Iterable<T> elements()
{abstract} #Visitor<T> elementPrinter()
{abstract} #String elementName()
{abstract} #String listHeader()
#boolean doShow()
}


class "<b><size:14>AbstractUI</b>\n<size:10>eapli.framework.presentation.console" as eapli.framework.presentation.console.AbstractUI <<SuppressWarnings>> [[../../../../eapli/framework/presentation/console/AbstractUI.html{eapli.framework.presentation.console.AbstractUI}]] {
}

hide eapli.framework.presentation.console.AbstractUI fields
hide eapli.framework.presentation.console.AbstractUI methods

eapli.framework.presentation.console.AbstractListUI - -|> eapli.framework.presentation.console.AbstractUI


class "<b><size:14>Object</b>\n<size:10>java.lang" as java.lang.Object  #lightgrey {
}

hide java.lang.Object fields
hide java.lang.Object methods

eapli.framework.presentation.console.AbstractListUI ..> java.lang.Object


@enduml

PlantUML version 1.2020.04(Thu Mar 19 10:16:49 GMT 2020)
(GPL source distribution)
Java Runtime: Java(TM) SE Runtime Environment
JVM: Java HotSpot(TM) 64-Bit Server VM
Java Version: 1.8.0_202-b08
Operating System: Windows 10
Default Encoding: Cp1252
Language: en
Country: US
--></g></svg>