@startuml

skinparam svgLinkTarget _parent
skinparam linetype ortho
set namespaceSeparator none
class "<b><size:14>ExitWithMessageAction</b>\n<size:10>eapli.framework.presentation.console" as eapli.framework.presentation.console.ExitWithMessageAction <<SuppressWarnings>> [[../../../../eapli/framework/presentation/console/ExitWithMessageAction.html{eapli.framework.presentation.console.ExitWithMessageAction}]] {
+ExitWithMessageAction()
+boolean execute()
}


interface "<b><size:14>Action</b>\n<size:10>eapli.framework.actions" as eapli.framework.actions.Action <<FunctionalInterface>> [[../../../../eapli/framework/actions/Action.html{eapli.framework.actions.Action}]] #white {
}

hide eapli.framework.actions.Action fields
hide eapli.framework.actions.Action methods

eapli.framework.presentation.console.ExitWithMessageAction ..|> eapli.framework.actions.Action


@enduml
