<?xml version="1.0" encoding="UTF-8" standalone="no"?><svg xmlns="http://www.w3.org/2000/svg" xmlns:xlink="http://www.w3.org/1999/xlink" contentScriptType="application/ecmascript" contentStyleType="text/css" height="342px" preserveAspectRatio="none" style="width:537px;height:342px;" version="1.1" viewBox="0 0 537 342" width="537px" zoomAndPan="magnify"><defs><filter height="300%" id="f15y7can3bcxhd" width="300%" x="-1" y="-1"><feGaussianBlur result="blurOut" stdDeviation="2.0"/><feColorMatrix in="blurOut" result="blurOut2" type="matrix" values="0 0 0 0 0 0 0 0 0 0 0 0 0 0 0 0 0 0 .4 0"/><feOffset dx="4.0" dy="4.0" in="blurOut2" result="blurOut3"/><feBlend in="SourceGraphic" in2="blurOut3" mode="normal"/></filter></defs><g><!--MD5=[df0465b7fa9c7cf04e3bbed1fc769500]
class eapli.framework.presentation.console.ListUI--><a href="../../../../eapli/framework/presentation/console/ListUI.html" target="_parent" title="eapli.framework.presentation.console.ListUI" xlink:actuate="onRequest" xlink:href="../../../../eapli/framework/presentation/console/ListUI.html" xlink:show="new" xlink:title="eapli.framework.presentation.console.ListUI" xlink:type="simple"><rect fill="#FEFECE" filter="url(#f15y7can3bcxhd)" height="208.3828" id="eapli.framework.presentation.console.ListUI" style="stroke: #A80036; stroke-width: 1.5;" width="477" x="6" y="8"/><ellipse cx="152.75" cy="28.0938" fill="#ADD1B2" rx="11" ry="11" style="stroke: #A80036; stroke-width: 1.0;"/><path d="M155.5156,23.9688 Q155.6719,23.75 155.8594,23.6406 Q156.0469,23.5313 156.2656,23.5313 Q156.6406,23.5313 156.875,23.7891 Q157.1094,24.0469 157.1094,24.6563 L157.1094,26.1094 Q157.1094,26.7188 156.875,26.9844 Q156.6406,27.25 156.2656,27.25 Q155.9219,27.25 155.7188,27.0469 Q155.5156,26.8594 155.4063,26.3438 Q155.3594,25.9844 155.1719,25.7969 Q154.8438,25.4219 154.2344,25.2031 Q153.625,24.9844 153,24.9844 Q152.2344,24.9844 151.6016,25.3125 Q150.9688,25.6406 150.4766,26.3906 Q149.9844,27.1406 149.9844,28.1719 L149.9844,29.2656 Q149.9844,30.5 150.875,31.3203 Q151.7656,32.1406 153.3594,32.1406 Q154.2969,32.1406 154.9531,31.8906 Q155.3438,31.7344 155.7656,31.2969 Q156.0313,31.0313 156.1797,30.9531 Q156.3281,30.875 156.5313,30.875 Q156.8594,30.875 157.1172,31.1328 Q157.375,31.3906 157.375,31.7344 Q157.375,32.0781 157.0313,32.4844 Q156.5313,33.0625 155.7344,33.3906 Q154.6563,33.8438 153.3594,33.8438 Q151.8438,33.8438 150.6406,33.2188 Q149.6563,32.7188 148.9688,31.6484 Q148.2813,30.5781 148.2813,29.2969 L148.2813,28.1406 Q148.2813,26.8125 148.8984,25.6641 Q149.5156,24.5156 150.6094,23.8984 Q151.7031,23.2813 152.9375,23.2813 Q153.6719,23.2813 154.3203,23.4453 Q154.9688,23.6094 155.5156,23.9688 Z "/><text fill="#000000" font-family="sans-serif" font-size="14" font-weight="bold" lengthAdjust="spacingAndGlyphs" textLength="39" x="241.25" y="27.5332">ListUI</text><text fill="#000000" font-family="sans-serif" font-size="10" lengthAdjust="spacingAndGlyphs" textLength="175" x="173.25" y="40.9902">eapli.framework.presentation.console</text><line style="stroke: #A80036; stroke-width: 1.5;" x1="7" x2="482" y1="48.1875" y2="48.1875"/><polygon fill="none" points="17,54.1875,21,58.1875,17,62.1875,13,58.1875" style="stroke: #B38D22; stroke-width: 1.0;"/><text fill="#000000" font-family="sans-serif" font-size="11" lengthAdjust="spacingAndGlyphs" textLength="90" x="26" y="63.6064">Iterable&lt;T&gt; source</text><polygon fill="none" points="17,68.0234,21,72.0234,17,76.0234,13,72.0234" style="stroke: #B38D22; stroke-width: 1.0;"/><text fill="#000000" font-family="sans-serif" font-size="11" lengthAdjust="spacingAndGlyphs" textLength="165" x="26" y="77.4424">Supplier&lt;Iterable&gt; elementSupplier</text><polygon fill="none" points="17,81.8594,21,85.8594,17,89.8594,13,85.8594" style="stroke: #B38D22; stroke-width: 1.0;"/><text fill="#000000" font-family="sans-serif" font-size="11" lengthAdjust="spacingAndGlyphs" textLength="83" x="26" y="91.2783">Visitor&lt;T&gt; printer</text><polygon fill="none" points="17,95.6953,21,99.6953,17,103.6953,13,99.6953" style="stroke: #B38D22; stroke-width: 1.0;"/><text fill="#000000" font-family="sans-serif" font-size="11" lengthAdjust="spacingAndGlyphs" textLength="110" x="26" y="105.1143">String theElementName</text><polygon fill="none" points="17,109.5313,21,113.5313,17,117.5313,13,113.5313" style="stroke: #B38D22; stroke-width: 1.0;"/><text fill="#000000" font-family="sans-serif" font-size="11" lengthAdjust="spacingAndGlyphs" textLength="81" x="26" y="118.9502">String theHeader</text><line style="stroke: #A80036; stroke-width: 1.5;" x1="7" x2="482" y1="125.3672" y2="125.3672"/><ellipse cx="17" cy="136.3672" fill="#84BE84" rx="3" ry="3" style="stroke: #038048; stroke-width: 1.0;"/><text fill="#000000" font-family="sans-serif" font-size="11" lengthAdjust="spacingAndGlyphs" textLength="376" x="26" y="140.7861">ListUI(Iterable&lt;T&gt; source,Visitor&lt;T&gt; printer,String elementName,String header)</text><ellipse cx="17" cy="150.2031" fill="#84BE84" rx="3" ry="3" style="stroke: #038048; stroke-width: 1.0;"/><text fill="#000000" font-family="sans-serif" font-size="11" lengthAdjust="spacingAndGlyphs" textLength="451" x="26" y="154.6221">ListUI(Supplier&lt;Iterable&gt; elementSupplier,Visitor&lt;T&gt; printer,String elementName,String header)</text><ellipse cx="17" cy="164.0391" fill="#84BE84" rx="3" ry="3" style="stroke: #038048; stroke-width: 1.0;"/><text fill="#000000" font-family="sans-serif" font-size="11" lengthAdjust="spacingAndGlyphs" textLength="87" x="26" y="168.458">String listHeader()</text><polygon fill="#FFFF44" points="17,172.875,21,176.875,17,180.875,13,176.875" style="stroke: #B38D22; stroke-width: 1.0;"/><text fill="#000000" font-family="sans-serif" font-size="11" lengthAdjust="spacingAndGlyphs" textLength="107" x="26" y="182.2939">Iterable&lt;T&gt; elements()</text><polygon fill="#FFFF44" points="17,186.7109,21,190.7109,17,194.7109,13,190.7109" style="stroke: #B38D22; stroke-width: 1.0;"/><text fill="#000000" font-family="sans-serif" font-size="11" lengthAdjust="spacingAndGlyphs" textLength="128" x="26" y="196.1299">Visitor&lt;T&gt; elementPrinter()</text><polygon fill="#FFFF44" points="17,200.5469,21,204.5469,17,208.5469,13,204.5469" style="stroke: #B38D22; stroke-width: 1.0;"/><text fill="#000000" font-family="sans-serif" font-size="11" lengthAdjust="spacingAndGlyphs" textLength="103" x="26" y="209.9658">String elementName()</text></a><!--MD5=[419303423064200ab96191f2f6184a76]
class eapli.framework.visitor.VisitorObject--><a href="../../../../eapli/framework/visitor/Visitor.html" target="_parent" title="eapli.framework.visitor.Visitor" xlink:actuate="onRequest" xlink:href="../../../../eapli/framework/visitor/Visitor.html" xlink:show="new" xlink:title="eapli.framework.visitor.Visitor" xlink:type="simple"><rect fill="#D3D3D3" filter="url(#f15y7can3bcxhd)" height="55.2813" id="eapli.framework.visitor.VisitorObject" style="stroke: #A80036; stroke-width: 1.5;" width="147" x="23" y="276"/><rect fill="#D3D3D3" height="55.2813" style="stroke: #A80036; stroke-width: 1.5;" width="147" x="23" y="276"/><ellipse cx="38" cy="303.6406" fill="#B4A7E5" rx="11" ry="11" style="stroke: #A80036; stroke-width: 1.0;"/><path d="M38.9531,300.2813 L38.9531,306.9375 L40.6719,306.9375 Q41.2813,306.9375 41.5469,307.1719 Q41.8125,307.4063 41.8125,307.7969 Q41.8125,308.1719 41.5469,308.4063 Q41.2813,308.6406 40.6719,308.6406 L35.5313,308.6406 Q34.9219,308.6406 34.6563,308.4063 Q34.3906,308.1719 34.3906,307.7813 Q34.3906,307.4063 34.6563,307.1719 Q34.9219,306.9375 35.5313,306.9375 L37.25,306.9375 L37.25,300.2813 L35.5313,300.2813 Q34.9219,300.2813 34.6563,300.0469 Q34.3906,299.8125 34.3906,299.4219 Q34.3906,299.0469 34.6563,298.8125 Q34.9219,298.5781 35.5313,298.5781 L40.6719,298.5781 Q41.2813,298.5781 41.5469,298.8125 Q41.8125,299.0469 41.8125,299.4219 Q41.8125,299.8125 41.5469,300.0469 Q41.2813,300.2813 40.6719,300.2813 L38.9531,300.2813 Z "/><text fill="#000000" font-family="sans-serif" font-size="12" font-style="italic" lengthAdjust="spacingAndGlyphs" textLength="119" x="50" y="293.457">«FunctionalInterface»</text><text fill="#000000" font-family="sans-serif" font-size="14" font-style="italic" font-weight="bold" lengthAdjust="spacingAndGlyphs" textLength="69" x="75" y="310.627">Visitor&lt;T&gt;</text><text fill="#000000" font-family="sans-serif" font-size="10" font-style="italic" lengthAdjust="spacingAndGlyphs" textLength="105" x="57" y="324.084">eapli.framework.visitor</text></a><!--MD5=[274ad5661286b626a93603d287cbf95a]
class java.lang.Object--><rect fill="#D3D3D3" filter="url(#f15y7can3bcxhd)" height="40.1875" id="java.lang.Object" style="stroke: #A80036; stroke-width: 1.5;" width="78" x="205.5" y="283.5"/><rect fill="#D3D3D3" height="40.1875" style="stroke: #A80036; stroke-width: 1.5;" width="78" x="205.5" y="283.5"/><ellipse cx="220.5" cy="303.5938" fill="#ADD1B2" rx="11" ry="11" style="stroke: #A80036; stroke-width: 1.0;"/><path d="M223.2656,299.4688 Q223.4219,299.25 223.6094,299.1406 Q223.7969,299.0313 224.0156,299.0313 Q224.3906,299.0313 224.625,299.2891 Q224.8594,299.5469 224.8594,300.1563 L224.8594,301.6094 Q224.8594,302.2188 224.625,302.4844 Q224.3906,302.75 224.0156,302.75 Q223.6719,302.75 223.4688,302.5469 Q223.2656,302.3594 223.1563,301.8438 Q223.1094,301.4844 222.9219,301.2969 Q222.5938,300.9219 221.9844,300.7031 Q221.375,300.4844 220.75,300.4844 Q219.9844,300.4844 219.3516,300.8125 Q218.7188,301.1406 218.2266,301.8906 Q217.7344,302.6406 217.7344,303.6719 L217.7344,304.7656 Q217.7344,306 218.625,306.8203 Q219.5156,307.6406 221.1094,307.6406 Q222.0469,307.6406 222.7031,307.3906 Q223.0938,307.2344 223.5156,306.7969 Q223.7813,306.5313 223.9297,306.4531 Q224.0781,306.375 224.2813,306.375 Q224.6094,306.375 224.8672,306.6328 Q225.125,306.8906 225.125,307.2344 Q225.125,307.5781 224.7813,307.9844 Q224.2813,308.5625 223.4844,308.8906 Q222.4063,309.3438 221.1094,309.3438 Q219.5938,309.3438 218.3906,308.7188 Q217.4063,308.2188 216.7188,307.1484 Q216.0313,306.0781 216.0313,304.7969 L216.0313,303.6406 Q216.0313,302.3125 216.6484,301.1641 Q217.2656,300.0156 218.3594,299.3984 Q219.4531,298.7813 220.6875,298.7813 Q221.4219,298.7813 222.0703,298.9453 Q222.7188,299.1094 223.2656,299.4688 Z "/><text fill="#000000" font-family="sans-serif" font-size="14" font-weight="bold" lengthAdjust="spacingAndGlyphs" textLength="46" x="234.5" y="303.0332">Object</text><text fill="#000000" font-family="sans-serif" font-size="10" lengthAdjust="spacingAndGlyphs" textLength="44" x="235.5" y="316.4902">java.lang</text><!--MD5=[275e1e956f9517459c1c03dd3d424b4b]
class eapli.framework.presentation.console.AbstractListUIObject--><a href="../../../../eapli/framework/presentation/console/AbstractListUI.html" target="_parent" title="eapli.framework.presentation.console.AbstractListUI" xlink:actuate="onRequest" xlink:href="../../../../eapli/framework/presentation/console/AbstractListUI.html" xlink:show="new" xlink:title="eapli.framework.presentation.console.AbstractListUI" xlink:type="simple"><rect fill="#FEFECE" filter="url(#f15y7can3bcxhd)" height="40.1875" id="eapli.framework.presentation.console.AbstractListUIObject" style="stroke: #A80036; stroke-width: 1.5;" width="207" x="319" y="283.5"/><ellipse cx="334" cy="303.5938" fill="#ADD1B2" rx="11" ry="11" style="stroke: #A80036; stroke-width: 1.0;"/><path d="M336.7656,299.4688 Q336.9219,299.25 337.1094,299.1406 Q337.2969,299.0313 337.5156,299.0313 Q337.8906,299.0313 338.125,299.2891 Q338.3594,299.5469 338.3594,300.1563 L338.3594,301.6094 Q338.3594,302.2188 338.125,302.4844 Q337.8906,302.75 337.5156,302.75 Q337.1719,302.75 336.9688,302.5469 Q336.7656,302.3594 336.6563,301.8438 Q336.6094,301.4844 336.4219,301.2969 Q336.0938,300.9219 335.4844,300.7031 Q334.875,300.4844 334.25,300.4844 Q333.4844,300.4844 332.8516,300.8125 Q332.2188,301.1406 331.7266,301.8906 Q331.2344,302.6406 331.2344,303.6719 L331.2344,304.7656 Q331.2344,306 332.125,306.8203 Q333.0156,307.6406 334.6094,307.6406 Q335.5469,307.6406 336.2031,307.3906 Q336.5938,307.2344 337.0156,306.7969 Q337.2813,306.5313 337.4297,306.4531 Q337.5781,306.375 337.7813,306.375 Q338.1094,306.375 338.3672,306.6328 Q338.625,306.8906 338.625,307.2344 Q338.625,307.5781 338.2813,307.9844 Q337.7813,308.5625 336.9844,308.8906 Q335.9063,309.3438 334.6094,309.3438 Q333.0938,309.3438 331.8906,308.7188 Q330.9063,308.2188 330.2188,307.1484 Q329.5313,306.0781 329.5313,304.7969 L329.5313,303.6406 Q329.5313,302.3125 330.1484,301.1641 Q330.7656,300.0156 331.8594,299.3984 Q332.9531,298.7813 334.1875,298.7813 Q334.9219,298.7813 335.5703,298.9453 Q336.2188,299.1094 336.7656,299.4688 Z "/><text fill="#000000" font-family="sans-serif" font-size="14" font-weight="bold" lengthAdjust="spacingAndGlyphs" textLength="121" x="375" y="303.0332">AbstractListUI&lt;T&gt;</text><text fill="#000000" font-family="sans-serif" font-size="10" lengthAdjust="spacingAndGlyphs" textLength="175" x="348" y="316.4902">eapli.framework.presentation.console</text></a><!--MD5=[74da2259077ce94ace2c2d97236ae98e]
link eapli.framework.presentation.console.ListUI to eapli.framework.visitor.VisitorObject--><path d="M96.5,216.156 C96.5,216.156 96.5,270.9066 96.5,270.9066 " fill="none" id="eapli.framework.presentation.console.ListUI-&gt;eapli.framework.visitor.VisitorObject" style="stroke: #A80036; stroke-width: 1.0;"/><polygon fill="#A80036" points="96.5,275.9066,100.5,266.9066,96.5,270.9066,92.5,266.9066,96.5,275.9066" style="stroke: #A80036; stroke-width: 1.0;"/><text fill="#000000" font-family="sans-serif" font-size="13" lengthAdjust="spacingAndGlyphs" textLength="36" x="56.3375" y="265.1789">printer</text><!--MD5=[07ca1b41ffa637e5a573a8ae04a09843]
link eapli.framework.presentation.console.ListUI to java.lang.Object--><path d="M244.5,216.156 C244.5,216.156 244.5,278.1676 244.5,278.1676 " fill="none" id="eapli.framework.presentation.console.ListUI-&gt;java.lang.Object" style="stroke: #A80036; stroke-width: 1.0; stroke-dasharray: 7.0,7.0;"/><polygon fill="#A80036" points="244.5,283.1676,248.5,274.1676,244.5,278.1676,240.5,274.1676,244.5,283.1676" style="stroke: #A80036; stroke-width: 1.0;"/><!--MD5=[b30781e5312a89b8ea50ff159b869a35]
link eapli.framework.presentation.console.ListUI to eapli.framework.presentation.console.AbstractListUIObject--><path d="M401,216.156 C401,216.156 401,263.1676 401,263.1676 " fill="none" id="eapli.framework.presentation.console.ListUI-&gt;eapli.framework.presentation.console.AbstractListUIObject" style="stroke: #A80036; stroke-width: 1.0;"/><polygon fill="none" points="408,263.1677,401,283.1676,394,263.1676,408,263.1677" style="stroke: #A80036; stroke-width: 1.0;"/><!--MD5=[000476825bc25b32e9c6a52cf2b402e0]
@startuml

skinparam svgLinkTarget _parent
skinparam linetype ortho
set namespaceSeparator none
class "<b><size:14>ListUI</b>\n<size:10>eapli.framework.presentation.console" as eapli.framework.presentation.console.ListUI  [[../../../../eapli/framework/presentation/console/ListUI.html{eapli.framework.presentation.console.ListUI}]] {
#Iterable<T> source
#Supplier<Iterable> elementSupplier
#Visitor<T> printer
#String theElementName
#String theHeader
+ListUI(Iterable<T> source,Visitor<T> printer,String elementName,String header)
+ListUI(Supplier<Iterable> elementSupplier,Visitor<T> printer,String elementName,String header)
+String listHeader()
#Iterable<T> elements()
#Visitor<T> elementPrinter()
#String elementName()
}



interface "<b><size:14>Visitor<T></b>\n<size:10>eapli.framework.visitor" as eapli.framework.visitor.VisitorObject <<FunctionalInterface>> [[../../../../eapli/framework/visitor/Visitor.html{eapli.framework.visitor.Visitor}]] #lightgrey {
}

hide eapli.framework.visitor.VisitorObject fields
hide eapli.framework.visitor.VisitorObject methods

eapli.framework.presentation.console.ListUI - ->  "printer" eapli.framework.visitor.VisitorObject

class "<b><size:14>Object</b>\n<size:10>java.lang" as java.lang.Object  #lightgrey {
}

hide java.lang.Object fields
hide java.lang.Object methods

eapli.framework.presentation.console.ListUI ..> java.lang.Object

class "<b><size:14>AbstractListUI<T></b>\n<size:10>eapli.framework.presentation.console" as eapli.framework.presentation.console.AbstractListUIObject  [[../../../../eapli/framework/presentation/console/AbstractListUI.html{eapli.framework.presentation.console.AbstractListUI}]] {
}

hide eapli.framework.presentation.console.AbstractListUIObject fields
hide eapli.framework.presentation.console.AbstractListUIObject methods

eapli.framework.presentation.console.ListUI - -|> eapli.framework.presentation.console.AbstractListUIObject


@enduml

PlantUML version 1.2020.04(Thu Mar 19 10:16:49 GMT 2020)
(GPL source distribution)
Java Runtime: Java(TM) SE Runtime Environment
JVM: Java HotSpot(TM) 64-Bit Server VM
Java Version: 1.8.0_202-b08
Operating System: Windows 10
Default Encoding: Cp1252
Language: en
Country: US
--></g></svg>