<?xml version="1.0" encoding="UTF-8" standalone="no"?><svg xmlns="http://www.w3.org/2000/svg" xmlns:xlink="http://www.w3.org/1999/xlink" contentScriptType="application/ecmascript" contentStyleType="text/css" height="247px" preserveAspectRatio="none" style="width:406px;height:247px;" version="1.1" viewBox="0 0 406 247" width="406px" zoomAndPan="magnify"><defs><filter height="300%" id="fe5ncizkgt347" width="300%" x="-1" y="-1"><feGaussianBlur result="blurOut" stdDeviation="2.0"/><feColorMatrix in="blurOut" result="blurOut2" type="matrix" values="0 0 0 0 0 0 0 0 0 0 0 0 0 0 0 0 0 0 .4 0"/><feOffset dx="4.0" dy="4.0" in="blurOut2" result="blurOut3"/><feBlend in="SourceGraphic" in2="blurOut3" mode="normal"/></filter></defs><g><!--MD5=[d10e7b117a3e3116ea64bc2b07567614]
class eapli.framework.presentation.console.ShowUiAction--><a href="../../../../eapli/framework/presentation/console/ShowUiAction.html" target="_parent" title="eapli.framework.presentation.console.ShowUiAction" xlink:actuate="onRequest" xlink:href="../../../../eapli/framework/presentation/console/ShowUiAction.html" xlink:show="new" xlink:title="eapli.framework.presentation.console.ShowUiAction" xlink:type="simple"><rect fill="#FEFECE" filter="url(#fe5ncizkgt347)" height="112.7891" id="eapli.framework.presentation.console.ShowUiAction" style="stroke: #A80036; stroke-width: 1.5;" width="207" x="112" y="8"/><ellipse cx="127" cy="35.6406" fill="#ADD1B2" rx="11" ry="11" style="stroke: #A80036; stroke-width: 1.0;"/><path d="M129.7656,31.5156 Q129.9219,31.2969 130.1094,31.1875 Q130.2969,31.0781 130.5156,31.0781 Q130.8906,31.0781 131.125,31.3359 Q131.3594,31.5938 131.3594,32.2031 L131.3594,33.6563 Q131.3594,34.2656 131.125,34.5313 Q130.8906,34.7969 130.5156,34.7969 Q130.1719,34.7969 129.9688,34.5938 Q129.7656,34.4063 129.6563,33.8906 Q129.6094,33.5313 129.4219,33.3438 Q129.0938,32.9688 128.4844,32.75 Q127.875,32.5313 127.25,32.5313 Q126.4844,32.5313 125.8516,32.8594 Q125.2188,33.1875 124.7266,33.9375 Q124.2344,34.6875 124.2344,35.7188 L124.2344,36.8125 Q124.2344,38.0469 125.125,38.8672 Q126.0156,39.6875 127.6094,39.6875 Q128.5469,39.6875 129.2031,39.4375 Q129.5938,39.2813 130.0156,38.8438 Q130.2813,38.5781 130.4297,38.5 Q130.5781,38.4219 130.7813,38.4219 Q131.1094,38.4219 131.3672,38.6797 Q131.625,38.9375 131.625,39.2813 Q131.625,39.625 131.2813,40.0313 Q130.7813,40.6094 129.9844,40.9375 Q128.9063,41.3906 127.6094,41.3906 Q126.0938,41.3906 124.8906,40.7656 Q123.9063,40.2656 123.2188,39.1953 Q122.5313,38.125 122.5313,36.8438 L122.5313,35.6875 Q122.5313,34.3594 123.1484,33.2109 Q123.7656,32.0625 124.8594,31.4453 Q125.9531,30.8281 127.1875,30.8281 Q127.9219,30.8281 128.5703,30.9922 Q129.2188,31.1563 129.7656,31.5156 Z "/><text fill="#000000" font-family="sans-serif" font-size="12" font-style="italic" lengthAdjust="spacingAndGlyphs" textLength="118" x="169.5" y="25.457">«SuppressWarnings»</text><text fill="#000000" font-family="sans-serif" font-size="14" font-weight="bold" lengthAdjust="spacingAndGlyphs" textLength="96" x="180.5" y="42.627">ShowUiAction</text><text fill="#000000" font-family="sans-serif" font-size="10" lengthAdjust="spacingAndGlyphs" textLength="175" x="141" y="56.084">eapli.framework.presentation.console</text><line style="stroke: #A80036; stroke-width: 1.5;" x1="113" x2="318" y1="63.2813" y2="63.2813"/><rect fill="none" height="6" style="stroke: #C82930; stroke-width: 1.0;" width="6" x="120" y="71.2813"/><text fill="#000000" font-family="sans-serif" font-size="11" lengthAdjust="spacingAndGlyphs" textLength="62" x="132" y="78.7002">AbstractUI ui</text><line style="stroke: #A80036; stroke-width: 1.5;" x1="113" x2="318" y1="85.1172" y2="85.1172"/><ellipse cx="123" cy="96.1172" fill="#84BE84" rx="3" ry="3" style="stroke: #038048; stroke-width: 1.0;"/><text fill="#000000" font-family="sans-serif" font-size="11" lengthAdjust="spacingAndGlyphs" textLength="139" x="132" y="100.5361">ShowUiAction(AbstractUI ui)</text><ellipse cx="123" cy="109.9531" fill="#84BE84" rx="3" ry="3" style="stroke: #038048; stroke-width: 1.0;"/><text fill="#000000" font-family="sans-serif" font-size="11" lengthAdjust="spacingAndGlyphs" textLength="88" x="132" y="114.3721">boolean execute()</text></a><!--MD5=[c294c5ed6d39617b0f77065d2901fff1]
class eapli.framework.presentation.console.AbstractUI--><a href="../../../../eapli/framework/presentation/console/AbstractUI.html" target="_parent" title="eapli.framework.presentation.console.AbstractUI" xlink:actuate="onRequest" xlink:href="../../../../eapli/framework/presentation/console/AbstractUI.html" xlink:show="new" xlink:title="eapli.framework.presentation.console.AbstractUI" xlink:type="simple"><rect fill="#FEFECE" filter="url(#fe5ncizkgt347)" height="55.2813" id="eapli.framework.presentation.console.AbstractUI" style="stroke: #A80036; stroke-width: 1.5;" width="207" x="6" y="181"/><ellipse cx="21" cy="208.6406" fill="#ADD1B2" rx="11" ry="11" style="stroke: #A80036; stroke-width: 1.0;"/><path d="M23.7656,204.5156 Q23.9219,204.2969 24.1094,204.1875 Q24.2969,204.0781 24.5156,204.0781 Q24.8906,204.0781 25.125,204.3359 Q25.3594,204.5938 25.3594,205.2031 L25.3594,206.6563 Q25.3594,207.2656 25.125,207.5313 Q24.8906,207.7969 24.5156,207.7969 Q24.1719,207.7969 23.9688,207.5938 Q23.7656,207.4063 23.6563,206.8906 Q23.6094,206.5313 23.4219,206.3438 Q23.0938,205.9688 22.4844,205.75 Q21.875,205.5313 21.25,205.5313 Q20.4844,205.5313 19.8516,205.8594 Q19.2188,206.1875 18.7266,206.9375 Q18.2344,207.6875 18.2344,208.7188 L18.2344,209.8125 Q18.2344,211.0469 19.125,211.8672 Q20.0156,212.6875 21.6094,212.6875 Q22.5469,212.6875 23.2031,212.4375 Q23.5938,212.2813 24.0156,211.8438 Q24.2813,211.5781 24.4297,211.5 Q24.5781,211.4219 24.7813,211.4219 Q25.1094,211.4219 25.3672,211.6797 Q25.625,211.9375 25.625,212.2813 Q25.625,212.625 25.2813,213.0313 Q24.7813,213.6094 23.9844,213.9375 Q22.9063,214.3906 21.6094,214.3906 Q20.0938,214.3906 18.8906,213.7656 Q17.9063,213.2656 17.2188,212.1953 Q16.5313,211.125 16.5313,209.8438 L16.5313,208.6875 Q16.5313,207.3594 17.1484,206.2109 Q17.7656,205.0625 18.8594,204.4453 Q19.9531,203.8281 21.1875,203.8281 Q21.9219,203.8281 22.5703,203.9922 Q23.2188,204.1563 23.7656,204.5156 Z "/><text fill="#000000" font-family="sans-serif" font-size="12" font-style="italic" lengthAdjust="spacingAndGlyphs" textLength="118" x="63.5" y="198.457">«SuppressWarnings»</text><text fill="#000000" font-family="sans-serif" font-size="14" font-weight="bold" lengthAdjust="spacingAndGlyphs" textLength="72" x="86.5" y="215.627">AbstractUI</text><text fill="#000000" font-family="sans-serif" font-size="10" lengthAdjust="spacingAndGlyphs" textLength="175" x="35" y="229.084">eapli.framework.presentation.console</text></a><!--MD5=[ef8b130fed61c1e1b3c1a2a618d68bbd]
class eapli.framework.actions.Action--><a href="../../../../eapli/framework/actions/Action.html" target="_parent" title="eapli.framework.actions.Action" xlink:actuate="onRequest" xlink:href="../../../../eapli/framework/actions/Action.html" xlink:show="new" xlink:title="eapli.framework.actions.Action" xlink:type="simple"><rect fill="#FFFFFF" filter="url(#fe5ncizkgt347)" height="55.2813" id="eapli.framework.actions.Action" style="stroke: #A80036; stroke-width: 1.5;" width="147" x="248" y="181"/><rect fill="#FFFFFF" height="55.2813" style="stroke: #A80036; stroke-width: 1.5;" width="147" x="248" y="181"/><ellipse cx="263" cy="208.6406" fill="#B4A7E5" rx="11" ry="11" style="stroke: #A80036; stroke-width: 1.0;"/><path d="M263.9531,205.2813 L263.9531,211.9375 L265.6719,211.9375 Q266.2813,211.9375 266.5469,212.1719 Q266.8125,212.4063 266.8125,212.7969 Q266.8125,213.1719 266.5469,213.4063 Q266.2813,213.6406 265.6719,213.6406 L260.5313,213.6406 Q259.9219,213.6406 259.6563,213.4063 Q259.3906,213.1719 259.3906,212.7813 Q259.3906,212.4063 259.6563,212.1719 Q259.9219,211.9375 260.5313,211.9375 L262.25,211.9375 L262.25,205.2813 L260.5313,205.2813 Q259.9219,205.2813 259.6563,205.0469 Q259.3906,204.8125 259.3906,204.4219 Q259.3906,204.0469 259.6563,203.8125 Q259.9219,203.5781 260.5313,203.5781 L265.6719,203.5781 Q266.2813,203.5781 266.5469,203.8125 Q266.8125,204.0469 266.8125,204.4219 Q266.8125,204.8125 266.5469,205.0469 Q266.2813,205.2813 265.6719,205.2813 L263.9531,205.2813 Z "/><text fill="#000000" font-family="sans-serif" font-size="12" font-style="italic" lengthAdjust="spacingAndGlyphs" textLength="119" x="275" y="198.457">«FunctionalInterface»</text><text fill="#000000" font-family="sans-serif" font-size="14" font-style="italic" font-weight="bold" lengthAdjust="spacingAndGlyphs" textLength="44" x="312.5" y="215.627">Action</text><text fill="#000000" font-family="sans-serif" font-size="10" font-style="italic" lengthAdjust="spacingAndGlyphs" textLength="111" x="279" y="229.084">eapli.framework.actions</text></a><!--MD5=[b89a178a91c89124bb8acebb6c34dd60]
link eapli.framework.presentation.console.ShowUiAction to eapli.framework.presentation.console.AbstractUI--><path d="M162.5,121.413 C162.5,121.413 162.5,175.8312 162.5,175.8312 " fill="none" id="eapli.framework.presentation.console.ShowUiAction-&gt;eapli.framework.presentation.console.AbstractUI" style="stroke: #A80036; stroke-width: 1.0;"/><polygon fill="#A80036" points="162.5,180.8312,166.5,171.8312,162.5,175.8312,158.5,171.8312,162.5,180.8312" style="stroke: #A80036; stroke-width: 1.0;"/><text fill="#000000" font-family="sans-serif" font-size="13" lengthAdjust="spacingAndGlyphs" textLength="10" x="163.6" y="170.086">ui</text><!--MD5=[4950f4ee90ec297f7871e9b73ded90b7]
link eapli.framework.presentation.console.ShowUiAction to eapli.framework.actions.Action--><path d="M283.5,121.413 C283.5,121.413 283.5,160.8312 283.5,160.8312 " fill="none" id="eapli.framework.presentation.console.ShowUiAction-&gt;eapli.framework.actions.Action" style="stroke: #A80036; stroke-width: 1.0; stroke-dasharray: 7.0,7.0;"/><polygon fill="none" points="290.5,160.8313,283.5,180.8312,276.5,160.8312,290.5,160.8313" style="stroke: #A80036; stroke-width: 1.0;"/><!--MD5=[df89585626e94a1bfe6b4fb00f768a4a]
@startuml

skinparam svgLinkTarget _parent
skinparam linetype ortho
set namespaceSeparator none
class "<b><size:14>ShowUiAction</b>\n<size:10>eapli.framework.presentation.console" as eapli.framework.presentation.console.ShowUiAction <<SuppressWarnings>> [[../../../../eapli/framework/presentation/console/ShowUiAction.html{eapli.framework.presentation.console.ShowUiAction}]] {
-AbstractUI ui
+ShowUiAction(AbstractUI ui)
+boolean execute()
}


class "<b><size:14>AbstractUI</b>\n<size:10>eapli.framework.presentation.console" as eapli.framework.presentation.console.AbstractUI <<SuppressWarnings>> [[../../../../eapli/framework/presentation/console/AbstractUI.html{eapli.framework.presentation.console.AbstractUI}]] {
}

hide eapli.framework.presentation.console.AbstractUI fields
hide eapli.framework.presentation.console.AbstractUI methods

eapli.framework.presentation.console.ShowUiAction - ->  "ui" eapli.framework.presentation.console.AbstractUI

interface "<b><size:14>Action</b>\n<size:10>eapli.framework.actions" as eapli.framework.actions.Action <<FunctionalInterface>> [[../../../../eapli/framework/actions/Action.html{eapli.framework.actions.Action}]] #white {
}

hide eapli.framework.actions.Action fields
hide eapli.framework.actions.Action methods

eapli.framework.presentation.console.ShowUiAction ..|> eapli.framework.actions.Action


@enduml

PlantUML version 1.2020.04(Thu Mar 19 10:16:49 GMT 2020)
(GPL source distribution)
Java Runtime: Java(TM) SE Runtime Environment
JVM: Java HotSpot(TM) 64-Bit Server VM
Java Version: 1.8.0_202-b08
Operating System: Windows 10
Default Encoding: Cp1252
Language: en
Country: US
--></g></svg>