<?xml version="1.0" encoding="UTF-8" standalone="no"?><svg xmlns="http://www.w3.org/2000/svg" xmlns:xlink="http://www.w3.org/1999/xlink" contentScriptType="application/ecmascript" contentStyleType="text/css" height="452px" preserveAspectRatio="none" style="width:742px;height:452px;" version="1.1" viewBox="0 0 742 452" width="742px" zoomAndPan="magnify"><defs><filter height="300%" id="f1l1lrspu72ce1" width="300%" x="-1" y="-1"><feGaussianBlur result="blurOut" stdDeviation="2.0"/><feColorMatrix in="blurOut" result="blurOut2" type="matrix" values="0 0 0 0 0 0 0 0 0 0 0 0 0 0 0 0 0 0 .4 0"/><feOffset dx="4.0" dy="4.0" in="blurOut2" result="blurOut3"/><feBlend in="SourceGraphic" in2="blurOut3" mode="normal"/></filter></defs><g><!--MD5=[117d88f0d3266acc8d2d49330545fed5]
class eapli.framework.infrastructure.repositories.impl.inmemory.InMemoryRepository--><a href="../../../../../../eapli/framework/infrastructure/repositories/impl/inmemory/InMemoryRepository.html" target="_parent" title="eapli.framework.infrastructure.repositories.impl.inmemory.InMemoryRepository" xlink:actuate="onRequest" xlink:href="../../../../../../eapli/framework/infrastructure/repositories/impl/inmemory/InMemoryRepository.html" xlink:show="new" xlink:title="eapli.framework.infrastructure.repositories.impl.inmemory.InMemoryRepository" xlink:type="simple"><rect fill="#FEFECE" filter="url(#f1l1lrspu72ce1)" height="332.9063" id="eapli.framework.infrastructure.repositories.impl.inmemory.InMemoryRepository" style="stroke: #A80036; stroke-width: 1.5;" width="300" x="208" y="8"/><ellipse cx="223" cy="28.0938" fill="#ADD1B2" rx="11" ry="11" style="stroke: #A80036; stroke-width: 1.0;"/><path d="M225.7656,23.9688 Q225.9219,23.75 226.1094,23.6406 Q226.2969,23.5313 226.5156,23.5313 Q226.8906,23.5313 227.125,23.7891 Q227.3594,24.0469 227.3594,24.6563 L227.3594,26.1094 Q227.3594,26.7188 227.125,26.9844 Q226.8906,27.25 226.5156,27.25 Q226.1719,27.25 225.9688,27.0469 Q225.7656,26.8594 225.6563,26.3438 Q225.6094,25.9844 225.4219,25.7969 Q225.0938,25.4219 224.4844,25.2031 Q223.875,24.9844 223.25,24.9844 Q222.4844,24.9844 221.8516,25.3125 Q221.2188,25.6406 220.7266,26.3906 Q220.2344,27.1406 220.2344,28.1719 L220.2344,29.2656 Q220.2344,30.5 221.125,31.3203 Q222.0156,32.1406 223.6094,32.1406 Q224.5469,32.1406 225.2031,31.8906 Q225.5938,31.7344 226.0156,31.2969 Q226.2813,31.0313 226.4297,30.9531 Q226.5781,30.875 226.7813,30.875 Q227.1094,30.875 227.3672,31.1328 Q227.625,31.3906 227.625,31.7344 Q227.625,32.0781 227.2813,32.4844 Q226.7813,33.0625 225.9844,33.3906 Q224.9063,33.8438 223.6094,33.8438 Q222.0938,33.8438 220.8906,33.2188 Q219.9063,32.7188 219.2188,31.6484 Q218.5313,30.5781 218.5313,29.2969 L218.5313,28.1406 Q218.5313,26.8125 219.1484,25.6641 Q219.7656,24.5156 220.8594,23.8984 Q221.9531,23.2813 223.1875,23.2813 Q223.9219,23.2813 224.5703,23.4453 Q225.2188,23.6094 225.7656,23.9688 Z "/><text fill="#000000" font-family="sans-serif" font-size="14" font-weight="bold" lengthAdjust="spacingAndGlyphs" textLength="145" x="298.5" y="27.5332">InMemoryRepository</text><text fill="#000000" font-family="sans-serif" font-size="10" lengthAdjust="spacingAndGlyphs" textLength="268" x="237" y="40.9902">eapli.framework.infrastructure.repositories.impl.inmemory</text><line style="stroke: #A80036; stroke-width: 1.5;" x1="209" x2="507" y1="48.1875" y2="48.1875"/><rect fill="none" height="6" style="stroke: #C82930; stroke-width: 1.0;" width="6" x="216" y="56.1875"/><text fill="#000000" font-family="sans-serif" font-size="11" lengthAdjust="spacingAndGlyphs" text-decoration="underline" textLength="52" x="228" y="63.6064">Map DATA</text><rect fill="none" height="6" style="stroke: #C82930; stroke-width: 1.0;" width="6" x="216" y="70.0234"/><text fill="#000000" font-family="sans-serif" font-size="11" lengthAdjust="spacingAndGlyphs" textLength="101" x="228" y="77.4424">Class&lt;T&gt; entityClass</text><rect fill="none" height="6" style="stroke: #C82930; stroke-width: 1.0;" width="6" x="216" y="83.8594"/><text fill="#000000" font-family="sans-serif" font-size="11" lengthAdjust="spacingAndGlyphs" textLength="157" x="228" y="91.2783">Function&lt;?, ?&gt; identityGenerator</text><line style="stroke: #A80036; stroke-width: 1.5;" x1="209" x2="507" y1="97.6953" y2="97.6953"/><ellipse cx="219" cy="108.6953" fill="#84BE84" rx="3" ry="3" style="stroke: #038048; stroke-width: 1.0;"/><text fill="#000000" font-family="sans-serif" font-size="11" lengthAdjust="spacingAndGlyphs" textLength="263" x="228" y="113.1143">InMemoryRepository(Function&lt;?, ?&gt; identityGenerator)</text><ellipse cx="219" cy="122.5313" fill="#84BE84" rx="3" ry="3" style="stroke: #038048; stroke-width: 1.0;"/><text fill="#000000" font-family="sans-serif" font-size="11" lengthAdjust="spacingAndGlyphs" textLength="87" x="228" y="126.9502">Optional&lt;T&gt; first()</text><ellipse cx="219" cy="136.3672" fill="#84BE84" rx="3" ry="3" style="stroke: #038048; stroke-width: 1.0;"/><text fill="#000000" font-family="sans-serif" font-size="11" lengthAdjust="spacingAndGlyphs" textLength="103" x="228" y="140.7861">Iterable&lt;T&gt; first(int n)</text><ellipse cx="219" cy="150.2031" fill="#84BE84" rx="3" ry="3" style="stroke: #038048; stroke-width: 1.0;"/><text fill="#000000" font-family="sans-serif" font-size="11" lengthAdjust="spacingAndGlyphs" textLength="120" x="228" y="154.6221">void delete(Object entity)</text><ellipse cx="219" cy="164.0391" fill="#84BE84" rx="3" ry="3" style="stroke: #038048; stroke-width: 1.0;"/><text fill="#000000" font-family="sans-serif" font-size="11" lengthAdjust="spacingAndGlyphs" textLength="149" x="228" y="168.458">void deleteById(Object entityId)</text><ellipse cx="219" cy="177.875" fill="#84BE84" rx="3" ry="3" style="stroke: #038048; stroke-width: 1.0;"/><text fill="#000000" font-family="sans-serif" font-size="11" lengthAdjust="spacingAndGlyphs" textLength="155" x="228" y="182.2939">Iterator&lt;T&gt; iterator(int pagesize)</text><ellipse cx="219" cy="191.7109" fill="#84BE84" rx="3" ry="3" style="stroke: #038048; stroke-width: 1.0;"/><text fill="#000000" font-family="sans-serif" font-size="11" lengthAdjust="spacingAndGlyphs" textLength="126" x="228" y="196.1299">Object save(Object entity)</text><ellipse cx="219" cy="205.5469" fill="#84BE84" rx="3" ry="3" style="stroke: #038048; stroke-width: 1.0;"/><text fill="#000000" font-family="sans-serif" font-size="11" lengthAdjust="spacingAndGlyphs" textLength="94" x="228" y="209.9658">Iterable&lt;T&gt; findAll()</text><ellipse cx="219" cy="219.3828" fill="#84BE84" rx="3" ry="3" style="stroke: #038048; stroke-width: 1.0;"/><text fill="#000000" font-family="sans-serif" font-size="11" lengthAdjust="spacingAndGlyphs" textLength="149" x="228" y="223.8018">Optional&lt;T&gt; findById(Object id)</text><ellipse cx="219" cy="233.2188" fill="#84BE84" rx="3" ry="3" style="stroke: #038048; stroke-width: 1.0;"/><text fill="#000000" font-family="sans-serif" font-size="11" lengthAdjust="spacingAndGlyphs" textLength="58" x="228" y="237.6377">long count()</text><ellipse cx="219" cy="247.0547" fill="#84BE84" rx="3" ry="3" style="stroke: #038048; stroke-width: 1.0;"/><text fill="#000000" font-family="sans-serif" font-size="11" lengthAdjust="spacingAndGlyphs" textLength="97" x="228" y="251.4736">Iterator&lt;T&gt; iterator()</text><ellipse cx="219" cy="260.8906" fill="#84BE84" rx="3" ry="3" style="stroke: #038048; stroke-width: 1.0;"/><text fill="#000000" font-family="sans-serif" font-size="11" lengthAdjust="spacingAndGlyphs" textLength="51" x="228" y="265.3096">long size()</text><polygon fill="#FFFF44" points="219,269.7266,223,273.7266,219,277.7266,215,273.7266" style="stroke: #B38D22; stroke-width: 1.0;"/><text fill="#000000" font-family="sans-serif" font-size="11" lengthAdjust="spacingAndGlyphs" textLength="83" x="228" y="279.1455">Map&lt;K, T&gt; data()</text><polygon fill="#FFFF44" points="219,283.5625,223,287.5625,219,291.5625,215,287.5625" style="stroke: #B38D22; stroke-width: 1.0;"/><text fill="#000000" font-family="sans-serif" font-size="11" lengthAdjust="spacingAndGlyphs" textLength="129" x="228" y="292.9814">Stream&lt;T&gt; valuesStream()</text><polygon fill="#FFFF44" points="219,297.3984,223,301.3984,219,305.3984,215,301.3984" style="stroke: #B38D22; stroke-width: 1.0;"/><text fill="#000000" font-family="sans-serif" font-size="11" lengthAdjust="spacingAndGlyphs" textLength="204" x="228" y="306.8174">Iterable&lt;T&gt; match(Predicate&lt;T&gt; filterFunc)</text><polygon fill="#FFFF44" points="219,311.2344,223,315.2344,219,319.2344,215,315.2344" style="stroke: #B38D22; stroke-width: 1.0;"/><text fill="#000000" font-family="sans-serif" font-size="11" lengthAdjust="spacingAndGlyphs" textLength="228" x="228" y="320.6533">Optional&lt;T&gt; matchOne(Predicate&lt;T&gt; filterFunc)</text><rect fill="#F24D5C" height="6" style="stroke: #C82930; stroke-width: 1.0;" width="6" x="216" y="327.0703"/><text fill="#000000" font-family="sans-serif" font-size="11" lengthAdjust="spacingAndGlyphs" textLength="198" x="228" y="334.4893">List&lt;T&gt; matchAll(Predicate&lt;T&gt; filterFunc)</text></a><!--MD5=[274ad5661286b626a93603d287cbf95a]
class java.lang.Object--><rect fill="#D3D3D3" filter="url(#f1l1lrspu72ce1)" height="40.1875" id="java.lang.Object" style="stroke: #A80036; stroke-width: 1.5;" width="78" x="6" y="401"/><rect fill="#D3D3D3" height="40.1875" style="stroke: #A80036; stroke-width: 1.5;" width="78" x="6" y="401"/><ellipse cx="21" cy="421.0938" fill="#ADD1B2" rx="11" ry="11" style="stroke: #A80036; stroke-width: 1.0;"/><path d="M23.7656,416.9688 Q23.9219,416.75 24.1094,416.6406 Q24.2969,416.5313 24.5156,416.5313 Q24.8906,416.5313 25.125,416.7891 Q25.3594,417.0469 25.3594,417.6563 L25.3594,419.1094 Q25.3594,419.7188 25.125,419.9844 Q24.8906,420.25 24.5156,420.25 Q24.1719,420.25 23.9688,420.0469 Q23.7656,419.8594 23.6563,419.3438 Q23.6094,418.9844 23.4219,418.7969 Q23.0938,418.4219 22.4844,418.2031 Q21.875,417.9844 21.25,417.9844 Q20.4844,417.9844 19.8516,418.3125 Q19.2188,418.6406 18.7266,419.3906 Q18.2344,420.1406 18.2344,421.1719 L18.2344,422.2656 Q18.2344,423.5 19.125,424.3203 Q20.0156,425.1406 21.6094,425.1406 Q22.5469,425.1406 23.2031,424.8906 Q23.5938,424.7344 24.0156,424.2969 Q24.2813,424.0313 24.4297,423.9531 Q24.5781,423.875 24.7813,423.875 Q25.1094,423.875 25.3672,424.1328 Q25.625,424.3906 25.625,424.7344 Q25.625,425.0781 25.2813,425.4844 Q24.7813,426.0625 23.9844,426.3906 Q22.9063,426.8438 21.6094,426.8438 Q20.0938,426.8438 18.8906,426.2188 Q17.9063,425.7188 17.2188,424.6484 Q16.5313,423.5781 16.5313,422.2969 L16.5313,421.1406 Q16.5313,419.8125 17.1484,418.6641 Q17.7656,417.5156 18.8594,416.8984 Q19.9531,416.2813 21.1875,416.2813 Q21.9219,416.2813 22.5703,416.4453 Q23.2188,416.6094 23.7656,416.9688 Z "/><text fill="#000000" font-family="sans-serif" font-size="14" font-weight="bold" lengthAdjust="spacingAndGlyphs" textLength="46" x="35" y="420.5332">Object</text><text fill="#000000" font-family="sans-serif" font-size="10" lengthAdjust="spacingAndGlyphs" textLength="44" x="36" y="433.9902">java.lang</text><!--MD5=[88b0dd6ca0ba9efb9d04f4611461b30c]
class eapli.framework.infrastructure.repositories.IterableRepositoryObjectObject--><a href="../../../../../../eapli/framework/infrastructure/repositories/IterableRepository.html" target="_parent" title="eapli.framework.infrastructure.repositories.IterableRepository" xlink:actuate="onRequest" xlink:href="../../../../../../eapli/framework/infrastructure/repositories/IterableRepository.html" xlink:show="new" xlink:title="eapli.framework.infrastructure.repositories.IterableRepository" xlink:type="simple"><rect fill="#D3D3D3" filter="url(#f1l1lrspu72ce1)" height="40.1875" id="eapli.framework.infrastructure.repositories.IterableRepositoryObjectObject" style="stroke: #A80036; stroke-width: 1.5;" width="228" x="119" y="401"/><rect fill="#D3D3D3" height="40.1875" style="stroke: #A80036; stroke-width: 1.5;" width="228" x="119" y="401"/><ellipse cx="134" cy="421.0938" fill="#B4A7E5" rx="11" ry="11" style="stroke: #A80036; stroke-width: 1.0;"/><path d="M134.9531,417.7344 L134.9531,424.3906 L136.6719,424.3906 Q137.2813,424.3906 137.5469,424.625 Q137.8125,424.8594 137.8125,425.25 Q137.8125,425.625 137.5469,425.8594 Q137.2813,426.0938 136.6719,426.0938 L131.5313,426.0938 Q130.9219,426.0938 130.6563,425.8594 Q130.3906,425.625 130.3906,425.2344 Q130.3906,424.8594 130.6563,424.625 Q130.9219,424.3906 131.5313,424.3906 L133.25,424.3906 L133.25,417.7344 L131.5313,417.7344 Q130.9219,417.7344 130.6563,417.5 Q130.3906,417.2656 130.3906,416.875 Q130.3906,416.5 130.6563,416.2656 Q130.9219,416.0313 131.5313,416.0313 L136.6719,416.0313 Q137.2813,416.0313 137.5469,416.2656 Q137.8125,416.5 137.8125,416.875 Q137.8125,417.2656 137.5469,417.5 Q137.2813,417.7344 136.6719,417.7344 L134.9531,417.7344 Z "/><text fill="#000000" font-family="sans-serif" font-size="14" font-style="italic" font-weight="bold" lengthAdjust="spacingAndGlyphs" textLength="164" x="164" y="420.5332">IterableRepository&lt;T, K&gt;</text><text fill="#000000" font-family="sans-serif" font-size="10" font-style="italic" lengthAdjust="spacingAndGlyphs" textLength="196" x="148" y="433.9902">eapli.framework.infrastructure.repositories</text></a><!--MD5=[8ff66bd4b776a2492940b8a4799dc12d]
class eapli.framework.domain.activerecord.ActiveRecord--><a href="../../../../../../eapli/framework/domain/activerecord/ActiveRecord.html" target="_parent" title="eapli.framework.domain.activerecord.ActiveRecord" xlink:actuate="onRequest" xlink:href="../../../../../../eapli/framework/domain/activerecord/ActiveRecord.html" xlink:show="new" xlink:title="eapli.framework.domain.activerecord.ActiveRecord" xlink:type="simple"><rect fill="#FFFFFF" filter="url(#f1l1lrspu72ce1)" height="40.1875" id="eapli.framework.domain.activerecord.ActiveRecord" style="stroke: #A80036; stroke-width: 1.5;" width="203" x="382.5" y="401"/><rect fill="#FFFFFF" height="40.1875" style="stroke: #A80036; stroke-width: 1.5;" width="203" x="382.5" y="401"/><ellipse cx="397.5" cy="421.0938" fill="#B4A7E5" rx="11" ry="11" style="stroke: #A80036; stroke-width: 1.0;"/><path d="M398.4531,417.7344 L398.4531,424.3906 L400.1719,424.3906 Q400.7813,424.3906 401.0469,424.625 Q401.3125,424.8594 401.3125,425.25 Q401.3125,425.625 401.0469,425.8594 Q400.7813,426.0938 400.1719,426.0938 L395.0313,426.0938 Q394.4219,426.0938 394.1563,425.8594 Q393.8906,425.625 393.8906,425.2344 Q393.8906,424.8594 394.1563,424.625 Q394.4219,424.3906 395.0313,424.3906 L396.75,424.3906 L396.75,417.7344 L395.0313,417.7344 Q394.4219,417.7344 394.1563,417.5 Q393.8906,417.2656 393.8906,416.875 Q393.8906,416.5 394.1563,416.2656 Q394.4219,416.0313 395.0313,416.0313 L400.1719,416.0313 Q400.7813,416.0313 401.0469,416.2656 Q401.3125,416.5 401.3125,416.875 Q401.3125,417.2656 401.0469,417.5 Q400.7813,417.7344 400.1719,417.7344 L398.4531,417.7344 Z "/><text fill="#000000" font-family="sans-serif" font-size="14" font-style="italic" font-weight="bold" lengthAdjust="spacingAndGlyphs" textLength="91" x="451.5" y="420.5332">ActiveRecord</text><text fill="#000000" font-family="sans-serif" font-size="10" font-style="italic" lengthAdjust="spacingAndGlyphs" textLength="171" x="411.5" y="433.9902">eapli.framework.domain.activerecord</text></a><!--MD5=[5a5af9b0547913863cbe0ddf55a9ab5e]
class java.io.Serializable--><rect fill="#D3D3D3" filter="url(#f1l1lrspu72ce1)" height="40.1875" id="java.io.Serializable" style="stroke: #A80036; stroke-width: 1.5;" width="110" x="621" y="401"/><rect fill="#D3D3D3" height="40.1875" style="stroke: #A80036; stroke-width: 1.5;" width="110" x="621" y="401"/><ellipse cx="636" cy="421.0938" fill="#B4A7E5" rx="11" ry="11" style="stroke: #A80036; stroke-width: 1.0;"/><path d="M636.9531,417.7344 L636.9531,424.3906 L638.6719,424.3906 Q639.2813,424.3906 639.5469,424.625 Q639.8125,424.8594 639.8125,425.25 Q639.8125,425.625 639.5469,425.8594 Q639.2813,426.0938 638.6719,426.0938 L633.5313,426.0938 Q632.9219,426.0938 632.6563,425.8594 Q632.3906,425.625 632.3906,425.2344 Q632.3906,424.8594 632.6563,424.625 Q632.9219,424.3906 633.5313,424.3906 L635.25,424.3906 L635.25,417.7344 L633.5313,417.7344 Q632.9219,417.7344 632.6563,417.5 Q632.3906,417.2656 632.3906,416.875 Q632.3906,416.5 632.6563,416.2656 Q632.9219,416.0313 633.5313,416.0313 L638.6719,416.0313 Q639.2813,416.0313 639.5469,416.2656 Q639.8125,416.5 639.8125,416.875 Q639.8125,417.2656 639.5469,417.5 Q639.2813,417.7344 638.6719,417.7344 L636.9531,417.7344 Z "/><text fill="#000000" font-family="sans-serif" font-size="14" font-style="italic" font-weight="bold" lengthAdjust="spacingAndGlyphs" textLength="78" x="650" y="420.5332">Serializable</text><text fill="#000000" font-family="sans-serif" font-size="10" font-style="italic" lengthAdjust="spacingAndGlyphs" textLength="31" x="673.5" y="433.9902">java.io</text><!--MD5=[5fb51b69a5ddd3bdd213b14f3e1147b3]
link eapli.framework.infrastructure.repositories.impl.inmemory.InMemoryRepository to java.lang.Object--><path d="M207.917,175 C127.588,175 45,175 45,175 C45,175 45,395.8688 45,395.8688 " fill="none" id="eapli.framework.infrastructure.repositories.impl.inmemory.InMemoryRepository-&gt;java.lang.Object" style="stroke: #A80036; stroke-width: 1.0; stroke-dasharray: 7.0,7.0;"/><polygon fill="#A80036" points="45,400.8688,49,391.8688,45,395.8688,41,391.8688,45,400.8688" style="stroke: #A80036; stroke-width: 1.0;"/><!--MD5=[2eaa6ce36f14afbb130ba2d5a0f7fdd8]
link eapli.framework.infrastructure.repositories.impl.inmemory.InMemoryRepository to eapli.framework.infrastructure.repositories.IterableRepositoryObjectObject--><path d="M277.5,341.3089 C277.5,341.3089 277.5,380.9731 277.5,380.9731 " fill="none" id="eapli.framework.infrastructure.repositories.impl.inmemory.InMemoryRepository-&gt;eapli.framework.infrastructure.repositories.IterableRepositoryObjectObject" style="stroke: #A80036; stroke-width: 1.0; stroke-dasharray: 7.0,7.0;"/><polygon fill="none" points="284.5,380.9732,277.5,400.9731,270.5,380.9731,284.5,380.9732" style="stroke: #A80036; stroke-width: 1.0;"/><!--MD5=[8dcbf180a73007d372748d456e6e46ea]
link eapli.framework.infrastructure.repositories.impl.inmemory.InMemoryRepository to eapli.framework.domain.activerecord.ActiveRecord--><path d="M445.25,341.3089 C445.25,341.3089 445.25,395.9731 445.25,395.9731 " fill="none" id="eapli.framework.infrastructure.repositories.impl.inmemory.InMemoryRepository-&gt;eapli.framework.domain.activerecord.ActiveRecord" style="stroke: #A80036; stroke-width: 1.0; stroke-dasharray: 7.0,7.0;"/><polygon fill="#A80036" points="445.25,400.9731,449.25,391.9731,445.25,395.9731,441.25,391.9731,445.25,400.9731" style="stroke: #A80036; stroke-width: 1.0;"/><!--MD5=[9dcf091a90e6c1d41a9d77160a233dd0]
link eapli.framework.infrastructure.repositories.impl.inmemory.InMemoryRepository to java.io.Serializable--><path d="M508.153,175 C590.49,175 676,175 676,175 C676,175 676,395.8688 676,395.8688 " fill="none" id="eapli.framework.infrastructure.repositories.impl.inmemory.InMemoryRepository-&gt;java.io.Serializable" style="stroke: #A80036; stroke-width: 1.0; stroke-dasharray: 7.0,7.0;"/><polygon fill="#A80036" points="676,400.8688,680,391.8688,676,395.8688,672,391.8688,676,400.8688" style="stroke: #A80036; stroke-width: 1.0;"/><!--MD5=[451c47cb68530db8babb87577a4e4fff]
@startuml

skinparam svgLinkTarget _parent
skinparam linetype ortho
set namespaceSeparator none
class "<b><size:14>InMemoryRepository</b>\n<size:10>eapli.framework.infrastructure.repositories.impl.inmemory" as eapli.framework.infrastructure.repositories.impl.inmemory.InMemoryRepository  [[../../../../../../eapli/framework/infrastructure/repositories/impl/inmemory/InMemoryRepository.html{eapli.framework.infrastructure.repositories.impl.inmemory.InMemoryRepository}]] {
{static} -Map DATA
-Class<T> entityClass
-Function<?, ?> identityGenerator
+InMemoryRepository(Function<?, ?> identityGenerator)
+Optional<T> first()
+Iterable<T> first(int n)
+void delete(Object entity)
+void deleteById(Object entityId)
+Iterator<T> iterator(int pagesize)
+Object save(Object entity)
+Iterable<T> findAll()
+Optional<T> findById(Object id)
+long count()
+Iterator<T> iterator()
+long size()
#Map<K, T> data()
#Stream<T> valuesStream()
#Iterable<T> match(Predicate<T> filterFunc)
#Optional<T> matchOne(Predicate<T> filterFunc)
-List<T> matchAll(Predicate<T> filterFunc)
}




class "<b><size:14>Object</b>\n<size:10>java.lang" as java.lang.Object  #lightgrey {
}

hide java.lang.Object fields
hide java.lang.Object methods

eapli.framework.infrastructure.repositories.impl.inmemory.InMemoryRepository ..> java.lang.Object


interface "<b><size:14>IterableRepository<T, K></b>\n<size:10>eapli.framework.infrastructure.repositories" as eapli.framework.infrastructure.repositories.IterableRepositoryObjectObject  [[../../../../../../eapli/framework/infrastructure/repositories/IterableRepository.html{eapli.framework.infrastructure.repositories.IterableRepository}]] #lightgrey {
}

hide eapli.framework.infrastructure.repositories.IterableRepositoryObjectObject fields
hide eapli.framework.infrastructure.repositories.IterableRepositoryObjectObject methods

eapli.framework.infrastructure.repositories.impl.inmemory.InMemoryRepository ..|> eapli.framework.infrastructure.repositories.IterableRepositoryObjectObject



interface "<b><size:14>ActiveRecord</b>\n<size:10>eapli.framework.domain.activerecord" as eapli.framework.domain.activerecord.ActiveRecord  [[../../../../../../eapli/framework/domain/activerecord/ActiveRecord.html{eapli.framework.domain.activerecord.ActiveRecord}]] #white {
}

hide eapli.framework.domain.activerecord.ActiveRecord fields
hide eapli.framework.domain.activerecord.ActiveRecord methods

eapli.framework.infrastructure.repositories.impl.inmemory.InMemoryRepository ..> eapli.framework.domain.activerecord.ActiveRecord


interface "<b><size:14>Serializable</b>\n<size:10>java.io" as java.io.Serializable  #lightgrey {
}

hide java.io.Serializable fields
hide java.io.Serializable methods

eapli.framework.infrastructure.repositories.impl.inmemory.InMemoryRepository ..> java.io.Serializable





@enduml

PlantUML version 1.2020.04(Thu Mar 19 10:16:49 GMT 2020)
(GPL source distribution)
Java Runtime: Java(TM) SE Runtime Environment
JVM: Java HotSpot(TM) 64-Bit Server VM
Java Version: 1.8.0_202-b08
Operating System: Windows 10
Default Encoding: Cp1252
Language: en
Country: US
--></g></svg>