@startuml

skinparam svgLinkTarget _parent
skinparam linetype ortho
set namespaceSeparator none
class "<b><size:14>InMemoryRepository</b>\n<size:10>eapli.framework.infrastructure.repositories.impl.inmemory" as eapli.framework.infrastructure.repositories.impl.inmemory.InMemoryRepository  [[../../../../../../eapli/framework/infrastructure/repositories/impl/inmemory/InMemoryRepository.html{eapli.framework.infrastructure.repositories.impl.inmemory.InMemoryRepository}]] {
{static} -Map DATA
-Class<T> entityClass
-Function<?, ?> identityGenerator
+InMemoryRepository(Function<?, ?> identityGenerator)
+Optional<T> first()
+Iterable<T> first(int n)
+void delete(Object entity)
+void deleteById(Object entityId)
+Iterator<T> iterator(int pagesize)
+Object save(Object entity)
+Iterable<T> findAll()
+Optional<T> findById(Object id)
+long count()
+Iterator<T> iterator()
+long size()
#Map<K, T> data()
#Stream<T> valuesStream()
#Iterable<T> match(Predicate<T> filterFunc)
#Optional<T> matchOne(Predicate<T> filterFunc)
-List<T> matchAll(Predicate<T> filterFunc)
}




class "<b><size:14>Object</b>\n<size:10>java.lang" as java.lang.Object  #lightgrey {
}

hide java.lang.Object fields
hide java.lang.Object methods

eapli.framework.infrastructure.repositories.impl.inmemory.InMemoryRepository ..> java.lang.Object


interface "<b><size:14>IterableRepository<T, K></b>\n<size:10>eapli.framework.infrastructure.repositories" as eapli.framework.infrastructure.repositories.IterableRepositoryObjectObject  [[../../../../../../eapli/framework/infrastructure/repositories/IterableRepository.html{eapli.framework.infrastructure.repositories.IterableRepository}]] #lightgrey {
}

hide eapli.framework.infrastructure.repositories.IterableRepositoryObjectObject fields
hide eapli.framework.infrastructure.repositories.IterableRepositoryObjectObject methods

eapli.framework.infrastructure.repositories.impl.inmemory.InMemoryRepository ..|> eapli.framework.infrastructure.repositories.IterableRepositoryObjectObject



interface "<b><size:14>ActiveRecord</b>\n<size:10>eapli.framework.domain.activerecord" as eapli.framework.domain.activerecord.ActiveRecord  [[../../../../../../eapli/framework/domain/activerecord/ActiveRecord.html{eapli.framework.domain.activerecord.ActiveRecord}]] #white {
}

hide eapli.framework.domain.activerecord.ActiveRecord fields
hide eapli.framework.domain.activerecord.ActiveRecord methods

eapli.framework.infrastructure.repositories.impl.inmemory.InMemoryRepository ..> eapli.framework.domain.activerecord.ActiveRecord


interface "<b><size:14>Serializable</b>\n<size:10>java.io" as java.io.Serializable  #lightgrey {
}

hide java.io.Serializable fields
hide java.io.Serializable methods

eapli.framework.infrastructure.repositories.impl.inmemory.InMemoryRepository ..> java.io.Serializable





@enduml
