<?xml version="1.0" encoding="UTF-8" standalone="no"?><svg xmlns="http://www.w3.org/2000/svg" xmlns:xlink="http://www.w3.org/1999/xlink" contentScriptType="application/ecmascript" contentStyleType="text/css" height="231px" preserveAspectRatio="none" style="width:1262px;height:231px;" version="1.1" viewBox="0 0 1262 231" width="1262px" zoomAndPan="magnify"><defs><filter height="300%" id="f1700gw6jckn4x" width="300%" x="-1" y="-1"><feGaussianBlur result="blurOut" stdDeviation="2.0"/><feColorMatrix in="blurOut" result="blurOut2" type="matrix" values="0 0 0 0 0 0 0 0 0 0 0 0 0 0 0 0 0 0 .4 0"/><feOffset dx="4.0" dy="4.0" in="blurOut2" result="blurOut3"/><feBlend in="SourceGraphic" in2="blurOut3" mode="normal"/></filter></defs><g><!--MD5=[e33e9c8a8faf20b8072deee35366ebac]
class eapli.framework.infrastructure.repositories.impl.inmemory.InMemoryDomainRepository--><a href="../../../../../../eapli/framework/infrastructure/repositories/impl/inmemory/InMemoryDomainRepository.html" target="_parent" title="eapli.framework.infrastructure.repositories.impl.inmemory.InMemoryDomainRepository" xlink:actuate="onRequest" xlink:href="../../../../../../eapli/framework/infrastructure/repositories/impl/inmemory/InMemoryDomainRepository.html" xlink:show="new" xlink:title="eapli.framework.infrastructure.repositories.impl.inmemory.InMemoryDomainRepository" xlink:type="simple"><rect fill="#FEFECE" filter="url(#f1700gw6jckn4x)" height="111.5313" id="eapli.framework.infrastructure.repositories.impl.inmemory.InMemoryDomainRepository" style="stroke: #A80036; stroke-width: 1.5;" width="320" x="543" y="8"/><ellipse cx="567" cy="28.0938" fill="#ADD1B2" rx="11" ry="11" style="stroke: #A80036; stroke-width: 1.0;"/><path d="M569.7656,23.9688 Q569.9219,23.75 570.1094,23.6406 Q570.2969,23.5313 570.5156,23.5313 Q570.8906,23.5313 571.125,23.7891 Q571.3594,24.0469 571.3594,24.6563 L571.3594,26.1094 Q571.3594,26.7188 571.125,26.9844 Q570.8906,27.25 570.5156,27.25 Q570.1719,27.25 569.9688,27.0469 Q569.7656,26.8594 569.6563,26.3438 Q569.6094,25.9844 569.4219,25.7969 Q569.0938,25.4219 568.4844,25.2031 Q567.875,24.9844 567.25,24.9844 Q566.4844,24.9844 565.8516,25.3125 Q565.2188,25.6406 564.7266,26.3906 Q564.2344,27.1406 564.2344,28.1719 L564.2344,29.2656 Q564.2344,30.5 565.125,31.3203 Q566.0156,32.1406 567.6094,32.1406 Q568.5469,32.1406 569.2031,31.8906 Q569.5938,31.7344 570.0156,31.2969 Q570.2813,31.0313 570.4297,30.9531 Q570.5781,30.875 570.7813,30.875 Q571.1094,30.875 571.3672,31.1328 Q571.625,31.3906 571.625,31.7344 Q571.625,32.0781 571.2813,32.4844 Q570.7813,33.0625 569.9844,33.3906 Q568.9063,33.8438 567.6094,33.8438 Q566.0938,33.8438 564.8906,33.2188 Q563.9063,32.7188 563.2188,31.6484 Q562.5313,30.5781 562.5313,29.2969 L562.5313,28.1406 Q562.5313,26.8125 563.1484,25.6641 Q563.7656,24.5156 564.8594,23.8984 Q565.9531,23.2813 567.1875,23.2813 Q567.9219,23.2813 568.5703,23.4453 Q569.2188,23.6094 569.7656,23.9688 Z "/><text fill="#000000" font-family="sans-serif" font-size="14" font-weight="bold" lengthAdjust="spacingAndGlyphs" textLength="197" x="618.5" y="27.5332">InMemoryDomainRepository</text><text fill="#000000" font-family="sans-serif" font-size="10" lengthAdjust="spacingAndGlyphs" textLength="268" x="583" y="40.9902">eapli.framework.infrastructure.repositories.impl.inmemory</text><line style="stroke: #A80036; stroke-width: 1.5;" x1="544" x2="862" y1="48.1875" y2="48.1875"/><line style="stroke: #A80036; stroke-width: 1.5;" x1="544" x2="862" y1="56.1875" y2="56.1875"/><ellipse cx="554" cy="67.1875" fill="#84BE84" rx="3" ry="3" style="stroke: #038048; stroke-width: 1.0;"/><text fill="#000000" font-family="sans-serif" font-size="11" lengthAdjust="spacingAndGlyphs" textLength="141" x="563" y="71.6064">InMemoryDomainRepository()</text><polygon fill="#FFFF44" points="554,76.0234,558,80.0234,554,84.0234,550,80.0234" style="stroke: #B38D22; stroke-width: 1.0;"/><text fill="#000000" font-family="sans-serif" font-size="11" lengthAdjust="spacingAndGlyphs" textLength="294" x="563" y="85.4424">InMemoryDomainRepository(Function&lt;?, I&gt; identityGenerator)</text><ellipse cx="554" cy="94.8594" fill="#84BE84" rx="3" ry="3" style="stroke: #038048; stroke-width: 1.0;"/><text fill="#000000" font-family="sans-serif" font-size="11" lengthAdjust="spacingAndGlyphs" textLength="180" x="563" y="99.2783">Optional&lt;T&gt; ofIdentity(Comparable id)</text><ellipse cx="554" cy="108.6953" fill="#84BE84" rx="3" ry="3" style="stroke: #038048; stroke-width: 1.0;"/><text fill="#000000" font-family="sans-serif" font-size="11" lengthAdjust="spacingAndGlyphs" textLength="174" x="563" y="113.1143">void deleteOfIdentity(Comparable id)</text></a><!--MD5=[994e042b8ab4edaec912d37ae54f5c3c]
class eapli.framework.infrastructure.repositories.impl.inmemory.InMemoryRepositoryAggregateRootComparable--><a href="../../../../../../eapli/framework/infrastructure/repositories/impl/inmemory/InMemoryRepository.html" target="_parent" title="eapli.framework.infrastructure.repositories.impl.inmemory.InMemoryRepository" xlink:actuate="onRequest" xlink:href="../../../../../../eapli/framework/infrastructure/repositories/impl/inmemory/InMemoryRepository.html" xlink:show="new" xlink:title="eapli.framework.infrastructure.repositories.impl.inmemory.InMemoryRepository" xlink:type="simple"><rect fill="#FEFECE" filter="url(#f1700gw6jckn4x)" height="40.1875" id="eapli.framework.infrastructure.repositories.impl.inmemory.InMemoryRepositoryAggregateRootComparable" style="stroke: #A80036; stroke-width: 1.5;" width="300" x="6" y="180"/><ellipse cx="21" cy="200.0938" fill="#ADD1B2" rx="11" ry="11" style="stroke: #A80036; stroke-width: 1.0;"/><path d="M23.7656,195.9688 Q23.9219,195.75 24.1094,195.6406 Q24.2969,195.5313 24.5156,195.5313 Q24.8906,195.5313 25.125,195.7891 Q25.3594,196.0469 25.3594,196.6563 L25.3594,198.1094 Q25.3594,198.7188 25.125,198.9844 Q24.8906,199.25 24.5156,199.25 Q24.1719,199.25 23.9688,199.0469 Q23.7656,198.8594 23.6563,198.3438 Q23.6094,197.9844 23.4219,197.7969 Q23.0938,197.4219 22.4844,197.2031 Q21.875,196.9844 21.25,196.9844 Q20.4844,196.9844 19.8516,197.3125 Q19.2188,197.6406 18.7266,198.3906 Q18.2344,199.1406 18.2344,200.1719 L18.2344,201.2656 Q18.2344,202.5 19.125,203.3203 Q20.0156,204.1406 21.6094,204.1406 Q22.5469,204.1406 23.2031,203.8906 Q23.5938,203.7344 24.0156,203.2969 Q24.2813,203.0313 24.4297,202.9531 Q24.5781,202.875 24.7813,202.875 Q25.1094,202.875 25.3672,203.1328 Q25.625,203.3906 25.625,203.7344 Q25.625,204.0781 25.2813,204.4844 Q24.7813,205.0625 23.9844,205.3906 Q22.9063,205.8438 21.6094,205.8438 Q20.0938,205.8438 18.8906,205.2188 Q17.9063,204.7188 17.2188,203.6484 Q16.5313,202.5781 16.5313,201.2969 L16.5313,200.1406 Q16.5313,198.8125 17.1484,197.6641 Q17.7656,196.5156 18.8594,195.8984 Q19.9531,195.2813 21.1875,195.2813 Q21.9219,195.2813 22.5703,195.4453 Q23.2188,195.6094 23.7656,195.9688 Z "/><text fill="#000000" font-family="sans-serif" font-size="14" font-weight="bold" lengthAdjust="spacingAndGlyphs" textLength="181" x="78.5" y="199.5332">InMemoryRepository&lt;T, I&gt;</text><text fill="#000000" font-family="sans-serif" font-size="10" lengthAdjust="spacingAndGlyphs" textLength="268" x="35" y="212.9902">eapli.framework.infrastructure.repositories.impl.inmemory</text></a><!--MD5=[aaa3afea0423f8bbe6dedd0d6399df18]
class eapli.framework.domain.model.AggregateRoot--><a href="../../../../../../eapli/framework/domain/model/AggregateRoot.html" target="_parent" title="eapli.framework.domain.model.AggregateRoot" xlink:actuate="onRequest" xlink:href="../../../../../../eapli/framework/domain/model/AggregateRoot.html" xlink:show="new" xlink:title="eapli.framework.domain.model.AggregateRoot" xlink:type="simple"><rect fill="#FFFFFF" filter="url(#f1700gw6jckn4x)" height="40.1875" id="eapli.framework.domain.model.AggregateRoot" style="stroke: #A80036; stroke-width: 1.5;" width="174" x="341" y="180"/><rect fill="#FFFFFF" height="40.1875" style="stroke: #A80036; stroke-width: 1.5;" width="174" x="341" y="180"/><ellipse cx="356" cy="200.0938" fill="#B4A7E5" rx="11" ry="11" style="stroke: #A80036; stroke-width: 1.0;"/><path d="M356.9531,196.7344 L356.9531,203.3906 L358.6719,203.3906 Q359.2813,203.3906 359.5469,203.625 Q359.8125,203.8594 359.8125,204.25 Q359.8125,204.625 359.5469,204.8594 Q359.2813,205.0938 358.6719,205.0938 L353.5313,205.0938 Q352.9219,205.0938 352.6563,204.8594 Q352.3906,204.625 352.3906,204.2344 Q352.3906,203.8594 352.6563,203.625 Q352.9219,203.3906 353.5313,203.3906 L355.25,203.3906 L355.25,196.7344 L353.5313,196.7344 Q352.9219,196.7344 352.6563,196.5 Q352.3906,196.2656 352.3906,195.875 Q352.3906,195.5 352.6563,195.2656 Q352.9219,195.0313 353.5313,195.0313 L358.6719,195.0313 Q359.2813,195.0313 359.5469,195.2656 Q359.8125,195.5 359.8125,195.875 Q359.8125,196.2656 359.5469,196.5 Q359.2813,196.7344 358.6719,196.7344 L356.9531,196.7344 Z "/><text fill="#000000" font-family="sans-serif" font-size="14" font-style="italic" font-weight="bold" lengthAdjust="spacingAndGlyphs" textLength="100" x="391" y="199.5332">AggregateRoot</text><text fill="#000000" font-family="sans-serif" font-size="10" font-style="italic" lengthAdjust="spacingAndGlyphs" textLength="142" x="370" y="212.9902">eapli.framework.domain.model</text></a><!--MD5=[008d82c49f85b4d489e041917c99c847]
class java.lang.Comparable--><rect fill="#D3D3D3" filter="url(#f1700gw6jckn4x)" height="40.1875" id="java.lang.Comparable" style="stroke: #A80036; stroke-width: 1.5;" width="113" x="550.5" y="180"/><rect fill="#D3D3D3" height="40.1875" style="stroke: #A80036; stroke-width: 1.5;" width="113" x="550.5" y="180"/><ellipse cx="565.5" cy="200.0938" fill="#B4A7E5" rx="11" ry="11" style="stroke: #A80036; stroke-width: 1.0;"/><path d="M566.4531,196.7344 L566.4531,203.3906 L568.1719,203.3906 Q568.7813,203.3906 569.0469,203.625 Q569.3125,203.8594 569.3125,204.25 Q569.3125,204.625 569.0469,204.8594 Q568.7813,205.0938 568.1719,205.0938 L563.0313,205.0938 Q562.4219,205.0938 562.1563,204.8594 Q561.8906,204.625 561.8906,204.2344 Q561.8906,203.8594 562.1563,203.625 Q562.4219,203.3906 563.0313,203.3906 L564.75,203.3906 L564.75,196.7344 L563.0313,196.7344 Q562.4219,196.7344 562.1563,196.5 Q561.8906,196.2656 561.8906,195.875 Q561.8906,195.5 562.1563,195.2656 Q562.4219,195.0313 563.0313,195.0313 L568.1719,195.0313 Q568.7813,195.0313 569.0469,195.2656 Q569.3125,195.5 569.3125,195.875 Q569.3125,196.2656 569.0469,196.5 Q568.7813,196.7344 568.1719,196.7344 L566.4531,196.7344 Z "/><text fill="#000000" font-family="sans-serif" font-size="14" font-style="italic" font-weight="bold" lengthAdjust="spacingAndGlyphs" textLength="81" x="579.5" y="199.5332">Comparable</text><text fill="#000000" font-family="sans-serif" font-size="10" font-style="italic" lengthAdjust="spacingAndGlyphs" textLength="43" x="598.5" y="212.9902">java.lang</text><!--MD5=[3e7c93b7605552ec92eb0411772992a0]
class eapli.framework.domain.repositories.DomainRepositoryComparableAggregateRoot--><a href="../../../../../../eapli/framework/domain/repositories/DomainRepository.html" target="_parent" title="eapli.framework.domain.repositories.DomainRepository" xlink:actuate="onRequest" xlink:href="../../../../../../eapli/framework/domain/repositories/DomainRepository.html" xlink:show="new" xlink:title="eapli.framework.domain.repositories.DomainRepository" xlink:type="simple"><rect fill="#D3D3D3" filter="url(#f1700gw6jckn4x)" height="40.1875" id="eapli.framework.domain.repositories.DomainRepositoryComparableAggregateRoot" style="stroke: #A80036; stroke-width: 1.5;" width="201" x="698.5" y="180"/><rect fill="#D3D3D3" height="40.1875" style="stroke: #A80036; stroke-width: 1.5;" width="201" x="698.5" y="180"/><ellipse cx="713.5" cy="200.0938" fill="#B4A7E5" rx="11" ry="11" style="stroke: #A80036; stroke-width: 1.0;"/><path d="M714.4531,196.7344 L714.4531,203.3906 L716.1719,203.3906 Q716.7813,203.3906 717.0469,203.625 Q717.3125,203.8594 717.3125,204.25 Q717.3125,204.625 717.0469,204.8594 Q716.7813,205.0938 716.1719,205.0938 L711.0313,205.0938 Q710.4219,205.0938 710.1563,204.8594 Q709.8906,204.625 709.8906,204.2344 Q709.8906,203.8594 710.1563,203.625 Q710.4219,203.3906 711.0313,203.3906 L712.75,203.3906 L712.75,196.7344 L711.0313,196.7344 Q710.4219,196.7344 710.1563,196.5 Q709.8906,196.2656 709.8906,195.875 Q709.8906,195.5 710.1563,195.2656 Q710.4219,195.0313 711.0313,195.0313 L716.1719,195.0313 Q716.7813,195.0313 717.0469,195.2656 Q717.3125,195.5 717.3125,195.875 Q717.3125,196.2656 717.0469,196.5 Q716.7813,196.7344 716.1719,196.7344 L714.4531,196.7344 Z "/><text fill="#000000" font-family="sans-serif" font-size="14" font-style="italic" font-weight="bold" lengthAdjust="spacingAndGlyphs" textLength="158" x="733" y="199.5332">DomainRepository&lt;I, T&gt;</text><text fill="#000000" font-family="sans-serif" font-size="10" font-style="italic" lengthAdjust="spacingAndGlyphs" textLength="169" x="727.5" y="212.9902">eapli.framework.domain.repositories</text></a><!--MD5=[274ad5661286b626a93603d287cbf95a]
class java.lang.Object--><rect fill="#D3D3D3" filter="url(#f1700gw6jckn4x)" height="40.1875" id="java.lang.Object" style="stroke: #A80036; stroke-width: 1.5;" width="78" x="935" y="180"/><rect fill="#D3D3D3" height="40.1875" style="stroke: #A80036; stroke-width: 1.5;" width="78" x="935" y="180"/><ellipse cx="950" cy="200.0938" fill="#ADD1B2" rx="11" ry="11" style="stroke: #A80036; stroke-width: 1.0;"/><path d="M952.7656,195.9688 Q952.9219,195.75 953.1094,195.6406 Q953.2969,195.5313 953.5156,195.5313 Q953.8906,195.5313 954.125,195.7891 Q954.3594,196.0469 954.3594,196.6563 L954.3594,198.1094 Q954.3594,198.7188 954.125,198.9844 Q953.8906,199.25 953.5156,199.25 Q953.1719,199.25 952.9688,199.0469 Q952.7656,198.8594 952.6563,198.3438 Q952.6094,197.9844 952.4219,197.7969 Q952.0938,197.4219 951.4844,197.2031 Q950.875,196.9844 950.25,196.9844 Q949.4844,196.9844 948.8516,197.3125 Q948.2188,197.6406 947.7266,198.3906 Q947.2344,199.1406 947.2344,200.1719 L947.2344,201.2656 Q947.2344,202.5 948.125,203.3203 Q949.0156,204.1406 950.6094,204.1406 Q951.5469,204.1406 952.2031,203.8906 Q952.5938,203.7344 953.0156,203.2969 Q953.2813,203.0313 953.4297,202.9531 Q953.5781,202.875 953.7813,202.875 Q954.1094,202.875 954.3672,203.1328 Q954.625,203.3906 954.625,203.7344 Q954.625,204.0781 954.2813,204.4844 Q953.7813,205.0625 952.9844,205.3906 Q951.9063,205.8438 950.6094,205.8438 Q949.0938,205.8438 947.8906,205.2188 Q946.9063,204.7188 946.2188,203.6484 Q945.5313,202.5781 945.5313,201.2969 L945.5313,200.1406 Q945.5313,198.8125 946.1484,197.6641 Q946.7656,196.5156 947.8594,195.8984 Q948.9531,195.2813 950.1875,195.2813 Q950.9219,195.2813 951.5703,195.4453 Q952.2188,195.6094 952.7656,195.9688 Z "/><text fill="#000000" font-family="sans-serif" font-size="14" font-weight="bold" lengthAdjust="spacingAndGlyphs" textLength="46" x="964" y="199.5332">Object</text><text fill="#000000" font-family="sans-serif" font-size="10" lengthAdjust="spacingAndGlyphs" textLength="44" x="965" y="212.9902">java.lang</text><!--MD5=[8ff66bd4b776a2492940b8a4799dc12d]
class eapli.framework.domain.activerecord.ActiveRecord--><a href="../../../../../../eapli/framework/domain/activerecord/ActiveRecord.html" target="_parent" title="eapli.framework.domain.activerecord.ActiveRecord" xlink:actuate="onRequest" xlink:href="../../../../../../eapli/framework/domain/activerecord/ActiveRecord.html" xlink:show="new" xlink:title="eapli.framework.domain.activerecord.ActiveRecord" xlink:type="simple"><rect fill="#FFFFFF" filter="url(#f1700gw6jckn4x)" height="40.1875" id="eapli.framework.domain.activerecord.ActiveRecord" style="stroke: #A80036; stroke-width: 1.5;" width="203" x="1048.5" y="180"/><rect fill="#FFFFFF" height="40.1875" style="stroke: #A80036; stroke-width: 1.5;" width="203" x="1048.5" y="180"/><ellipse cx="1063.5" cy="200.0938" fill="#B4A7E5" rx="11" ry="11" style="stroke: #A80036; stroke-width: 1.0;"/><path d="M1064.4531,196.7344 L1064.4531,203.3906 L1066.1719,203.3906 Q1066.7813,203.3906 1067.0469,203.625 Q1067.3125,203.8594 1067.3125,204.25 Q1067.3125,204.625 1067.0469,204.8594 Q1066.7813,205.0938 1066.1719,205.0938 L1061.0313,205.0938 Q1060.4219,205.0938 1060.1563,204.8594 Q1059.8906,204.625 1059.8906,204.2344 Q1059.8906,203.8594 1060.1563,203.625 Q1060.4219,203.3906 1061.0313,203.3906 L1062.75,203.3906 L1062.75,196.7344 L1061.0313,196.7344 Q1060.4219,196.7344 1060.1563,196.5 Q1059.8906,196.2656 1059.8906,195.875 Q1059.8906,195.5 1060.1563,195.2656 Q1060.4219,195.0313 1061.0313,195.0313 L1066.1719,195.0313 Q1066.7813,195.0313 1067.0469,195.2656 Q1067.3125,195.5 1067.3125,195.875 Q1067.3125,196.2656 1067.0469,196.5 Q1066.7813,196.7344 1066.1719,196.7344 L1064.4531,196.7344 Z "/><text fill="#000000" font-family="sans-serif" font-size="14" font-style="italic" font-weight="bold" lengthAdjust="spacingAndGlyphs" textLength="91" x="1117.5" y="199.5332">ActiveRecord</text><text fill="#000000" font-family="sans-serif" font-size="10" font-style="italic" lengthAdjust="spacingAndGlyphs" textLength="171" x="1077.5" y="212.9902">eapli.framework.domain.activerecord</text></a><!--MD5=[e4d5c92a1a9ae740d8347e49d126eac2]
link eapli.framework.infrastructure.repositories.impl.inmemory.InMemoryDomainRepository to eapli.framework.infrastructure.repositories.impl.inmemory.InMemoryRepositoryAggregateRootComparable--><path d="M542.946,64 C381.517,64 156,64 156,64 C156,64 156,159.9327 156,159.9327 " fill="none" id="eapli.framework.infrastructure.repositories.impl.inmemory.InMemoryDomainRepository-&gt;eapli.framework.infrastructure.repositories.impl.inmemory.InMemoryRepositoryAggregateRootComparable" style="stroke: #A80036; stroke-width: 1.0;"/><polygon fill="none" points="163,159.9328,156,179.9327,149,159.9327,163,159.9328" style="stroke: #A80036; stroke-width: 1.0;"/><!--MD5=[f3642073c3d2297012cad46308c383d7]
link eapli.framework.infrastructure.repositories.impl.inmemory.InMemoryDomainRepository to eapli.framework.domain.model.AggregateRoot--><path d="M546.75,120.1016 C546.75,157.5643 546.75,200 546.75,200 C546.75,200 520.239,200 520.239,200 " fill="none" id="eapli.framework.infrastructure.repositories.impl.inmemory.InMemoryDomainRepository-&gt;eapli.framework.domain.model.AggregateRoot" style="stroke: #A80036; stroke-width: 1.0; stroke-dasharray: 7.0,7.0;"/><polygon fill="#A80036" points="515.239,200,524.239,204,520.239,200,524.239,196,515.239,200" style="stroke: #A80036; stroke-width: 1.0;"/><!--MD5=[96ba8c7ec082deaf5b8525b560a35e40]
link eapli.framework.infrastructure.repositories.impl.inmemory.InMemoryDomainRepository to java.lang.Comparable--><path d="M607,120.1016 C607,120.1016 607,174.9304 607,174.9304 " fill="none" id="eapli.framework.infrastructure.repositories.impl.inmemory.InMemoryDomainRepository-&gt;java.lang.Comparable" style="stroke: #A80036; stroke-width: 1.0; stroke-dasharray: 7.0,7.0;"/><polygon fill="#A80036" points="607,179.9304,611,170.9304,607,174.9304,603,170.9304,607,179.9304" style="stroke: #A80036; stroke-width: 1.0;"/><!--MD5=[45a8c9f0260d6a35f772d2ab74253503]
link eapli.framework.infrastructure.repositories.impl.inmemory.InMemoryDomainRepository to eapli.framework.domain.repositories.DomainRepositoryComparableAggregateRoot--><path d="M780.75,120.1016 C780.75,120.1016 780.75,159.9304 780.75,159.9304 " fill="none" id="eapli.framework.infrastructure.repositories.impl.inmemory.InMemoryDomainRepository-&gt;eapli.framework.domain.repositories.DomainRepositoryComparableAggregateRoot" style="stroke: #A80036; stroke-width: 1.0; stroke-dasharray: 7.0,7.0;"/><polygon fill="none" points="787.75,159.9305,780.75,179.9304,773.75,159.9304,787.75,159.9305" style="stroke: #A80036; stroke-width: 1.0;"/><!--MD5=[aa098009c09b1c9c473fa96780c0074a]
link eapli.framework.infrastructure.repositories.impl.inmemory.InMemoryDomainRepository to java.lang.Object--><path d="M863.383,83 C921.897,83 974,83 974,83 C974,83 974,174.887 974,174.887 " fill="none" id="eapli.framework.infrastructure.repositories.impl.inmemory.InMemoryDomainRepository-&gt;java.lang.Object" style="stroke: #A80036; stroke-width: 1.0; stroke-dasharray: 7.0,7.0;"/><polygon fill="#A80036" points="974,179.887,978,170.887,974,174.887,970,170.887,974,179.887" style="stroke: #A80036; stroke-width: 1.0;"/><!--MD5=[21e1ad73031e41dcadadd66612db8d85]
link eapli.framework.infrastructure.repositories.impl.inmemory.InMemoryDomainRepository to eapli.framework.domain.activerecord.ActiveRecord--><path d="M863.115,46 C991.377,46 1150,46 1150,46 C1150,46 1150,174.8672 1150,174.8672 " fill="none" id="eapli.framework.infrastructure.repositories.impl.inmemory.InMemoryDomainRepository-&gt;eapli.framework.domain.activerecord.ActiveRecord" style="stroke: #A80036; stroke-width: 1.0; stroke-dasharray: 7.0,7.0;"/><polygon fill="#A80036" points="1150,179.8672,1154,170.8672,1150,174.8672,1146,170.8672,1150,179.8672" style="stroke: #A80036; stroke-width: 1.0;"/><!--MD5=[238610ddbda3a655fe19e24e3d596658]
@startuml

skinparam svgLinkTarget _parent
skinparam linetype ortho
set namespaceSeparator none
class "<b><size:14>InMemoryDomainRepository</b>\n<size:10>eapli.framework.infrastructure.repositories.impl.inmemory" as eapli.framework.infrastructure.repositories.impl.inmemory.InMemoryDomainRepository  [[../../../../../../eapli/framework/infrastructure/repositories/impl/inmemory/InMemoryDomainRepository.html{eapli.framework.infrastructure.repositories.impl.inmemory.InMemoryDomainRepository}]] {
+InMemoryDomainRepository()
#InMemoryDomainRepository(Function<?, I> identityGenerator)
+Optional<T> ofIdentity(Comparable id)
+void deleteOfIdentity(Comparable id)
}


class "<b><size:14>InMemoryRepository<T, I></b>\n<size:10>eapli.framework.infrastructure.repositories.impl.inmemory" as eapli.framework.infrastructure.repositories.impl.inmemory.InMemoryRepositoryAggregateRootComparable  [[../../../../../../eapli/framework/infrastructure/repositories/impl/inmemory/InMemoryRepository.html{eapli.framework.infrastructure.repositories.impl.inmemory.InMemoryRepository}]] {
}

hide eapli.framework.infrastructure.repositories.impl.inmemory.InMemoryRepositoryAggregateRootComparable fields
hide eapli.framework.infrastructure.repositories.impl.inmemory.InMemoryRepositoryAggregateRootComparable methods

eapli.framework.infrastructure.repositories.impl.inmemory.InMemoryDomainRepository - -|> eapli.framework.infrastructure.repositories.impl.inmemory.InMemoryRepositoryAggregateRootComparable

interface "<b><size:14>AggregateRoot</b>\n<size:10>eapli.framework.domain.model" as eapli.framework.domain.model.AggregateRoot  [[../../../../../../eapli/framework/domain/model/AggregateRoot.html{eapli.framework.domain.model.AggregateRoot}]] #white {
}

hide eapli.framework.domain.model.AggregateRoot fields
hide eapli.framework.domain.model.AggregateRoot methods

eapli.framework.infrastructure.repositories.impl.inmemory.InMemoryDomainRepository ..> eapli.framework.domain.model.AggregateRoot

interface "<b><size:14>Comparable</b>\n<size:10>java.lang" as java.lang.Comparable  #lightgrey {
}

hide java.lang.Comparable fields
hide java.lang.Comparable methods

eapli.framework.infrastructure.repositories.impl.inmemory.InMemoryDomainRepository ..> java.lang.Comparable

interface "<b><size:14>DomainRepository<I, T></b>\n<size:10>eapli.framework.domain.repositories" as eapli.framework.domain.repositories.DomainRepositoryComparableAggregateRoot  [[../../../../../../eapli/framework/domain/repositories/DomainRepository.html{eapli.framework.domain.repositories.DomainRepository}]] #lightgrey {
}

hide eapli.framework.domain.repositories.DomainRepositoryComparableAggregateRoot fields
hide eapli.framework.domain.repositories.DomainRepositoryComparableAggregateRoot methods

eapli.framework.infrastructure.repositories.impl.inmemory.InMemoryDomainRepository ..|> eapli.framework.domain.repositories.DomainRepositoryComparableAggregateRoot


class "<b><size:14>Object</b>\n<size:10>java.lang" as java.lang.Object  #lightgrey {
}

hide java.lang.Object fields
hide java.lang.Object methods

eapli.framework.infrastructure.repositories.impl.inmemory.InMemoryDomainRepository ..> java.lang.Object


interface "<b><size:14>ActiveRecord</b>\n<size:10>eapli.framework.domain.activerecord" as eapli.framework.domain.activerecord.ActiveRecord  [[../../../../../../eapli/framework/domain/activerecord/ActiveRecord.html{eapli.framework.domain.activerecord.ActiveRecord}]] #white {
}

hide eapli.framework.domain.activerecord.ActiveRecord fields
hide eapli.framework.domain.activerecord.ActiveRecord methods

eapli.framework.infrastructure.repositories.impl.inmemory.InMemoryDomainRepository ..> eapli.framework.domain.activerecord.ActiveRecord


@enduml

PlantUML version 1.2020.04(Thu Mar 19 10:16:49 GMT 2020)
(GPL source distribution)
Java Runtime: Java(TM) SE Runtime Environment
JVM: Java HotSpot(TM) 64-Bit Server VM
Java Version: 1.8.0_202-b08
Operating System: Windows 10
Default Encoding: Cp1252
Language: en
Country: US
--></g></svg>