<?xml version="1.0" encoding="UTF-8" standalone="no"?><svg xmlns="http://www.w3.org/2000/svg" xmlns:xlink="http://www.w3.org/1999/xlink" contentScriptType="application/ecmascript" contentStyleType="text/css" height="203px" preserveAspectRatio="none" style="width:713px;height:203px;" version="1.1" viewBox="0 0 713 203" width="713px" zoomAndPan="magnify"><defs><filter height="300%" id="f1oc01f52gtdfh" width="300%" x="-1" y="-1"><feGaussianBlur result="blurOut" stdDeviation="2.0"/><feColorMatrix in="blurOut" result="blurOut2" type="matrix" values="0 0 0 0 0 0 0 0 0 0 0 0 0 0 0 0 0 0 .4 0"/><feOffset dx="4.0" dy="4.0" in="blurOut2" result="blurOut3"/><feBlend in="SourceGraphic" in2="blurOut3" mode="normal"/></filter></defs><g><!--MD5=[b4e8ed01720c3c0ab85bc34a2f6b6b15]
class eapli.framework.infrastructure.repositories.impl.inmemory.InMemoryAutoNumberRepository--><a href="../../../../../../eapli/framework/infrastructure/repositories/impl/inmemory/InMemoryAutoNumberRepository.html" target="_parent" title="eapli.framework.infrastructure.repositories.impl.inmemory.InMemoryAutoNumberRepository" xlink:actuate="onRequest" xlink:href="../../../../../../eapli/framework/infrastructure/repositories/impl/inmemory/InMemoryAutoNumberRepository.html" xlink:show="new" xlink:title="eapli.framework.infrastructure.repositories.impl.inmemory.InMemoryAutoNumberRepository" xlink:type="simple"><rect fill="#FEFECE" filter="url(#f1oc01f52gtdfh)" height="83.8594" id="eapli.framework.infrastructure.repositories.impl.inmemory.InMemoryAutoNumberRepository" style="stroke: #A80036; stroke-width: 1.5;" width="300" x="289" y="8"/><ellipse cx="304" cy="28.0938" fill="#ADD1B2" rx="11" ry="11" style="stroke: #A80036; stroke-width: 1.0;"/><path d="M306.7656,23.9688 Q306.9219,23.75 307.1094,23.6406 Q307.2969,23.5313 307.5156,23.5313 Q307.8906,23.5313 308.125,23.7891 Q308.3594,24.0469 308.3594,24.6563 L308.3594,26.1094 Q308.3594,26.7188 308.125,26.9844 Q307.8906,27.25 307.5156,27.25 Q307.1719,27.25 306.9688,27.0469 Q306.7656,26.8594 306.6563,26.3438 Q306.6094,25.9844 306.4219,25.7969 Q306.0938,25.4219 305.4844,25.2031 Q304.875,24.9844 304.25,24.9844 Q303.4844,24.9844 302.8516,25.3125 Q302.2188,25.6406 301.7266,26.3906 Q301.2344,27.1406 301.2344,28.1719 L301.2344,29.2656 Q301.2344,30.5 302.125,31.3203 Q303.0156,32.1406 304.6094,32.1406 Q305.5469,32.1406 306.2031,31.8906 Q306.5938,31.7344 307.0156,31.2969 Q307.2813,31.0313 307.4297,30.9531 Q307.5781,30.875 307.7813,30.875 Q308.1094,30.875 308.3672,31.1328 Q308.625,31.3906 308.625,31.7344 Q308.625,32.0781 308.2813,32.4844 Q307.7813,33.0625 306.9844,33.3906 Q305.9063,33.8438 304.6094,33.8438 Q303.0938,33.8438 301.8906,33.2188 Q300.9063,32.7188 300.2188,31.6484 Q299.5313,30.5781 299.5313,29.2969 L299.5313,28.1406 Q299.5313,26.8125 300.1484,25.6641 Q300.7656,24.5156 301.8594,23.8984 Q302.9531,23.2813 304.1875,23.2813 Q304.9219,23.2813 305.5703,23.4453 Q306.2188,23.6094 306.7656,23.9688 Z "/><text fill="#000000" font-family="sans-serif" font-size="14" font-weight="bold" lengthAdjust="spacingAndGlyphs" textLength="232" x="336" y="27.5332">InMemoryAutoNumberRepository</text><text fill="#000000" font-family="sans-serif" font-size="10" lengthAdjust="spacingAndGlyphs" textLength="268" x="318" y="40.9902">eapli.framework.infrastructure.repositories.impl.inmemory</text><line style="stroke: #A80036; stroke-width: 1.5;" x1="290" x2="588" y1="48.1875" y2="48.1875"/><rect fill="none" height="6" style="stroke: #C82930; stroke-width: 1.0;" width="6" x="297" y="56.1875"/><text fill="#000000" font-family="sans-serif" font-size="11" lengthAdjust="spacingAndGlyphs" text-decoration="underline" textLength="156" x="309" y="63.6064">NumberSequenceGenerator gen</text><line style="stroke: #A80036; stroke-width: 1.5;" x1="290" x2="588" y1="70.0234" y2="70.0234"/><ellipse cx="300" cy="81.0234" fill="#84BE84" rx="3" ry="3" style="stroke: #038048; stroke-width: 1.0;"/><text fill="#000000" font-family="sans-serif" font-size="11" lengthAdjust="spacingAndGlyphs" textLength="166" x="309" y="85.4424">InMemoryAutoNumberRepository()</text></a><!--MD5=[71b2dc542b739c96e37f4accbbcef489]
class eapli.framework.domain.model.identities.impl.NumberSequenceGenerator--><a href="../../../../../../eapli/framework/domain/model/identities/impl/NumberSequenceGenerator.html" target="_parent" title="eapli.framework.domain.model.identities.impl.NumberSequenceGenerator" xlink:actuate="onRequest" xlink:href="../../../../../../eapli/framework/domain/model/identities/impl/NumberSequenceGenerator.html" xlink:show="new" xlink:title="eapli.framework.domain.model.identities.impl.NumberSequenceGenerator" xlink:type="simple"><rect fill="#FFFFFF" filter="url(#f1oc01f52gtdfh)" height="40.1875" id="eapli.framework.domain.model.identities.impl.NumberSequenceGenerator" style="stroke: #A80036; stroke-width: 1.5;" width="248" x="6" y="152"/><rect fill="#FFFFFF" height="40.1875" style="stroke: #A80036; stroke-width: 1.5;" width="248" x="6" y="152"/><ellipse cx="21" cy="172.0938" fill="#ADD1B2" rx="11" ry="11" style="stroke: #A80036; stroke-width: 1.0;"/><path d="M23.7656,167.9688 Q23.9219,167.75 24.1094,167.6406 Q24.2969,167.5313 24.5156,167.5313 Q24.8906,167.5313 25.125,167.7891 Q25.3594,168.0469 25.3594,168.6563 L25.3594,170.1094 Q25.3594,170.7188 25.125,170.9844 Q24.8906,171.25 24.5156,171.25 Q24.1719,171.25 23.9688,171.0469 Q23.7656,170.8594 23.6563,170.3438 Q23.6094,169.9844 23.4219,169.7969 Q23.0938,169.4219 22.4844,169.2031 Q21.875,168.9844 21.25,168.9844 Q20.4844,168.9844 19.8516,169.3125 Q19.2188,169.6406 18.7266,170.3906 Q18.2344,171.1406 18.2344,172.1719 L18.2344,173.2656 Q18.2344,174.5 19.125,175.3203 Q20.0156,176.1406 21.6094,176.1406 Q22.5469,176.1406 23.2031,175.8906 Q23.5938,175.7344 24.0156,175.2969 Q24.2813,175.0313 24.4297,174.9531 Q24.5781,174.875 24.7813,174.875 Q25.1094,174.875 25.3672,175.1328 Q25.625,175.3906 25.625,175.7344 Q25.625,176.0781 25.2813,176.4844 Q24.7813,177.0625 23.9844,177.3906 Q22.9063,177.8438 21.6094,177.8438 Q20.0938,177.8438 18.8906,177.2188 Q17.9063,176.7188 17.2188,175.6484 Q16.5313,174.5781 16.5313,173.2969 L16.5313,172.1406 Q16.5313,170.8125 17.1484,169.6641 Q17.7656,168.5156 18.8594,167.8984 Q19.9531,167.2813 21.1875,167.2813 Q21.9219,167.2813 22.5703,167.4453 Q23.2188,167.6094 23.7656,167.9688 Z "/><text fill="#000000" font-family="sans-serif" font-size="14" font-weight="bold" lengthAdjust="spacingAndGlyphs" textLength="198" x="44" y="171.5332">NumberSequenceGenerator</text><text fill="#000000" font-family="sans-serif" font-size="10" lengthAdjust="spacingAndGlyphs" textLength="216" x="35" y="184.9902">eapli.framework.domain.model.identities.impl</text></a><!--MD5=[89156ec475df1e775142a4c79a4445f4]
class eapli.framework.infrastructure.repositories.impl.inmemory.InMemoryRepositoryObjectLong--><a href="../../../../../../eapli/framework/infrastructure/repositories/impl/inmemory/InMemoryRepository.html" target="_parent" title="eapli.framework.infrastructure.repositories.impl.inmemory.InMemoryRepository" xlink:actuate="onRequest" xlink:href="../../../../../../eapli/framework/infrastructure/repositories/impl/inmemory/InMemoryRepository.html" xlink:show="new" xlink:title="eapli.framework.infrastructure.repositories.impl.inmemory.InMemoryRepository" xlink:type="simple"><rect fill="#FEFECE" filter="url(#f1oc01f52gtdfh)" height="40.1875" id="eapli.framework.infrastructure.repositories.impl.inmemory.InMemoryRepositoryObjectLong" style="stroke: #A80036; stroke-width: 1.5;" width="300" x="289" y="152"/><ellipse cx="304" cy="172.0938" fill="#ADD1B2" rx="11" ry="11" style="stroke: #A80036; stroke-width: 1.0;"/><path d="M306.7656,167.9688 Q306.9219,167.75 307.1094,167.6406 Q307.2969,167.5313 307.5156,167.5313 Q307.8906,167.5313 308.125,167.7891 Q308.3594,168.0469 308.3594,168.6563 L308.3594,170.1094 Q308.3594,170.7188 308.125,170.9844 Q307.8906,171.25 307.5156,171.25 Q307.1719,171.25 306.9688,171.0469 Q306.7656,170.8594 306.6563,170.3438 Q306.6094,169.9844 306.4219,169.7969 Q306.0938,169.4219 305.4844,169.2031 Q304.875,168.9844 304.25,168.9844 Q303.4844,168.9844 302.8516,169.3125 Q302.2188,169.6406 301.7266,170.3906 Q301.2344,171.1406 301.2344,172.1719 L301.2344,173.2656 Q301.2344,174.5 302.125,175.3203 Q303.0156,176.1406 304.6094,176.1406 Q305.5469,176.1406 306.2031,175.8906 Q306.5938,175.7344 307.0156,175.2969 Q307.2813,175.0313 307.4297,174.9531 Q307.5781,174.875 307.7813,174.875 Q308.1094,174.875 308.3672,175.1328 Q308.625,175.3906 308.625,175.7344 Q308.625,176.0781 308.2813,176.4844 Q307.7813,177.0625 306.9844,177.3906 Q305.9063,177.8438 304.6094,177.8438 Q303.0938,177.8438 301.8906,177.2188 Q300.9063,176.7188 300.2188,175.6484 Q299.5313,174.5781 299.5313,173.2969 L299.5313,172.1406 Q299.5313,170.8125 300.1484,169.6641 Q300.7656,168.5156 301.8594,167.8984 Q302.9531,167.2813 304.1875,167.2813 Q304.9219,167.2813 305.5703,167.4453 Q306.2188,167.6094 306.7656,167.9688 Z "/><text fill="#000000" font-family="sans-serif" font-size="14" font-weight="bold" lengthAdjust="spacingAndGlyphs" textLength="212" x="346" y="171.5332">InMemoryRepository&lt;T, Long&gt;</text><text fill="#000000" font-family="sans-serif" font-size="10" lengthAdjust="spacingAndGlyphs" textLength="268" x="318" y="184.9902">eapli.framework.infrastructure.repositories.impl.inmemory</text></a><!--MD5=[274ad5661286b626a93603d287cbf95a]
class java.lang.Object--><rect fill="#D3D3D3" filter="url(#f1oc01f52gtdfh)" height="40.1875" id="java.lang.Object" style="stroke: #A80036; stroke-width: 1.5;" width="78" x="624" y="152"/><rect fill="#D3D3D3" height="40.1875" style="stroke: #A80036; stroke-width: 1.5;" width="78" x="624" y="152"/><ellipse cx="639" cy="172.0938" fill="#ADD1B2" rx="11" ry="11" style="stroke: #A80036; stroke-width: 1.0;"/><path d="M641.7656,167.9688 Q641.9219,167.75 642.1094,167.6406 Q642.2969,167.5313 642.5156,167.5313 Q642.8906,167.5313 643.125,167.7891 Q643.3594,168.0469 643.3594,168.6563 L643.3594,170.1094 Q643.3594,170.7188 643.125,170.9844 Q642.8906,171.25 642.5156,171.25 Q642.1719,171.25 641.9688,171.0469 Q641.7656,170.8594 641.6563,170.3438 Q641.6094,169.9844 641.4219,169.7969 Q641.0938,169.4219 640.4844,169.2031 Q639.875,168.9844 639.25,168.9844 Q638.4844,168.9844 637.8516,169.3125 Q637.2188,169.6406 636.7266,170.3906 Q636.2344,171.1406 636.2344,172.1719 L636.2344,173.2656 Q636.2344,174.5 637.125,175.3203 Q638.0156,176.1406 639.6094,176.1406 Q640.5469,176.1406 641.2031,175.8906 Q641.5938,175.7344 642.0156,175.2969 Q642.2813,175.0313 642.4297,174.9531 Q642.5781,174.875 642.7813,174.875 Q643.1094,174.875 643.3672,175.1328 Q643.625,175.3906 643.625,175.7344 Q643.625,176.0781 643.2813,176.4844 Q642.7813,177.0625 641.9844,177.3906 Q640.9063,177.8438 639.6094,177.8438 Q638.0938,177.8438 636.8906,177.2188 Q635.9063,176.7188 635.2188,175.6484 Q634.5313,174.5781 634.5313,173.2969 L634.5313,172.1406 Q634.5313,170.8125 635.1484,169.6641 Q635.7656,168.5156 636.8594,167.8984 Q637.9531,167.2813 639.1875,167.2813 Q639.9219,167.2813 640.5703,167.4453 Q641.2188,167.6094 641.7656,167.9688 Z "/><text fill="#000000" font-family="sans-serif" font-size="14" font-weight="bold" lengthAdjust="spacingAndGlyphs" textLength="46" x="653" y="171.5332">Object</text><text fill="#000000" font-family="sans-serif" font-size="10" lengthAdjust="spacingAndGlyphs" textLength="44" x="654" y="184.9902">java.lang</text><!--MD5=[7df76f113519ba8104f48b8c59ad5e44]
link eapli.framework.infrastructure.repositories.impl.inmemory.InMemoryAutoNumberRepository to eapli.framework.domain.model.identities.impl.NumberSequenceGenerator--><path d="M288.573,50 C209.99,50 130,50 130,50 C130,50 130,146.8542 130,146.8542 " fill="none" id="eapli.framework.infrastructure.repositories.impl.inmemory.InMemoryAutoNumberRepository-&gt;eapli.framework.domain.model.identities.impl.NumberSequenceGenerator" style="stroke: #A80036; stroke-width: 1.0;"/><polygon fill="#A80036" points="130,151.8542,134,142.8542,130,146.8542,126,142.8542,130,151.8542" style="stroke: #A80036; stroke-width: 1.0;"/><text fill="#000000" font-family="sans-serif" font-size="13" lengthAdjust="spacingAndGlyphs" textLength="21" x="105.9156" y="141.1056">gen</text><!--MD5=[d96496755375d60259e23b7b9ad73f5d]
link eapli.framework.infrastructure.repositories.impl.inmemory.InMemoryAutoNumberRepository to eapli.framework.infrastructure.repositories.impl.inmemory.InMemoryRepositoryObjectLong--><path d="M439,92.3273 C439,92.3273 439,131.9727 439,131.9727 " fill="none" id="eapli.framework.infrastructure.repositories.impl.inmemory.InMemoryAutoNumberRepository-&gt;eapli.framework.infrastructure.repositories.impl.inmemory.InMemoryRepositoryObjectLong" style="stroke: #A80036; stroke-width: 1.0;"/><polygon fill="none" points="446,131.9727,439,151.9727,432,131.9726,446,131.9727" style="stroke: #A80036; stroke-width: 1.0;"/><!--MD5=[53efc32df3ca451b90b96b0d7d441f7d]
link eapli.framework.infrastructure.repositories.impl.inmemory.InMemoryAutoNumberRepository to java.lang.Object--><path d="M589.033,50 C629.838,50 663,50 663,50 C663,50 663,146.8542 663,146.8542 " fill="none" id="eapli.framework.infrastructure.repositories.impl.inmemory.InMemoryAutoNumberRepository-&gt;java.lang.Object" style="stroke: #A80036; stroke-width: 1.0; stroke-dasharray: 7.0,7.0;"/><polygon fill="#A80036" points="663,151.8542,667,142.8542,663,146.8542,659,142.8542,663,151.8542" style="stroke: #A80036; stroke-width: 1.0;"/><!--MD5=[6476d12e0a2f5a734a51233366812084]
@startuml

skinparam svgLinkTarget _parent
skinparam linetype ortho
set namespaceSeparator none
class "<b><size:14>InMemoryAutoNumberRepository</b>\n<size:10>eapli.framework.infrastructure.repositories.impl.inmemory" as eapli.framework.infrastructure.repositories.impl.inmemory.InMemoryAutoNumberRepository  [[../../../../../../eapli/framework/infrastructure/repositories/impl/inmemory/InMemoryAutoNumberRepository.html{eapli.framework.infrastructure.repositories.impl.inmemory.InMemoryAutoNumberRepository}]] {
{static} -NumberSequenceGenerator gen
+InMemoryAutoNumberRepository()
}


class "<b><size:14>NumberSequenceGenerator</b>\n<size:10>eapli.framework.domain.model.identities.impl" as eapli.framework.domain.model.identities.impl.NumberSequenceGenerator  [[../../../../../../eapli/framework/domain/model/identities/impl/NumberSequenceGenerator.html{eapli.framework.domain.model.identities.impl.NumberSequenceGenerator}]] #white {
}

hide eapli.framework.domain.model.identities.impl.NumberSequenceGenerator fields
hide eapli.framework.domain.model.identities.impl.NumberSequenceGenerator methods

eapli.framework.infrastructure.repositories.impl.inmemory.InMemoryAutoNumberRepository - ->  "gen" eapli.framework.domain.model.identities.impl.NumberSequenceGenerator

class "<b><size:14>InMemoryRepository<T, Long></b>\n<size:10>eapli.framework.infrastructure.repositories.impl.inmemory" as eapli.framework.infrastructure.repositories.impl.inmemory.InMemoryRepositoryObjectLong  [[../../../../../../eapli/framework/infrastructure/repositories/impl/inmemory/InMemoryRepository.html{eapli.framework.infrastructure.repositories.impl.inmemory.InMemoryRepository}]] {
}

hide eapli.framework.infrastructure.repositories.impl.inmemory.InMemoryRepositoryObjectLong fields
hide eapli.framework.infrastructure.repositories.impl.inmemory.InMemoryRepositoryObjectLong methods

eapli.framework.infrastructure.repositories.impl.inmemory.InMemoryAutoNumberRepository - -|> eapli.framework.infrastructure.repositories.impl.inmemory.InMemoryRepositoryObjectLong

class "<b><size:14>Object</b>\n<size:10>java.lang" as java.lang.Object  #lightgrey {
}

hide java.lang.Object fields
hide java.lang.Object methods

eapli.framework.infrastructure.repositories.impl.inmemory.InMemoryAutoNumberRepository ..> java.lang.Object


@enduml

PlantUML version 1.2020.04(Thu Mar 19 10:16:49 GMT 2020)
(GPL source distribution)
Java Runtime: Java(TM) SE Runtime Environment
JVM: Java HotSpot(TM) 64-Bit Server VM
Java Version: 1.8.0_202-b08
Operating System: Windows 10
Default Encoding: Cp1252
Language: en
Country: US
--></g></svg>