@startuml

skinparam svgLinkTarget _parent
skinparam linetype ortho
package eapli.framework.infrastructure.repositories.impl.inmemory [[../../../../../../eapli/framework/infrastructure/repositories/impl/inmemory/package-summary.html{eapli.framework.infrastructure.repositories.impl.inmemory}]] #lightyellow {
}

class "<b><size:14>InMemoryAutoNumberRepository</b>" as eapli.framework.infrastructure.repositories.impl.inmemory.InMemoryAutoNumberRepository  [[../../../../../../eapli/framework/infrastructure/repositories/impl/inmemory/InMemoryAutoNumberRepository.html{eapli.framework.infrastructure.repositories.impl.inmemory.InMemoryAutoNumberRepository}]] {
}

hide eapli.framework.infrastructure.repositories.impl.inmemory.InMemoryAutoNumberRepository fields
hide eapli.framework.infrastructure.repositories.impl.inmemory.InMemoryAutoNumberRepository methods

class "<b><size:14>InMemoryDomainAutoNumberRepository</b>" as eapli.framework.infrastructure.repositories.impl.inmemory.InMemoryDomainAutoNumberRepository  [[../../../../../../eapli/framework/infrastructure/repositories/impl/inmemory/InMemoryDomainAutoNumberRepository.html{eapli.framework.infrastructure.repositories.impl.inmemory.InMemoryDomainAutoNumberRepository}]] {
}

hide eapli.framework.infrastructure.repositories.impl.inmemory.InMemoryDomainAutoNumberRepository fields
hide eapli.framework.infrastructure.repositories.impl.inmemory.InMemoryDomainAutoNumberRepository methods

class "<b><size:14>InMemoryDomainRepository</b>" as eapli.framework.infrastructure.repositories.impl.inmemory.InMemoryDomainRepository  [[../../../../../../eapli/framework/infrastructure/repositories/impl/inmemory/InMemoryDomainRepository.html{eapli.framework.infrastructure.repositories.impl.inmemory.InMemoryDomainRepository}]] {
}

hide eapli.framework.infrastructure.repositories.impl.inmemory.InMemoryDomainRepository fields
hide eapli.framework.infrastructure.repositories.impl.inmemory.InMemoryDomainRepository methods

class "<b><size:14>InMemoryRepository</b>" as eapli.framework.infrastructure.repositories.impl.inmemory.InMemoryRepository  [[../../../../../../eapli/framework/infrastructure/repositories/impl/inmemory/InMemoryRepository.html{eapli.framework.infrastructure.repositories.impl.inmemory.InMemoryRepository}]] {
}

hide eapli.framework.infrastructure.repositories.impl.inmemory.InMemoryRepository fields
hide eapli.framework.infrastructure.repositories.impl.inmemory.InMemoryRepository methods

eapli.framework.infrastructure.repositories.impl.inmemory.InMemoryAutoNumberRepository --|> eapli.framework.infrastructure.repositories.impl.inmemory.InMemoryRepositoryObjectLong
eapli.framework.infrastructure.repositories.impl.inmemory.InMemoryDomainAutoNumberRepository --|> eapli.framework.infrastructure.repositories.impl.inmemory.InMemoryDomainRepositoryLongAggregateRoot
eapli.framework.infrastructure.repositories.impl.inmemory.InMemoryDomainRepository --|> eapli.framework.infrastructure.repositories.impl.inmemory.InMemoryRepositoryAggregateRootComparable

@enduml
