<?xml version="1.0" encoding="UTF-8" standalone="no"?><svg xmlns="http://www.w3.org/2000/svg" xmlns:xlink="http://www.w3.org/1999/xlink" contentScriptType="application/ecmascript" contentStyleType="text/css" height="228px" preserveAspectRatio="none" style="width:1168px;height:228px;" version="1.1" viewBox="0 0 1168 228" width="1168px" zoomAndPan="magnify"><defs><filter height="300%" id="f1pw7xc0dnvey6" width="300%" x="-1" y="-1"><feGaussianBlur result="blurOut" stdDeviation="2.0"/><feColorMatrix in="blurOut" result="blurOut2" type="matrix" values="0 0 0 0 0 0 0 0 0 0 0 0 0 0 0 0 0 0 .4 0"/><feOffset dx="4.0" dy="4.0" in="blurOut2" result="blurOut3"/><feBlend in="SourceGraphic" in2="blurOut3" mode="normal"/></filter></defs><g><!--MD5=[ac887de8245f80760d465cd3ca9fa7bc]
cluster eapli.framework.infrastructure.repositories.impl.inmemory--><a href="../../../../../../eapli/framework/infrastructure/repositories/impl/inmemory/package-summary.html" target="_parent" title="eapli.framework.infrastructure.repositories.impl.inmemory" xlink:actuate="onRequest" xlink:href="../../../../../../eapli/framework/infrastructure/repositories/impl/inmemory/package-summary.html" xlink:show="new" xlink:title="eapli.framework.infrastructure.repositories.impl.inmemory" xlink:type="simple"><polygon fill="#FFFFE0" filter="url(#f1pw7xc0dnvey6)" points="22,24,436,24,443,47.6094,1146,47.6094,1146,216,22,216,22,24" style="stroke: #000000; stroke-width: 1.5;"/><line style="stroke: #000000; stroke-width: 1.5;" x1="22" x2="443" y1="47.6094" y2="47.6094"/><text fill="#000000" font-family="sans-serif" font-size="14" font-weight="bold" lengthAdjust="spacingAndGlyphs" textLength="408" x="26" y="40.5332">eapli.framework.infrastructure.repositories.impl.inmemory</text></a><!--MD5=[b4e8ed01720c3c0ab85bc34a2f6b6b15]
class eapli.framework.infrastructure.repositories.impl.inmemory.InMemoryAutoNumberRepository--><a href="../../../../../../eapli/framework/infrastructure/repositories/impl/inmemory/InMemoryAutoNumberRepository.html" target="_parent" title="eapli.framework.infrastructure.repositories.impl.inmemory.InMemoryAutoNumberRepository" xlink:actuate="onRequest" xlink:href="../../../../../../eapli/framework/infrastructure/repositories/impl/inmemory/InMemoryAutoNumberRepository.html" xlink:show="new" xlink:title="eapli.framework.infrastructure.repositories.impl.inmemory.InMemoryAutoNumberRepository" xlink:type="simple"><rect fill="#FEFECE" filter="url(#f1pw7xc0dnvey6)" height="32" id="eapli.framework.infrastructure.repositories.impl.inmemory.InMemoryAutoNumberRepository" style="stroke: #A80036; stroke-width: 1.5;" width="264" x="866" y="60"/><ellipse cx="881" cy="76" fill="#ADD1B2" rx="11" ry="11" style="stroke: #A80036; stroke-width: 1.0;"/><path d="M883.7656,71.875 Q883.9219,71.6563 884.1094,71.5469 Q884.2969,71.4375 884.5156,71.4375 Q884.8906,71.4375 885.125,71.6953 Q885.3594,71.9531 885.3594,72.5625 L885.3594,74.0156 Q885.3594,74.625 885.125,74.8906 Q884.8906,75.1563 884.5156,75.1563 Q884.1719,75.1563 883.9688,74.9531 Q883.7656,74.7656 883.6563,74.25 Q883.6094,73.8906 883.4219,73.7031 Q883.0938,73.3281 882.4844,73.1094 Q881.875,72.8906 881.25,72.8906 Q880.4844,72.8906 879.8516,73.2188 Q879.2188,73.5469 878.7266,74.2969 Q878.2344,75.0469 878.2344,76.0781 L878.2344,77.1719 Q878.2344,78.4063 879.125,79.2266 Q880.0156,80.0469 881.6094,80.0469 Q882.5469,80.0469 883.2031,79.7969 Q883.5938,79.6406 884.0156,79.2031 Q884.2813,78.9375 884.4297,78.8594 Q884.5781,78.7813 884.7813,78.7813 Q885.1094,78.7813 885.3672,79.0391 Q885.625,79.2969 885.625,79.6406 Q885.625,79.9844 885.2813,80.3906 Q884.7813,80.9688 883.9844,81.2969 Q882.9063,81.75 881.6094,81.75 Q880.0938,81.75 878.8906,81.125 Q877.9063,80.625 877.2188,79.5547 Q876.5313,78.4844 876.5313,77.2031 L876.5313,76.0469 Q876.5313,74.7188 877.1484,73.5703 Q877.7656,72.4219 878.8594,71.8047 Q879.9531,71.1875 881.1875,71.1875 Q881.9219,71.1875 882.5703,71.3516 Q883.2188,71.5156 883.7656,71.875 Z "/><text fill="#000000" font-family="sans-serif" font-size="14" font-weight="bold" lengthAdjust="spacingAndGlyphs" textLength="232" x="895" y="81.7285">InMemoryAutoNumberRepository</text></a><!--MD5=[fc8361fdefc0c85eede2ab5de280d6c9]
class eapli.framework.infrastructure.repositories.impl.inmemory.InMemoryDomainAutoNumberRepository--><a href="../../../../../../eapli/framework/infrastructure/repositories/impl/inmemory/InMemoryDomainAutoNumberRepository.html" target="_parent" title="eapli.framework.infrastructure.repositories.impl.inmemory.InMemoryDomainAutoNumberRepository" xlink:actuate="onRequest" xlink:href="../../../../../../eapli/framework/infrastructure/repositories/impl/inmemory/InMemoryDomainAutoNumberRepository.html" xlink:show="new" xlink:title="eapli.framework.infrastructure.repositories.impl.inmemory.InMemoryDomainAutoNumberRepository" xlink:type="simple"><rect fill="#FEFECE" filter="url(#f1pw7xc0dnvey6)" height="32" id="eapli.framework.infrastructure.repositories.impl.inmemory.InMemoryDomainAutoNumberRepository" style="stroke: #A80036; stroke-width: 1.5;" width="316" x="515" y="60"/><ellipse cx="530" cy="76" fill="#ADD1B2" rx="11" ry="11" style="stroke: #A80036; stroke-width: 1.0;"/><path d="M532.7656,71.875 Q532.9219,71.6563 533.1094,71.5469 Q533.2969,71.4375 533.5156,71.4375 Q533.8906,71.4375 534.125,71.6953 Q534.3594,71.9531 534.3594,72.5625 L534.3594,74.0156 Q534.3594,74.625 534.125,74.8906 Q533.8906,75.1563 533.5156,75.1563 Q533.1719,75.1563 532.9688,74.9531 Q532.7656,74.7656 532.6563,74.25 Q532.6094,73.8906 532.4219,73.7031 Q532.0938,73.3281 531.4844,73.1094 Q530.875,72.8906 530.25,72.8906 Q529.4844,72.8906 528.8516,73.2188 Q528.2188,73.5469 527.7266,74.2969 Q527.2344,75.0469 527.2344,76.0781 L527.2344,77.1719 Q527.2344,78.4063 528.125,79.2266 Q529.0156,80.0469 530.6094,80.0469 Q531.5469,80.0469 532.2031,79.7969 Q532.5938,79.6406 533.0156,79.2031 Q533.2813,78.9375 533.4297,78.8594 Q533.5781,78.7813 533.7813,78.7813 Q534.1094,78.7813 534.3672,79.0391 Q534.625,79.2969 534.625,79.6406 Q534.625,79.9844 534.2813,80.3906 Q533.7813,80.9688 532.9844,81.2969 Q531.9063,81.75 530.6094,81.75 Q529.0938,81.75 527.8906,81.125 Q526.9063,80.625 526.2188,79.5547 Q525.5313,78.4844 525.5313,77.2031 L525.5313,76.0469 Q525.5313,74.7188 526.1484,73.5703 Q526.7656,72.4219 527.8594,71.8047 Q528.9531,71.1875 530.1875,71.1875 Q530.9219,71.1875 531.5703,71.3516 Q532.2188,71.5156 532.7656,71.875 Z "/><text fill="#000000" font-family="sans-serif" font-size="14" font-weight="bold" lengthAdjust="spacingAndGlyphs" textLength="284" x="544" y="81.7285">InMemoryDomainAutoNumberRepository</text></a><!--MD5=[e33e9c8a8faf20b8072deee35366ebac]
class eapli.framework.infrastructure.repositories.impl.inmemory.InMemoryDomainRepository--><a href="../../../../../../eapli/framework/infrastructure/repositories/impl/inmemory/InMemoryDomainRepository.html" target="_parent" title="eapli.framework.infrastructure.repositories.impl.inmemory.InMemoryDomainRepository" xlink:actuate="onRequest" xlink:href="../../../../../../eapli/framework/infrastructure/repositories/impl/inmemory/InMemoryDomainRepository.html" xlink:show="new" xlink:title="eapli.framework.infrastructure.repositories.impl.inmemory.InMemoryDomainRepository" xlink:type="simple"><rect fill="#FEFECE" filter="url(#f1pw7xc0dnvey6)" height="32" id="eapli.framework.infrastructure.repositories.impl.inmemory.InMemoryDomainRepository" style="stroke: #A80036; stroke-width: 1.5;" width="229" x="250.5" y="60"/><ellipse cx="265.5" cy="76" fill="#ADD1B2" rx="11" ry="11" style="stroke: #A80036; stroke-width: 1.0;"/><path d="M268.2656,71.875 Q268.4219,71.6563 268.6094,71.5469 Q268.7969,71.4375 269.0156,71.4375 Q269.3906,71.4375 269.625,71.6953 Q269.8594,71.9531 269.8594,72.5625 L269.8594,74.0156 Q269.8594,74.625 269.625,74.8906 Q269.3906,75.1563 269.0156,75.1563 Q268.6719,75.1563 268.4688,74.9531 Q268.2656,74.7656 268.1563,74.25 Q268.1094,73.8906 267.9219,73.7031 Q267.5938,73.3281 266.9844,73.1094 Q266.375,72.8906 265.75,72.8906 Q264.9844,72.8906 264.3516,73.2188 Q263.7188,73.5469 263.2266,74.2969 Q262.7344,75.0469 262.7344,76.0781 L262.7344,77.1719 Q262.7344,78.4063 263.625,79.2266 Q264.5156,80.0469 266.1094,80.0469 Q267.0469,80.0469 267.7031,79.7969 Q268.0938,79.6406 268.5156,79.2031 Q268.7813,78.9375 268.9297,78.8594 Q269.0781,78.7813 269.2813,78.7813 Q269.6094,78.7813 269.8672,79.0391 Q270.125,79.2969 270.125,79.6406 Q270.125,79.9844 269.7813,80.3906 Q269.2813,80.9688 268.4844,81.2969 Q267.4063,81.75 266.1094,81.75 Q264.5938,81.75 263.3906,81.125 Q262.4063,80.625 261.7188,79.5547 Q261.0313,78.4844 261.0313,77.2031 L261.0313,76.0469 Q261.0313,74.7188 261.6484,73.5703 Q262.2656,72.4219 263.3594,71.8047 Q264.4531,71.1875 265.6875,71.1875 Q266.4219,71.1875 267.0703,71.3516 Q267.7188,71.5156 268.2656,71.875 Z "/><text fill="#000000" font-family="sans-serif" font-size="14" font-weight="bold" lengthAdjust="spacingAndGlyphs" textLength="197" x="279.5" y="81.7285">InMemoryDomainRepository</text></a><!--MD5=[117d88f0d3266acc8d2d49330545fed5]
class eapli.framework.infrastructure.repositories.impl.inmemory.InMemoryRepository--><a href="../../../../../../eapli/framework/infrastructure/repositories/impl/inmemory/InMemoryRepository.html" target="_parent" title="eapli.framework.infrastructure.repositories.impl.inmemory.InMemoryRepository" xlink:actuate="onRequest" xlink:href="../../../../../../eapli/framework/infrastructure/repositories/impl/inmemory/InMemoryRepository.html" xlink:show="new" xlink:title="eapli.framework.infrastructure.repositories.impl.inmemory.InMemoryRepository" xlink:type="simple"><rect fill="#FEFECE" filter="url(#f1pw7xc0dnvey6)" height="32" id="eapli.framework.infrastructure.repositories.impl.inmemory.InMemoryRepository" style="stroke: #A80036; stroke-width: 1.5;" width="177" x="38.5" y="60"/><ellipse cx="53.5" cy="76" fill="#ADD1B2" rx="11" ry="11" style="stroke: #A80036; stroke-width: 1.0;"/><path d="M56.2656,71.875 Q56.4219,71.6563 56.6094,71.5469 Q56.7969,71.4375 57.0156,71.4375 Q57.3906,71.4375 57.625,71.6953 Q57.8594,71.9531 57.8594,72.5625 L57.8594,74.0156 Q57.8594,74.625 57.625,74.8906 Q57.3906,75.1563 57.0156,75.1563 Q56.6719,75.1563 56.4688,74.9531 Q56.2656,74.7656 56.1563,74.25 Q56.1094,73.8906 55.9219,73.7031 Q55.5938,73.3281 54.9844,73.1094 Q54.375,72.8906 53.75,72.8906 Q52.9844,72.8906 52.3516,73.2188 Q51.7188,73.5469 51.2266,74.2969 Q50.7344,75.0469 50.7344,76.0781 L50.7344,77.1719 Q50.7344,78.4063 51.625,79.2266 Q52.5156,80.0469 54.1094,80.0469 Q55.0469,80.0469 55.7031,79.7969 Q56.0938,79.6406 56.5156,79.2031 Q56.7813,78.9375 56.9297,78.8594 Q57.0781,78.7813 57.2813,78.7813 Q57.6094,78.7813 57.8672,79.0391 Q58.125,79.2969 58.125,79.6406 Q58.125,79.9844 57.7813,80.3906 Q57.2813,80.9688 56.4844,81.2969 Q55.4063,81.75 54.1094,81.75 Q52.5938,81.75 51.3906,81.125 Q50.4063,80.625 49.7188,79.5547 Q49.0313,78.4844 49.0313,77.2031 L49.0313,76.0469 Q49.0313,74.7188 49.6484,73.5703 Q50.2656,72.4219 51.3594,71.8047 Q52.4531,71.1875 53.6875,71.1875 Q54.4219,71.1875 55.0703,71.3516 Q55.7188,71.5156 56.2656,71.875 Z "/><text fill="#000000" font-family="sans-serif" font-size="14" font-weight="bold" lengthAdjust="spacingAndGlyphs" textLength="145" x="67.5" y="81.7285">InMemoryRepository</text></a><!--MD5=[89156ec475df1e775142a4c79a4445f4]
class eapli.framework.infrastructure.repositories.impl.inmemory.InMemoryRepositoryObjectLong--><rect fill="#FEFECE" filter="url(#f1pw7xc0dnvey6)" height="48" id="eapli.framework.infrastructure.repositories.impl.inmemory.InMemoryRepositoryObjectLong" style="stroke: #A80036; stroke-width: 1.5;" width="207" x="894.5" y="152"/><ellipse cx="909.5" cy="168" fill="#ADD1B2" rx="11" ry="11" style="stroke: #A80036; stroke-width: 1.0;"/><path d="M912.2656,163.875 Q912.4219,163.6563 912.6094,163.5469 Q912.7969,163.4375 913.0156,163.4375 Q913.3906,163.4375 913.625,163.6953 Q913.8594,163.9531 913.8594,164.5625 L913.8594,166.0156 Q913.8594,166.625 913.625,166.8906 Q913.3906,167.1563 913.0156,167.1563 Q912.6719,167.1563 912.4688,166.9531 Q912.2656,166.7656 912.1563,166.25 Q912.1094,165.8906 911.9219,165.7031 Q911.5938,165.3281 910.9844,165.1094 Q910.375,164.8906 909.75,164.8906 Q908.9844,164.8906 908.3516,165.2188 Q907.7188,165.5469 907.2266,166.2969 Q906.7344,167.0469 906.7344,168.0781 L906.7344,169.1719 Q906.7344,170.4063 907.625,171.2266 Q908.5156,172.0469 910.1094,172.0469 Q911.0469,172.0469 911.7031,171.7969 Q912.0938,171.6406 912.5156,171.2031 Q912.7813,170.9375 912.9297,170.8594 Q913.0781,170.7813 913.2813,170.7813 Q913.6094,170.7813 913.8672,171.0391 Q914.125,171.2969 914.125,171.6406 Q914.125,171.9844 913.7813,172.3906 Q913.2813,172.9688 912.4844,173.2969 Q911.4063,173.75 910.1094,173.75 Q908.5938,173.75 907.3906,173.125 Q906.4063,172.625 905.7188,171.5547 Q905.0313,170.4844 905.0313,169.2031 L905.0313,168.0469 Q905.0313,166.7188 905.6484,165.5703 Q906.2656,164.4219 907.3594,163.8047 Q908.4531,163.1875 909.6875,163.1875 Q910.4219,163.1875 911.0703,163.3516 Q911.7188,163.5156 912.2656,163.875 Z "/><text fill="#000000" font-family="sans-serif" font-size="12" lengthAdjust="spacingAndGlyphs" textLength="175" x="923.5" y="172.9102">InMemoryRepositoryObjectLong</text><line style="stroke: #A80036; stroke-width: 1.5;" x1="895.5" x2="1100.5" y1="184" y2="184"/><line style="stroke: #A80036; stroke-width: 1.5;" x1="895.5" x2="1100.5" y1="192" y2="192"/><!--MD5=[7f39516daedaf992fa30d2bfa7b442d1]
class eapli.framework.infrastructure.repositories.impl.inmemory.InMemoryDomainRepositoryLongAggregateRoot--><rect fill="#FEFECE" filter="url(#f1pw7xc0dnvey6)" height="48" id="eapli.framework.infrastructure.repositories.impl.inmemory.InMemoryDomainRepositoryLongAggregateRoot" style="stroke: #A80036; stroke-width: 1.5;" width="298" x="536" y="152"/><ellipse cx="551" cy="168" fill="#ADD1B2" rx="11" ry="11" style="stroke: #A80036; stroke-width: 1.0;"/><path d="M553.7656,163.875 Q553.9219,163.6563 554.1094,163.5469 Q554.2969,163.4375 554.5156,163.4375 Q554.8906,163.4375 555.125,163.6953 Q555.3594,163.9531 555.3594,164.5625 L555.3594,166.0156 Q555.3594,166.625 555.125,166.8906 Q554.8906,167.1563 554.5156,167.1563 Q554.1719,167.1563 553.9688,166.9531 Q553.7656,166.7656 553.6563,166.25 Q553.6094,165.8906 553.4219,165.7031 Q553.0938,165.3281 552.4844,165.1094 Q551.875,164.8906 551.25,164.8906 Q550.4844,164.8906 549.8516,165.2188 Q549.2188,165.5469 548.7266,166.2969 Q548.2344,167.0469 548.2344,168.0781 L548.2344,169.1719 Q548.2344,170.4063 549.125,171.2266 Q550.0156,172.0469 551.6094,172.0469 Q552.5469,172.0469 553.2031,171.7969 Q553.5938,171.6406 554.0156,171.2031 Q554.2813,170.9375 554.4297,170.8594 Q554.5781,170.7813 554.7813,170.7813 Q555.1094,170.7813 555.3672,171.0391 Q555.625,171.2969 555.625,171.6406 Q555.625,171.9844 555.2813,172.3906 Q554.7813,172.9688 553.9844,173.2969 Q552.9063,173.75 551.6094,173.75 Q550.0938,173.75 548.8906,173.125 Q547.9063,172.625 547.2188,171.5547 Q546.5313,170.4844 546.5313,169.2031 L546.5313,168.0469 Q546.5313,166.7188 547.1484,165.5703 Q547.7656,164.4219 548.8594,163.8047 Q549.9531,163.1875 551.1875,163.1875 Q551.9219,163.1875 552.5703,163.3516 Q553.2188,163.5156 553.7656,163.875 Z "/><text fill="#000000" font-family="sans-serif" font-size="12" lengthAdjust="spacingAndGlyphs" textLength="266" x="565" y="172.9102">InMemoryDomainRepositoryLongAggregateRoot</text><line style="stroke: #A80036; stroke-width: 1.5;" x1="537" x2="833" y1="184" y2="184"/><line style="stroke: #A80036; stroke-width: 1.5;" x1="537" x2="833" y1="192" y2="192"/><!--MD5=[994e042b8ab4edaec912d37ae54f5c3c]
class eapli.framework.infrastructure.repositories.impl.inmemory.InMemoryRepositoryAggregateRootComparable--><rect fill="#FEFECE" filter="url(#f1pw7xc0dnvey6)" height="48" id="eapli.framework.infrastructure.repositories.impl.inmemory.InMemoryRepositoryAggregateRootComparable" style="stroke: #A80036; stroke-width: 1.5;" width="295" x="205.5" y="152"/><ellipse cx="220.5" cy="168" fill="#ADD1B2" rx="11" ry="11" style="stroke: #A80036; stroke-width: 1.0;"/><path d="M223.2656,163.875 Q223.4219,163.6563 223.6094,163.5469 Q223.7969,163.4375 224.0156,163.4375 Q224.3906,163.4375 224.625,163.6953 Q224.8594,163.9531 224.8594,164.5625 L224.8594,166.0156 Q224.8594,166.625 224.625,166.8906 Q224.3906,167.1563 224.0156,167.1563 Q223.6719,167.1563 223.4688,166.9531 Q223.2656,166.7656 223.1563,166.25 Q223.1094,165.8906 222.9219,165.7031 Q222.5938,165.3281 221.9844,165.1094 Q221.375,164.8906 220.75,164.8906 Q219.9844,164.8906 219.3516,165.2188 Q218.7188,165.5469 218.2266,166.2969 Q217.7344,167.0469 217.7344,168.0781 L217.7344,169.1719 Q217.7344,170.4063 218.625,171.2266 Q219.5156,172.0469 221.1094,172.0469 Q222.0469,172.0469 222.7031,171.7969 Q223.0938,171.6406 223.5156,171.2031 Q223.7813,170.9375 223.9297,170.8594 Q224.0781,170.7813 224.2813,170.7813 Q224.6094,170.7813 224.8672,171.0391 Q225.125,171.2969 225.125,171.6406 Q225.125,171.9844 224.7813,172.3906 Q224.2813,172.9688 223.4844,173.2969 Q222.4063,173.75 221.1094,173.75 Q219.5938,173.75 218.3906,173.125 Q217.4063,172.625 216.7188,171.5547 Q216.0313,170.4844 216.0313,169.2031 L216.0313,168.0469 Q216.0313,166.7188 216.6484,165.5703 Q217.2656,164.4219 218.3594,163.8047 Q219.4531,163.1875 220.6875,163.1875 Q221.4219,163.1875 222.0703,163.3516 Q222.7188,163.5156 223.2656,163.875 Z "/><text fill="#000000" font-family="sans-serif" font-size="12" lengthAdjust="spacingAndGlyphs" textLength="263" x="234.5" y="172.9102">InMemoryRepositoryAggregateRootComparable</text><line style="stroke: #A80036; stroke-width: 1.5;" x1="206.5" x2="499.5" y1="184" y2="184"/><line style="stroke: #A80036; stroke-width: 1.5;" x1="206.5" x2="499.5" y1="192" y2="192"/><!--MD5=[d96496755375d60259e23b7b9ad73f5d]
link eapli.framework.infrastructure.repositories.impl.inmemory.InMemoryAutoNumberRepository to eapli.framework.infrastructure.repositories.impl.inmemory.InMemoryRepositoryObjectLong--><path d="M998,92.067 C998,92.067 998,131.757 998,131.757 " fill="none" id="eapli.framework.infrastructure.repositories.impl.inmemory.InMemoryAutoNumberRepository-&gt;eapli.framework.infrastructure.repositories.impl.inmemory.InMemoryRepositoryObjectLong" style="stroke: #A80036; stroke-width: 1.0;"/><polygon fill="none" points="1005,131.757,998,151.7569,991,131.757,1005,131.757" style="stroke: #A80036; stroke-width: 1.0;"/><!--MD5=[55da792bf85bdaa8e102db37aecc3653]
link eapli.framework.infrastructure.repositories.impl.inmemory.InMemoryDomainAutoNumberRepository to eapli.framework.infrastructure.repositories.impl.inmemory.InMemoryDomainRepositoryLongAggregateRoot--><path d="M683.5,92.067 C683.5,92.067 683.5,131.757 683.5,131.757 " fill="none" id="eapli.framework.infrastructure.repositories.impl.inmemory.InMemoryDomainAutoNumberRepository-&gt;eapli.framework.infrastructure.repositories.impl.inmemory.InMemoryDomainRepositoryLongAggregateRoot" style="stroke: #A80036; stroke-width: 1.0;"/><polygon fill="none" points="690.5,131.757,683.5,151.7569,676.5,131.757,690.5,131.757" style="stroke: #A80036; stroke-width: 1.0;"/><!--MD5=[e4d5c92a1a9ae740d8347e49d126eac2]
link eapli.framework.infrastructure.repositories.impl.inmemory.InMemoryDomainRepository to eapli.framework.infrastructure.repositories.impl.inmemory.InMemoryRepositoryAggregateRootComparable--><path d="M365,92.067 C365,92.067 365,131.757 365,131.757 " fill="none" id="eapli.framework.infrastructure.repositories.impl.inmemory.InMemoryDomainRepository-&gt;eapli.framework.infrastructure.repositories.impl.inmemory.InMemoryRepositoryAggregateRootComparable" style="stroke: #A80036; stroke-width: 1.0;"/><polygon fill="none" points="372,131.757,365,151.7569,358,131.757,372,131.757" style="stroke: #A80036; stroke-width: 1.0;"/><!--MD5=[1290c0c367e884f291fddbc52640f097]
@startuml

skinparam svgLinkTarget _parent
skinparam linetype ortho
package eapli.framework.infrastructure.repositories.impl.inmemory [[../../../../../../eapli/framework/infrastructure/repositories/impl/inmemory/package-summary.html{eapli.framework.infrastructure.repositories.impl.inmemory}]] #lightyellow {
}

class "<b><size:14>InMemoryAutoNumberRepository</b>" as eapli.framework.infrastructure.repositories.impl.inmemory.InMemoryAutoNumberRepository  [[../../../../../../eapli/framework/infrastructure/repositories/impl/inmemory/InMemoryAutoNumberRepository.html{eapli.framework.infrastructure.repositories.impl.inmemory.InMemoryAutoNumberRepository}]] {
}

hide eapli.framework.infrastructure.repositories.impl.inmemory.InMemoryAutoNumberRepository fields
hide eapli.framework.infrastructure.repositories.impl.inmemory.InMemoryAutoNumberRepository methods

class "<b><size:14>InMemoryDomainAutoNumberRepository</b>" as eapli.framework.infrastructure.repositories.impl.inmemory.InMemoryDomainAutoNumberRepository  [[../../../../../../eapli/framework/infrastructure/repositories/impl/inmemory/InMemoryDomainAutoNumberRepository.html{eapli.framework.infrastructure.repositories.impl.inmemory.InMemoryDomainAutoNumberRepository}]] {
}

hide eapli.framework.infrastructure.repositories.impl.inmemory.InMemoryDomainAutoNumberRepository fields
hide eapli.framework.infrastructure.repositories.impl.inmemory.InMemoryDomainAutoNumberRepository methods

class "<b><size:14>InMemoryDomainRepository</b>" as eapli.framework.infrastructure.repositories.impl.inmemory.InMemoryDomainRepository  [[../../../../../../eapli/framework/infrastructure/repositories/impl/inmemory/InMemoryDomainRepository.html{eapli.framework.infrastructure.repositories.impl.inmemory.InMemoryDomainRepository}]] {
}

hide eapli.framework.infrastructure.repositories.impl.inmemory.InMemoryDomainRepository fields
hide eapli.framework.infrastructure.repositories.impl.inmemory.InMemoryDomainRepository methods

class "<b><size:14>InMemoryRepository</b>" as eapli.framework.infrastructure.repositories.impl.inmemory.InMemoryRepository  [[../../../../../../eapli/framework/infrastructure/repositories/impl/inmemory/InMemoryRepository.html{eapli.framework.infrastructure.repositories.impl.inmemory.InMemoryRepository}]] {
}

hide eapli.framework.infrastructure.repositories.impl.inmemory.InMemoryRepository fields
hide eapli.framework.infrastructure.repositories.impl.inmemory.InMemoryRepository methods

eapli.framework.infrastructure.repositories.impl.inmemory.InMemoryAutoNumberRepository - -|> eapli.framework.infrastructure.repositories.impl.inmemory.InMemoryRepositoryObjectLong
eapli.framework.infrastructure.repositories.impl.inmemory.InMemoryDomainAutoNumberRepository - -|> eapli.framework.infrastructure.repositories.impl.inmemory.InMemoryDomainRepositoryLongAggregateRoot
eapli.framework.infrastructure.repositories.impl.inmemory.InMemoryDomainRepository - -|> eapli.framework.infrastructure.repositories.impl.inmemory.InMemoryRepositoryAggregateRootComparable

@enduml

PlantUML version 1.2020.04(Thu Mar 19 10:16:49 GMT 2020)
(GPL source distribution)
Java Runtime: Java(TM) SE Runtime Environment
JVM: Java HotSpot(TM) 64-Bit Server VM
Java Version: 1.8.0_202-b08
Operating System: Windows 10
Default Encoding: Cp1252
Language: en
Country: US
--></g></svg>