@startuml

skinparam svgLinkTarget _parent
skinparam linetype ortho
set namespaceSeparator none
class "<b><size:14>Invariants</b>\n<size:10>eapli.framework.validations" as eapli.framework.validations.Invariants <<Utility>> [[../../../eapli/framework/validations/Invariants.html{eapli.framework.validations.Invariants}]] {
-Invariants()
{static} +void areEqual(long a,long b)
{static} +void areEqual(Object a,Object b,String msg)
{static} +void matches(Pattern regex,String arg,String msg)
{static} +void ensure(boolean b)
{static} +void ensure(boolean b,String msg)
{static} +void nonNull(Object arg)
{static} +void nonNull(Object arg,String msg)
{static} +void noneNull(Object arg)
{static} +void nonEmpty(Collection<?> items)
{static} +void nonEmpty(Collection<?> items,String msg)
{static} +void nonEmpty(String arg)
{static} +void nonEmpty(String arg,String msg)
{static} +void isPositive(long arg)
{static} +void isPositive(long arg,String msg)
{static} +void nonNegative(long arg)
{static} +void nonNegative(long arg,String msg)
}




class "<b><size:14>Object</b>\n<size:10>java.lang" as java.lang.Object  #lightgrey {
}

hide java.lang.Object fields
hide java.lang.Object methods

eapli.framework.validations.Invariants ..> java.lang.Object


@enduml
