<?xml version="1.0" encoding="UTF-8" standalone="no"?><svg xmlns="http://www.w3.org/2000/svg" xmlns:xlink="http://www.w3.org/1999/xlink" contentScriptType="application/ecmascript" contentStyleType="text/css" height="247px" preserveAspectRatio="none" style="width:1112px;height:247px;" version="1.1" viewBox="0 0 1112 247" width="1112px" zoomAndPan="magnify"><defs><filter height="300%" id="f1u3ptoiler0yc" width="300%" x="-1" y="-1"><feGaussianBlur result="blurOut" stdDeviation="2.0"/><feColorMatrix in="blurOut" result="blurOut2" type="matrix" values="0 0 0 0 0 0 0 0 0 0 0 0 0 0 0 0 0 0 .4 0"/><feOffset dx="4.0" dy="4.0" in="blurOut2" result="blurOut3"/><feBlend in="SourceGraphic" in2="blurOut3" mode="normal"/></filter></defs><g><!--MD5=[6444372631af6f210711af0be1e108e8]
class eapli.framework.infrastructure.eventpubsub.impl.simplepersistent.SpringDataEventRecordRepository--><a href="../../../../../../eapli/framework/infrastructure/eventpubsub/impl/simplepersistent/SpringDataEventRecordRepository.html" target="_parent" title="eapli.framework.infrastructure.eventpubsub.impl.simplepersistent.SpringDataEventRecordRepository" xlink:actuate="onRequest" xlink:href="../../../../../../eapli/framework/infrastructure/eventpubsub/impl/simplepersistent/SpringDataEventRecordRepository.html" xlink:show="new" xlink:title="eapli.framework.infrastructure.eventpubsub.impl.simplepersistent.SpringDataEventRecordRepository" xlink:type="simple"><rect fill="#FEFECE" filter="url(#f1u3ptoiler0yc)" height="97.6953" id="eapli.framework.infrastructure.eventpubsub.impl.simplepersistent.SpringDataEventRecordRepository" style="stroke: #A80036; stroke-width: 1.5;" width="335" x="386" y="8"/><ellipse cx="401" cy="28.0938" fill="#B4A7E5" rx="11" ry="11" style="stroke: #A80036; stroke-width: 1.0;"/><path d="M401.9531,24.7344 L401.9531,31.3906 L403.6719,31.3906 Q404.2813,31.3906 404.5469,31.625 Q404.8125,31.8594 404.8125,32.25 Q404.8125,32.625 404.5469,32.8594 Q404.2813,33.0938 403.6719,33.0938 L398.5313,33.0938 Q397.9219,33.0938 397.6563,32.8594 Q397.3906,32.625 397.3906,32.2344 Q397.3906,31.8594 397.6563,31.625 Q397.9219,31.3906 398.5313,31.3906 L400.25,31.3906 L400.25,24.7344 L398.5313,24.7344 Q397.9219,24.7344 397.6563,24.5 Q397.3906,24.2656 397.3906,23.875 Q397.3906,23.5 397.6563,23.2656 Q397.9219,23.0313 398.5313,23.0313 L403.6719,23.0313 Q404.2813,23.0313 404.5469,23.2656 Q404.8125,23.5 404.8125,23.875 Q404.8125,24.2656 404.5469,24.5 Q404.2813,24.7344 403.6719,24.7344 L401.9531,24.7344 Z "/><text fill="#000000" font-family="sans-serif" font-size="14" font-style="italic" font-weight="bold" lengthAdjust="spacingAndGlyphs" textLength="233" x="450" y="27.5332">SpringDataEventRecordRepository</text><text fill="#000000" font-family="sans-serif" font-size="10" font-style="italic" lengthAdjust="spacingAndGlyphs" textLength="303" x="415" y="40.9902">eapli.framework.infrastructure.eventpubsub.impl.simplepersistent</text><line style="stroke: #A80036; stroke-width: 1.5;" x1="387" x2="720" y1="48.1875" y2="48.1875"/><line style="stroke: #A80036; stroke-width: 1.5;" x1="387" x2="720" y1="56.1875" y2="56.1875"/><ellipse cx="397" cy="67.1875" fill="#84BE84" rx="3" ry="3" style="stroke: #038048; stroke-width: 1.0;"/><text fill="#000000" font-family="sans-serif" font-size="11" font-style="italic" lengthAdjust="spacingAndGlyphs" textLength="304" x="406" y="71.6064">Iterable&lt;EventRecord&gt; findNotConsumed(String instanceKey)</text><ellipse cx="397" cy="81.0234" fill="#84BE84" rx="3" ry="3" style="stroke: #038048; stroke-width: 1.0;"/><text fill="#000000" font-family="sans-serif" font-size="11" font-style="italic" lengthAdjust="spacingAndGlyphs" textLength="234" x="406" y="85.4424">Optional&lt;EventRecord&gt; ofIdentity(Long entityId)</text><ellipse cx="397" cy="94.8594" fill="#84BE84" rx="3" ry="3" style="stroke: #038048; stroke-width: 1.0;"/><text fill="#000000" font-family="sans-serif" font-size="11" font-style="italic" lengthAdjust="spacingAndGlyphs" textLength="170" x="406" y="99.2783">void deleteOfIdentity(Long entityId)</text></a><!--MD5=[571151e9c088f374c2c44b1474fa58ac]
class eapli.framework.infrastructure.eventpubsub.impl.simplepersistent.EventRecordRepository--><a href="../../../../../../eapli/framework/infrastructure/eventpubsub/impl/simplepersistent/EventRecordRepository.html" target="_parent" title="eapli.framework.infrastructure.eventpubsub.impl.simplepersistent.EventRecordRepository" xlink:actuate="onRequest" xlink:href="../../../../../../eapli/framework/infrastructure/eventpubsub/impl/simplepersistent/EventRecordRepository.html" xlink:show="new" xlink:title="eapli.framework.infrastructure.eventpubsub.impl.simplepersistent.EventRecordRepository" xlink:type="simple"><rect fill="#FEFECE" filter="url(#f1u3ptoiler0yc)" height="40.1875" id="eapli.framework.infrastructure.eventpubsub.impl.simplepersistent.EventRecordRepository" style="stroke: #A80036; stroke-width: 1.5;" width="335" x="6" y="181"/><ellipse cx="21" cy="201.0938" fill="#B4A7E5" rx="11" ry="11" style="stroke: #A80036; stroke-width: 1.0;"/><path d="M21.9531,197.7344 L21.9531,204.3906 L23.6719,204.3906 Q24.2813,204.3906 24.5469,204.625 Q24.8125,204.8594 24.8125,205.25 Q24.8125,205.625 24.5469,205.8594 Q24.2813,206.0938 23.6719,206.0938 L18.5313,206.0938 Q17.9219,206.0938 17.6563,205.8594 Q17.3906,205.625 17.3906,205.2344 Q17.3906,204.8594 17.6563,204.625 Q17.9219,204.3906 18.5313,204.3906 L20.25,204.3906 L20.25,197.7344 L18.5313,197.7344 Q17.9219,197.7344 17.6563,197.5 Q17.3906,197.2656 17.3906,196.875 Q17.3906,196.5 17.6563,196.2656 Q17.9219,196.0313 18.5313,196.0313 L23.6719,196.0313 Q24.2813,196.0313 24.5469,196.2656 Q24.8125,196.5 24.8125,196.875 Q24.8125,197.2656 24.5469,197.5 Q24.2813,197.7344 23.6719,197.7344 L21.9531,197.7344 Z "/><text fill="#000000" font-family="sans-serif" font-size="14" font-style="italic" font-weight="bold" lengthAdjust="spacingAndGlyphs" textLength="158" x="107.5" y="200.5332">EventRecordRepository</text><text fill="#000000" font-family="sans-serif" font-size="10" font-style="italic" lengthAdjust="spacingAndGlyphs" textLength="303" x="35" y="213.9902">eapli.framework.infrastructure.eventpubsub.impl.simplepersistent</text></a><!--MD5=[50067028dca32baecf401f2435b560f3]
class eapli.framework.infrastructure.repositories.impl.springdata.SpringDataBaseRepositoryEventRecordLong--><rect fill="#D3D3D3" filter="url(#f1u3ptoiler0yc)" height="55.2813" id="eapli.framework.infrastructure.repositories.impl.springdata.SpringDataBaseRepositoryEventRecordLong" style="stroke: #A80036; stroke-width: 1.5;" width="355" x="376" y="173.5"/><rect fill="#D3D3D3" height="55.2813" style="stroke: #A80036; stroke-width: 1.5;" width="355" x="376" y="173.5"/><ellipse cx="391" cy="201.1406" fill="#B4A7E5" rx="11" ry="11" style="stroke: #A80036; stroke-width: 1.0;"/><path d="M391.9531,197.7813 L391.9531,204.4375 L393.6719,204.4375 Q394.2813,204.4375 394.5469,204.6719 Q394.8125,204.9063 394.8125,205.2969 Q394.8125,205.6719 394.5469,205.9063 Q394.2813,206.1406 393.6719,206.1406 L388.5313,206.1406 Q387.9219,206.1406 387.6563,205.9063 Q387.3906,205.6719 387.3906,205.2813 Q387.3906,204.9063 387.6563,204.6719 Q387.9219,204.4375 388.5313,204.4375 L390.25,204.4375 L390.25,197.7813 L388.5313,197.7813 Q387.9219,197.7813 387.6563,197.5469 Q387.3906,197.3125 387.3906,196.9219 Q387.3906,196.5469 387.6563,196.3125 Q387.9219,196.0781 388.5313,196.0781 L393.6719,196.0781 Q394.2813,196.0781 394.5469,196.3125 Q394.8125,196.5469 394.8125,196.9219 Q394.8125,197.3125 394.5469,197.5469 Q394.2813,197.7813 393.6719,197.7813 L391.9531,197.7813 Z "/><text fill="#000000" font-family="sans-serif" font-size="12" font-style="italic" lengthAdjust="spacingAndGlyphs" textLength="118" x="507.5" y="190.957">«NoRepositoryBean»</text><text fill="#000000" font-family="sans-serif" font-size="14" font-style="italic" font-weight="bold" lengthAdjust="spacingAndGlyphs" textLength="323" x="405" y="208.127">SpringDataBaseRepository&lt;EventRecord, Long&gt;</text><text fill="#000000" font-family="sans-serif" font-size="10" font-style="italic" lengthAdjust="spacingAndGlyphs" textLength="271" x="431" y="221.584">eapli.framework.infrastructure.repositories.impl.springdata</text><!--MD5=[519111e8950cf38db0e27c7ba90e2308]
class eapli.framework.infrastructure.eventpubsub.impl.simplepersistent.EventRecord--><a href="../../../../../../eapli/framework/infrastructure/eventpubsub/impl/simplepersistent/EventRecord.html" target="_parent" title="eapli.framework.infrastructure.eventpubsub.impl.simplepersistent.EventRecord" xlink:actuate="onRequest" xlink:href="../../../../../../eapli/framework/infrastructure/eventpubsub/impl/simplepersistent/EventRecord.html" xlink:show="new" xlink:title="eapli.framework.infrastructure.eventpubsub.impl.simplepersistent.EventRecord" xlink:type="simple"><rect fill="#FEFECE" filter="url(#f1u3ptoiler0yc)" height="70.375" id="eapli.framework.infrastructure.eventpubsub.impl.simplepersistent.EventRecord" style="stroke: #A80036; stroke-width: 1.5;" width="335" x="766" y="166"/><ellipse cx="781" cy="201.1875" fill="#ADD1B2" rx="11" ry="11" style="stroke: #A80036; stroke-width: 1.0;"/><path d="M783.7656,197.0625 Q783.9219,196.8438 784.1094,196.7344 Q784.2969,196.625 784.5156,196.625 Q784.8906,196.625 785.125,196.8828 Q785.3594,197.1406 785.3594,197.75 L785.3594,199.2031 Q785.3594,199.8125 785.125,200.0781 Q784.8906,200.3438 784.5156,200.3438 Q784.1719,200.3438 783.9688,200.1406 Q783.7656,199.9531 783.6563,199.4375 Q783.6094,199.0781 783.4219,198.8906 Q783.0938,198.5156 782.4844,198.2969 Q781.875,198.0781 781.25,198.0781 Q780.4844,198.0781 779.8516,198.4063 Q779.2188,198.7344 778.7266,199.4844 Q778.2344,200.2344 778.2344,201.2656 L778.2344,202.3594 Q778.2344,203.5938 779.125,204.4141 Q780.0156,205.2344 781.6094,205.2344 Q782.5469,205.2344 783.2031,204.9844 Q783.5938,204.8281 784.0156,204.3906 Q784.2813,204.125 784.4297,204.0469 Q784.5781,203.9688 784.7813,203.9688 Q785.1094,203.9688 785.3672,204.2266 Q785.625,204.4844 785.625,204.8281 Q785.625,205.1719 785.2813,205.5781 Q784.7813,206.1563 783.9844,206.4844 Q782.9063,206.9375 781.6094,206.9375 Q780.0938,206.9375 778.8906,206.3125 Q777.9063,205.8125 777.2188,204.7422 Q776.5313,203.6719 776.5313,202.3906 L776.5313,201.2344 Q776.5313,199.9063 777.1484,198.7578 Q777.7656,197.6094 778.8594,196.9922 Q779.9531,196.375 781.1875,196.375 Q781.9219,196.375 782.5703,196.5391 Q783.2188,196.7031 783.7656,197.0625 Z "/><text fill="#000000" font-family="sans-serif" font-size="12" font-style="italic" lengthAdjust="spacingAndGlyphs" textLength="44" x="924.5" y="183.457">«Entity»</text><text fill="#000000" font-family="sans-serif" font-size="12" font-style="italic" lengthAdjust="spacingAndGlyphs" textLength="46" x="923.5" y="198.5508">«Table»</text><text fill="#000000" font-family="sans-serif" font-size="14" font-weight="bold" lengthAdjust="spacingAndGlyphs" textLength="92" x="900.5" y="215.7207">EventRecord</text><text fill="#000000" font-family="sans-serif" font-size="10" lengthAdjust="spacingAndGlyphs" textLength="303" x="795" y="229.1777">eapli.framework.infrastructure.eventpubsub.impl.simplepersistent</text></a><!--MD5=[2206c72de0d2088bcfc91c6a1934da26]
link eapli.framework.infrastructure.eventpubsub.impl.simplepersistent.SpringDataEventRecordRepository to eapli.framework.infrastructure.eventpubsub.impl.simplepersistent.EventRecordRepository--><path d="M385.997,57 C284.124,57 173.5,57 173.5,57 C173.5,57 173.5,160.9774 173.5,160.9774 " fill="none" id="eapli.framework.infrastructure.eventpubsub.impl.simplepersistent.SpringDataEventRecordRepository-&gt;eapli.framework.infrastructure.eventpubsub.impl.simplepersistent.EventRecordRepository" style="stroke: #A80036; stroke-width: 1.0;"/><polygon fill="none" points="180.5,160.9775,173.5,180.9774,166.5,160.9774,180.5,160.9775" style="stroke: #A80036; stroke-width: 1.0;"/><!--MD5=[bb48547c5ec0b3e89342d67f7fdd0159]
link eapli.framework.infrastructure.eventpubsub.impl.simplepersistent.SpringDataEventRecordRepository to eapli.framework.infrastructure.repositories.impl.springdata.SpringDataBaseRepositoryEventRecordLong--><path d="M497.667,106.154 C497.667,106.154 497.667,153.4562 497.667,153.4562 " fill="none" id="eapli.framework.infrastructure.eventpubsub.impl.simplepersistent.SpringDataEventRecordRepository-&gt;eapli.framework.infrastructure.repositories.impl.springdata.SpringDataBaseRepositoryEventRecordLong" style="stroke: #A80036; stroke-width: 1.0;"/><polygon fill="none" points="504.667,153.4563,497.667,173.4562,490.667,153.4562,504.667,153.4563" style="stroke: #A80036; stroke-width: 1.0;"/><!--MD5=[70506084b60f2b71fd5469537932083f]
link eapli.framework.infrastructure.eventpubsub.impl.simplepersistent.SpringDataEventRecordRepository to eapli.framework.infrastructure.eventpubsub.impl.simplepersistent.EventRecord--><path d="M609.333,106.235 C609.333,136.6859 609.333,170 609.333,170 C609.333,170 760.719,170 760.719,170 " fill="none" id="eapli.framework.infrastructure.eventpubsub.impl.simplepersistent.SpringDataEventRecordRepository-&gt;eapli.framework.infrastructure.eventpubsub.impl.simplepersistent.EventRecord" style="stroke: #A80036; stroke-width: 1.0; stroke-dasharray: 7.0,7.0;"/><polygon fill="#A80036" points="765.719,170,756.719,166,760.719,170,756.719,174,765.719,170" style="stroke: #A80036; stroke-width: 1.0;"/><!--MD5=[179e4c7fc681632847ff5aab85e8d8f7]
@startuml

skinparam svgLinkTarget _parent
skinparam linetype ortho
set namespaceSeparator none
interface "<b><size:14>SpringDataEventRecordRepository</b>\n<size:10>eapli.framework.infrastructure.eventpubsub.impl.simplepersistent" as eapli.framework.infrastructure.eventpubsub.impl.simplepersistent.SpringDataEventRecordRepository  [[../../../../../../eapli/framework/infrastructure/eventpubsub/impl/simplepersistent/SpringDataEventRecordRepository.html{eapli.framework.infrastructure.eventpubsub.impl.simplepersistent.SpringDataEventRecordRepository}]] {
{abstract} +Iterable<EventRecord> findNotConsumed(String instanceKey)
{abstract} +Optional<EventRecord> ofIdentity(Long entityId)
{abstract} +void deleteOfIdentity(Long entityId)
}


interface "<b><size:14>EventRecordRepository</b>\n<size:10>eapli.framework.infrastructure.eventpubsub.impl.simplepersistent" as eapli.framework.infrastructure.eventpubsub.impl.simplepersistent.EventRecordRepository  [[../../../../../../eapli/framework/infrastructure/eventpubsub/impl/simplepersistent/EventRecordRepository.html{eapli.framework.infrastructure.eventpubsub.impl.simplepersistent.EventRecordRepository}]] {
}

hide eapli.framework.infrastructure.eventpubsub.impl.simplepersistent.EventRecordRepository fields
hide eapli.framework.infrastructure.eventpubsub.impl.simplepersistent.EventRecordRepository methods

eapli.framework.infrastructure.eventpubsub.impl.simplepersistent.SpringDataEventRecordRepository - -|> eapli.framework.infrastructure.eventpubsub.impl.simplepersistent.EventRecordRepository

interface "<b><size:14>SpringDataBaseRepository<EventRecord, Long></b>\n<size:10>eapli.framework.infrastructure.repositories.impl.springdata" as eapli.framework.infrastructure.repositories.impl.springdata.SpringDataBaseRepositoryEventRecordLong <<NoRepositoryBean>> #lightgrey {
}

hide eapli.framework.infrastructure.repositories.impl.springdata.SpringDataBaseRepositoryEventRecordLong fields
hide eapli.framework.infrastructure.repositories.impl.springdata.SpringDataBaseRepositoryEventRecordLong methods

eapli.framework.infrastructure.eventpubsub.impl.simplepersistent.SpringDataEventRecordRepository - -|> eapli.framework.infrastructure.repositories.impl.springdata.SpringDataBaseRepositoryEventRecordLong

class "<b><size:14>EventRecord</b>\n<size:10>eapli.framework.infrastructure.eventpubsub.impl.simplepersistent" as eapli.framework.infrastructure.eventpubsub.impl.simplepersistent.EventRecord <<Entity>><<Table>> [[../../../../../../eapli/framework/infrastructure/eventpubsub/impl/simplepersistent/EventRecord.html{eapli.framework.infrastructure.eventpubsub.impl.simplepersistent.EventRecord}]] {
}

hide eapli.framework.infrastructure.eventpubsub.impl.simplepersistent.EventRecord fields
hide eapli.framework.infrastructure.eventpubsub.impl.simplepersistent.EventRecord methods

eapli.framework.infrastructure.eventpubsub.impl.simplepersistent.SpringDataEventRecordRepository ..> eapli.framework.infrastructure.eventpubsub.impl.simplepersistent.EventRecord



@enduml

PlantUML version 1.2020.04(Thu Mar 19 10:16:49 GMT 2020)
(GPL source distribution)
Java Runtime: Java(TM) SE Runtime Environment
JVM: Java HotSpot(TM) 64-Bit Server VM
Java Version: 1.8.0_202-b08
Operating System: Windows 10
Default Encoding: Cp1252
Language: en
Country: US
--></g></svg>