@startuml

skinparam svgLinkTarget _parent
skinparam linetype ortho
package eapli.framework.representations [[../../../eapli/framework/representations/package-summary.html{eapli.framework.representations}]] #lightyellow {
}

interface "<b><size:14>Representationable</b>" as eapli.framework.representations.Representationable <<FunctionalInterface>> [[../../../eapli/framework/representations/Representationable.html{eapli.framework.representations.Representationable}]] {
}

hide eapli.framework.representations.Representationable fields
hide eapli.framework.representations.Representationable methods

interface "<b><size:14>RepresentationBuilder</b>" as eapli.framework.representations.RepresentationBuilder  [[../../../eapli/framework/representations/RepresentationBuilder.html{eapli.framework.representations.RepresentationBuilder}]] {
}

hide eapli.framework.representations.RepresentationBuilder fields
hide eapli.framework.representations.RepresentationBuilder methods

eapli.framework.representations.Representationable ..> eapli.framework.representations.RepresentationBuilderObject
eapli.framework.representations.RepresentationBuilder ..> eapli.framework.representations.RepresentationBuilderObject
package eapli.framework.representations.builders [[../../../eapli/framework/representations/builders/package-summary.html{eapli.framework.representations.builders}]] {
}

class "<b><size:14>GeneralDTORepresentationBuilder</b>" as eapli.framework.representations.builders.GeneralDTORepresentationBuilder  [[../../../eapli/framework/representations/builders/GeneralDTORepresentationBuilder.html{eapli.framework.representations.builders.GeneralDTORepresentationBuilder}]] {
}

hide eapli.framework.representations.builders.GeneralDTORepresentationBuilder fields
hide eapli.framework.representations.builders.GeneralDTORepresentationBuilder methods

class "<b><size:14>JsonRepresentationBuilder</b>" as eapli.framework.representations.builders.JsonRepresentationBuilder  [[../../../eapli/framework/representations/builders/JsonRepresentationBuilder.html{eapli.framework.representations.builders.JsonRepresentationBuilder}]] {
}

hide eapli.framework.representations.builders.JsonRepresentationBuilder fields
hide eapli.framework.representations.builders.JsonRepresentationBuilder methods

package eapli.framework.representations.dto [[../../../eapli/framework/representations/dto/package-summary.html{eapli.framework.representations.dto}]] {
}

interface "<b><size:14>DTO</b>" as eapli.framework.representations.dto.DTO  [[../../../eapli/framework/representations/dto/DTO.html{eapli.framework.representations.dto.DTO}]] {
}

hide eapli.framework.representations.dto.DTO fields
hide eapli.framework.representations.dto.DTO methods

interface "<b><size:14>DTOable</b>" as eapli.framework.representations.dto.DTOable <<FunctionalInterface>> [[../../../eapli/framework/representations/dto/DTOable.html{eapli.framework.representations.dto.DTOable}]] {
}

hide eapli.framework.representations.dto.DTOable fields
hide eapli.framework.representations.dto.DTOable methods

interface "<b><size:14>DTOParser</b>" as eapli.framework.representations.dto.DTOParser <<FunctionalInterface>> [[../../../eapli/framework/representations/dto/DTOParser.html{eapli.framework.representations.dto.DTOParser}]] {
}

hide eapli.framework.representations.dto.DTOParser fields
hide eapli.framework.representations.dto.DTOParser methods

class "<b><size:14>GeneralDTO</b>" as eapli.framework.representations.dto.GeneralDTO  [[../../../eapli/framework/representations/dto/GeneralDTO.html{eapli.framework.representations.dto.GeneralDTO}]] {
}

hide eapli.framework.representations.dto.GeneralDTO fields
hide eapli.framework.representations.dto.GeneralDTO methods


@enduml
