<?xml version="1.0" encoding="UTF-8" standalone="no"?><svg xmlns="http://www.w3.org/2000/svg" xmlns:xlink="http://www.w3.org/1999/xlink" contentScriptType="application/ecmascript" contentStyleType="text/css" height="239px" preserveAspectRatio="none" style="width:1410px;height:239px;" version="1.1" viewBox="0 0 1410 239" width="1410px" zoomAndPan="magnify"><defs><filter height="300%" id="f5t2ffjzn1ofk" width="300%" x="-1" y="-1"><feGaussianBlur result="blurOut" stdDeviation="2.0"/><feColorMatrix in="blurOut" result="blurOut2" type="matrix" values="0 0 0 0 0 0 0 0 0 0 0 0 0 0 0 0 0 0 .4 0"/><feOffset dx="4.0" dy="4.0" in="blurOut2" result="blurOut3"/><feBlend in="SourceGraphic" in2="blurOut3" mode="normal"/></filter></defs><g><!--MD5=[2665b57da0ffec63bd6486468899a9b6]
cluster eapli.framework.representations--><a href="../../../eapli/framework/representations/package-summary.html" target="_parent" title="eapli.framework.representations" xlink:actuate="onRequest" xlink:href="../../../eapli/framework/representations/package-summary.html" xlink:show="new" xlink:title="eapli.framework.representations" xlink:type="simple"><polygon fill="#FFFFE0" filter="url(#f5t2ffjzn1ofk)" points="378,24,613,24,620,47.6094,793,47.6094,793,227,378,227,378,24" style="stroke: #000000; stroke-width: 1.5;"/><line style="stroke: #000000; stroke-width: 1.5;" x1="378" x2="620" y1="47.6094" y2="47.6094"/><text fill="#000000" font-family="sans-serif" font-size="14" font-weight="bold" lengthAdjust="spacingAndGlyphs" textLength="229" x="382" y="40.5332">eapli.framework.representations</text></a><!--MD5=[c1c9ad7938669ebf538ba71c19017bf3]
cluster eapli.framework.representations.builders--><a href="../../../eapli/framework/representations/builders/package-summary.html" target="_parent" title="eapli.framework.representations.builders" xlink:actuate="onRequest" xlink:href="../../../eapli/framework/representations/builders/package-summary.html" xlink:show="new" xlink:title="eapli.framework.representations.builders" xlink:type="simple"><polygon fill="#FFFFFF" filter="url(#f5t2ffjzn1ofk)" points="817,29.5,1114,29.5,1121,53.1094,1388,53.1094,1388,113.5,817,113.5,817,29.5" style="stroke: #000000; stroke-width: 1.5;"/><line style="stroke: #000000; stroke-width: 1.5;" x1="817" x2="1121" y1="53.1094" y2="53.1094"/><text fill="#000000" font-family="sans-serif" font-size="14" font-weight="bold" lengthAdjust="spacingAndGlyphs" textLength="291" x="821" y="46.0332">eapli.framework.representations.builders</text></a><!--MD5=[bf604e43c9a3e84b79aa0bb7c9fcda2a]
cluster eapli.framework.representations.dto--><a href="../../../eapli/framework/representations/dto/package-summary.html" target="_parent" title="eapli.framework.representations.dto" xlink:actuate="onRequest" xlink:href="../../../eapli/framework/representations/dto/package-summary.html" xlink:show="new" xlink:title="eapli.framework.representations.dto" xlink:type="simple"><polygon fill="#FFFFFF" filter="url(#f5t2ffjzn1ofk)" points="22,24,284,24,291,47.6094,354,47.6094,354,224.5,22,224.5,22,24" style="stroke: #000000; stroke-width: 1.5;"/><line style="stroke: #000000; stroke-width: 1.5;" x1="22" x2="291" y1="47.6094" y2="47.6094"/><text fill="#000000" font-family="sans-serif" font-size="14" font-weight="bold" lengthAdjust="spacingAndGlyphs" textLength="256" x="26" y="40.5332">eapli.framework.representations.dto</text></a><!--MD5=[94995943dc88f564ed6bbd1789349a2a]
class eapli.framework.representations.Representationable--><a href="../../../eapli/framework/representations/Representationable.html" target="_parent" title="eapli.framework.representations.Representationable" xlink:actuate="onRequest" xlink:href="../../../eapli/framework/representations/Representationable.html" xlink:show="new" xlink:title="eapli.framework.representations.Representationable" xlink:type="simple"><rect fill="#FEFECE" filter="url(#f5t2ffjzn1ofk)" height="42.7031" id="eapli.framework.representations.Representationable" style="stroke: #A80036; stroke-width: 1.5;" width="164" x="613" y="60"/><ellipse cx="628" cy="81.3516" fill="#B4A7E5" rx="11" ry="11" style="stroke: #A80036; stroke-width: 1.0;"/><path d="M628.9531,77.9922 L628.9531,84.6484 L630.6719,84.6484 Q631.2813,84.6484 631.5469,84.8828 Q631.8125,85.1172 631.8125,85.5078 Q631.8125,85.8828 631.5469,86.1172 Q631.2813,86.3516 630.6719,86.3516 L625.5313,86.3516 Q624.9219,86.3516 624.6563,86.1172 Q624.3906,85.8828 624.3906,85.4922 Q624.3906,85.1172 624.6563,84.8828 Q624.9219,84.6484 625.5313,84.6484 L627.25,84.6484 L627.25,77.9922 L625.5313,77.9922 Q624.9219,77.9922 624.6563,77.7578 Q624.3906,77.5234 624.3906,77.1328 Q624.3906,76.7578 624.6563,76.5234 Q624.9219,76.2891 625.5313,76.2891 L630.6719,76.2891 Q631.2813,76.2891 631.5469,76.5234 Q631.8125,76.7578 631.8125,77.1328 Q631.8125,77.5234 631.5469,77.7578 Q631.2813,77.9922 630.6719,77.9922 L628.9531,77.9922 Z "/><text fill="#000000" font-family="sans-serif" font-size="12" font-style="italic" lengthAdjust="spacingAndGlyphs" textLength="119" x="648.5" y="77.457">«FunctionalInterface»</text><text fill="#000000" font-family="sans-serif" font-size="14" font-style="italic" font-weight="bold" lengthAdjust="spacingAndGlyphs" textLength="132" x="642" y="94.627">Representationable</text></a><!--MD5=[c3ba893f9c4201c13d077d910275cb07]
class eapli.framework.representations.RepresentationBuilder--><a href="../../../eapli/framework/representations/RepresentationBuilder.html" target="_parent" title="eapli.framework.representations.RepresentationBuilder" xlink:actuate="onRequest" xlink:href="../../../eapli/framework/representations/RepresentationBuilder.html" xlink:show="new" xlink:title="eapli.framework.representations.RepresentationBuilder" xlink:type="simple"><rect fill="#FEFECE" filter="url(#f5t2ffjzn1ofk)" height="32" id="eapli.framework.representations.RepresentationBuilder" style="stroke: #A80036; stroke-width: 1.5;" width="184" x="394" y="65.5"/><ellipse cx="409" cy="81.5" fill="#B4A7E5" rx="11" ry="11" style="stroke: #A80036; stroke-width: 1.0;"/><path d="M409.9531,78.1406 L409.9531,84.7969 L411.6719,84.7969 Q412.2813,84.7969 412.5469,85.0313 Q412.8125,85.2656 412.8125,85.6563 Q412.8125,86.0313 412.5469,86.2656 Q412.2813,86.5 411.6719,86.5 L406.5313,86.5 Q405.9219,86.5 405.6563,86.2656 Q405.3906,86.0313 405.3906,85.6406 Q405.3906,85.2656 405.6563,85.0313 Q405.9219,84.7969 406.5313,84.7969 L408.25,84.7969 L408.25,78.1406 L406.5313,78.1406 Q405.9219,78.1406 405.6563,77.9063 Q405.3906,77.6719 405.3906,77.2813 Q405.3906,76.9063 405.6563,76.6719 Q405.9219,76.4375 406.5313,76.4375 L411.6719,76.4375 Q412.2813,76.4375 412.5469,76.6719 Q412.8125,76.9063 412.8125,77.2813 Q412.8125,77.6719 412.5469,77.9063 Q412.2813,78.1406 411.6719,78.1406 L409.9531,78.1406 Z "/><text fill="#000000" font-family="sans-serif" font-size="14" font-style="italic" font-weight="bold" lengthAdjust="spacingAndGlyphs" textLength="152" x="423" y="87.2285">RepresentationBuilder</text></a><!--MD5=[f382f67862c4b1168fc77f9ed8004c2a]
class eapli.framework.representations.RepresentationBuilderObject--><rect fill="#FEFECE" filter="url(#f5t2ffjzn1ofk)" height="48" id="eapli.framework.representations.RepresentationBuilderObject" style="stroke: #A80036; stroke-width: 1.5;" width="191" x="489.5" y="163"/><ellipse cx="504.5" cy="179" fill="#ADD1B2" rx="11" ry="11" style="stroke: #A80036; stroke-width: 1.0;"/><path d="M507.2656,174.875 Q507.4219,174.6563 507.6094,174.5469 Q507.7969,174.4375 508.0156,174.4375 Q508.3906,174.4375 508.625,174.6953 Q508.8594,174.9531 508.8594,175.5625 L508.8594,177.0156 Q508.8594,177.625 508.625,177.8906 Q508.3906,178.1563 508.0156,178.1563 Q507.6719,178.1563 507.4688,177.9531 Q507.2656,177.7656 507.1563,177.25 Q507.1094,176.8906 506.9219,176.7031 Q506.5938,176.3281 505.9844,176.1094 Q505.375,175.8906 504.75,175.8906 Q503.9844,175.8906 503.3516,176.2188 Q502.7188,176.5469 502.2266,177.2969 Q501.7344,178.0469 501.7344,179.0781 L501.7344,180.1719 Q501.7344,181.4063 502.625,182.2266 Q503.5156,183.0469 505.1094,183.0469 Q506.0469,183.0469 506.7031,182.7969 Q507.0938,182.6406 507.5156,182.2031 Q507.7813,181.9375 507.9297,181.8594 Q508.0781,181.7813 508.2813,181.7813 Q508.6094,181.7813 508.8672,182.0391 Q509.125,182.2969 509.125,182.6406 Q509.125,182.9844 508.7813,183.3906 Q508.2813,183.9688 507.4844,184.2969 Q506.4063,184.75 505.1094,184.75 Q503.5938,184.75 502.3906,184.125 Q501.4063,183.625 500.7188,182.5547 Q500.0313,181.4844 500.0313,180.2031 L500.0313,179.0469 Q500.0313,177.7188 500.6484,176.5703 Q501.2656,175.4219 502.3594,174.8047 Q503.4531,174.1875 504.6875,174.1875 Q505.4219,174.1875 506.0703,174.3516 Q506.7188,174.5156 507.2656,174.875 Z "/><text fill="#000000" font-family="sans-serif" font-size="12" lengthAdjust="spacingAndGlyphs" textLength="159" x="518.5" y="183.9102">RepresentationBuilderObject</text><line style="stroke: #A80036; stroke-width: 1.5;" x1="490.5" x2="679.5" y1="195" y2="195"/><line style="stroke: #A80036; stroke-width: 1.5;" x1="490.5" x2="679.5" y1="203" y2="203"/><!--MD5=[2117cff04764689122bfffae2a265e3d]
class eapli.framework.representations.builders.GeneralDTORepresentationBuilder--><a href="../../../eapli/framework/representations/builders/GeneralDTORepresentationBuilder.html" target="_parent" title="eapli.framework.representations.builders.GeneralDTORepresentationBuilder" xlink:actuate="onRequest" xlink:href="../../../eapli/framework/representations/builders/GeneralDTORepresentationBuilder.html" xlink:show="new" xlink:title="eapli.framework.representations.builders.GeneralDTORepresentationBuilder" xlink:type="simple"><rect fill="#FEFECE" filter="url(#f5t2ffjzn1ofk)" height="32" id="eapli.framework.representations.builders.GeneralDTORepresentationBuilder" style="stroke: #A80036; stroke-width: 1.5;" width="277" x="1094.5" y="65.5"/><ellipse cx="1109.5" cy="81.5" fill="#ADD1B2" rx="11" ry="11" style="stroke: #A80036; stroke-width: 1.0;"/><path d="M1112.2656,77.375 Q1112.4219,77.1563 1112.6094,77.0469 Q1112.7969,76.9375 1113.0156,76.9375 Q1113.3906,76.9375 1113.625,77.1953 Q1113.8594,77.4531 1113.8594,78.0625 L1113.8594,79.5156 Q1113.8594,80.125 1113.625,80.3906 Q1113.3906,80.6563 1113.0156,80.6563 Q1112.6719,80.6563 1112.4688,80.4531 Q1112.2656,80.2656 1112.1563,79.75 Q1112.1094,79.3906 1111.9219,79.2031 Q1111.5938,78.8281 1110.9844,78.6094 Q1110.375,78.3906 1109.75,78.3906 Q1108.9844,78.3906 1108.3516,78.7188 Q1107.7188,79.0469 1107.2266,79.7969 Q1106.7344,80.5469 1106.7344,81.5781 L1106.7344,82.6719 Q1106.7344,83.9063 1107.625,84.7266 Q1108.5156,85.5469 1110.1094,85.5469 Q1111.0469,85.5469 1111.7031,85.2969 Q1112.0938,85.1406 1112.5156,84.7031 Q1112.7813,84.4375 1112.9297,84.3594 Q1113.0781,84.2813 1113.2813,84.2813 Q1113.6094,84.2813 1113.8672,84.5391 Q1114.125,84.7969 1114.125,85.1406 Q1114.125,85.4844 1113.7813,85.8906 Q1113.2813,86.4688 1112.4844,86.7969 Q1111.4063,87.25 1110.1094,87.25 Q1108.5938,87.25 1107.3906,86.625 Q1106.4063,86.125 1105.7188,85.0547 Q1105.0313,83.9844 1105.0313,82.7031 L1105.0313,81.5469 Q1105.0313,80.2188 1105.6484,79.0703 Q1106.2656,77.9219 1107.3594,77.3047 Q1108.4531,76.6875 1109.6875,76.6875 Q1110.4219,76.6875 1111.0703,76.8516 Q1111.7188,77.0156 1112.2656,77.375 Z "/><text fill="#000000" font-family="sans-serif" font-size="14" font-weight="bold" lengthAdjust="spacingAndGlyphs" textLength="245" x="1123.5" y="87.2285">GeneralDTORepresentationBuilder</text></a><!--MD5=[be43fa7d28b88fc9fcf0711de0a884ef]
class eapli.framework.representations.builders.JsonRepresentationBuilder--><a href="../../../eapli/framework/representations/builders/JsonRepresentationBuilder.html" target="_parent" title="eapli.framework.representations.builders.JsonRepresentationBuilder" xlink:actuate="onRequest" xlink:href="../../../eapli/framework/representations/builders/JsonRepresentationBuilder.html" xlink:show="new" xlink:title="eapli.framework.representations.builders.JsonRepresentationBuilder" xlink:type="simple"><rect fill="#FEFECE" filter="url(#f5t2ffjzn1ofk)" height="32" id="eapli.framework.representations.builders.JsonRepresentationBuilder" style="stroke: #A80036; stroke-width: 1.5;" width="226" x="833" y="65.5"/><ellipse cx="848" cy="81.5" fill="#ADD1B2" rx="11" ry="11" style="stroke: #A80036; stroke-width: 1.0;"/><path d="M850.7656,77.375 Q850.9219,77.1563 851.1094,77.0469 Q851.2969,76.9375 851.5156,76.9375 Q851.8906,76.9375 852.125,77.1953 Q852.3594,77.4531 852.3594,78.0625 L852.3594,79.5156 Q852.3594,80.125 852.125,80.3906 Q851.8906,80.6563 851.5156,80.6563 Q851.1719,80.6563 850.9688,80.4531 Q850.7656,80.2656 850.6563,79.75 Q850.6094,79.3906 850.4219,79.2031 Q850.0938,78.8281 849.4844,78.6094 Q848.875,78.3906 848.25,78.3906 Q847.4844,78.3906 846.8516,78.7188 Q846.2188,79.0469 845.7266,79.7969 Q845.2344,80.5469 845.2344,81.5781 L845.2344,82.6719 Q845.2344,83.9063 846.125,84.7266 Q847.0156,85.5469 848.6094,85.5469 Q849.5469,85.5469 850.2031,85.2969 Q850.5938,85.1406 851.0156,84.7031 Q851.2813,84.4375 851.4297,84.3594 Q851.5781,84.2813 851.7813,84.2813 Q852.1094,84.2813 852.3672,84.5391 Q852.625,84.7969 852.625,85.1406 Q852.625,85.4844 852.2813,85.8906 Q851.7813,86.4688 850.9844,86.7969 Q849.9063,87.25 848.6094,87.25 Q847.0938,87.25 845.8906,86.625 Q844.9063,86.125 844.2188,85.0547 Q843.5313,83.9844 843.5313,82.7031 L843.5313,81.5469 Q843.5313,80.2188 844.1484,79.0703 Q844.7656,77.9219 845.8594,77.3047 Q846.9531,76.6875 848.1875,76.6875 Q848.9219,76.6875 849.5703,76.8516 Q850.2188,77.0156 850.7656,77.375 Z "/><text fill="#000000" font-family="sans-serif" font-size="14" font-weight="bold" lengthAdjust="spacingAndGlyphs" textLength="194" x="862" y="87.2285">JsonRepresentationBuilder</text></a><!--MD5=[eb87572e904918f8c6baa8699c7eb026]
class eapli.framework.representations.dto.DTO--><a href="../../../eapli/framework/representations/dto/DTO.html" target="_parent" title="eapli.framework.representations.dto.DTO" xlink:actuate="onRequest" xlink:href="../../../eapli/framework/representations/dto/DTO.html" xlink:show="new" xlink:title="eapli.framework.representations.dto.DTO" xlink:type="simple"><rect fill="#FEFECE" filter="url(#f5t2ffjzn1ofk)" height="32" id="eapli.framework.representations.dto.DTO" style="stroke: #A80036; stroke-width: 1.5;" width="62" x="81" y="65.5"/><ellipse cx="96" cy="81.5" fill="#B4A7E5" rx="11" ry="11" style="stroke: #A80036; stroke-width: 1.0;"/><path d="M96.9531,78.1406 L96.9531,84.7969 L98.6719,84.7969 Q99.2813,84.7969 99.5469,85.0313 Q99.8125,85.2656 99.8125,85.6563 Q99.8125,86.0313 99.5469,86.2656 Q99.2813,86.5 98.6719,86.5 L93.5313,86.5 Q92.9219,86.5 92.6563,86.2656 Q92.3906,86.0313 92.3906,85.6406 Q92.3906,85.2656 92.6563,85.0313 Q92.9219,84.7969 93.5313,84.7969 L95.25,84.7969 L95.25,78.1406 L93.5313,78.1406 Q92.9219,78.1406 92.6563,77.9063 Q92.3906,77.6719 92.3906,77.2813 Q92.3906,76.9063 92.6563,76.6719 Q92.9219,76.4375 93.5313,76.4375 L98.6719,76.4375 Q99.2813,76.4375 99.5469,76.6719 Q99.8125,76.9063 99.8125,77.2813 Q99.8125,77.6719 99.5469,77.9063 Q99.2813,78.1406 98.6719,78.1406 L96.9531,78.1406 Z "/><text fill="#000000" font-family="sans-serif" font-size="14" font-style="italic" font-weight="bold" lengthAdjust="spacingAndGlyphs" textLength="30" x="110" y="87.2285">DTO</text></a><!--MD5=[86db8baadac9180102aef230ed0bda53]
class eapli.framework.representations.dto.DTOable--><a href="../../../eapli/framework/representations/dto/DTOable.html" target="_parent" title="eapli.framework.representations.dto.DTOable" xlink:actuate="onRequest" xlink:href="../../../eapli/framework/representations/dto/DTOable.html" xlink:show="new" xlink:title="eapli.framework.representations.dto.DTOable" xlink:type="simple"><rect fill="#FEFECE" filter="url(#f5t2ffjzn1ofk)" height="42.7031" id="eapli.framework.representations.dto.DTOable" style="stroke: #A80036; stroke-width: 1.5;" width="147" x="178.5" y="60"/><ellipse cx="193.5" cy="81.3516" fill="#B4A7E5" rx="11" ry="11" style="stroke: #A80036; stroke-width: 1.0;"/><path d="M194.4531,77.9922 L194.4531,84.6484 L196.1719,84.6484 Q196.7813,84.6484 197.0469,84.8828 Q197.3125,85.1172 197.3125,85.5078 Q197.3125,85.8828 197.0469,86.1172 Q196.7813,86.3516 196.1719,86.3516 L191.0313,86.3516 Q190.4219,86.3516 190.1563,86.1172 Q189.8906,85.8828 189.8906,85.4922 Q189.8906,85.1172 190.1563,84.8828 Q190.4219,84.6484 191.0313,84.6484 L192.75,84.6484 L192.75,77.9922 L191.0313,77.9922 Q190.4219,77.9922 190.1563,77.7578 Q189.8906,77.5234 189.8906,77.1328 Q189.8906,76.7578 190.1563,76.5234 Q190.4219,76.2891 191.0313,76.2891 L196.1719,76.2891 Q196.7813,76.2891 197.0469,76.5234 Q197.3125,76.7578 197.3125,77.1328 Q197.3125,77.5234 197.0469,77.7578 Q196.7813,77.9922 196.1719,77.9922 L194.4531,77.9922 Z "/><text fill="#000000" font-family="sans-serif" font-size="12" font-style="italic" lengthAdjust="spacingAndGlyphs" textLength="119" x="205.5" y="77.457">«FunctionalInterface»</text><text fill="#000000" font-family="sans-serif" font-size="14" font-style="italic" font-weight="bold" lengthAdjust="spacingAndGlyphs" textLength="59" x="235.5" y="94.627">DTOable</text></a><!--MD5=[3e11eb65d96fbc42d04237df054df6c3]
class eapli.framework.representations.dto.DTOParser--><a href="../../../eapli/framework/representations/dto/DTOParser.html" target="_parent" title="eapli.framework.representations.dto.DTOParser" xlink:actuate="onRequest" xlink:href="../../../eapli/framework/representations/dto/DTOParser.html" xlink:show="new" xlink:title="eapli.framework.representations.dto.DTOParser" xlink:type="simple"><rect fill="#FEFECE" filter="url(#f5t2ffjzn1ofk)" height="42.7031" id="eapli.framework.representations.dto.DTOParser" style="stroke: #A80036; stroke-width: 1.5;" width="147" x="38.5" y="165.5"/><ellipse cx="53.5" cy="186.8516" fill="#B4A7E5" rx="11" ry="11" style="stroke: #A80036; stroke-width: 1.0;"/><path d="M54.4531,183.4922 L54.4531,190.1484 L56.1719,190.1484 Q56.7813,190.1484 57.0469,190.3828 Q57.3125,190.6172 57.3125,191.0078 Q57.3125,191.3828 57.0469,191.6172 Q56.7813,191.8516 56.1719,191.8516 L51.0313,191.8516 Q50.4219,191.8516 50.1563,191.6172 Q49.8906,191.3828 49.8906,190.9922 Q49.8906,190.6172 50.1563,190.3828 Q50.4219,190.1484 51.0313,190.1484 L52.75,190.1484 L52.75,183.4922 L51.0313,183.4922 Q50.4219,183.4922 50.1563,183.2578 Q49.8906,183.0234 49.8906,182.6328 Q49.8906,182.2578 50.1563,182.0234 Q50.4219,181.7891 51.0313,181.7891 L56.1719,181.7891 Q56.7813,181.7891 57.0469,182.0234 Q57.3125,182.2578 57.3125,182.6328 Q57.3125,183.0234 57.0469,183.2578 Q56.7813,183.4922 56.1719,183.4922 L54.4531,183.4922 Z "/><text fill="#000000" font-family="sans-serif" font-size="12" font-style="italic" lengthAdjust="spacingAndGlyphs" textLength="119" x="65.5" y="182.957">«FunctionalInterface»</text><text fill="#000000" font-family="sans-serif" font-size="14" font-style="italic" font-weight="bold" lengthAdjust="spacingAndGlyphs" textLength="74" x="88" y="200.127">DTOParser</text></a><!--MD5=[57d050b7f9185eb943fe296bbadd92da]
class eapli.framework.representations.dto.GeneralDTO--><a href="../../../eapli/framework/representations/dto/GeneralDTO.html" target="_parent" title="eapli.framework.representations.dto.GeneralDTO" xlink:actuate="onRequest" xlink:href="../../../eapli/framework/representations/dto/GeneralDTO.html" xlink:show="new" xlink:title="eapli.framework.representations.dto.GeneralDTO" xlink:type="simple"><rect fill="#FEFECE" filter="url(#f5t2ffjzn1ofk)" height="32" id="eapli.framework.representations.dto.GeneralDTO" style="stroke: #A80036; stroke-width: 1.5;" width="117" x="220.5" y="171"/><ellipse cx="235.5" cy="187" fill="#ADD1B2" rx="11" ry="11" style="stroke: #A80036; stroke-width: 1.0;"/><path d="M238.2656,182.875 Q238.4219,182.6563 238.6094,182.5469 Q238.7969,182.4375 239.0156,182.4375 Q239.3906,182.4375 239.625,182.6953 Q239.8594,182.9531 239.8594,183.5625 L239.8594,185.0156 Q239.8594,185.625 239.625,185.8906 Q239.3906,186.1563 239.0156,186.1563 Q238.6719,186.1563 238.4688,185.9531 Q238.2656,185.7656 238.1563,185.25 Q238.1094,184.8906 237.9219,184.7031 Q237.5938,184.3281 236.9844,184.1094 Q236.375,183.8906 235.75,183.8906 Q234.9844,183.8906 234.3516,184.2188 Q233.7188,184.5469 233.2266,185.2969 Q232.7344,186.0469 232.7344,187.0781 L232.7344,188.1719 Q232.7344,189.4063 233.625,190.2266 Q234.5156,191.0469 236.1094,191.0469 Q237.0469,191.0469 237.7031,190.7969 Q238.0938,190.6406 238.5156,190.2031 Q238.7813,189.9375 238.9297,189.8594 Q239.0781,189.7813 239.2813,189.7813 Q239.6094,189.7813 239.8672,190.0391 Q240.125,190.2969 240.125,190.6406 Q240.125,190.9844 239.7813,191.3906 Q239.2813,191.9688 238.4844,192.2969 Q237.4063,192.75 236.1094,192.75 Q234.5938,192.75 233.3906,192.125 Q232.4063,191.625 231.7188,190.5547 Q231.0313,189.4844 231.0313,188.2031 L231.0313,187.0469 Q231.0313,185.7188 231.6484,184.5703 Q232.2656,183.4219 233.3594,182.8047 Q234.4531,182.1875 235.6875,182.1875 Q236.4219,182.1875 237.0703,182.3516 Q237.7188,182.5156 238.2656,182.875 Z "/><text fill="#000000" font-family="sans-serif" font-size="14" font-weight="bold" lengthAdjust="spacingAndGlyphs" textLength="85" x="249.5" y="192.7285">GeneralDTO</text></a><!--MD5=[d554c625b8e688e123d411ff4003ecb1]
link eapli.framework.representations.Representationable to eapli.framework.representations.RepresentationBuilderObject--><path d="M646.75,103.104 C646.75,103.104 646.75,157.8458 646.75,157.8458 " fill="none" id="eapli.framework.representations.Representationable-&gt;eapli.framework.representations.RepresentationBuilderObject" style="stroke: #A80036; stroke-width: 1.0; stroke-dasharray: 7.0,7.0;"/><polygon fill="#A80036" points="646.75,162.8458,650.75,153.8458,646.75,157.8458,642.75,153.8458,646.75,162.8458" style="stroke: #A80036; stroke-width: 1.0;"/><!--MD5=[93dab0a8effad7b53feacebc238eae94]
link eapli.framework.representations.RepresentationBuilder to eapli.framework.representations.RepresentationBuilderObject--><path d="M533.75,97.523 C533.75,97.523 533.75,157.9759 533.75,157.9759 " fill="none" id="eapli.framework.representations.RepresentationBuilder-&gt;eapli.framework.representations.RepresentationBuilderObject" style="stroke: #A80036; stroke-width: 1.0; stroke-dasharray: 7.0,7.0;"/><polygon fill="#A80036" points="533.75,162.9759,537.75,153.9759,533.75,157.9759,529.75,153.9759,533.75,162.9759" style="stroke: #A80036; stroke-width: 1.0;"/><!--MD5=[27768bde4b9ef70d67735bdf6b389591]
link eapli.framework.representations.dto.DTO to eapli.framework.representations.dto.DTOable--><!--MD5=[e02edf376c255e1ea971627c0852a965]
link eapli.framework.representations.dto.DTO to eapli.framework.representations.dto.DTOParser--><!--MD5=[41c95b311f0d4492c1f83ae3f368c52a]
link eapli.framework.representations.dto.DTOParser to eapli.framework.representations.dto.GeneralDTO--><!--MD5=[18b9b5a520ee5a6fdaf956cb6b02b39a]
@startuml

skinparam svgLinkTarget _parent
skinparam linetype ortho
package eapli.framework.representations [[../../../eapli/framework/representations/package-summary.html{eapli.framework.representations}]] #lightyellow {
}

interface "<b><size:14>Representationable</b>" as eapli.framework.representations.Representationable <<FunctionalInterface>> [[../../../eapli/framework/representations/Representationable.html{eapli.framework.representations.Representationable}]] {
}

hide eapli.framework.representations.Representationable fields
hide eapli.framework.representations.Representationable methods

interface "<b><size:14>RepresentationBuilder</b>" as eapli.framework.representations.RepresentationBuilder  [[../../../eapli/framework/representations/RepresentationBuilder.html{eapli.framework.representations.RepresentationBuilder}]] {
}

hide eapli.framework.representations.RepresentationBuilder fields
hide eapli.framework.representations.RepresentationBuilder methods

eapli.framework.representations.Representationable ..> eapli.framework.representations.RepresentationBuilderObject
eapli.framework.representations.RepresentationBuilder ..> eapli.framework.representations.RepresentationBuilderObject
package eapli.framework.representations.builders [[../../../eapli/framework/representations/builders/package-summary.html{eapli.framework.representations.builders}]] {
}

class "<b><size:14>GeneralDTORepresentationBuilder</b>" as eapli.framework.representations.builders.GeneralDTORepresentationBuilder  [[../../../eapli/framework/representations/builders/GeneralDTORepresentationBuilder.html{eapli.framework.representations.builders.GeneralDTORepresentationBuilder}]] {
}

hide eapli.framework.representations.builders.GeneralDTORepresentationBuilder fields
hide eapli.framework.representations.builders.GeneralDTORepresentationBuilder methods

class "<b><size:14>JsonRepresentationBuilder</b>" as eapli.framework.representations.builders.JsonRepresentationBuilder  [[../../../eapli/framework/representations/builders/JsonRepresentationBuilder.html{eapli.framework.representations.builders.JsonRepresentationBuilder}]] {
}

hide eapli.framework.representations.builders.JsonRepresentationBuilder fields
hide eapli.framework.representations.builders.JsonRepresentationBuilder methods

package eapli.framework.representations.dto [[../../../eapli/framework/representations/dto/package-summary.html{eapli.framework.representations.dto}]] {
}

interface "<b><size:14>DTO</b>" as eapli.framework.representations.dto.DTO  [[../../../eapli/framework/representations/dto/DTO.html{eapli.framework.representations.dto.DTO}]] {
}

hide eapli.framework.representations.dto.DTO fields
hide eapli.framework.representations.dto.DTO methods

interface "<b><size:14>DTOable</b>" as eapli.framework.representations.dto.DTOable <<FunctionalInterface>> [[../../../eapli/framework/representations/dto/DTOable.html{eapli.framework.representations.dto.DTOable}]] {
}

hide eapli.framework.representations.dto.DTOable fields
hide eapli.framework.representations.dto.DTOable methods

interface "<b><size:14>DTOParser</b>" as eapli.framework.representations.dto.DTOParser <<FunctionalInterface>> [[../../../eapli/framework/representations/dto/DTOParser.html{eapli.framework.representations.dto.DTOParser}]] {
}

hide eapli.framework.representations.dto.DTOParser fields
hide eapli.framework.representations.dto.DTOParser methods

class "<b><size:14>GeneralDTO</b>" as eapli.framework.representations.dto.GeneralDTO  [[../../../eapli/framework/representations/dto/GeneralDTO.html{eapli.framework.representations.dto.GeneralDTO}]] {
}

hide eapli.framework.representations.dto.GeneralDTO fields
hide eapli.framework.representations.dto.GeneralDTO methods


@enduml

PlantUML version 1.2020.04(Thu Mar 19 10:16:49 GMT 2020)
(GPL source distribution)
Java Runtime: Java(TM) SE Runtime Environment
JVM: Java HotSpot(TM) 64-Bit Server VM
Java Version: 1.8.0_202-b08
Operating System: Windows 10
Default Encoding: Cp1252
Language: en
Country: US
--></g></svg>