<?xml version="1.0" encoding="UTF-8" standalone="no"?><svg xmlns="http://www.w3.org/2000/svg" xmlns:xlink="http://www.w3.org/1999/xlink" contentScriptType="application/ecmascript" contentStyleType="text/css" height="535px" preserveAspectRatio="none" style="width:1282px;height:535px;" version="1.1" viewBox="0 0 1282 535" width="1282px" zoomAndPan="magnify"><defs><filter height="300%" id="f5o0qegz981i0" width="300%" x="-1" y="-1"><feGaussianBlur result="blurOut" stdDeviation="2.0"/><feColorMatrix in="blurOut" result="blurOut2" type="matrix" values="0 0 0 0 0 0 0 0 0 0 0 0 0 0 0 0 0 0 .4 0"/><feOffset dx="4.0" dy="4.0" in="blurOut2" result="blurOut3"/><feBlend in="SourceGraphic" in2="blurOut3" mode="normal"/></filter></defs><g><!--MD5=[6144c490ce61590973dce0b410447132]
class eapli.framework.infrastructure.repositories.impl.jpa.JpaAutoTxRepository--><a href="../../../../../../eapli/framework/infrastructure/repositories/impl/jpa/JpaAutoTxRepository.html" target="_parent" title="eapli.framework.infrastructure.repositories.impl.jpa.JpaAutoTxRepository" xlink:actuate="onRequest" xlink:href="../../../../../../eapli/framework/infrastructure/repositories/impl/jpa/JpaAutoTxRepository.html" xlink:show="new" xlink:title="eapli.framework.infrastructure.repositories.impl.jpa.JpaAutoTxRepository" xlink:type="simple"><rect fill="#FEFECE" filter="url(#f5o0qegz981i0)" height="415.9219" id="eapli.framework.infrastructure.repositories.impl.jpa.JpaAutoTxRepository" style="stroke: #A80036; stroke-width: 1.5;" width="471" x="412.5" y="8"/><ellipse cx="525.75" cy="28.0938" fill="#ADD1B2" rx="11" ry="11" style="stroke: #A80036; stroke-width: 1.0;"/><path d="M528.5156,23.9688 Q528.6719,23.75 528.8594,23.6406 Q529.0469,23.5313 529.2656,23.5313 Q529.6406,23.5313 529.875,23.7891 Q530.1094,24.0469 530.1094,24.6563 L530.1094,26.1094 Q530.1094,26.7188 529.875,26.9844 Q529.6406,27.25 529.2656,27.25 Q528.9219,27.25 528.7188,27.0469 Q528.5156,26.8594 528.4063,26.3438 Q528.3594,25.9844 528.1719,25.7969 Q527.8438,25.4219 527.2344,25.2031 Q526.625,24.9844 526,24.9844 Q525.2344,24.9844 524.6016,25.3125 Q523.9688,25.6406 523.4766,26.3906 Q522.9844,27.1406 522.9844,28.1719 L522.9844,29.2656 Q522.9844,30.5 523.875,31.3203 Q524.7656,32.1406 526.3594,32.1406 Q527.2969,32.1406 527.9531,31.8906 Q528.3438,31.7344 528.7656,31.2969 Q529.0313,31.0313 529.1797,30.9531 Q529.3281,30.875 529.5313,30.875 Q529.8594,30.875 530.1172,31.1328 Q530.375,31.3906 530.375,31.7344 Q530.375,32.0781 530.0313,32.4844 Q529.5313,33.0625 528.7344,33.3906 Q527.6563,33.8438 526.3594,33.8438 Q524.8438,33.8438 523.6406,33.2188 Q522.6563,32.7188 521.9688,31.6484 Q521.2813,30.5781 521.2813,29.2969 L521.2813,28.1406 Q521.2813,26.8125 521.8984,25.6641 Q522.5156,24.5156 523.6094,23.8984 Q524.7031,23.2813 525.9375,23.2813 Q526.6719,23.2813 527.3203,23.4453 Q527.9688,23.6094 528.5156,23.9688 Z "/><text fill="#000000" font-family="sans-serif" font-size="14" font-weight="bold" lengthAdjust="spacingAndGlyphs" textLength="149" x="589.75" y="27.5332">JpaAutoTxRepository</text><text fill="#000000" font-family="sans-serif" font-size="10" lengthAdjust="spacingAndGlyphs" textLength="236" x="546.25" y="40.9902">eapli.framework.infrastructure.repositories.impl.jpa</text><line style="stroke: #A80036; stroke-width: 1.5;" x1="413.5" x2="882.5" y1="48.1875" y2="48.1875"/><polygon fill="none" points="423.5,54.1875,427.5,58.1875,423.5,62.1875,419.5,58.1875" style="stroke: #B38D22; stroke-width: 1.0;"/><text fill="#000000" font-family="sans-serif" font-size="11" lengthAdjust="spacingAndGlyphs" textLength="158" x="432.5" y="63.6064">JpaBaseRepository&lt;T, K, I&gt; repo</text><rect fill="none" height="6" style="stroke: #C82930; stroke-width: 1.0;" width="6" x="420.5" y="70.0234"/><text fill="#000000" font-family="sans-serif" font-size="11" lengthAdjust="spacingAndGlyphs" textLength="138" x="432.5" y="77.4424">TransactionalContext autoTx</text><line style="stroke: #A80036; stroke-width: 1.5;" x1="413.5" x2="882.5" y1="83.8594" y2="83.8594"/><ellipse cx="423.5" cy="94.8594" fill="#84BE84" rx="3" ry="3" style="stroke: #038048; stroke-width: 1.0;"/><text fill="#000000" font-family="sans-serif" font-size="11" lengthAdjust="spacingAndGlyphs" textLength="362" x="432.5" y="99.2783">JpaAutoTxRepository(String persistenceUnitName,String identityFieldName)</text><ellipse cx="423.5" cy="108.6953" fill="#84BE84" rx="3" ry="3" style="stroke: #038048; stroke-width: 1.0;"/><text fill="#000000" font-family="sans-serif" font-size="11" lengthAdjust="spacingAndGlyphs" textLength="437" x="432.5" y="113.1143">JpaAutoTxRepository(String persistenceUnitName,Map properties,String identityFieldName)</text><ellipse cx="423.5" cy="122.5313" fill="#84BE84" rx="3" ry="3" style="stroke: #038048; stroke-width: 1.0;"/><text fill="#000000" font-family="sans-serif" font-size="11" lengthAdjust="spacingAndGlyphs" textLength="367" x="432.5" y="126.9502">JpaAutoTxRepository(TransactionalContext autoTx,String identityFieldName)</text><ellipse cx="423.5" cy="136.3672" fill="#84BE84" rx="3" ry="3" style="stroke: #038048; stroke-width: 1.0;"/><text fill="#000000" font-family="sans-serif" font-size="11" lengthAdjust="spacingAndGlyphs" text-decoration="underline" textLength="370" x="432.5" y="140.7861">TransactionalContext buildTransactionalContext(String persistenceUnitName)</text><ellipse cx="423.5" cy="150.2031" fill="#84BE84" rx="3" ry="3" style="stroke: #038048; stroke-width: 1.0;"/><text fill="#000000" font-family="sans-serif" font-size="11" lengthAdjust="spacingAndGlyphs" text-decoration="underline" textLength="445" x="432.5" y="154.6221">TransactionalContext buildTransactionalContext(String persistenceUnitName,Map properties)</text><ellipse cx="423.5" cy="164.0391" fill="#84BE84" rx="3" ry="3" style="stroke: #038048; stroke-width: 1.0;"/><text fill="#000000" font-family="sans-serif" font-size="11" lengthAdjust="spacingAndGlyphs" textLength="149" x="432.5" y="168.458">TransactionalContext context()</text><ellipse cx="423.5" cy="177.875" fill="#84BE84" rx="3" ry="3" style="stroke: #038048; stroke-width: 1.0;"/><text fill="#000000" font-family="sans-serif" font-size="11" lengthAdjust="spacingAndGlyphs" textLength="122" x="432.5" y="182.2939">boolean isInTransaction()</text><ellipse cx="423.5" cy="191.7109" fill="#84BE84" rx="3" ry="3" style="stroke: #038048; stroke-width: 1.0;"/><text fill="#000000" font-family="sans-serif" font-size="11" lengthAdjust="spacingAndGlyphs" textLength="120" x="432.5" y="196.1299">void delete(Object entity)</text><ellipse cx="423.5" cy="205.5469" fill="#84BE84" rx="3" ry="3" style="stroke: #038048; stroke-width: 1.0;"/><text fill="#000000" font-family="sans-serif" font-size="11" lengthAdjust="spacingAndGlyphs" textLength="123" x="432.5" y="209.9658">void deleteById(Object id)</text><ellipse cx="423.5" cy="219.3828" fill="#84BE84" rx="3" ry="3" style="stroke: #038048; stroke-width: 1.0;"/><text fill="#000000" font-family="sans-serif" font-size="11" lengthAdjust="spacingAndGlyphs" textLength="174" x="432.5" y="223.8018">void deleteOfIdentity(Object entityId)</text><ellipse cx="423.5" cy="233.2188" fill="#84BE84" rx="3" ry="3" style="stroke: #038048; stroke-width: 1.0;"/><text fill="#000000" font-family="sans-serif" font-size="11" lengthAdjust="spacingAndGlyphs" textLength="126" x="432.5" y="237.6377">Object save(Object entity)</text><ellipse cx="423.5" cy="247.0547" fill="#84BE84" rx="3" ry="3" style="stroke: #038048; stroke-width: 1.0;"/><text fill="#000000" font-family="sans-serif" font-size="11" lengthAdjust="spacingAndGlyphs" textLength="94" x="432.5" y="251.4736">Iterable&lt;T&gt; findAll()</text><ellipse cx="423.5" cy="260.8906" fill="#84BE84" rx="3" ry="3" style="stroke: #038048; stroke-width: 1.0;"/><text fill="#000000" font-family="sans-serif" font-size="11" lengthAdjust="spacingAndGlyphs" textLength="149" x="432.5" y="265.3096">Optional&lt;T&gt; findById(Object id)</text><ellipse cx="423.5" cy="274.7266" fill="#84BE84" rx="3" ry="3" style="stroke: #038048; stroke-width: 1.0;"/><text fill="#000000" font-family="sans-serif" font-size="11" lengthAdjust="spacingAndGlyphs" textLength="154" x="432.5" y="279.1455">Optional&lt;T&gt; ofIdentity(Object id)</text><ellipse cx="423.5" cy="288.5625" fill="#84BE84" rx="3" ry="3" style="stroke: #038048; stroke-width: 1.0;"/><text fill="#000000" font-family="sans-serif" font-size="11" lengthAdjust="spacingAndGlyphs" textLength="58" x="432.5" y="292.9814">long count()</text><ellipse cx="423.5" cy="302.3984" fill="#84BE84" rx="3" ry="3" style="stroke: #038048; stroke-width: 1.0;"/><text fill="#000000" font-family="sans-serif" font-size="11" lengthAdjust="spacingAndGlyphs" textLength="51" x="432.5" y="306.8174">long size()</text><ellipse cx="423.5" cy="316.2344" fill="#84BE84" rx="3" ry="3" style="stroke: #038048; stroke-width: 1.0;"/><text fill="#000000" font-family="sans-serif" font-size="11" lengthAdjust="spacingAndGlyphs" textLength="97" x="432.5" y="320.6533">Iterator&lt;T&gt; iterator()</text><polygon fill="#FFFF44" points="423.5,325.0703,427.5,329.0703,423.5,333.0703,419.5,329.0703" style="stroke: #B38D22; stroke-width: 1.0;"/><text fill="#000000" font-family="sans-serif" font-size="11" lengthAdjust="spacingAndGlyphs" textLength="138" x="432.5" y="334.4893">List&lt;T&gt; match(String where)</text><polygon fill="#FFFF44" points="423.5,338.9063,427.5,342.9063,423.5,346.9063,419.5,342.9063" style="stroke: #B38D22; stroke-width: 1.0;"/><text fill="#000000" font-family="sans-serif" font-size="11" lengthAdjust="spacingAndGlyphs" textLength="353" x="432.5" y="348.3252">List&lt;T&gt; match(String whereWithParameters,Map&lt;String, Object&gt; params)</text><polygon fill="#FFFF44" points="423.5,352.7422,427.5,356.7422,423.5,360.7422,419.5,356.7422" style="stroke: #B38D22; stroke-width: 1.0;"/><text fill="#000000" font-family="sans-serif" font-size="11" lengthAdjust="spacingAndGlyphs" textLength="197" x="432.5" y="362.1611">List&lt;T&gt; match(String where,Object args)</text><polygon fill="#FFFF44" points="423.5,366.5781,427.5,370.5781,423.5,374.5781,419.5,370.5781" style="stroke: #B38D22; stroke-width: 1.0;"/><text fill="#000000" font-family="sans-serif" font-size="11" lengthAdjust="spacingAndGlyphs" textLength="180" x="432.5" y="375.9971">Optional&lt;T&gt; matchOne(String where)</text><polygon fill="#FFFF44" points="423.5,380.4141,427.5,384.4141,423.5,388.4141,419.5,384.4141" style="stroke: #B38D22; stroke-width: 1.0;"/><text fill="#000000" font-family="sans-serif" font-size="11" lengthAdjust="spacingAndGlyphs" textLength="395" x="432.5" y="389.833">Optional&lt;T&gt; matchOne(String whereWithParameters,Map&lt;String, Object&gt; params)</text><polygon fill="#FFFF44" points="423.5,394.25,427.5,398.25,423.5,402.25,419.5,398.25" style="stroke: #B38D22; stroke-width: 1.0;"/><text fill="#000000" font-family="sans-serif" font-size="11" lengthAdjust="spacingAndGlyphs" textLength="239" x="432.5" y="403.6689">Optional&lt;T&gt; matchOne(String where,Object args)</text><polygon fill="#FFFF44" points="423.5,408.0859,427.5,412.0859,423.5,416.0859,419.5,412.0859" style="stroke: #B38D22; stroke-width: 1.0;"/><text fill="#000000" font-family="sans-serif" font-size="11" lengthAdjust="spacingAndGlyphs" textLength="60" x="432.5" y="417.5049">TypedQuery</text><text fill="#000000" font-family="sans-serif" font-size="11" lengthAdjust="spacingAndGlyphs" text-decoration="underline" textLength="182" x="495.5" y="417.5049">createQuery(String queryString,Class</text><text fill="#000000" font-family="sans-serif" font-size="11" lengthAdjust="spacingAndGlyphs" text-decoration="underline" textLength="36" x="680.5" y="417.5049">class1)</text></a><!--MD5=[5db0710c6b318ba46b4c2c348d56006f]
class eapli.framework.infrastructure.repositories.impl.jpa.JpaBaseRepositoryObjectObjectObject--><a href="../../../../../../eapli/framework/infrastructure/repositories/impl/jpa/JpaBaseRepository.html" target="_parent" title="eapli.framework.infrastructure.repositories.impl.jpa.JpaBaseRepository" xlink:actuate="onRequest" xlink:href="../../../../../../eapli/framework/infrastructure/repositories/impl/jpa/JpaBaseRepository.html" xlink:show="new" xlink:title="eapli.framework.infrastructure.repositories.impl.jpa.JpaBaseRepository" xlink:type="simple"><rect fill="#FEFECE" filter="url(#f5o0qegz981i0)" height="40.1875" id="eapli.framework.infrastructure.repositories.impl.jpa.JpaBaseRepositoryObjectObjectObject" style="stroke: #A80036; stroke-width: 1.5;" width="268" x="6" y="484"/><ellipse cx="21" cy="504.0938" fill="#ADD1B2" rx="11" ry="11" style="stroke: #A80036; stroke-width: 1.0;"/><path d="M23.7656,499.9688 Q23.9219,499.75 24.1094,499.6406 Q24.2969,499.5313 24.5156,499.5313 Q24.8906,499.5313 25.125,499.7891 Q25.3594,500.0469 25.3594,500.6563 L25.3594,502.1094 Q25.3594,502.7188 25.125,502.9844 Q24.8906,503.25 24.5156,503.25 Q24.1719,503.25 23.9688,503.0469 Q23.7656,502.8594 23.6563,502.3438 Q23.6094,501.9844 23.4219,501.7969 Q23.0938,501.4219 22.4844,501.2031 Q21.875,500.9844 21.25,500.9844 Q20.4844,500.9844 19.8516,501.3125 Q19.2188,501.6406 18.7266,502.3906 Q18.2344,503.1406 18.2344,504.1719 L18.2344,505.2656 Q18.2344,506.5 19.125,507.3203 Q20.0156,508.1406 21.6094,508.1406 Q22.5469,508.1406 23.2031,507.8906 Q23.5938,507.7344 24.0156,507.2969 Q24.2813,507.0313 24.4297,506.9531 Q24.5781,506.875 24.7813,506.875 Q25.1094,506.875 25.3672,507.1328 Q25.625,507.3906 25.625,507.7344 Q25.625,508.0781 25.2813,508.4844 Q24.7813,509.0625 23.9844,509.3906 Q22.9063,509.8438 21.6094,509.8438 Q20.0938,509.8438 18.8906,509.2188 Q17.9063,508.7188 17.2188,507.6484 Q16.5313,506.5781 16.5313,505.2969 L16.5313,504.1406 Q16.5313,502.8125 17.1484,501.6641 Q17.7656,500.5156 18.8594,499.8984 Q19.9531,499.2813 21.1875,499.2813 Q21.9219,499.2813 22.5703,499.4453 Q23.2188,499.6094 23.7656,499.9688 Z "/><text fill="#000000" font-family="sans-serif" font-size="14" font-weight="bold" lengthAdjust="spacingAndGlyphs" textLength="190" x="58" y="503.5332">JpaBaseRepository&lt;T, K, I&gt;</text><text fill="#000000" font-family="sans-serif" font-size="10" lengthAdjust="spacingAndGlyphs" textLength="236" x="35" y="516.9902">eapli.framework.infrastructure.repositories.impl.jpa</text></a><!--MD5=[274ad5661286b626a93603d287cbf95a]
class java.lang.Object--><rect fill="#D3D3D3" filter="url(#f5o0qegz981i0)" height="40.1875" id="java.lang.Object" style="stroke: #A80036; stroke-width: 1.5;" width="78" x="309" y="484"/><rect fill="#D3D3D3" height="40.1875" style="stroke: #A80036; stroke-width: 1.5;" width="78" x="309" y="484"/><ellipse cx="324" cy="504.0938" fill="#ADD1B2" rx="11" ry="11" style="stroke: #A80036; stroke-width: 1.0;"/><path d="M326.7656,499.9688 Q326.9219,499.75 327.1094,499.6406 Q327.2969,499.5313 327.5156,499.5313 Q327.8906,499.5313 328.125,499.7891 Q328.3594,500.0469 328.3594,500.6563 L328.3594,502.1094 Q328.3594,502.7188 328.125,502.9844 Q327.8906,503.25 327.5156,503.25 Q327.1719,503.25 326.9688,503.0469 Q326.7656,502.8594 326.6563,502.3438 Q326.6094,501.9844 326.4219,501.7969 Q326.0938,501.4219 325.4844,501.2031 Q324.875,500.9844 324.25,500.9844 Q323.4844,500.9844 322.8516,501.3125 Q322.2188,501.6406 321.7266,502.3906 Q321.2344,503.1406 321.2344,504.1719 L321.2344,505.2656 Q321.2344,506.5 322.125,507.3203 Q323.0156,508.1406 324.6094,508.1406 Q325.5469,508.1406 326.2031,507.8906 Q326.5938,507.7344 327.0156,507.2969 Q327.2813,507.0313 327.4297,506.9531 Q327.5781,506.875 327.7813,506.875 Q328.1094,506.875 328.3672,507.1328 Q328.625,507.3906 328.625,507.7344 Q328.625,508.0781 328.2813,508.4844 Q327.7813,509.0625 326.9844,509.3906 Q325.9063,509.8438 324.6094,509.8438 Q323.0938,509.8438 321.8906,509.2188 Q320.9063,508.7188 320.2188,507.6484 Q319.5313,506.5781 319.5313,505.2969 L319.5313,504.1406 Q319.5313,502.8125 320.1484,501.6641 Q320.7656,500.5156 321.8594,499.8984 Q322.9531,499.2813 324.1875,499.2813 Q324.9219,499.2813 325.5703,499.4453 Q326.2188,499.6094 326.7656,499.9688 Z "/><text fill="#000000" font-family="sans-serif" font-size="14" font-weight="bold" lengthAdjust="spacingAndGlyphs" textLength="46" x="338" y="503.5332">Object</text><text fill="#000000" font-family="sans-serif" font-size="10" lengthAdjust="spacingAndGlyphs" textLength="44" x="339" y="516.9902">java.lang</text><!--MD5=[d4c3418e4b9f7728a57dfa43ed99deb9]
class eapli.framework.domain.repositories.TransactionalContext--><a href="../../../../../../eapli/framework/domain/repositories/TransactionalContext.html" target="_parent" title="eapli.framework.domain.repositories.TransactionalContext" xlink:actuate="onRequest" xlink:href="../../../../../../eapli/framework/domain/repositories/TransactionalContext.html" xlink:show="new" xlink:title="eapli.framework.domain.repositories.TransactionalContext" xlink:type="simple"><rect fill="#FFFFFF" filter="url(#f5o0qegz981i0)" height="40.1875" id="eapli.framework.domain.repositories.TransactionalContext" style="stroke: #A80036; stroke-width: 1.5;" width="201" x="422.5" y="484"/><rect fill="#FFFFFF" height="40.1875" style="stroke: #A80036; stroke-width: 1.5;" width="201" x="422.5" y="484"/><ellipse cx="437.5" cy="504.0938" fill="#B4A7E5" rx="11" ry="11" style="stroke: #A80036; stroke-width: 1.0;"/><path d="M438.4531,500.7344 L438.4531,507.3906 L440.1719,507.3906 Q440.7813,507.3906 441.0469,507.625 Q441.3125,507.8594 441.3125,508.25 Q441.3125,508.625 441.0469,508.8594 Q440.7813,509.0938 440.1719,509.0938 L435.0313,509.0938 Q434.4219,509.0938 434.1563,508.8594 Q433.8906,508.625 433.8906,508.2344 Q433.8906,507.8594 434.1563,507.625 Q434.4219,507.3906 435.0313,507.3906 L436.75,507.3906 L436.75,500.7344 L435.0313,500.7344 Q434.4219,500.7344 434.1563,500.5 Q433.8906,500.2656 433.8906,499.875 Q433.8906,499.5 434.1563,499.2656 Q434.4219,499.0313 435.0313,499.0313 L440.1719,499.0313 Q440.7813,499.0313 441.0469,499.2656 Q441.3125,499.5 441.3125,499.875 Q441.3125,500.2656 441.0469,500.5 Q440.7813,500.7344 440.1719,500.7344 L438.4531,500.7344 Z "/><text fill="#000000" font-family="sans-serif" font-size="14" font-style="italic" font-weight="bold" lengthAdjust="spacingAndGlyphs" textLength="146" x="463" y="503.5332">TransactionalContext</text><text fill="#000000" font-family="sans-serif" font-size="10" font-style="italic" lengthAdjust="spacingAndGlyphs" textLength="169" x="451.5" y="516.9902">eapli.framework.domain.repositories</text></a><!--MD5=[9c0b3867a4ac8781836a6e6520d3e152]
class eapli.framework.infrastructure.repositories.RepositoryObjectObject--><a href="../../../../../../eapli/framework/infrastructure/repositories/Repository.html" target="_parent" title="eapli.framework.infrastructure.repositories.Repository" xlink:actuate="onRequest" xlink:href="../../../../../../eapli/framework/infrastructure/repositories/Repository.html" xlink:show="new" xlink:title="eapli.framework.infrastructure.repositories.Repository" xlink:type="simple"><rect fill="#D3D3D3" filter="url(#f5o0qegz981i0)" height="40.1875" id="eapli.framework.infrastructure.repositories.RepositoryObjectObject" style="stroke: #A80036; stroke-width: 1.5;" width="228" x="659" y="484"/><rect fill="#D3D3D3" height="40.1875" style="stroke: #A80036; stroke-width: 1.5;" width="228" x="659" y="484"/><ellipse cx="674" cy="504.0938" fill="#B4A7E5" rx="11" ry="11" style="stroke: #A80036; stroke-width: 1.0;"/><path d="M674.9531,500.7344 L674.9531,507.3906 L676.6719,507.3906 Q677.2813,507.3906 677.5469,507.625 Q677.8125,507.8594 677.8125,508.25 Q677.8125,508.625 677.5469,508.8594 Q677.2813,509.0938 676.6719,509.0938 L671.5313,509.0938 Q670.9219,509.0938 670.6563,508.8594 Q670.3906,508.625 670.3906,508.2344 Q670.3906,507.8594 670.6563,507.625 Q670.9219,507.3906 671.5313,507.3906 L673.25,507.3906 L673.25,500.7344 L671.5313,500.7344 Q670.9219,500.7344 670.6563,500.5 Q670.3906,500.2656 670.3906,499.875 Q670.3906,499.5 670.6563,499.2656 Q670.9219,499.0313 671.5313,499.0313 L676.6719,499.0313 Q677.2813,499.0313 677.5469,499.2656 Q677.8125,499.5 677.8125,499.875 Q677.8125,500.2656 677.5469,500.5 Q677.2813,500.7344 676.6719,500.7344 L674.9531,500.7344 Z "/><text fill="#000000" font-family="sans-serif" font-size="14" font-style="italic" font-weight="bold" lengthAdjust="spacingAndGlyphs" textLength="113" x="729.5" y="503.5332">Repository&lt;T, K&gt;</text><text fill="#000000" font-family="sans-serif" font-size="10" font-style="italic" lengthAdjust="spacingAndGlyphs" textLength="196" x="688" y="516.9902">eapli.framework.infrastructure.repositories</text></a><!--MD5=[8ff66bd4b776a2492940b8a4799dc12d]
class eapli.framework.domain.activerecord.ActiveRecord--><a href="../../../../../../eapli/framework/domain/activerecord/ActiveRecord.html" target="_parent" title="eapli.framework.domain.activerecord.ActiveRecord" xlink:actuate="onRequest" xlink:href="../../../../../../eapli/framework/domain/activerecord/ActiveRecord.html" xlink:show="new" xlink:title="eapli.framework.domain.activerecord.ActiveRecord" xlink:type="simple"><rect fill="#FFFFFF" filter="url(#f5o0qegz981i0)" height="40.1875" id="eapli.framework.domain.activerecord.ActiveRecord" style="stroke: #A80036; stroke-width: 1.5;" width="203" x="922.5" y="484"/><rect fill="#FFFFFF" height="40.1875" style="stroke: #A80036; stroke-width: 1.5;" width="203" x="922.5" y="484"/><ellipse cx="937.5" cy="504.0938" fill="#B4A7E5" rx="11" ry="11" style="stroke: #A80036; stroke-width: 1.0;"/><path d="M938.4531,500.7344 L938.4531,507.3906 L940.1719,507.3906 Q940.7813,507.3906 941.0469,507.625 Q941.3125,507.8594 941.3125,508.25 Q941.3125,508.625 941.0469,508.8594 Q940.7813,509.0938 940.1719,509.0938 L935.0313,509.0938 Q934.4219,509.0938 934.1563,508.8594 Q933.8906,508.625 933.8906,508.2344 Q933.8906,507.8594 934.1563,507.625 Q934.4219,507.3906 935.0313,507.3906 L936.75,507.3906 L936.75,500.7344 L935.0313,500.7344 Q934.4219,500.7344 934.1563,500.5 Q933.8906,500.2656 933.8906,499.875 Q933.8906,499.5 934.1563,499.2656 Q934.4219,499.0313 935.0313,499.0313 L940.1719,499.0313 Q940.7813,499.0313 941.0469,499.2656 Q941.3125,499.5 941.3125,499.875 Q941.3125,500.2656 941.0469,500.5 Q940.7813,500.7344 940.1719,500.7344 L938.4531,500.7344 Z "/><text fill="#000000" font-family="sans-serif" font-size="14" font-style="italic" font-weight="bold" lengthAdjust="spacingAndGlyphs" textLength="91" x="991.5" y="503.5332">ActiveRecord</text><text fill="#000000" font-family="sans-serif" font-size="10" font-style="italic" lengthAdjust="spacingAndGlyphs" textLength="171" x="951.5" y="516.9902">eapli.framework.domain.activerecord</text></a><!--MD5=[5a5af9b0547913863cbe0ddf55a9ab5e]
class java.io.Serializable--><rect fill="#D3D3D3" filter="url(#f5o0qegz981i0)" height="40.1875" id="java.io.Serializable" style="stroke: #A80036; stroke-width: 1.5;" width="110" x="1161" y="484"/><rect fill="#D3D3D3" height="40.1875" style="stroke: #A80036; stroke-width: 1.5;" width="110" x="1161" y="484"/><ellipse cx="1176" cy="504.0938" fill="#B4A7E5" rx="11" ry="11" style="stroke: #A80036; stroke-width: 1.0;"/><path d="M1176.9531,500.7344 L1176.9531,507.3906 L1178.6719,507.3906 Q1179.2813,507.3906 1179.5469,507.625 Q1179.8125,507.8594 1179.8125,508.25 Q1179.8125,508.625 1179.5469,508.8594 Q1179.2813,509.0938 1178.6719,509.0938 L1173.5313,509.0938 Q1172.9219,509.0938 1172.6563,508.8594 Q1172.3906,508.625 1172.3906,508.2344 Q1172.3906,507.8594 1172.6563,507.625 Q1172.9219,507.3906 1173.5313,507.3906 L1175.25,507.3906 L1175.25,500.7344 L1173.5313,500.7344 Q1172.9219,500.7344 1172.6563,500.5 Q1172.3906,500.2656 1172.3906,499.875 Q1172.3906,499.5 1172.6563,499.2656 Q1172.9219,499.0313 1173.5313,499.0313 L1178.6719,499.0313 Q1179.2813,499.0313 1179.5469,499.2656 Q1179.8125,499.5 1179.8125,499.875 Q1179.8125,500.2656 1179.5469,500.5 Q1179.2813,500.7344 1178.6719,500.7344 L1176.9531,500.7344 Z "/><text fill="#000000" font-family="sans-serif" font-size="14" font-style="italic" font-weight="bold" lengthAdjust="spacingAndGlyphs" textLength="78" x="1190" y="503.5332">Serializable</text><text fill="#000000" font-family="sans-serif" font-size="10" font-style="italic" lengthAdjust="spacingAndGlyphs" textLength="31" x="1213.5" y="516.9902">java.io</text><!--MD5=[e86b381330b85679027f26d28868a23e]
link eapli.framework.infrastructure.repositories.impl.jpa.JpaAutoTxRepository to eapli.framework.infrastructure.repositories.impl.jpa.JpaBaseRepositoryObjectObjectObject--><path d="M412.218,216 C279.445,216 140,216 140,216 C140,216 140,478.7484 140,478.7484 " fill="none" id="eapli.framework.infrastructure.repositories.impl.jpa.JpaAutoTxRepository-&gt;eapli.framework.infrastructure.repositories.impl.jpa.JpaBaseRepositoryObjectObjectObject" style="stroke: #A80036; stroke-width: 1.0;"/><polygon fill="#A80036" points="140,483.7484,144,474.7484,140,478.7484,136,474.7484,140,483.7484" style="stroke: #A80036; stroke-width: 1.0;"/><text fill="#000000" font-family="sans-serif" font-size="13" lengthAdjust="spacingAndGlyphs" textLength="25" x="111.3281" y="472.9687">repo</text><!--MD5=[b4ef733785d1b91b528cade506df6e2c]
link eapli.framework.infrastructure.repositories.impl.jpa.JpaAutoTxRepository to java.lang.Object--><path d="M417.5,424.1584 C417.5,469.3862 417.5,504 417.5,504 C417.5,504 392.218,504 392.218,504 " fill="none" id="eapli.framework.infrastructure.repositories.impl.jpa.JpaAutoTxRepository-&gt;java.lang.Object" style="stroke: #A80036; stroke-width: 1.0; stroke-dasharray: 7.0,7.0;"/><polygon fill="#A80036" points="387.218,504,396.218,508,392.218,504,396.218,500,387.218,504" style="stroke: #A80036; stroke-width: 1.0;"/><!--MD5=[0b7a67212a56699fcd4cfa1887ec746d]
link eapli.framework.infrastructure.repositories.impl.jpa.JpaAutoTxRepository to eapli.framework.domain.repositories.TransactionalContext--><path d="M523,424.1584 C523,424.1584 523,478.9726 523,478.9726 " fill="none" id="eapli.framework.infrastructure.repositories.impl.jpa.JpaAutoTxRepository-&gt;eapli.framework.domain.repositories.TransactionalContext" style="stroke: #A80036; stroke-width: 1.0;"/><polygon fill="#A80036" points="523,483.9726,527,474.9726,523,478.9726,519,474.9726,523,483.9726" style="stroke: #A80036; stroke-width: 1.0;"/><text fill="#000000" font-family="sans-serif" font-size="13" lengthAdjust="spacingAndGlyphs" textLength="39" x="478.2719" y="473.2588">autoTx</text><!--MD5=[27a576691cfaecffd9ba6261fc8964a6]
link eapli.framework.infrastructure.repositories.impl.jpa.JpaAutoTxRepository to eapli.framework.infrastructure.repositories.RepositoryObjectObject--><path d="M771.25,424.1584 C771.25,424.1584 771.25,463.9726 771.25,463.9726 " fill="none" id="eapli.framework.infrastructure.repositories.impl.jpa.JpaAutoTxRepository-&gt;eapli.framework.infrastructure.repositories.RepositoryObjectObject" style="stroke: #A80036; stroke-width: 1.0; stroke-dasharray: 7.0,7.0;"/><polygon fill="none" points="778.25,463.9726,771.25,483.9726,764.25,463.9726,778.25,463.9726" style="stroke: #A80036; stroke-width: 1.0;"/><!--MD5=[3c39ea9b78cb71144ed74d2bdb1655bb]
link eapli.framework.infrastructure.repositories.impl.jpa.JpaAutoTxRepository to eapli.framework.domain.activerecord.ActiveRecord--><path d="M883.724,286 C959.384,286 1024,286 1024,286 C1024,286 1024,478.8818 1024,478.8818 " fill="none" id="eapli.framework.infrastructure.repositories.impl.jpa.JpaAutoTxRepository-&gt;eapli.framework.domain.activerecord.ActiveRecord" style="stroke: #A80036; stroke-width: 1.0; stroke-dasharray: 7.0,7.0;"/><polygon fill="#A80036" points="1024,483.8818,1028,474.8818,1024,478.8818,1020,474.8818,1024,483.8818" style="stroke: #A80036; stroke-width: 1.0;"/><!--MD5=[8290fb2fc43bf5eeaa864493bcec65c2]
link eapli.framework.infrastructure.repositories.impl.jpa.JpaAutoTxRepository to java.io.Serializable--><path d="M883.538,147 C1039.7,147 1216,147 1216,147 C1216,147 1216,478.7833 1216,478.7833 " fill="none" id="eapli.framework.infrastructure.repositories.impl.jpa.JpaAutoTxRepository-&gt;java.io.Serializable" style="stroke: #A80036; stroke-width: 1.0; stroke-dasharray: 7.0,7.0;"/><polygon fill="#A80036" points="1216,483.7833,1220,474.7833,1216,478.7833,1212,474.7833,1216,483.7833" style="stroke: #A80036; stroke-width: 1.0;"/><!--MD5=[e77ecc2610aed83cae0e8d3d3e88f372]
@startuml

skinparam svgLinkTarget _parent
skinparam linetype ortho
set namespaceSeparator none
class "<b><size:14>JpaAutoTxRepository</b>\n<size:10>eapli.framework.infrastructure.repositories.impl.jpa" as eapli.framework.infrastructure.repositories.impl.jpa.JpaAutoTxRepository  [[../../../../../../eapli/framework/infrastructure/repositories/impl/jpa/JpaAutoTxRepository.html{eapli.framework.infrastructure.repositories.impl.jpa.JpaAutoTxRepository}]] {
#JpaBaseRepository<T, K, I> repo
-TransactionalContext autoTx
+JpaAutoTxRepository(String persistenceUnitName,String identityFieldName)
+JpaAutoTxRepository(String persistenceUnitName,Map properties,String identityFieldName)
+JpaAutoTxRepository(TransactionalContext autoTx,String identityFieldName)
{static} +TransactionalContext buildTransactionalContext(String persistenceUnitName)
{static} +TransactionalContext buildTransactionalContext(String persistenceUnitName,Map properties)
+TransactionalContext context()
+boolean isInTransaction()
+void delete(Object entity)
+void deleteById(Object id)
+void deleteOfIdentity(Object entityId)
+Object save(Object entity)
+Iterable<T> findAll()
+Optional<T> findById(Object id)
+Optional<T> ofIdentity(Object id)
+long count()
+long size()
+Iterator<T> iterator()
#List<T> match(String where)
#List<T> match(String whereWithParameters,Map<String, Object> params)
#List<T> match(String where,Object args)
#Optional<T> matchOne(String where)
#Optional<T> matchOne(String whereWithParameters,Map<String, Object> params)
#Optional<T> matchOne(String where,Object args)
#TypedQuery<U> createQuery(String queryString,Class<U> class1)
}


class "<b><size:14>JpaBaseRepository<T, K, I></b>\n<size:10>eapli.framework.infrastructure.repositories.impl.jpa" as eapli.framework.infrastructure.repositories.impl.jpa.JpaBaseRepositoryObjectObjectObject  [[../../../../../../eapli/framework/infrastructure/repositories/impl/jpa/JpaBaseRepository.html{eapli.framework.infrastructure.repositories.impl.jpa.JpaBaseRepository}]] {
}

hide eapli.framework.infrastructure.repositories.impl.jpa.JpaBaseRepositoryObjectObjectObject fields
hide eapli.framework.infrastructure.repositories.impl.jpa.JpaBaseRepositoryObjectObjectObject methods

eapli.framework.infrastructure.repositories.impl.jpa.JpaAutoTxRepository - ->  "repo" eapli.framework.infrastructure.repositories.impl.jpa.JpaBaseRepositoryObjectObjectObject

class "<b><size:14>Object</b>\n<size:10>java.lang" as java.lang.Object  #lightgrey {
}

hide java.lang.Object fields
hide java.lang.Object methods

eapli.framework.infrastructure.repositories.impl.jpa.JpaAutoTxRepository ..> java.lang.Object

interface "<b><size:14>TransactionalContext</b>\n<size:10>eapli.framework.domain.repositories" as eapli.framework.domain.repositories.TransactionalContext  [[../../../../../../eapli/framework/domain/repositories/TransactionalContext.html{eapli.framework.domain.repositories.TransactionalContext}]] #white {
}

hide eapli.framework.domain.repositories.TransactionalContext fields
hide eapli.framework.domain.repositories.TransactionalContext methods

eapli.framework.infrastructure.repositories.impl.jpa.JpaAutoTxRepository - ->  "autoTx" eapli.framework.domain.repositories.TransactionalContext

interface "<b><size:14>Repository<T, K></b>\n<size:10>eapli.framework.infrastructure.repositories" as eapli.framework.infrastructure.repositories.RepositoryObjectObject  [[../../../../../../eapli/framework/infrastructure/repositories/Repository.html{eapli.framework.infrastructure.repositories.Repository}]] #lightgrey {
}

hide eapli.framework.infrastructure.repositories.RepositoryObjectObject fields
hide eapli.framework.infrastructure.repositories.RepositoryObjectObject methods

eapli.framework.infrastructure.repositories.impl.jpa.JpaAutoTxRepository ..|> eapli.framework.infrastructure.repositories.RepositoryObjectObject



interface "<b><size:14>ActiveRecord</b>\n<size:10>eapli.framework.domain.activerecord" as eapli.framework.domain.activerecord.ActiveRecord  [[../../../../../../eapli/framework/domain/activerecord/ActiveRecord.html{eapli.framework.domain.activerecord.ActiveRecord}]] #white {
}

hide eapli.framework.domain.activerecord.ActiveRecord fields
hide eapli.framework.domain.activerecord.ActiveRecord methods

eapli.framework.infrastructure.repositories.impl.jpa.JpaAutoTxRepository ..> eapli.framework.domain.activerecord.ActiveRecord


interface "<b><size:14>Serializable</b>\n<size:10>java.io" as java.io.Serializable  #lightgrey {
}

hide java.io.Serializable fields
hide java.io.Serializable methods

eapli.framework.infrastructure.repositories.impl.jpa.JpaAutoTxRepository ..> java.io.Serializable





@enduml

PlantUML version 1.2020.04(Thu Mar 19 10:16:49 GMT 2020)
(GPL source distribution)
Java Runtime: Java(TM) SE Runtime Environment
JVM: Java HotSpot(TM) 64-Bit Server VM
Java Version: 1.8.0_202-b08
Operating System: Windows 10
Default Encoding: Cp1252
Language: en
Country: US
--></g></svg>