<?xml version="1.0" encoding="UTF-8" standalone="no"?><svg xmlns="http://www.w3.org/2000/svg" xmlns:xlink="http://www.w3.org/1999/xlink" contentScriptType="application/ecmascript" contentStyleType="text/css" height="314px" preserveAspectRatio="none" style="width:543px;height:314px;" version="1.1" viewBox="0 0 543 314" width="543px" zoomAndPan="magnify"><defs><filter height="300%" id="fs08553irqnyv" width="300%" x="-1" y="-1"><feGaussianBlur result="blurOut" stdDeviation="2.0"/><feColorMatrix in="blurOut" result="blurOut2" type="matrix" values="0 0 0 0 0 0 0 0 0 0 0 0 0 0 0 0 0 0 .4 0"/><feOffset dx="4.0" dy="4.0" in="blurOut2" result="blurOut3"/><feBlend in="SourceGraphic" in2="blurOut3" mode="normal"/></filter></defs><g><!--MD5=[69c6516df59d5b53f407861633cc43a5]
class eapli.framework.infrastructure.repositories.impl.jpa.JpaBaseRepository.JpaPagedIterator--><a href="../../../../../../eapli/framework/infrastructure/repositories/impl/jpa/JpaBaseRepository.JpaPagedIterator.html" target="_parent" title="eapli.framework.infrastructure.repositories.impl.jpa.JpaBaseRepository.JpaPagedIterator" xlink:actuate="onRequest" xlink:href="../../../../../../eapli/framework/infrastructure/repositories/impl/jpa/JpaBaseRepository.JpaPagedIterator.html" xlink:show="new" xlink:title="eapli.framework.infrastructure.repositories.impl.jpa.JpaBaseRepository.JpaPagedIterator" xlink:type="simple"><rect fill="#FEFECE" filter="url(#fs08553irqnyv)" height="194.5469" id="eapli.framework.infrastructure.repositories.impl.jpa.JpaBaseRepository.JpaPagedIterator" style="stroke: #A80036; stroke-width: 1.5;" width="361" x="167.5" y="8"/><ellipse cx="213.25" cy="28.0938" fill="#ADD1B2" rx="11" ry="11" style="stroke: #A80036; stroke-width: 1.0;"/><path d="M216.0156,23.9688 Q216.1719,23.75 216.3594,23.6406 Q216.5469,23.5313 216.7656,23.5313 Q217.1406,23.5313 217.375,23.7891 Q217.6094,24.0469 217.6094,24.6563 L217.6094,26.1094 Q217.6094,26.7188 217.375,26.9844 Q217.1406,27.25 216.7656,27.25 Q216.4219,27.25 216.2188,27.0469 Q216.0156,26.8594 215.9063,26.3438 Q215.8594,25.9844 215.6719,25.7969 Q215.3438,25.4219 214.7344,25.2031 Q214.125,24.9844 213.5,24.9844 Q212.7344,24.9844 212.1016,25.3125 Q211.4688,25.6406 210.9766,26.3906 Q210.4844,27.1406 210.4844,28.1719 L210.4844,29.2656 Q210.4844,30.5 211.375,31.3203 Q212.2656,32.1406 213.8594,32.1406 Q214.7969,32.1406 215.4531,31.8906 Q215.8438,31.7344 216.2656,31.2969 Q216.5313,31.0313 216.6797,30.9531 Q216.8281,30.875 217.0313,30.875 Q217.3594,30.875 217.6172,31.1328 Q217.875,31.3906 217.875,31.7344 Q217.875,32.0781 217.5313,32.4844 Q217.0313,33.0625 216.2344,33.3906 Q215.1563,33.8438 213.8594,33.8438 Q212.3438,33.8438 211.1406,33.2188 Q210.1563,32.7188 209.4688,31.6484 Q208.7813,30.5781 208.7813,29.2969 L208.7813,28.1406 Q208.7813,26.8125 209.3984,25.6641 Q210.0156,24.5156 211.1094,23.8984 Q212.2031,23.2813 213.4375,23.2813 Q214.1719,23.2813 214.8203,23.4453 Q215.4688,23.6094 216.0156,23.9688 Z "/><text fill="#000000" font-family="sans-serif" font-size="14" font-weight="bold" lengthAdjust="spacingAndGlyphs" textLength="261" x="233.75" y="27.5332">JpaBaseRepository.JpaPagedIterator</text><text fill="#000000" font-family="sans-serif" font-size="10" lengthAdjust="spacingAndGlyphs" textLength="236" x="246.25" y="40.9902">eapli.framework.infrastructure.repositories.impl.jpa</text><line style="stroke: #A80036; stroke-width: 1.5;" x1="168.5" x2="527.5" y1="48.1875" y2="48.1875"/><rect fill="none" height="6" style="stroke: #C82930; stroke-width: 1.0;" width="6" x="175.5" y="56.1875"/><text fill="#000000" font-family="sans-serif" font-size="11" lengthAdjust="spacingAndGlyphs" textLength="185" x="187.5" y="63.6064">JpaBaseRepository&lt;T, K, I&gt; repository</text><rect fill="none" height="6" style="stroke: #C82930; stroke-width: 1.0;" width="6" x="175.5" y="70.0234"/><text fill="#000000" font-family="sans-serif" font-size="11" lengthAdjust="spacingAndGlyphs" textLength="59" x="187.5" y="77.4424">int pageSize</text><rect fill="none" height="6" style="stroke: #C82930; stroke-width: 1.0;" width="6" x="175.5" y="83.8594"/><text fill="#000000" font-family="sans-serif" font-size="11" lengthAdjust="spacingAndGlyphs" textLength="110" x="187.5" y="91.2783">int currentPageNumber</text><rect fill="none" height="6" style="stroke: #C82930; stroke-width: 1.0;" width="6" x="175.5" y="97.6953"/><text fill="#000000" font-family="sans-serif" font-size="11" lengthAdjust="spacingAndGlyphs" textLength="114" x="187.5" y="105.1143">Iterator&lt;T&gt; currentPage</text><line style="stroke: #A80036; stroke-width: 1.5;" x1="168.5" x2="527.5" y1="111.5313" y2="111.5313"/><rect fill="#F24D5C" height="6" style="stroke: #C82930; stroke-width: 1.0;" width="6" x="175.5" y="119.5313"/><text fill="#000000" font-family="sans-serif" font-size="11" lengthAdjust="spacingAndGlyphs" textLength="335" x="187.5" y="126.9502">JpaPagedIterator(JpaBaseRepository&lt;T, K, I&gt; repository,int pagesize)</text><ellipse cx="178.5" cy="136.3672" fill="#84BE84" rx="3" ry="3" style="stroke: #038048; stroke-width: 1.0;"/><text fill="#000000" font-family="sans-serif" font-size="11" lengthAdjust="spacingAndGlyphs" textLength="89" x="187.5" y="140.7861">boolean hasNext()</text><ellipse cx="178.5" cy="150.2031" fill="#84BE84" rx="3" ry="3" style="stroke: #038048; stroke-width: 1.0;"/><text fill="#000000" font-family="sans-serif" font-size="11" lengthAdjust="spacingAndGlyphs" textLength="63" x="187.5" y="154.6221">Object next()</text><ellipse cx="178.5" cy="164.0391" fill="#84BE84" rx="3" ry="3" style="stroke: #038048; stroke-width: 1.0;"/><text fill="#000000" font-family="sans-serif" font-size="11" lengthAdjust="spacingAndGlyphs" textLength="67" x="187.5" y="168.458">void remove()</text><rect fill="#F24D5C" height="6" style="stroke: #C82930; stroke-width: 1.0;" width="6" x="175.5" y="174.875"/><text fill="#000000" font-family="sans-serif" font-size="11" lengthAdjust="spacingAndGlyphs" textLength="97" x="187.5" y="182.2939">void loadNextPage()</text><rect fill="#F24D5C" height="6" style="stroke: #C82930; stroke-width: 1.0;" width="6" x="175.5" y="188.7109"/><text fill="#000000" font-family="sans-serif" font-size="11" lengthAdjust="spacingAndGlyphs" textLength="139" x="187.5" y="196.1299">boolean needsToLoadPage()</text></a><!--MD5=[5db0710c6b318ba46b4c2c348d56006f]
class eapli.framework.infrastructure.repositories.impl.jpa.JpaBaseRepositoryObjectObjectObject--><a href="../../../../../../eapli/framework/infrastructure/repositories/impl/jpa/JpaBaseRepository.html" target="_parent" title="eapli.framework.infrastructure.repositories.impl.jpa.JpaBaseRepository" xlink:actuate="onRequest" xlink:href="../../../../../../eapli/framework/infrastructure/repositories/impl/jpa/JpaBaseRepository.html" xlink:show="new" xlink:title="eapli.framework.infrastructure.repositories.impl.jpa.JpaBaseRepository" xlink:type="simple"><rect fill="#FEFECE" filter="url(#fs08553irqnyv)" height="40.1875" id="eapli.framework.infrastructure.repositories.impl.jpa.JpaBaseRepositoryObjectObjectObject" style="stroke: #A80036; stroke-width: 1.5;" width="268" x="6" y="263"/><ellipse cx="21" cy="283.0938" fill="#ADD1B2" rx="11" ry="11" style="stroke: #A80036; stroke-width: 1.0;"/><path d="M23.7656,278.9688 Q23.9219,278.75 24.1094,278.6406 Q24.2969,278.5313 24.5156,278.5313 Q24.8906,278.5313 25.125,278.7891 Q25.3594,279.0469 25.3594,279.6563 L25.3594,281.1094 Q25.3594,281.7188 25.125,281.9844 Q24.8906,282.25 24.5156,282.25 Q24.1719,282.25 23.9688,282.0469 Q23.7656,281.8594 23.6563,281.3438 Q23.6094,280.9844 23.4219,280.7969 Q23.0938,280.4219 22.4844,280.2031 Q21.875,279.9844 21.25,279.9844 Q20.4844,279.9844 19.8516,280.3125 Q19.2188,280.6406 18.7266,281.3906 Q18.2344,282.1406 18.2344,283.1719 L18.2344,284.2656 Q18.2344,285.5 19.125,286.3203 Q20.0156,287.1406 21.6094,287.1406 Q22.5469,287.1406 23.2031,286.8906 Q23.5938,286.7344 24.0156,286.2969 Q24.2813,286.0313 24.4297,285.9531 Q24.5781,285.875 24.7813,285.875 Q25.1094,285.875 25.3672,286.1328 Q25.625,286.3906 25.625,286.7344 Q25.625,287.0781 25.2813,287.4844 Q24.7813,288.0625 23.9844,288.3906 Q22.9063,288.8438 21.6094,288.8438 Q20.0938,288.8438 18.8906,288.2188 Q17.9063,287.7188 17.2188,286.6484 Q16.5313,285.5781 16.5313,284.2969 L16.5313,283.1406 Q16.5313,281.8125 17.1484,280.6641 Q17.7656,279.5156 18.8594,278.8984 Q19.9531,278.2813 21.1875,278.2813 Q21.9219,278.2813 22.5703,278.4453 Q23.2188,278.6094 23.7656,278.9688 Z "/><text fill="#000000" font-family="sans-serif" font-size="14" font-weight="bold" lengthAdjust="spacingAndGlyphs" textLength="190" x="58" y="282.5332">JpaBaseRepository&lt;T, K, I&gt;</text><text fill="#000000" font-family="sans-serif" font-size="10" lengthAdjust="spacingAndGlyphs" textLength="236" x="35" y="295.9902">eapli.framework.infrastructure.repositories.impl.jpa</text></a><!--MD5=[274ad5661286b626a93603d287cbf95a]
class java.lang.Object--><rect fill="#D3D3D3" filter="url(#fs08553irqnyv)" height="40.1875" id="java.lang.Object" style="stroke: #A80036; stroke-width: 1.5;" width="78" x="309" y="263"/><rect fill="#D3D3D3" height="40.1875" style="stroke: #A80036; stroke-width: 1.5;" width="78" x="309" y="263"/><ellipse cx="324" cy="283.0938" fill="#ADD1B2" rx="11" ry="11" style="stroke: #A80036; stroke-width: 1.0;"/><path d="M326.7656,278.9688 Q326.9219,278.75 327.1094,278.6406 Q327.2969,278.5313 327.5156,278.5313 Q327.8906,278.5313 328.125,278.7891 Q328.3594,279.0469 328.3594,279.6563 L328.3594,281.1094 Q328.3594,281.7188 328.125,281.9844 Q327.8906,282.25 327.5156,282.25 Q327.1719,282.25 326.9688,282.0469 Q326.7656,281.8594 326.6563,281.3438 Q326.6094,280.9844 326.4219,280.7969 Q326.0938,280.4219 325.4844,280.2031 Q324.875,279.9844 324.25,279.9844 Q323.4844,279.9844 322.8516,280.3125 Q322.2188,280.6406 321.7266,281.3906 Q321.2344,282.1406 321.2344,283.1719 L321.2344,284.2656 Q321.2344,285.5 322.125,286.3203 Q323.0156,287.1406 324.6094,287.1406 Q325.5469,287.1406 326.2031,286.8906 Q326.5938,286.7344 327.0156,286.2969 Q327.2813,286.0313 327.4297,285.9531 Q327.5781,285.875 327.7813,285.875 Q328.1094,285.875 328.3672,286.1328 Q328.625,286.3906 328.625,286.7344 Q328.625,287.0781 328.2813,287.4844 Q327.7813,288.0625 326.9844,288.3906 Q325.9063,288.8438 324.6094,288.8438 Q323.0938,288.8438 321.8906,288.2188 Q320.9063,287.7188 320.2188,286.6484 Q319.5313,285.5781 319.5313,284.2969 L319.5313,283.1406 Q319.5313,281.8125 320.1484,280.6641 Q320.7656,279.5156 321.8594,278.8984 Q322.9531,278.2813 324.1875,278.2813 Q324.9219,278.2813 325.5703,278.4453 Q326.2188,278.6094 326.7656,278.9688 Z "/><text fill="#000000" font-family="sans-serif" font-size="14" font-weight="bold" lengthAdjust="spacingAndGlyphs" textLength="46" x="338" y="282.5332">Object</text><text fill="#000000" font-family="sans-serif" font-size="10" lengthAdjust="spacingAndGlyphs" textLength="44" x="339" y="295.9902">java.lang</text><!--MD5=[5a5af9b0547913863cbe0ddf55a9ab5e]
class java.io.Serializable--><rect fill="#D3D3D3" filter="url(#fs08553irqnyv)" height="40.1875" id="java.io.Serializable" style="stroke: #A80036; stroke-width: 1.5;" width="110" x="422" y="263"/><rect fill="#D3D3D3" height="40.1875" style="stroke: #A80036; stroke-width: 1.5;" width="110" x="422" y="263"/><ellipse cx="437" cy="283.0938" fill="#B4A7E5" rx="11" ry="11" style="stroke: #A80036; stroke-width: 1.0;"/><path d="M437.9531,279.7344 L437.9531,286.3906 L439.6719,286.3906 Q440.2813,286.3906 440.5469,286.625 Q440.8125,286.8594 440.8125,287.25 Q440.8125,287.625 440.5469,287.8594 Q440.2813,288.0938 439.6719,288.0938 L434.5313,288.0938 Q433.9219,288.0938 433.6563,287.8594 Q433.3906,287.625 433.3906,287.2344 Q433.3906,286.8594 433.6563,286.625 Q433.9219,286.3906 434.5313,286.3906 L436.25,286.3906 L436.25,279.7344 L434.5313,279.7344 Q433.9219,279.7344 433.6563,279.5 Q433.3906,279.2656 433.3906,278.875 Q433.3906,278.5 433.6563,278.2656 Q433.9219,278.0313 434.5313,278.0313 L439.6719,278.0313 Q440.2813,278.0313 440.5469,278.2656 Q440.8125,278.5 440.8125,278.875 Q440.8125,279.2656 440.5469,279.5 Q440.2813,279.7344 439.6719,279.7344 L437.9531,279.7344 Z "/><text fill="#000000" font-family="sans-serif" font-size="14" font-style="italic" font-weight="bold" lengthAdjust="spacingAndGlyphs" textLength="78" x="451" y="282.5332">Serializable</text><text fill="#000000" font-family="sans-serif" font-size="10" font-style="italic" lengthAdjust="spacingAndGlyphs" textLength="31" x="474.5" y="295.9902">java.io</text><!--MD5=[4a5eac68b73c9dacc2244deedc5903ef]
link eapli.framework.infrastructure.repositories.impl.jpa.JpaBaseRepository.JpaPagedIterator to eapli.framework.infrastructure.repositories.impl.jpa.JpaBaseRepositoryObjectObjectObject--><path d="M220.75,203.0773 C220.75,203.0773 220.75,257.8585 220.75,257.8585 " fill="none" id="eapli.framework.infrastructure.repositories.impl.jpa.JpaBaseRepository.JpaPagedIterator-&gt;eapli.framework.infrastructure.repositories.impl.jpa.JpaBaseRepositoryObjectObjectObject" style="stroke: #A80036; stroke-width: 1.0;"/><polygon fill="#A80036" points="220.75,262.8585,224.75,253.8585,220.75,257.8585,216.75,253.8585,220.75,262.8585" style="stroke: #A80036; stroke-width: 1.0;"/><text fill="#000000" font-family="sans-serif" font-size="13" lengthAdjust="spacingAndGlyphs" textLength="57" x="179.0984" y="252.1111">repository</text><!--MD5=[ef2de3dfe37815fce71fd3d7fcf6c3b2]
link eapli.framework.infrastructure.repositories.impl.jpa.JpaBaseRepository.JpaPagedIterator to java.lang.Object--><path d="M348,203.0773 C348,203.0773 348,257.8585 348,257.8585 " fill="none" id="eapli.framework.infrastructure.repositories.impl.jpa.JpaBaseRepository.JpaPagedIterator-&gt;java.lang.Object" style="stroke: #A80036; stroke-width: 1.0; stroke-dasharray: 7.0,7.0;"/><polygon fill="#A80036" points="348,262.8585,352,253.8585,348,257.8585,344,253.8585,348,262.8585" style="stroke: #A80036; stroke-width: 1.0;"/><!--MD5=[7c437db00ba2d48c88baf89b8dd00ab2]
link eapli.framework.infrastructure.repositories.impl.jpa.JpaBaseRepository.JpaPagedIterator to java.io.Serializable--><path d="M475.25,203.0773 C475.25,203.0773 475.25,257.8585 475.25,257.8585 " fill="none" id="eapli.framework.infrastructure.repositories.impl.jpa.JpaBaseRepository.JpaPagedIterator-&gt;java.io.Serializable" style="stroke: #A80036; stroke-width: 1.0; stroke-dasharray: 7.0,7.0;"/><polygon fill="#A80036" points="475.25,262.8585,479.25,253.8585,475.25,257.8585,471.25,253.8585,475.25,262.8585" style="stroke: #A80036; stroke-width: 1.0;"/><!--MD5=[c4b9917e79e597babd908c978609ed03]
@startuml

skinparam svgLinkTarget _parent
skinparam linetype ortho
set namespaceSeparator none
class "<b><size:14>JpaBaseRepository.JpaPagedIterator</b>\n<size:10>eapli.framework.infrastructure.repositories.impl.jpa" as eapli.framework.infrastructure.repositories.impl.jpa.JpaBaseRepository.JpaPagedIterator  [[../../../../../../eapli/framework/infrastructure/repositories/impl/jpa/JpaBaseRepository.JpaPagedIterator.html{eapli.framework.infrastructure.repositories.impl.jpa.JpaBaseRepository.JpaPagedIterator}]] {
-JpaBaseRepository<T, K, I> repository
-int pageSize
-int currentPageNumber
-Iterator<T> currentPage
-JpaPagedIterator(JpaBaseRepository<T, K, I> repository,int pagesize)
+boolean hasNext()
+Object next()
+void remove()
-void loadNextPage()
-boolean needsToLoadPage()
}


class "<b><size:14>JpaBaseRepository<T, K, I></b>\n<size:10>eapli.framework.infrastructure.repositories.impl.jpa" as eapli.framework.infrastructure.repositories.impl.jpa.JpaBaseRepositoryObjectObjectObject  [[../../../../../../eapli/framework/infrastructure/repositories/impl/jpa/JpaBaseRepository.html{eapli.framework.infrastructure.repositories.impl.jpa.JpaBaseRepository}]] {
}

hide eapli.framework.infrastructure.repositories.impl.jpa.JpaBaseRepositoryObjectObjectObject fields
hide eapli.framework.infrastructure.repositories.impl.jpa.JpaBaseRepositoryObjectObjectObject methods

eapli.framework.infrastructure.repositories.impl.jpa.JpaBaseRepository.JpaPagedIterator - ->  "repository" eapli.framework.infrastructure.repositories.impl.jpa.JpaBaseRepositoryObjectObjectObject

class "<b><size:14>Object</b>\n<size:10>java.lang" as java.lang.Object  #lightgrey {
}

hide java.lang.Object fields
hide java.lang.Object methods

eapli.framework.infrastructure.repositories.impl.jpa.JpaBaseRepository.JpaPagedIterator ..> java.lang.Object


interface "<b><size:14>Serializable</b>\n<size:10>java.io" as java.io.Serializable  #lightgrey {
}

hide java.io.Serializable fields
hide java.io.Serializable methods

eapli.framework.infrastructure.repositories.impl.jpa.JpaBaseRepository.JpaPagedIterator ..> java.io.Serializable



@enduml

PlantUML version 1.2020.04(Thu Mar 19 10:16:49 GMT 2020)
(GPL source distribution)
Java Runtime: Java(TM) SE Runtime Environment
JVM: Java HotSpot(TM) 64-Bit Server VM
Java Version: 1.8.0_202-b08
Operating System: Windows 10
Default Encoding: Cp1252
Language: en
Country: US
--></g></svg>