@startuml

skinparam svgLinkTarget _parent
skinparam linetype ortho
set namespaceSeparator none
class "<b><size:14>MoneyConverter</b>\n<size:10>eapli.framework.infrastructure.repositories.impl.jpa" as eapli.framework.infrastructure.repositories.impl.jpa.MoneyConverter <<Converter>> [[../../../../../../eapli/framework/infrastructure/repositories/impl/jpa/MoneyConverter.html{eapli.framework.infrastructure.repositories.impl.jpa.MoneyConverter}]] {
+MoneyConverter()
+String convertToDatabaseColumn(Money arg0)
+Money convertToEntityAttribute(String arg0)
}


interface "<b><size:14>AttributeConverter<Money, String></b>\n<size:10>javax.persistence" as javax.persistence.AttributeConverterMoneyString  #lightgrey {
}

hide javax.persistence.AttributeConverterMoneyString fields
hide javax.persistence.AttributeConverterMoneyString methods

eapli.framework.infrastructure.repositories.impl.jpa.MoneyConverter ..|> javax.persistence.AttributeConverterMoneyString

class "<b><size:14>Money</b>\n<size:10>eapli.framework.domain.model.general" as eapli.framework.domain.model.general.Money <<Embeddable>><<JsonAutoDetect>> [[../../../../../../eapli/framework/domain/model/general/Money.html{eapli.framework.domain.model.general.Money}]] #white {
}

hide eapli.framework.domain.model.general.Money fields
hide eapli.framework.domain.model.general.Money methods

eapli.framework.infrastructure.repositories.impl.jpa.MoneyConverter ..> eapli.framework.domain.model.general.Money


@enduml
