<?xml version="1.0" encoding="UTF-8" standalone="no"?><svg xmlns="http://www.w3.org/2000/svg" xmlns:xlink="http://www.w3.org/1999/xlink" contentScriptType="application/ecmascript" contentStyleType="text/css" height="1157px" preserveAspectRatio="none" style="width:1003px;height:1157px;" version="1.1" viewBox="0 0 1003 1157" width="1003px" zoomAndPan="magnify"><defs><filter height="300%" id="f1emvaept5u2gh" width="300%" x="-1" y="-1"><feGaussianBlur result="blurOut" stdDeviation="2.0"/><feColorMatrix in="blurOut" result="blurOut2" type="matrix" values="0 0 0 0 0 0 0 0 0 0 0 0 0 0 0 0 0 0 .4 0"/><feOffset dx="4.0" dy="4.0" in="blurOut2" result="blurOut3"/><feBlend in="SourceGraphic" in2="blurOut3" mode="normal"/></filter></defs><g><!--class Repository--><rect fill="#FEFECE" filter="url(#f1emvaept5u2gh)" height="131.0156" id="Repository" style="stroke: #A80036; stroke-width: 1.5;" width="140" x="431" y="8"/><ellipse cx="456.8" cy="24" fill="#B4A7E5" rx="11" ry="11" style="stroke: #A80036; stroke-width: 1.0;"/><path d="M457.7531,20.6406 L457.7531,27.2969 L459.4719,27.2969 Q460.0813,27.2969 460.3469,27.5313 Q460.6125,27.7656 460.6125,28.1563 Q460.6125,28.5313 460.3469,28.7656 Q460.0813,29 459.4719,29 L454.3313,29 Q453.7219,29 453.4563,28.7656 Q453.1906,28.5313 453.1906,28.1406 Q453.1906,27.7656 453.4563,27.5313 Q453.7219,27.2969 454.3313,27.2969 L456.05,27.2969 L456.05,20.6406 L454.3313,20.6406 Q453.7219,20.6406 453.4563,20.4063 Q453.1906,20.1719 453.1906,19.7813 Q453.1906,19.4063 453.4563,19.1719 Q453.7219,18.9375 454.3313,18.9375 L459.4719,18.9375 Q460.0813,18.9375 460.3469,19.1719 Q460.6125,19.4063 460.6125,19.7813 Q460.6125,20.1719 460.3469,20.4063 Q460.0813,20.6406 459.4719,20.6406 L457.7531,20.6406 Z "/><text fill="#000000" font-family="sans-serif" font-size="12" font-style="italic" lengthAdjust="spacingAndGlyphs" textLength="59" x="473.2" y="28.9102">Repository</text><rect fill="#FFFFFF" height="17.0938" style="stroke: #000000; stroke-width: 1.0; stroke-dasharray: 2.0,2.0;" width="23" x="551" y="5"/><text fill="#000000" font-family="sans-serif" font-size="12" font-style="italic" lengthAdjust="spacingAndGlyphs" textLength="21" x="552" y="18.457">T, K</text><line style="stroke: #A80036; stroke-width: 1.5;" x1="432" x2="570" y1="40" y2="40"/><line style="stroke: #A80036; stroke-width: 1.5;" x1="432" x2="570" y1="48" y2="48"/><text fill="#000000" font-family="sans-serif" font-size="11" lengthAdjust="spacingAndGlyphs" textLength="95" x="437" y="63.4189">void delete(T entity)</text><text fill="#000000" font-family="sans-serif" font-size="11" lengthAdjust="spacingAndGlyphs" textLength="125" x="437" y="77.2549">void deleteById(K entityId)</text><text fill="#000000" font-family="sans-serif" font-size="11" lengthAdjust="spacingAndGlyphs" textLength="76" x="437" y="91.0908">T save(T entity)</text><text fill="#000000" font-family="sans-serif" font-size="11" lengthAdjust="spacingAndGlyphs" textLength="97" x="437" y="104.9268">Iterable&lt;T&gt; findAll();</text><text fill="#000000" font-family="sans-serif" font-size="11" lengthAdjust="spacingAndGlyphs" textLength="128" x="437" y="118.7627">Optional&lt;T&gt; findById(K id);</text><text fill="#000000" font-family="sans-serif" font-size="11" lengthAdjust="spacingAndGlyphs" textLength="61" x="437" y="132.5986">long count();</text><!--class JpaAutoTxRepository--><rect fill="#FEFECE" filter="url(#f1emvaept5u2gh)" height="241.7031" id="JpaAutoTxRepository" style="stroke: #A80036; stroke-width: 1.5;" width="388" x="6" y="740"/><ellipse cx="120.75" cy="756" fill="#ADD1B2" rx="11" ry="11" style="stroke: #A80036; stroke-width: 1.0;"/><path d="M123.5156,751.875 Q123.6719,751.6563 123.8594,751.5469 Q124.0469,751.4375 124.2656,751.4375 Q124.6406,751.4375 124.875,751.6953 Q125.1094,751.9531 125.1094,752.5625 L125.1094,754.0156 Q125.1094,754.625 124.875,754.8906 Q124.6406,755.1563 124.2656,755.1563 Q123.9219,755.1563 123.7188,754.9531 Q123.5156,754.7656 123.4063,754.25 Q123.3594,753.8906 123.1719,753.7031 Q122.8438,753.3281 122.2344,753.1094 Q121.625,752.8906 121,752.8906 Q120.2344,752.8906 119.6016,753.2188 Q118.9688,753.5469 118.4766,754.2969 Q117.9844,755.0469 117.9844,756.0781 L117.9844,757.1719 Q117.9844,758.4063 118.875,759.2266 Q119.7656,760.0469 121.3594,760.0469 Q122.2969,760.0469 122.9531,759.7969 Q123.3438,759.6406 123.7656,759.2031 Q124.0313,758.9375 124.1797,758.8594 Q124.3281,758.7813 124.5313,758.7813 Q124.8594,758.7813 125.1172,759.0391 Q125.375,759.2969 125.375,759.6406 Q125.375,759.9844 125.0313,760.3906 Q124.5313,760.9688 123.7344,761.2969 Q122.6563,761.75 121.3594,761.75 Q119.8438,761.75 118.6406,761.125 Q117.6563,760.625 116.9688,759.5547 Q116.2813,758.4844 116.2813,757.2031 L116.2813,756.0469 Q116.2813,754.7188 116.8984,753.5703 Q117.5156,752.4219 118.6094,751.8047 Q119.7031,751.1875 120.9375,751.1875 Q121.6719,751.1875 122.3203,751.3516 Q122.9688,751.5156 123.5156,751.875 Z "/><text fill="#000000" font-family="sans-serif" font-size="12" lengthAdjust="spacingAndGlyphs" textLength="115" x="141.25" y="760.9102">JpaAutoTxRepository</text><rect fill="#FFFFFF" height="17.0938" style="stroke: #000000; stroke-width: 1.0; stroke-dasharray: 2.0,2.0;" width="33" x="364" y="737"/><text fill="#000000" font-family="sans-serif" font-size="12" font-style="italic" lengthAdjust="spacingAndGlyphs" textLength="31" x="365" y="750.457">T, K, I</text><line style="stroke: #A80036; stroke-width: 1.5;" x1="7" x2="393" y1="772" y2="772"/><text fill="#000000" font-family="sans-serif" font-size="11" lengthAdjust="spacingAndGlyphs" textLength="179" x="12" y="787.4189">#final JpaBaseRepository&lt;T, K&gt; repo</text><text fill="#000000" font-family="sans-serif" font-size="11" lengthAdjust="spacingAndGlyphs" textLength="165" x="12" y="801.2549">-final TransactionalContext autoTx</text><line style="stroke: #A80036; stroke-width: 1.5;" x1="7" x2="393" y1="807.6719" y2="807.6719"/><text fill="#000000" font-family="sans-serif" font-size="11" lengthAdjust="spacingAndGlyphs" textLength="376" x="12" y="823.0908">+TransactionalContext buildTransactionalContext(String persistenceUnitName)</text><text fill="#000000" font-family="sans-serif" font-size="11" lengthAdjust="spacingAndGlyphs" textLength="155" x="12" y="836.9268">+TransactionalContext context()</text><text fill="#000000" font-family="sans-serif" font-size="11" lengthAdjust="spacingAndGlyphs" textLength="128" x="12" y="850.7627">+boolean isInTransaction()</text><text fill="#000000" font-family="sans-serif" font-size="11" lengthAdjust="spacingAndGlyphs" textLength="101" x="12" y="864.5986">+void delete(T entity)</text><text fill="#000000" font-family="sans-serif" font-size="11" lengthAdjust="spacingAndGlyphs" textLength="82" x="12" y="878.4346">+T save(T entity)</text><text fill="#000000" font-family="sans-serif" font-size="11" lengthAdjust="spacingAndGlyphs" textLength="100" x="12" y="892.2705">+Iterable&lt;T&gt; findAll()</text><text fill="#000000" font-family="sans-serif" font-size="11" lengthAdjust="spacingAndGlyphs" textLength="131" x="12" y="906.1064">+Optional&lt;T&gt; findById(K id)</text><text fill="#000000" font-family="sans-serif" font-size="11" lengthAdjust="spacingAndGlyphs" textLength="120" x="12" y="919.9424">+Optional&lt;T&gt; ofIdentity(I)</text><text fill="#000000" font-family="sans-serif" font-size="11" lengthAdjust="spacingAndGlyphs" textLength="64" x="12" y="933.7783">+long count()</text><text fill="#000000" font-family="sans-serif" font-size="11" lengthAdjust="spacingAndGlyphs" textLength="103" x="12" y="947.6143">+Iterator&lt;T&gt; iterator()</text><text fill="#000000" font-family="sans-serif" font-size="11" lengthAdjust="spacingAndGlyphs" textLength="144" x="12" y="961.4502">#List&lt;T&gt; match(String where)</text><text fill="#000000" font-family="sans-serif" font-size="11" lengthAdjust="spacingAndGlyphs" textLength="186" x="12" y="975.2861">#Optional&lt;T&gt; matchOne(String where)</text><!--class IterableRepository--><rect fill="#FEFECE" filter="url(#f1emvaept5u2gh)" height="89.5078" id="IterableRepository" style="stroke: #A80036; stroke-width: 1.5;" width="170" x="261" y="217"/><ellipse cx="280.95" cy="233" fill="#B4A7E5" rx="11" ry="11" style="stroke: #A80036; stroke-width: 1.0;"/><path d="M281.9031,229.6406 L281.9031,236.2969 L283.6219,236.2969 Q284.2313,236.2969 284.4969,236.5313 Q284.7625,236.7656 284.7625,237.1563 Q284.7625,237.5313 284.4969,237.7656 Q284.2313,238 283.6219,238 L278.4813,238 Q277.8719,238 277.6063,237.7656 Q277.3406,237.5313 277.3406,237.1406 Q277.3406,236.7656 277.6063,236.5313 Q277.8719,236.2969 278.4813,236.2969 L280.2,236.2969 L280.2,229.6406 L278.4813,229.6406 Q277.8719,229.6406 277.6063,229.4063 Q277.3406,229.1719 277.3406,228.7813 Q277.3406,228.4063 277.6063,228.1719 Q277.8719,227.9375 278.4813,227.9375 L283.6219,227.9375 Q284.2313,227.9375 284.4969,228.1719 Q284.7625,228.4063 284.7625,228.7813 Q284.7625,229.1719 284.4969,229.4063 Q284.2313,229.6406 283.6219,229.6406 L281.9031,229.6406 Z "/><text fill="#000000" font-family="sans-serif" font-size="12" font-style="italic" lengthAdjust="spacingAndGlyphs" textLength="102" x="296.05" y="237.9102">IterableRepository</text><rect fill="#FFFFFF" height="17.0938" style="stroke: #000000; stroke-width: 1.0; stroke-dasharray: 2.0,2.0;" width="23" x="411" y="214"/><text fill="#000000" font-family="sans-serif" font-size="12" font-style="italic" lengthAdjust="spacingAndGlyphs" textLength="21" x="412" y="227.457">T, K</text><line style="stroke: #A80036; stroke-width: 1.5;" x1="262" x2="430" y1="249" y2="249"/><line style="stroke: #A80036; stroke-width: 1.5;" x1="262" x2="430" y1="257" y2="257"/><text fill="#000000" font-family="sans-serif" font-size="11" lengthAdjust="spacingAndGlyphs" textLength="158" x="267" y="272.4189">Iterator&lt;T&gt; iterator(int pagesize);</text><text fill="#000000" font-family="sans-serif" font-size="11" lengthAdjust="spacingAndGlyphs" textLength="39" x="267" y="286.2549">T first();</text><text fill="#000000" font-family="sans-serif" font-size="11" lengthAdjust="spacingAndGlyphs" textLength="106" x="267" y="300.0908">Iterable&lt;T&gt; first(int n);</text><!--class JpaBaseRepository--><rect fill="#FEFECE" filter="url(#f1emvaept5u2gh)" height="310.8828" id="JpaBaseRepository" style="stroke: #A80036; stroke-width: 1.5;" width="352" x="216" y="368"/><ellipse cx="316.25" cy="384" fill="#ADD1B2" rx="11" ry="11" style="stroke: #A80036; stroke-width: 1.0;"/><path d="M319.0156,379.875 Q319.1719,379.6563 319.3594,379.5469 Q319.5469,379.4375 319.7656,379.4375 Q320.1406,379.4375 320.375,379.6953 Q320.6094,379.9531 320.6094,380.5625 L320.6094,382.0156 Q320.6094,382.625 320.375,382.8906 Q320.1406,383.1563 319.7656,383.1563 Q319.4219,383.1563 319.2188,382.9531 Q319.0156,382.7656 318.9063,382.25 Q318.8594,381.8906 318.6719,381.7031 Q318.3438,381.3281 317.7344,381.1094 Q317.125,380.8906 316.5,380.8906 Q315.7344,380.8906 315.1016,381.2188 Q314.4688,381.5469 313.9766,382.2969 Q313.4844,383.0469 313.4844,384.0781 L313.4844,385.1719 Q313.4844,386.4063 314.375,387.2266 Q315.2656,388.0469 316.8594,388.0469 Q317.7969,388.0469 318.4531,387.7969 Q318.8438,387.6406 319.2656,387.2031 Q319.5313,386.9375 319.6797,386.8594 Q319.8281,386.7813 320.0313,386.7813 Q320.3594,386.7813 320.6172,387.0391 Q320.875,387.2969 320.875,387.6406 Q320.875,387.9844 320.5313,388.3906 Q320.0313,388.9688 319.2344,389.2969 Q318.1563,389.75 316.8594,389.75 Q315.3438,389.75 314.1406,389.125 Q313.1563,388.625 312.4688,387.5547 Q311.7813,386.4844 311.7813,385.2031 L311.7813,384.0469 Q311.7813,382.7188 312.3984,381.5703 Q313.0156,380.4219 314.1094,379.8047 Q315.2031,379.1875 316.4375,379.1875 Q317.1719,379.1875 317.8203,379.3516 Q318.4688,379.5156 319.0156,379.875 Z "/><text fill="#000000" font-family="sans-serif" font-size="12" lengthAdjust="spacingAndGlyphs" textLength="108" x="336.75" y="388.9102">JpaBaseRepository</text><rect fill="#FFFFFF" height="17.0938" style="stroke: #000000; stroke-width: 1.0; stroke-dasharray: 2.0,2.0;" width="33" x="538" y="365"/><text fill="#000000" font-family="sans-serif" font-size="12" font-style="italic" lengthAdjust="spacingAndGlyphs" textLength="31" x="539" y="378.457">T, K, I</text><line style="stroke: #A80036; stroke-width: 1.5;" x1="217" x2="567" y1="400" y2="400"/><text fill="#000000" font-family="sans-serif" font-size="11" lengthAdjust="spacingAndGlyphs" textLength="107" x="222" y="415.4189">#Class&lt;T&gt; entityClass</text><text fill="#000000" font-family="sans-serif" font-size="11" lengthAdjust="spacingAndGlyphs" textLength="163" x="222" y="429.2549">-EntityManagerFactory emFactory</text><text fill="#000000" font-family="sans-serif" font-size="11" lengthAdjust="spacingAndGlyphs" textLength="143" x="222" y="443.0908">-EntityManager entityManager</text><line style="stroke: #A80036; stroke-width: 1.5;" x1="217" x2="567" y1="449.5078" y2="449.5078"/><text fill="#000000" font-family="sans-serif" font-size="11" lengthAdjust="spacingAndGlyphs" textLength="227" x="222" y="464.9268">#EntityManagerFactory entityManagerFactory()</text><text fill="#000000" font-family="sans-serif" font-size="11" lengthAdjust="spacingAndGlyphs" textLength="153" x="222" y="478.7627">#EntityManager entityManager()</text><text fill="#000000" font-family="sans-serif" font-size="11" lengthAdjust="spacingAndGlyphs" textLength="89" x="222" y="492.5986">+T create(T entity)</text><text fill="#000000" font-family="sans-serif" font-size="11" lengthAdjust="spacingAndGlyphs" textLength="114" x="222" y="506.4346">+Optional&lt;T&gt; read(K id)</text><text fill="#000000" font-family="sans-serif" font-size="11" lengthAdjust="spacingAndGlyphs" textLength="131" x="222" y="520.2705">+Optional&lt;T&gt; findById(K id)</text><text fill="#000000" font-family="sans-serif" font-size="11" lengthAdjust="spacingAndGlyphs" textLength="120" x="222" y="534.1064">+Optional&lt;T&gt; ofIdentity(I)</text><text fill="#000000" font-family="sans-serif" font-size="11" lengthAdjust="spacingAndGlyphs" textLength="91" x="222" y="547.9424">+T update(T entity)</text><text fill="#000000" font-family="sans-serif" font-size="11" lengthAdjust="spacingAndGlyphs" textLength="101" x="222" y="561.7783">+void delete(T entity)</text><text fill="#000000" font-family="sans-serif" font-size="11" lengthAdjust="spacingAndGlyphs" textLength="131" x="222" y="575.6143">+void deleteById(K entityId)</text><text fill="#000000" font-family="sans-serif" font-size="11" lengthAdjust="spacingAndGlyphs" textLength="64" x="222" y="589.4502">+long count()</text><text fill="#000000" font-family="sans-serif" font-size="11" lengthAdjust="spacingAndGlyphs" textLength="123" x="222" y="603.2861">+boolean contains(K key)</text><text fill="#000000" font-family="sans-serif" font-size="11" lengthAdjust="spacingAndGlyphs" textLength="108" x="222" y="617.1221">+boolean add(T entity)</text><text fill="#000000" font-family="sans-serif" font-size="11" lengthAdjust="spacingAndGlyphs" textLength="82" x="222" y="630.958">+T save(T entity)</text><text fill="#000000" font-family="sans-serif" font-size="11" lengthAdjust="spacingAndGlyphs" textLength="135" x="222" y="644.7939">#TypedQuery&lt;T&gt; queryAll()</text><text fill="#000000" font-family="sans-serif" font-size="11" lengthAdjust="spacingAndGlyphs" textLength="340" x="222" y="658.6299">#TypedQuery&lt;T&gt; queryAll(String where, Map&lt;String, Object&gt; params)</text><text fill="#000000" font-family="sans-serif" font-size="11" lengthAdjust="spacingAndGlyphs" textLength="91" x="222" y="672.4658">+List&lt;T&gt; first(int n)</text><!--class JpaWithTransactionalContextRepository--><rect fill="#FEFECE" filter="url(#f1emvaept5u2gh)" height="89.5078" id="JpaWithTransactionalContextRepository" style="stroke: #A80036; stroke-width: 1.5;" width="276" x="429" y="816"/><ellipse cx="444" cy="832" fill="#ADD1B2" rx="11" ry="11" style="stroke: #A80036; stroke-width: 1.0;"/><path d="M446.7656,827.875 Q446.9219,827.6563 447.1094,827.5469 Q447.2969,827.4375 447.5156,827.4375 Q447.8906,827.4375 448.125,827.6953 Q448.3594,827.9531 448.3594,828.5625 L448.3594,830.0156 Q448.3594,830.625 448.125,830.8906 Q447.8906,831.1563 447.5156,831.1563 Q447.1719,831.1563 446.9688,830.9531 Q446.7656,830.7656 446.6563,830.25 Q446.6094,829.8906 446.4219,829.7031 Q446.0938,829.3281 445.4844,829.1094 Q444.875,828.8906 444.25,828.8906 Q443.4844,828.8906 442.8516,829.2188 Q442.2188,829.5469 441.7266,830.2969 Q441.2344,831.0469 441.2344,832.0781 L441.2344,833.1719 Q441.2344,834.4063 442.125,835.2266 Q443.0156,836.0469 444.6094,836.0469 Q445.5469,836.0469 446.2031,835.7969 Q446.5938,835.6406 447.0156,835.2031 Q447.2813,834.9375 447.4297,834.8594 Q447.5781,834.7813 447.7813,834.7813 Q448.1094,834.7813 448.3672,835.0391 Q448.625,835.2969 448.625,835.6406 Q448.625,835.9844 448.2813,836.3906 Q447.7813,836.9688 446.9844,837.2969 Q445.9063,837.75 444.6094,837.75 Q443.0938,837.75 441.8906,837.125 Q440.9063,836.625 440.2188,835.5547 Q439.5313,834.4844 439.5313,833.2031 L439.5313,832.0469 Q439.5313,830.7188 440.1484,829.5703 Q440.7656,828.4219 441.8594,827.8047 Q442.9531,827.1875 444.1875,827.1875 Q444.9219,827.1875 445.5703,827.3516 Q446.2188,827.5156 446.7656,827.875 Z "/><text fill="#000000" font-family="sans-serif" font-size="12" lengthAdjust="spacingAndGlyphs" textLength="219" x="458" y="836.9102">JpaWithTransactionalContextRepository</text><rect fill="#FFFFFF" height="17.0938" style="stroke: #000000; stroke-width: 1.0; stroke-dasharray: 2.0,2.0;" width="23" x="685" y="813"/><text fill="#000000" font-family="sans-serif" font-size="12" font-style="italic" lengthAdjust="spacingAndGlyphs" textLength="21" x="686" y="826.457">T, K</text><line style="stroke: #A80036; stroke-width: 1.5;" x1="430" x2="704" y1="848" y2="848"/><line style="stroke: #A80036; stroke-width: 1.5;" x1="430" x2="704" y1="856" y2="856"/><text fill="#000000" font-family="sans-serif" font-size="11" lengthAdjust="spacingAndGlyphs" textLength="227" x="435" y="871.4189">#EntityManagerFactory entityManagerFactory()</text><text fill="#000000" font-family="sans-serif" font-size="11" lengthAdjust="spacingAndGlyphs" textLength="153" x="435" y="885.2549">#EntityManager entityManager()</text><text fill="#000000" font-family="sans-serif" font-size="11" lengthAdjust="spacingAndGlyphs" textLength="155" x="435" y="899.0908">#TransactionalContext context()</text><!--class JpaTransactionalRepository--><rect fill="#FEFECE" filter="url(#f1emvaept5u2gh)" height="103.3438" id="JpaTransactionalRepository" style="stroke: #A80036; stroke-width: 1.5;" width="211" x="461.5" y="1043"/><ellipse cx="476.5" cy="1059" fill="#ADD1B2" rx="11" ry="11" style="stroke: #A80036; stroke-width: 1.0;"/><path d="M479.2656,1054.875 Q479.4219,1054.6563 479.6094,1054.5469 Q479.7969,1054.4375 480.0156,1054.4375 Q480.3906,1054.4375 480.625,1054.6953 Q480.8594,1054.9531 480.8594,1055.5625 L480.8594,1057.0156 Q480.8594,1057.625 480.625,1057.8906 Q480.3906,1058.1563 480.0156,1058.1563 Q479.6719,1058.1563 479.4688,1057.9531 Q479.2656,1057.7656 479.1563,1057.25 Q479.1094,1056.8906 478.9219,1056.7031 Q478.5938,1056.3281 477.9844,1056.1094 Q477.375,1055.8906 476.75,1055.8906 Q475.9844,1055.8906 475.3516,1056.2188 Q474.7188,1056.5469 474.2266,1057.2969 Q473.7344,1058.0469 473.7344,1059.0781 L473.7344,1060.1719 Q473.7344,1061.4063 474.625,1062.2266 Q475.5156,1063.0469 477.1094,1063.0469 Q478.0469,1063.0469 478.7031,1062.7969 Q479.0938,1062.6406 479.5156,1062.2031 Q479.7813,1061.9375 479.9297,1061.8594 Q480.0781,1061.7813 480.2813,1061.7813 Q480.6094,1061.7813 480.8672,1062.0391 Q481.125,1062.2969 481.125,1062.6406 Q481.125,1062.9844 480.7813,1063.3906 Q480.2813,1063.9688 479.4844,1064.2969 Q478.4063,1064.75 477.1094,1064.75 Q475.5938,1064.75 474.3906,1064.125 Q473.4063,1063.625 472.7188,1062.5547 Q472.0313,1061.4844 472.0313,1060.2031 L472.0313,1059.0469 Q472.0313,1057.7188 472.6484,1056.5703 Q473.2656,1055.4219 474.3594,1054.8047 Q475.4531,1054.1875 476.6875,1054.1875 Q477.4219,1054.1875 478.0703,1054.3516 Q478.7188,1054.5156 479.2656,1054.875 Z "/><text fill="#000000" font-family="sans-serif" font-size="12" lengthAdjust="spacingAndGlyphs" textLength="154" x="490.5" y="1063.9102">JpaTransactionalRepository</text><rect fill="#FFFFFF" height="17.0938" style="stroke: #000000; stroke-width: 1.0; stroke-dasharray: 2.0,2.0;" width="23" x="652.5" y="1040"/><text fill="#000000" font-family="sans-serif" font-size="12" font-style="italic" lengthAdjust="spacingAndGlyphs" textLength="21" x="653.5" y="1053.457">T, K</text><line style="stroke: #A80036; stroke-width: 1.5;" x1="462.5" x2="671.5" y1="1075" y2="1075"/><line style="stroke: #A80036; stroke-width: 1.5;" x1="462.5" x2="671.5" y1="1083" y2="1083"/><text fill="#000000" font-family="sans-serif" font-size="11" lengthAdjust="spacingAndGlyphs" textLength="124" x="467.5" y="1098.4189">+void delete(final T entity)</text><text fill="#000000" font-family="sans-serif" font-size="11" lengthAdjust="spacingAndGlyphs" textLength="133" x="467.5" y="1112.2549">+void delete(final K entityId)</text><text fill="#000000" font-family="sans-serif" font-size="11" lengthAdjust="spacingAndGlyphs" textLength="112" x="467.5" y="1126.0908">+T create(final T entity)</text><text fill="#000000" font-family="sans-serif" font-size="11" lengthAdjust="spacingAndGlyphs" textLength="82" x="467.5" y="1139.9268">+T save(T entity)</text><!--class TransactionalContext--><rect fill="#FEFECE" filter="url(#f1emvaept5u2gh)" height="103.3438" id="TransactionalContext" style="stroke: #A80036; stroke-width: 1.5;" width="148" x="603" y="472"/><ellipse cx="618" cy="488" fill="#B4A7E5" rx="11" ry="11" style="stroke: #A80036; stroke-width: 1.0;"/><path d="M618.9531,484.6406 L618.9531,491.2969 L620.6719,491.2969 Q621.2813,491.2969 621.5469,491.5313 Q621.8125,491.7656 621.8125,492.1563 Q621.8125,492.5313 621.5469,492.7656 Q621.2813,493 620.6719,493 L615.5313,493 Q614.9219,493 614.6563,492.7656 Q614.3906,492.5313 614.3906,492.1406 Q614.3906,491.7656 614.6563,491.5313 Q614.9219,491.2969 615.5313,491.2969 L617.25,491.2969 L617.25,484.6406 L615.5313,484.6406 Q614.9219,484.6406 614.6563,484.4063 Q614.3906,484.1719 614.3906,483.7813 Q614.3906,483.4063 614.6563,483.1719 Q614.9219,482.9375 615.5313,482.9375 L620.6719,482.9375 Q621.2813,482.9375 621.5469,483.1719 Q621.8125,483.4063 621.8125,483.7813 Q621.8125,484.1719 621.5469,484.4063 Q621.2813,484.6406 620.6719,484.6406 L618.9531,484.6406 Z "/><text fill="#000000" font-family="sans-serif" font-size="12" font-style="italic" lengthAdjust="spacingAndGlyphs" textLength="116" x="632" y="492.9102">TransactionalContext</text><line style="stroke: #A80036; stroke-width: 1.5;" x1="604" x2="750" y1="504" y2="504"/><line style="stroke: #A80036; stroke-width: 1.5;" x1="604" x2="750" y1="512" y2="512"/><text fill="#000000" font-family="sans-serif" font-size="11" lengthAdjust="spacingAndGlyphs" textLength="114" x="609" y="527.4189">void beginTransaction()</text><text fill="#000000" font-family="sans-serif" font-size="11" lengthAdjust="spacingAndGlyphs" textLength="64" x="609" y="541.2549">void commit()</text><text fill="#000000" font-family="sans-serif" font-size="11" lengthAdjust="spacingAndGlyphs" textLength="68" x="609" y="555.0908">void rollback()</text><text fill="#000000" font-family="sans-serif" font-size="11" lengthAdjust="spacingAndGlyphs" textLength="57" x="609" y="568.9268">void close()</text><!--class JpaTransactionalContext--><rect fill="#FEFECE" filter="url(#f1emvaept5u2gh)" height="144.8516" id="JpaTransactionalContext" style="stroke: #A80036; stroke-width: 1.5;" width="252" x="740" y="788.5"/><ellipse cx="793.75" cy="804.5" fill="#ADD1B2" rx="11" ry="11" style="stroke: #A80036; stroke-width: 1.0;"/><path d="M796.5156,800.375 Q796.6719,800.1563 796.8594,800.0469 Q797.0469,799.9375 797.2656,799.9375 Q797.6406,799.9375 797.875,800.1953 Q798.1094,800.4531 798.1094,801.0625 L798.1094,802.5156 Q798.1094,803.125 797.875,803.3906 Q797.6406,803.6563 797.2656,803.6563 Q796.9219,803.6563 796.7188,803.4531 Q796.5156,803.2656 796.4063,802.75 Q796.3594,802.3906 796.1719,802.2031 Q795.8438,801.8281 795.2344,801.6094 Q794.625,801.3906 794,801.3906 Q793.2344,801.3906 792.6016,801.7188 Q791.9688,802.0469 791.4766,802.7969 Q790.9844,803.5469 790.9844,804.5781 L790.9844,805.6719 Q790.9844,806.9063 791.875,807.7266 Q792.7656,808.5469 794.3594,808.5469 Q795.2969,808.5469 795.9531,808.2969 Q796.3438,808.1406 796.7656,807.7031 Q797.0313,807.4375 797.1797,807.3594 Q797.3281,807.2813 797.5313,807.2813 Q797.8594,807.2813 798.1172,807.5391 Q798.375,807.7969 798.375,808.1406 Q798.375,808.4844 798.0313,808.8906 Q797.5313,809.4688 796.7344,809.7969 Q795.6563,810.25 794.3594,810.25 Q792.8438,810.25 791.6406,809.625 Q790.6563,809.125 789.9688,808.0547 Q789.2813,806.9844 789.2813,805.7031 L789.2813,804.5469 Q789.2813,803.2188 789.8984,802.0703 Q790.5156,800.9219 791.6094,800.3047 Q792.7031,799.6875 793.9375,799.6875 Q794.6719,799.6875 795.3203,799.8516 Q795.9688,800.0156 796.5156,800.375 Z "/><text fill="#000000" font-family="sans-serif" font-size="12" lengthAdjust="spacingAndGlyphs" textLength="136" x="814.25" y="809.4102">JpaTransactionalContext</text><line style="stroke: #A80036; stroke-width: 1.5;" x1="741" x2="991" y1="820.5" y2="820.5"/><text fill="#000000" font-family="sans-serif" font-size="11" lengthAdjust="spacingAndGlyphs" textLength="160" x="746" y="835.9189">-final String persistenceUnitName</text><text fill="#000000" font-family="sans-serif" font-size="11" lengthAdjust="spacingAndGlyphs" textLength="240" x="746" y="849.7549">-static volatile EntityManagerFactory singletonEMF</text><line style="stroke: #A80036; stroke-width: 1.5;" x1="741" x2="991" y1="856.1719" y2="856.1719"/><text fill="#000000" font-family="sans-serif" font-size="11" lengthAdjust="spacingAndGlyphs" textLength="147" x="746" y="871.5908">EntityManager entityManager()</text><text fill="#000000" font-family="sans-serif" font-size="11" lengthAdjust="spacingAndGlyphs" textLength="120" x="746" y="885.4268">+void beginTransaction()</text><text fill="#000000" font-family="sans-serif" font-size="11" lengthAdjust="spacingAndGlyphs" textLength="70" x="746" y="899.2627">+void commit()</text><text fill="#000000" font-family="sans-serif" font-size="11" lengthAdjust="spacingAndGlyphs" textLength="74" x="746" y="913.0986">+void rollback()</text><text fill="#000000" font-family="sans-serif" font-size="11" lengthAdjust="spacingAndGlyphs" textLength="63" x="746" y="926.9346">+void close()</text><!--class IntegrityViolationException--><rect fill="#FEFECE" filter="url(#f1emvaept5u2gh)" height="48" id="IntegrityViolationException" style="stroke: #A80036; stroke-width: 1.5;" width="174" x="466" y="238"/><ellipse cx="481" cy="254" fill="#ADD1B2" rx="11" ry="11" style="stroke: #A80036; stroke-width: 1.0;"/><path d="M483.7656,249.875 Q483.9219,249.6563 484.1094,249.5469 Q484.2969,249.4375 484.5156,249.4375 Q484.8906,249.4375 485.125,249.6953 Q485.3594,249.9531 485.3594,250.5625 L485.3594,252.0156 Q485.3594,252.625 485.125,252.8906 Q484.8906,253.1563 484.5156,253.1563 Q484.1719,253.1563 483.9688,252.9531 Q483.7656,252.7656 483.6563,252.25 Q483.6094,251.8906 483.4219,251.7031 Q483.0938,251.3281 482.4844,251.1094 Q481.875,250.8906 481.25,250.8906 Q480.4844,250.8906 479.8516,251.2188 Q479.2188,251.5469 478.7266,252.2969 Q478.2344,253.0469 478.2344,254.0781 L478.2344,255.1719 Q478.2344,256.4063 479.125,257.2266 Q480.0156,258.0469 481.6094,258.0469 Q482.5469,258.0469 483.2031,257.7969 Q483.5938,257.6406 484.0156,257.2031 Q484.2813,256.9375 484.4297,256.8594 Q484.5781,256.7813 484.7813,256.7813 Q485.1094,256.7813 485.3672,257.0391 Q485.625,257.2969 485.625,257.6406 Q485.625,257.9844 485.2813,258.3906 Q484.7813,258.9688 483.9844,259.2969 Q482.9063,259.75 481.6094,259.75 Q480.0938,259.75 478.8906,259.125 Q477.9063,258.625 477.2188,257.5547 Q476.5313,256.4844 476.5313,255.2031 L476.5313,254.0469 Q476.5313,252.7188 477.1484,251.5703 Q477.7656,250.4219 478.8594,249.8047 Q479.9531,249.1875 481.1875,249.1875 Q481.9219,249.1875 482.5703,249.3516 Q483.2188,249.5156 483.7656,249.875 Z "/><text fill="#000000" font-family="sans-serif" font-size="12" lengthAdjust="spacingAndGlyphs" textLength="142" x="495" y="258.9102">IntegrityViolationException</text><line style="stroke: #A80036; stroke-width: 1.5;" x1="467" x2="639" y1="270" y2="270"/><line style="stroke: #A80036; stroke-width: 1.5;" x1="467" x2="639" y1="278" y2="278"/><!--class ConcurrencyException--><rect fill="#FEFECE" filter="url(#f1emvaept5u2gh)" height="48" id="ConcurrencyException" style="stroke: #A80036; stroke-width: 1.5;" width="154" x="675" y="238"/><ellipse cx="690" cy="254" fill="#ADD1B2" rx="11" ry="11" style="stroke: #A80036; stroke-width: 1.0;"/><path d="M692.7656,249.875 Q692.9219,249.6563 693.1094,249.5469 Q693.2969,249.4375 693.5156,249.4375 Q693.8906,249.4375 694.125,249.6953 Q694.3594,249.9531 694.3594,250.5625 L694.3594,252.0156 Q694.3594,252.625 694.125,252.8906 Q693.8906,253.1563 693.5156,253.1563 Q693.1719,253.1563 692.9688,252.9531 Q692.7656,252.7656 692.6563,252.25 Q692.6094,251.8906 692.4219,251.7031 Q692.0938,251.3281 691.4844,251.1094 Q690.875,250.8906 690.25,250.8906 Q689.4844,250.8906 688.8516,251.2188 Q688.2188,251.5469 687.7266,252.2969 Q687.2344,253.0469 687.2344,254.0781 L687.2344,255.1719 Q687.2344,256.4063 688.125,257.2266 Q689.0156,258.0469 690.6094,258.0469 Q691.5469,258.0469 692.2031,257.7969 Q692.5938,257.6406 693.0156,257.2031 Q693.2813,256.9375 693.4297,256.8594 Q693.5781,256.7813 693.7813,256.7813 Q694.1094,256.7813 694.3672,257.0391 Q694.625,257.2969 694.625,257.6406 Q694.625,257.9844 694.2813,258.3906 Q693.7813,258.9688 692.9844,259.2969 Q691.9063,259.75 690.6094,259.75 Q689.0938,259.75 687.8906,259.125 Q686.9063,258.625 686.2188,257.5547 Q685.5313,256.4844 685.5313,255.2031 L685.5313,254.0469 Q685.5313,252.7188 686.1484,251.5703 Q686.7656,250.4219 687.8594,249.8047 Q688.9531,249.1875 690.1875,249.1875 Q690.9219,249.1875 691.5703,249.3516 Q692.2188,249.5156 692.7656,249.875 Z "/><text fill="#000000" font-family="sans-serif" font-size="12" lengthAdjust="spacingAndGlyphs" textLength="122" x="704" y="258.9102">ConcurrencyException</text><line style="stroke: #A80036; stroke-width: 1.5;" x1="676" x2="828" y1="270" y2="270"/><line style="stroke: #A80036; stroke-width: 1.5;" x1="676" x2="828" y1="278" y2="278"/><!--link Repository to JpaAutoTxRepository--><path d="M412.066,103.66 C356.082,126.31 286.442,163.048 243,217 C124.066,364.708 143.776,598.702 170.674,739.967 " fill="none" id="Repository-JpaAutoTxRepository" style="stroke: #A80036; stroke-width: 1.0; stroke-dasharray: 7.0,7.0;"/><polygon fill="none" points="409.674,97.08,430.851,96.38,414.735,110.14,409.674,97.08" style="stroke: #A80036; stroke-width: 1.0;"/><!--link Repository to IterableRepository--><path d="M434.215,154.857 C416.518,176.151 398.061,198.359 382.632,216.924 " fill="none" id="Repository-IterableRepository" style="stroke: #A80036; stroke-width: 1.0; stroke-dasharray: 7.0,7.0;"/><polygon fill="none" points="429.057,150.112,447.224,139.21,439.824,159.061,429.057,150.112" style="stroke: #A80036; stroke-width: 1.0;"/><!--link IterableRepository to JpaBaseRepository--><path d="M357.367,327.127 C359.611,339.783 362.055,353.571 364.572,367.773 " fill="none" id="IterableRepository-JpaBaseRepository" style="stroke: #A80036; stroke-width: 1.0; stroke-dasharray: 7.0,7.0;"/><polygon fill="none" points="350.402,327.935,353.803,307.021,364.187,325.492,350.402,327.935" style="stroke: #A80036; stroke-width: 1.0;"/><!--link JpaBaseRepository to JpaWithTransactionalContextRepository--><path d="M482.141,697.314 C505.068,741.268 527.754,784.759 543.893,815.7 " fill="none" id="JpaBaseRepository-JpaWithTransactionalContextRepository" style="stroke: #A80036; stroke-width: 1.0;"/><polygon fill="none" points="475.884,700.453,472.841,679.483,488.297,693.978,475.884,700.453" style="stroke: #A80036; stroke-width: 1.0;"/><!--link JpaWithTransactionalContextRepository to JpaTransactionalRepository--><path d="M567,926.301 C567,963.054 567,1008.495 567,1042.724 " fill="none" id="JpaWithTransactionalContextRepository-JpaTransactionalRepository" style="stroke: #A80036; stroke-width: 1.0;"/><polygon fill="none" points="560,926.088,567,906.088,574,926.088,560,926.088" style="stroke: #A80036; stroke-width: 1.0;"/><!--link TransactionalContext to JpaAutoTxRepository--><path d="M655.446,580.12 C640.197,612.939 616.787,653.007 585,679 C521.561,730.875 485.585,706.051 411,740 C405.438,742.531 399.83,745.161 394.198,747.87 " fill="none" id="TransactionalContext-JpaAutoTxRepository" style="stroke: #A80036; stroke-width: 1.0;"/><polygon fill="#A80036" points="657.637,575.333,650.254,581.8516,655.5559,579.8793,657.5282,585.1813,657.637,575.333" style="stroke: #A80036; stroke-width: 1.0;"/><text fill="#000000" font-family="sans-serif" font-size="13" lengthAdjust="spacingAndGlyphs" textLength="39" x="401.8778" y="741.0237">autoTx</text><!--link TransactionalContext to JpaWithTransactionalContextRepository--><path d="M658.746,580.173 C637.052,646.34 601.3,755.386 581.438,815.966 " fill="none" id="TransactionalContext-JpaWithTransactionalContextRepository" style="stroke: #A80036; stroke-width: 1.0; stroke-dasharray: 7.0,7.0;"/><polygon fill="#A80036" points="660.413,575.091,653.8091,582.3977,658.8559,579.8424,661.4113,584.8891,660.413,575.091" style="stroke: #A80036; stroke-width: 1.0;"/><!--link JpaBaseRepository to JpaAutoTxRepository--><path d="M300.587,684.236 C289.881,702.942 279.1,721.781 268.776,739.821 " fill="none" id="JpaBaseRepository-JpaAutoTxRepository" style="stroke: #A80036; stroke-width: 1.0;"/><polygon fill="#A80036" points="303.306,679.483,295.3649,685.3087,300.8232,683.823,302.3089,689.2813,303.306,679.483" style="stroke: #A80036; stroke-width: 1.0;"/><text fill="#000000" font-family="sans-serif" font-size="13" lengthAdjust="spacingAndGlyphs" textLength="25" x="247.3812" y="729.0614">repo</text><!--link TransactionalContext to JpaTransactionalContext--><path d="M715.408,592.679 C747.49,649.63 793.091,730.577 825.693,788.45 " fill="none" id="TransactionalContext-JpaTransactionalContext" style="stroke: #A80036; stroke-width: 1.0; stroke-dasharray: 7.0,7.0;"/><polygon fill="none" points="709.217,595.952,705.5,575.091,721.415,589.081,709.217,595.952" style="stroke: #A80036; stroke-width: 1.0;"/><!--link Repository to IntegrityViolationException--><path d="M519.041,139.21 C527.914,171.029 538.156,207.76 545.052,232.494 " fill="none" id="Repository-IntegrityViolationException" style="stroke: #A80036; stroke-width: 1.0; stroke-dasharray: 7.0,7.0;"/><polygon fill="#A80036" points="546.471,237.583,547.9073,227.8394,545.1284,232.7666,540.2012,229.9877,546.471,237.583" style="stroke: #A80036; stroke-width: 1.0;"/><text fill="#000000" font-family="sans-serif" font-size="13" lengthAdjust="spacingAndGlyphs" textLength="67" x="533" y="183.4951">might throw</text><!--link Repository to ConcurrencyException--><path d="M571.251,126.7 C618.688,161.945 679.281,206.968 716.862,234.891 " fill="none" id="Repository-ConcurrencyException" style="stroke: #A80036; stroke-width: 1.0; stroke-dasharray: 7.0,7.0;"/><polygon fill="#A80036" points="720.877,237.874,716.0402,229.2947,716.8642,234.8912,711.2677,235.7152,720.877,237.874" style="stroke: #A80036; stroke-width: 1.0;"/><text fill="#000000" font-family="sans-serif" font-size="13" lengthAdjust="spacingAndGlyphs" textLength="67" x="650" y="183.4951">might throw</text><!--
@startuml
skinparam classAttributeIconSize 0

           interface Repository<T, K> {
           void delete(T entity)
           void deleteById(K entityId)
           T save(T entity)
           Iterable<T> findAll();
           Optional<T> findById(K id);
           long count();
           }

           class JpaAutoTxRepository<T, K, I> {

           # final JpaBaseRepository<T, K> repo
           - final TransactionalContext autoTx

           + TransactionalContext buildTransactionalContext(String persistenceUnitName)
           + TransactionalContext context()
           + boolean isInTransaction()
           + void delete(T entity)
           + T save(T entity)
           + Iterable<T> findAll()
           + Optional<T> findById(K id)
           + Optional<T> ofIdentity(I)
           + long count()
           + Iterator<T> iterator()
           # List<T> match(String where)
           # Optional<T> matchOne(String where)
           }

           interface IterableRepository<T, K> {
           Iterator<T> iterator(int pagesize);
           T first();
           Iterable<T> first(int n);
           }

           class JpaBaseRepository<T, K, I> {
           # Class<T> entityClass
           - EntityManagerFactory emFactory
           - EntityManager entityManager

           # EntityManagerFactory entityManagerFactory()
           # EntityManager entityManager()
           + T create(T entity)
           + Optional<T> read(K id)
           + Optional<T> findById(K id)
           + Optional<T> ofIdentity(I)
           + T update(T entity)
           + void delete(T entity)
           + void deleteById(K entityId)
           + long count()
           + boolean contains(K key)
           + boolean add(T entity)
           + T save(T entity)
           # TypedQuery<T> queryAll()
           # TypedQuery<T> queryAll(String where, Map<String, Object> params)
           + List<T> first(int n)
           }

           class JpaWithTransactionalContextRepository<T, K> {
           # EntityManagerFactory entityManagerFactory()
           # EntityManager entityManager()
           # TransactionalContext context()
           }

           class JpaTransactionalRepository<T, K> {
           + void delete(final T entity)
           + void delete(final K entityId)
           + T create(final T entity)
           + T save(T entity)
           }

           interface TransactionalContext {
           void beginTransaction()
           void commit()
           void rollback()
           void close()
           }

           class JpaTransactionalContext {
           - final String persistenceUnitName
           - static volatile EntityManagerFactory singletonEMF
           EntityManager entityManager()
           + void beginTransaction()
           + void commit()
           + void rollback()
           + void close()
           }

           Repository <|.. JpaAutoTxRepository
           Repository <|.. IterableRepository
           IterableRepository <|.. JpaBaseRepository
           JpaBaseRepository <|- - JpaWithTransactionalContextRepository
           JpaWithTransactionalContextRepository <|- - JpaTransactionalRepository

           TransactionalContext <- - "autoTx" JpaAutoTxRepository
           TransactionalContext <.. JpaWithTransactionalContextRepository
           JpaBaseRepository <- - "repo" JpaAutoTxRepository

           class JpaTransactionalContext implements TransactionalContext

           class IntegrityViolationException
           class ConcurrencyException
           Repository ..> IntegrityViolationException : might throw
           Repository ..> ConcurrencyException : might throw
@enduml

PlantUML version 1.2017.18(Fri Oct 06 17:56:32 BST 2017)
(GPL source distribution)
Java Runtime: Java(TM) SE Runtime Environment
JVM: Java HotSpot(TM) 64-Bit Server VM
Java Version: 1.8.0_202-b08
Operating System: Windows 10
OS Version: 10.0
Default Encoding: Cp1252
Language: en
Country: US
--></g></svg>