@startuml

skinparam svgLinkTarget _parent
skinparam linetype ortho
set namespaceSeparator none
interface "<b><size:14>UserRepository</b>\n<size:10>eapli.framework.infrastructure.authz.domain.repositories" as eapli.framework.infrastructure.authz.domain.repositories.UserRepository  [[../../../../../../eapli/framework/infrastructure/authz/domain/repositories/UserRepository.html{eapli.framework.infrastructure.authz.domain.repositories.UserRepository}]] {
{abstract} +Iterable<SystemUser> findByActive(boolean active)
}


class "<b><size:14>AuthenticationService</b>\n<size:10>eapli.framework.infrastructure.authz.application" as eapli.framework.infrastructure.authz.application.AuthenticationService <<Component>> [[../../../../../../eapli/framework/infrastructure/authz/application/AuthenticationService.html{eapli.framework.infrastructure.authz.application.AuthenticationService}]] #white {
}

hide eapli.framework.infrastructure.authz.application.AuthenticationService fields
hide eapli.framework.infrastructure.authz.application.AuthenticationService methods

eapli.framework.infrastructure.authz.application.AuthenticationService -->  "repo" eapli.framework.infrastructure.authz.domain.repositories.UserRepository

class "<b><size:14>AuthzRegistry</b>\n<size:10>eapli.framework.infrastructure.authz.application" as eapli.framework.infrastructure.authz.application.AuthzRegistry <<Singleton>> [[../../../../../../eapli/framework/infrastructure/authz/application/AuthzRegistry.html{eapli.framework.infrastructure.authz.application.AuthzRegistry}]] #white {
}

hide eapli.framework.infrastructure.authz.application.AuthzRegistry fields
hide eapli.framework.infrastructure.authz.application.AuthzRegistry methods

eapli.framework.infrastructure.authz.application.AuthzRegistry ..> eapli.framework.infrastructure.authz.domain.repositories.UserRepository

class "<b><size:14>UserDetailsServiceImpl</b>\n<size:10>eapli.framework.infrastructure.authz.application" as eapli.framework.infrastructure.authz.application.UserDetailsServiceImpl <<Service>> [[../../../../../../eapli/framework/infrastructure/authz/application/UserDetailsServiceImpl.html{eapli.framework.infrastructure.authz.application.UserDetailsServiceImpl}]] #white {
}

hide eapli.framework.infrastructure.authz.application.UserDetailsServiceImpl fields
hide eapli.framework.infrastructure.authz.application.UserDetailsServiceImpl methods

eapli.framework.infrastructure.authz.application.UserDetailsServiceImpl -->  "userRepository" eapli.framework.infrastructure.authz.domain.repositories.UserRepository

class "<b><size:14>UserManagementService</b>\n<size:10>eapli.framework.infrastructure.authz.application" as eapli.framework.infrastructure.authz.application.UserManagementService <<Component>> [[../../../../../../eapli/framework/infrastructure/authz/application/UserManagementService.html{eapli.framework.infrastructure.authz.application.UserManagementService}]] #white {
}

hide eapli.framework.infrastructure.authz.application.UserManagementService fields
hide eapli.framework.infrastructure.authz.application.UserManagementService methods

eapli.framework.infrastructure.authz.application.UserManagementService -->  "userRepository" eapli.framework.infrastructure.authz.domain.repositories.UserRepository

interface "<b><size:14>DomainRepository<Username, SystemUser></b>\n<size:10>eapli.framework.domain.repositories" as eapli.framework.domain.repositories.DomainRepositoryUsernameSystemUser  #lightgrey {
}

hide eapli.framework.domain.repositories.DomainRepositoryUsernameSystemUser fields
hide eapli.framework.domain.repositories.DomainRepositoryUsernameSystemUser methods

eapli.framework.infrastructure.authz.domain.repositories.UserRepository --|> eapli.framework.domain.repositories.DomainRepositoryUsernameSystemUser

class "<b><size:14>Username</b>\n<size:10>eapli.framework.infrastructure.authz.domain.model" as eapli.framework.infrastructure.authz.domain.model.Username <<Embeddable>> [[../../../../../../eapli/framework/infrastructure/authz/domain/model/Username.html{eapli.framework.infrastructure.authz.domain.model.Username}]] #white {
}

hide eapli.framework.infrastructure.authz.domain.model.Username fields
hide eapli.framework.infrastructure.authz.domain.model.Username methods

eapli.framework.infrastructure.authz.domain.repositories.UserRepository ..> eapli.framework.infrastructure.authz.domain.model.Username

class "<b><size:14>SystemUser</b>\n<size:10>eapli.framework.infrastructure.authz.domain.model" as eapli.framework.infrastructure.authz.domain.model.SystemUser <<Entity>> [[../../../../../../eapli/framework/infrastructure/authz/domain/model/SystemUser.html{eapli.framework.infrastructure.authz.domain.model.SystemUser}]] #white {
}

hide eapli.framework.infrastructure.authz.domain.model.SystemUser fields
hide eapli.framework.infrastructure.authz.domain.model.SystemUser methods

eapli.framework.infrastructure.authz.domain.repositories.UserRepository ..> eapli.framework.infrastructure.authz.domain.model.SystemUser

class "<b><size:14>InMemoryUserRepository</b>\n<size:10>eapli.framework.infrastructure.authz.repositories.impl" as eapli.framework.infrastructure.authz.repositories.impl.InMemoryUserRepository  [[../../../../../../eapli/framework/infrastructure/authz/repositories/impl/InMemoryUserRepository.html{eapli.framework.infrastructure.authz.repositories.impl.InMemoryUserRepository}]] #white {
}

hide eapli.framework.infrastructure.authz.repositories.impl.InMemoryUserRepository fields
hide eapli.framework.infrastructure.authz.repositories.impl.InMemoryUserRepository methods

eapli.framework.infrastructure.authz.repositories.impl.InMemoryUserRepository ..|> eapli.framework.infrastructure.authz.domain.repositories.UserRepository

class "<b><size:14>JpaAutoTxUserRepository</b>\n<size:10>eapli.framework.infrastructure.authz.repositories.impl" as eapli.framework.infrastructure.authz.repositories.impl.JpaAutoTxUserRepository  [[../../../../../../eapli/framework/infrastructure/authz/repositories/impl/JpaAutoTxUserRepository.html{eapli.framework.infrastructure.authz.repositories.impl.JpaAutoTxUserRepository}]] #white {
}

hide eapli.framework.infrastructure.authz.repositories.impl.JpaAutoTxUserRepository fields
hide eapli.framework.infrastructure.authz.repositories.impl.JpaAutoTxUserRepository methods

eapli.framework.infrastructure.authz.repositories.impl.JpaAutoTxUserRepository ..|> eapli.framework.infrastructure.authz.domain.repositories.UserRepository

interface "<b><size:14>SpringDataUserRepository</b>\n<size:10>eapli.framework.infrastructure.authz.repositories.impl" as eapli.framework.infrastructure.authz.repositories.impl.SpringDataUserRepository  [[../../../../../../eapli/framework/infrastructure/authz/repositories/impl/SpringDataUserRepository.html{eapli.framework.infrastructure.authz.repositories.impl.SpringDataUserRepository}]] #white {
}

hide eapli.framework.infrastructure.authz.repositories.impl.SpringDataUserRepository fields
hide eapli.framework.infrastructure.authz.repositories.impl.SpringDataUserRepository methods

eapli.framework.infrastructure.authz.repositories.impl.SpringDataUserRepository --|> eapli.framework.infrastructure.authz.domain.repositories.UserRepository


@enduml
