@startuml

skinparam svgLinkTarget _parent
skinparam linetype ortho
set namespaceSeparator none
class "<b><size:14>Actions</b>\n<size:10>eapli.framework.actions" as eapli.framework.actions.Actions <<Utility>> [[../../../eapli/framework/actions/Actions.html{eapli.framework.actions.Actions}]] {
{static} +Action THROW_ARGUMENT
{static} +Action THROW_STATE
{static} +Action SUCCESS
{static} +Action FAIL
-Actions()
{static} +Action throwState(String m)
{static} +Action throwArgument(String m)
{static} +boolean doIfNot(Action consequence,BooleanSupplier condition)
{static} +boolean doIfNot(Action consequence,boolean condition)
{static} +boolean doIf(Action consequence,BooleanSupplier condition)
{static} +boolean doIf(Action consequence,boolean condition)
{static} +void repeat(Action action,int n)
{static} +boolean retry(Action action,int sleep,int maxAttempts,boolean progressive)
{static} +boolean retry(Action action,int sleep,int maxAttempts)
}


interface "<b><size:14>Action</b>\n<size:10>eapli.framework.actions" as eapli.framework.actions.Action <<FunctionalInterface>> [[../../../eapli/framework/actions/Action.html{eapli.framework.actions.Action}]] {
}

hide eapli.framework.actions.Action fields
hide eapli.framework.actions.Action methods

eapli.framework.actions.Actions -->  "THROW_ARGUMENT" eapli.framework.actions.Action

eapli.framework.actions.Actions -->  "THROW_STATE" eapli.framework.actions.Action

eapli.framework.actions.Actions -->  "SUCCESS" eapli.framework.actions.Action

eapli.framework.actions.Actions -->  "FAIL" eapli.framework.actions.Action



@enduml
