<?xml version="1.0" encoding="UTF-8" standalone="no"?><svg xmlns="http://www.w3.org/2000/svg" xmlns:xlink="http://www.w3.org/1999/xlink" contentScriptType="application/ecmascript" contentStyleType="text/css" height="318px" preserveAspectRatio="none" style="width:506px;height:318px;" version="1.1" viewBox="0 0 506 318" width="506px" zoomAndPan="magnify"><defs><filter height="300%" id="f4g9eg5uuxt2p" width="300%" x="-1" y="-1"><feGaussianBlur result="blurOut" stdDeviation="2.0"/><feColorMatrix in="blurOut" result="blurOut2" type="matrix" values="0 0 0 0 0 0 0 0 0 0 0 0 0 0 0 0 0 0 .4 0"/><feOffset dx="4.0" dy="4.0" in="blurOut2" result="blurOut3"/><feBlend in="SourceGraphic" in2="blurOut3" mode="normal"/></filter></defs><g><!--MD5=[ed77a49135a94f5fb5efb2c2d58d8e78]
class eapli.framework.actions.Actions.ThrowAction--><a href="../../../eapli/framework/actions/Actions.ThrowAction.html" target="_parent" title="eapli.framework.actions.Actions.ThrowAction" xlink:actuate="onRequest" xlink:href="../../../eapli/framework/actions/Actions.ThrowAction.html" xlink:show="new" xlink:title="eapli.framework.actions.Actions.ThrowAction" xlink:type="simple"><rect fill="#FEFECE" filter="url(#f4g9eg5uuxt2p)" height="83.8594" id="eapli.framework.actions.Actions.ThrowAction" style="stroke: #A80036; stroke-width: 1.5;" width="175" x="155" y="108"/><ellipse cx="170" cy="128.0938" fill="#ADD1B2" rx="11" ry="11" style="stroke: #A80036; stroke-width: 1.0;"/><path d="M172.7656,123.9688 Q172.9219,123.75 173.1094,123.6406 Q173.2969,123.5313 173.5156,123.5313 Q173.8906,123.5313 174.125,123.7891 Q174.3594,124.0469 174.3594,124.6563 L174.3594,126.1094 Q174.3594,126.7188 174.125,126.9844 Q173.8906,127.25 173.5156,127.25 Q173.1719,127.25 172.9688,127.0469 Q172.7656,126.8594 172.6563,126.3438 Q172.6094,125.9844 172.4219,125.7969 Q172.0938,125.4219 171.4844,125.2031 Q170.875,124.9844 170.25,124.9844 Q169.4844,124.9844 168.8516,125.3125 Q168.2188,125.6406 167.7266,126.3906 Q167.2344,127.1406 167.2344,128.1719 L167.2344,129.2656 Q167.2344,130.5 168.125,131.3203 Q169.0156,132.1406 170.6094,132.1406 Q171.5469,132.1406 172.2031,131.8906 Q172.5938,131.7344 173.0156,131.2969 Q173.2813,131.0313 173.4297,130.9531 Q173.5781,130.875 173.7813,130.875 Q174.1094,130.875 174.3672,131.1328 Q174.625,131.3906 174.625,131.7344 Q174.625,132.0781 174.2813,132.4844 Q173.7813,133.0625 172.9844,133.3906 Q171.9063,133.8438 170.6094,133.8438 Q169.0938,133.8438 167.8906,133.2188 Q166.9063,132.7188 166.2188,131.6484 Q165.5313,130.5781 165.5313,129.2969 L165.5313,128.1406 Q165.5313,126.8125 166.1484,125.6641 Q166.7656,124.5156 167.8594,123.8984 Q168.9531,123.2813 170.1875,123.2813 Q170.9219,123.2813 171.5703,123.4453 Q172.2188,123.6094 172.7656,123.9688 Z "/><text fill="#000000" font-family="sans-serif" font-size="14" font-weight="bold" lengthAdjust="spacingAndGlyphs" textLength="143" x="184" y="127.5332">Actions.ThrowAction</text><text fill="#000000" font-family="sans-serif" font-size="10" lengthAdjust="spacingAndGlyphs" textLength="111" x="200" y="140.9902">eapli.framework.actions</text><line style="stroke: #A80036; stroke-width: 1.5;" x1="156" x2="329" y1="148.1875" y2="148.1875"/><polygon fill="none" points="166,154.1875,170,158.1875,166,162.1875,162,158.1875" style="stroke: #B38D22; stroke-width: 1.0;"/><text fill="#000000" font-family="sans-serif" font-size="11" lengthAdjust="spacingAndGlyphs" textLength="75" x="175" y="163.6064">String message</text><line style="stroke: #A80036; stroke-width: 1.5;" x1="156" x2="329" y1="170.0234" y2="170.0234"/><ellipse cx="166" cy="181.0234" fill="#84BE84" rx="3" ry="3" style="stroke: #038048; stroke-width: 1.0;"/><text fill="#000000" font-family="sans-serif" font-size="11" lengthAdjust="spacingAndGlyphs" textLength="110" x="175" y="185.4424">ThrowAction(String m)</text></a><!--MD5=[ef8b130fed61c1e1b3c1a2a618d68bbd]
class eapli.framework.actions.Action--><a href="../../../eapli/framework/actions/Action.html" target="_parent" title="eapli.framework.actions.Action" xlink:actuate="onRequest" xlink:href="../../../eapli/framework/actions/Action.html" xlink:show="new" xlink:title="eapli.framework.actions.Action" xlink:type="simple"><rect fill="#FEFECE" filter="url(#f4g9eg5uuxt2p)" height="55.2813" id="eapli.framework.actions.Action" style="stroke: #A80036; stroke-width: 1.5;" width="147" x="169" y="252"/><ellipse cx="184" cy="279.6406" fill="#B4A7E5" rx="11" ry="11" style="stroke: #A80036; stroke-width: 1.0;"/><path d="M184.9531,276.2813 L184.9531,282.9375 L186.6719,282.9375 Q187.2813,282.9375 187.5469,283.1719 Q187.8125,283.4063 187.8125,283.7969 Q187.8125,284.1719 187.5469,284.4063 Q187.2813,284.6406 186.6719,284.6406 L181.5313,284.6406 Q180.9219,284.6406 180.6563,284.4063 Q180.3906,284.1719 180.3906,283.7813 Q180.3906,283.4063 180.6563,283.1719 Q180.9219,282.9375 181.5313,282.9375 L183.25,282.9375 L183.25,276.2813 L181.5313,276.2813 Q180.9219,276.2813 180.6563,276.0469 Q180.3906,275.8125 180.3906,275.4219 Q180.3906,275.0469 180.6563,274.8125 Q180.9219,274.5781 181.5313,274.5781 L186.6719,274.5781 Q187.2813,274.5781 187.5469,274.8125 Q187.8125,275.0469 187.8125,275.4219 Q187.8125,275.8125 187.5469,276.0469 Q187.2813,276.2813 186.6719,276.2813 L184.9531,276.2813 Z "/><text fill="#000000" font-family="sans-serif" font-size="12" font-style="italic" lengthAdjust="spacingAndGlyphs" textLength="119" x="196" y="269.457">«FunctionalInterface»</text><text fill="#000000" font-family="sans-serif" font-size="14" font-style="italic" font-weight="bold" lengthAdjust="spacingAndGlyphs" textLength="44" x="233.5" y="286.627">Action</text><text fill="#000000" font-family="sans-serif" font-size="10" font-style="italic" lengthAdjust="spacingAndGlyphs" textLength="111" x="200" y="300.084">eapli.framework.actions</text></a><!--MD5=[f274fda3dcda5eb37a6d3faebb91d205]
class eapli.framework.actions.Actions.ThrowStateAction--><a href="../../../eapli/framework/actions/Actions.ThrowStateAction.html" target="_parent" title="eapli.framework.actions.Actions.ThrowStateAction" xlink:actuate="onRequest" xlink:href="../../../eapli/framework/actions/Actions.ThrowStateAction.html" xlink:show="new" xlink:title="eapli.framework.actions.Actions.ThrowStateAction" xlink:type="simple"><rect fill="#FEFECE" filter="url(#f4g9eg5uuxt2p)" height="40.1875" id="eapli.framework.actions.Actions.ThrowStateAction" style="stroke: #A80036; stroke-width: 1.5;" width="211" x="6" y="8"/><ellipse cx="21" cy="28.0938" fill="#ADD1B2" rx="11" ry="11" style="stroke: #A80036; stroke-width: 1.0;"/><path d="M23.7656,23.9688 Q23.9219,23.75 24.1094,23.6406 Q24.2969,23.5313 24.5156,23.5313 Q24.8906,23.5313 25.125,23.7891 Q25.3594,24.0469 25.3594,24.6563 L25.3594,26.1094 Q25.3594,26.7188 25.125,26.9844 Q24.8906,27.25 24.5156,27.25 Q24.1719,27.25 23.9688,27.0469 Q23.7656,26.8594 23.6563,26.3438 Q23.6094,25.9844 23.4219,25.7969 Q23.0938,25.4219 22.4844,25.2031 Q21.875,24.9844 21.25,24.9844 Q20.4844,24.9844 19.8516,25.3125 Q19.2188,25.6406 18.7266,26.3906 Q18.2344,27.1406 18.2344,28.1719 L18.2344,29.2656 Q18.2344,30.5 19.125,31.3203 Q20.0156,32.1406 21.6094,32.1406 Q22.5469,32.1406 23.2031,31.8906 Q23.5938,31.7344 24.0156,31.2969 Q24.2813,31.0313 24.4297,30.9531 Q24.5781,30.875 24.7813,30.875 Q25.1094,30.875 25.3672,31.1328 Q25.625,31.3906 25.625,31.7344 Q25.625,32.0781 25.2813,32.4844 Q24.7813,33.0625 23.9844,33.3906 Q22.9063,33.8438 21.6094,33.8438 Q20.0938,33.8438 18.8906,33.2188 Q17.9063,32.7188 17.2188,31.6484 Q16.5313,30.5781 16.5313,29.2969 L16.5313,28.1406 Q16.5313,26.8125 17.1484,25.6641 Q17.7656,24.5156 18.8594,23.8984 Q19.9531,23.2813 21.1875,23.2813 Q21.9219,23.2813 22.5703,23.4453 Q23.2188,23.6094 23.7656,23.9688 Z "/><text fill="#000000" font-family="sans-serif" font-size="14" font-weight="bold" lengthAdjust="spacingAndGlyphs" textLength="179" x="35" y="27.5332">Actions.ThrowStateAction</text><text fill="#000000" font-family="sans-serif" font-size="10" lengthAdjust="spacingAndGlyphs" textLength="111" x="69" y="40.9902">eapli.framework.actions</text></a><!--MD5=[e81538cae6683aa55d30958bac627fc0]
class eapli.framework.actions.Actions.ThrowArgumentAction--><a href="../../../eapli/framework/actions/Actions.ThrowArgumentAction.html" target="_parent" title="eapli.framework.actions.Actions.ThrowArgumentAction" xlink:actuate="onRequest" xlink:href="../../../eapli/framework/actions/Actions.ThrowArgumentAction.html" xlink:show="new" xlink:title="eapli.framework.actions.Actions.ThrowArgumentAction" xlink:type="simple"><rect fill="#FEFECE" filter="url(#f4g9eg5uuxt2p)" height="40.1875" id="eapli.framework.actions.Actions.ThrowArgumentAction" style="stroke: #A80036; stroke-width: 1.5;" width="243" x="252" y="8"/><ellipse cx="267" cy="28.0938" fill="#ADD1B2" rx="11" ry="11" style="stroke: #A80036; stroke-width: 1.0;"/><path d="M269.7656,23.9688 Q269.9219,23.75 270.1094,23.6406 Q270.2969,23.5313 270.5156,23.5313 Q270.8906,23.5313 271.125,23.7891 Q271.3594,24.0469 271.3594,24.6563 L271.3594,26.1094 Q271.3594,26.7188 271.125,26.9844 Q270.8906,27.25 270.5156,27.25 Q270.1719,27.25 269.9688,27.0469 Q269.7656,26.8594 269.6563,26.3438 Q269.6094,25.9844 269.4219,25.7969 Q269.0938,25.4219 268.4844,25.2031 Q267.875,24.9844 267.25,24.9844 Q266.4844,24.9844 265.8516,25.3125 Q265.2188,25.6406 264.7266,26.3906 Q264.2344,27.1406 264.2344,28.1719 L264.2344,29.2656 Q264.2344,30.5 265.125,31.3203 Q266.0156,32.1406 267.6094,32.1406 Q268.5469,32.1406 269.2031,31.8906 Q269.5938,31.7344 270.0156,31.2969 Q270.2813,31.0313 270.4297,30.9531 Q270.5781,30.875 270.7813,30.875 Q271.1094,30.875 271.3672,31.1328 Q271.625,31.3906 271.625,31.7344 Q271.625,32.0781 271.2813,32.4844 Q270.7813,33.0625 269.9844,33.3906 Q268.9063,33.8438 267.6094,33.8438 Q266.0938,33.8438 264.8906,33.2188 Q263.9063,32.7188 263.2188,31.6484 Q262.5313,30.5781 262.5313,29.2969 L262.5313,28.1406 Q262.5313,26.8125 263.1484,25.6641 Q263.7656,24.5156 264.8594,23.8984 Q265.9531,23.2813 267.1875,23.2813 Q267.9219,23.2813 268.5703,23.4453 Q269.2188,23.6094 269.7656,23.9688 Z "/><text fill="#000000" font-family="sans-serif" font-size="14" font-weight="bold" lengthAdjust="spacingAndGlyphs" textLength="211" x="281" y="27.5332">Actions.ThrowArgumentAction</text><text fill="#000000" font-family="sans-serif" font-size="10" lengthAdjust="spacingAndGlyphs" textLength="111" x="331" y="40.9902">eapli.framework.actions</text></a><!--MD5=[9d09ffce94a0da1aa8b704ea722e6037]
link eapli.framework.actions.Actions.ThrowAction to eapli.framework.actions.Action--><path d="M242.5,192.045 C242.5,192.045 242.5,231.9386 242.5,231.9386 " fill="none" id="eapli.framework.actions.Actions.ThrowAction-&gt;eapli.framework.actions.Action" style="stroke: #A80036; stroke-width: 1.0; stroke-dasharray: 7.0,7.0;"/><polygon fill="none" points="249.5,231.9386,242.5,251.9386,235.5,231.9385,249.5,231.9386" style="stroke: #A80036; stroke-width: 1.0;"/><!--MD5=[5940d64274db7613f8cfaf2fa9f093a9]
link eapli.framework.actions.Actions.ThrowStateAction to eapli.framework.actions.Actions.ThrowAction--><path d="M186,48.146 C186,48.146 186,87.804 186,87.804 " fill="none" id="eapli.framework.actions.Actions.ThrowStateAction-&gt;eapli.framework.actions.Actions.ThrowAction" style="stroke: #A80036; stroke-width: 1.0;"/><polygon fill="none" points="193,87.804,186,107.804,179,87.804,193,87.804" style="stroke: #A80036; stroke-width: 1.0;"/><!--MD5=[7529e7bb1281760cff4b72be9873f8c9]
link eapli.framework.actions.Actions.ThrowArgumentAction to eapli.framework.actions.Actions.ThrowAction--><path d="M291,48.146 C291,48.146 291,87.804 291,87.804 " fill="none" id="eapli.framework.actions.Actions.ThrowArgumentAction-&gt;eapli.framework.actions.Actions.ThrowAction" style="stroke: #A80036; stroke-width: 1.0;"/><polygon fill="none" points="298,87.804,291,107.804,284,87.804,298,87.804" style="stroke: #A80036; stroke-width: 1.0;"/><!--MD5=[15242f6c4e963ac805c90683e84bbfd0]
@startuml

skinparam svgLinkTarget _parent
skinparam linetype ortho
set namespaceSeparator none
class "<b><size:14>Actions.ThrowAction</b>\n<size:10>eapli.framework.actions" as eapli.framework.actions.Actions.ThrowAction  [[../../../eapli/framework/actions/Actions.ThrowAction.html{eapli.framework.actions.Actions.ThrowAction}]] {
#String message
+ThrowAction(String m)
}


interface "<b><size:14>Action</b>\n<size:10>eapli.framework.actions" as eapli.framework.actions.Action <<FunctionalInterface>> [[../../../eapli/framework/actions/Action.html{eapli.framework.actions.Action}]] {
}

hide eapli.framework.actions.Action fields
hide eapli.framework.actions.Action methods

eapli.framework.actions.Actions.ThrowAction ..|> eapli.framework.actions.Action

class "<b><size:14>Actions.ThrowStateAction</b>\n<size:10>eapli.framework.actions" as eapli.framework.actions.Actions.ThrowStateAction  [[../../../eapli/framework/actions/Actions.ThrowStateAction.html{eapli.framework.actions.Actions.ThrowStateAction}]] {
}

hide eapli.framework.actions.Actions.ThrowStateAction fields
hide eapli.framework.actions.Actions.ThrowStateAction methods

eapli.framework.actions.Actions.ThrowStateAction - -|> eapli.framework.actions.Actions.ThrowAction

class "<b><size:14>Actions.ThrowArgumentAction</b>\n<size:10>eapli.framework.actions" as eapli.framework.actions.Actions.ThrowArgumentAction  [[../../../eapli/framework/actions/Actions.ThrowArgumentAction.html{eapli.framework.actions.Actions.ThrowArgumentAction}]] {
}

hide eapli.framework.actions.Actions.ThrowArgumentAction fields
hide eapli.framework.actions.Actions.ThrowArgumentAction methods

eapli.framework.actions.Actions.ThrowArgumentAction - -|> eapli.framework.actions.Actions.ThrowAction


@enduml

PlantUML version 1.2020.04(Thu Mar 19 10:16:49 GMT 2020)
(GPL source distribution)
Java Runtime: Java(TM) SE Runtime Environment
JVM: Java HotSpot(TM) 64-Bit Server VM
Java Version: 1.8.0_202-b08
Operating System: Windows 10
Default Encoding: Cp1252
Language: en
Country: US
--></g></svg>