@startuml

skinparam svgLinkTarget _parent
skinparam linetype ortho
set namespaceSeparator none
interface "<b><size:14>DTO</b>\n<size:10>eapli.framework.representations.dto" as eapli.framework.representations.dto.DTO  [[../../../../eapli/framework/representations/dto/DTO.html{eapli.framework.representations.dto.DTO}]] {
}


class "<b><size:14>GeneralDTO</b>\n<size:10>eapli.framework.representations.dto" as eapli.framework.representations.dto.GeneralDTO  [[../../../../eapli/framework/representations/dto/GeneralDTO.html{eapli.framework.representations.dto.GeneralDTO}]] {
}

hide eapli.framework.representations.dto.GeneralDTO fields
hide eapli.framework.representations.dto.GeneralDTO methods

eapli.framework.representations.dto.GeneralDTO ..|> eapli.framework.representations.dto.DTO


@enduml
