<?xml version="1.0" encoding="UTF-8" standalone="no"?><svg xmlns="http://www.w3.org/2000/svg" xmlns:xlink="http://www.w3.org/1999/xlink" contentScriptType="application/ecmascript" contentStyleType="text/css" height="219px" preserveAspectRatio="none" style="width:330px;height:219px;" version="1.1" viewBox="0 0 330 219" width="330px" zoomAndPan="magnify"><defs><filter height="300%" id="f1fvqdht2mit56" width="300%" x="-1" y="-1"><feGaussianBlur result="blurOut" stdDeviation="2.0"/><feColorMatrix in="blurOut" result="blurOut2" type="matrix" values="0 0 0 0 0 0 0 0 0 0 0 0 0 0 0 0 0 0 .4 0"/><feOffset dx="4.0" dy="4.0" in="blurOut2" result="blurOut3"/><feBlend in="SourceGraphic" in2="blurOut3" mode="normal"/></filter></defs><g><!--MD5=[3e11eb65d96fbc42d04237df054df6c3]
class eapli.framework.representations.dto.DTOParser--><a href="../../../../eapli/framework/representations/dto/DTOParser.html" target="_parent" title="eapli.framework.representations.dto.DTOParser" xlink:actuate="onRequest" xlink:href="../../../../eapli/framework/representations/dto/DTOParser.html" xlink:show="new" xlink:title="eapli.framework.representations.dto.DTOParser" xlink:type="simple"><rect fill="#FEFECE" filter="url(#f1fvqdht2mit56)" height="85.1172" id="eapli.framework.representations.dto.DTOParser" style="stroke: #A80036; stroke-width: 1.5;" width="200" x="32" y="8"/><ellipse cx="47" cy="35.6406" fill="#B4A7E5" rx="11" ry="11" style="stroke: #A80036; stroke-width: 1.0;"/><path d="M47.9531,32.2813 L47.9531,38.9375 L49.6719,38.9375 Q50.2813,38.9375 50.5469,39.1719 Q50.8125,39.4063 50.8125,39.7969 Q50.8125,40.1719 50.5469,40.4063 Q50.2813,40.6406 49.6719,40.6406 L44.5313,40.6406 Q43.9219,40.6406 43.6563,40.4063 Q43.3906,40.1719 43.3906,39.7813 Q43.3906,39.4063 43.6563,39.1719 Q43.9219,38.9375 44.5313,38.9375 L46.25,38.9375 L46.25,32.2813 L44.5313,32.2813 Q43.9219,32.2813 43.6563,32.0469 Q43.3906,31.8125 43.3906,31.4219 Q43.3906,31.0469 43.6563,30.8125 Q43.9219,30.5781 44.5313,30.5781 L49.6719,30.5781 Q50.2813,30.5781 50.5469,30.8125 Q50.8125,31.0469 50.8125,31.4219 Q50.8125,31.8125 50.5469,32.0469 Q50.2813,32.2813 49.6719,32.2813 L47.9531,32.2813 Z "/><text fill="#000000" font-family="sans-serif" font-size="12" font-style="italic" lengthAdjust="spacingAndGlyphs" textLength="119" x="85.5" y="25.457">«FunctionalInterface»</text><text fill="#000000" font-family="sans-serif" font-size="14" font-style="italic" font-weight="bold" lengthAdjust="spacingAndGlyphs" textLength="74" x="108" y="42.627">DTOParser</text><text fill="#000000" font-family="sans-serif" font-size="10" font-style="italic" lengthAdjust="spacingAndGlyphs" textLength="168" x="61" y="56.084">eapli.framework.representations.dto</text><line style="stroke: #A80036; stroke-width: 1.5;" x1="33" x2="231" y1="63.2813" y2="63.2813"/><line style="stroke: #A80036; stroke-width: 1.5;" x1="33" x2="231" y1="71.2813" y2="71.2813"/><ellipse cx="43" cy="82.2813" fill="#84BE84" rx="3" ry="3" style="stroke: #038048; stroke-width: 1.0;"/><text fill="#000000" font-family="sans-serif" font-size="11" font-style="italic" lengthAdjust="spacingAndGlyphs" textLength="147" x="52" y="86.7002">DTOable valueOf(Object dto)</text></a><!--MD5=[274ad5661286b626a93603d287cbf95a]
class java.lang.Object--><rect fill="#D3D3D3" filter="url(#f1fvqdht2mit56)" height="40.1875" id="java.lang.Object" style="stroke: #A80036; stroke-width: 1.5;" width="78" x="6" y="160.5"/><rect fill="#D3D3D3" height="40.1875" style="stroke: #A80036; stroke-width: 1.5;" width="78" x="6" y="160.5"/><ellipse cx="21" cy="180.5938" fill="#ADD1B2" rx="11" ry="11" style="stroke: #A80036; stroke-width: 1.0;"/><path d="M23.7656,176.4688 Q23.9219,176.25 24.1094,176.1406 Q24.2969,176.0313 24.5156,176.0313 Q24.8906,176.0313 25.125,176.2891 Q25.3594,176.5469 25.3594,177.1563 L25.3594,178.6094 Q25.3594,179.2188 25.125,179.4844 Q24.8906,179.75 24.5156,179.75 Q24.1719,179.75 23.9688,179.5469 Q23.7656,179.3594 23.6563,178.8438 Q23.6094,178.4844 23.4219,178.2969 Q23.0938,177.9219 22.4844,177.7031 Q21.875,177.4844 21.25,177.4844 Q20.4844,177.4844 19.8516,177.8125 Q19.2188,178.1406 18.7266,178.8906 Q18.2344,179.6406 18.2344,180.6719 L18.2344,181.7656 Q18.2344,183 19.125,183.8203 Q20.0156,184.6406 21.6094,184.6406 Q22.5469,184.6406 23.2031,184.3906 Q23.5938,184.2344 24.0156,183.7969 Q24.2813,183.5313 24.4297,183.4531 Q24.5781,183.375 24.7813,183.375 Q25.1094,183.375 25.3672,183.6328 Q25.625,183.8906 25.625,184.2344 Q25.625,184.5781 25.2813,184.9844 Q24.7813,185.5625 23.9844,185.8906 Q22.9063,186.3438 21.6094,186.3438 Q20.0938,186.3438 18.8906,185.7188 Q17.9063,185.2188 17.2188,184.1484 Q16.5313,183.0781 16.5313,181.7969 L16.5313,180.6406 Q16.5313,179.3125 17.1484,178.1641 Q17.7656,177.0156 18.8594,176.3984 Q19.9531,175.7813 21.1875,175.7813 Q21.9219,175.7813 22.5703,175.9453 Q23.2188,176.1094 23.7656,176.4688 Z "/><text fill="#000000" font-family="sans-serif" font-size="14" font-weight="bold" lengthAdjust="spacingAndGlyphs" textLength="46" x="35" y="180.0332">Object</text><text fill="#000000" font-family="sans-serif" font-size="10" lengthAdjust="spacingAndGlyphs" textLength="44" x="36" y="193.4902">java.lang</text><!--MD5=[86db8baadac9180102aef230ed0bda53]
class eapli.framework.representations.dto.DTOable--><a href="../../../../eapli/framework/representations/dto/DTOable.html" target="_parent" title="eapli.framework.representations.dto.DTOable" xlink:actuate="onRequest" xlink:href="../../../../eapli/framework/representations/dto/DTOable.html" xlink:show="new" xlink:title="eapli.framework.representations.dto.DTOable" xlink:type="simple"><rect fill="#FEFECE" filter="url(#f1fvqdht2mit56)" height="55.2813" id="eapli.framework.representations.dto.DTOable" style="stroke: #A80036; stroke-width: 1.5;" width="200" x="119" y="153"/><ellipse cx="134" cy="180.6406" fill="#B4A7E5" rx="11" ry="11" style="stroke: #A80036; stroke-width: 1.0;"/><path d="M134.9531,177.2813 L134.9531,183.9375 L136.6719,183.9375 Q137.2813,183.9375 137.5469,184.1719 Q137.8125,184.4063 137.8125,184.7969 Q137.8125,185.1719 137.5469,185.4063 Q137.2813,185.6406 136.6719,185.6406 L131.5313,185.6406 Q130.9219,185.6406 130.6563,185.4063 Q130.3906,185.1719 130.3906,184.7813 Q130.3906,184.4063 130.6563,184.1719 Q130.9219,183.9375 131.5313,183.9375 L133.25,183.9375 L133.25,177.2813 L131.5313,177.2813 Q130.9219,177.2813 130.6563,177.0469 Q130.3906,176.8125 130.3906,176.4219 Q130.3906,176.0469 130.6563,175.8125 Q130.9219,175.5781 131.5313,175.5781 L136.6719,175.5781 Q137.2813,175.5781 137.5469,175.8125 Q137.8125,176.0469 137.8125,176.4219 Q137.8125,176.8125 137.5469,177.0469 Q137.2813,177.2813 136.6719,177.2813 L134.9531,177.2813 Z "/><text fill="#000000" font-family="sans-serif" font-size="12" font-style="italic" lengthAdjust="spacingAndGlyphs" textLength="119" x="172.5" y="170.457">«FunctionalInterface»</text><text fill="#000000" font-family="sans-serif" font-size="14" font-style="italic" font-weight="bold" lengthAdjust="spacingAndGlyphs" textLength="59" x="202.5" y="187.627">DTOable</text><text fill="#000000" font-family="sans-serif" font-size="10" font-style="italic" lengthAdjust="spacingAndGlyphs" textLength="168" x="148" y="201.084">eapli.framework.representations.dto</text></a><!--MD5=[e3cd42275c468e2505cb68e94fd8cdf0]
link eapli.framework.representations.dto.DTOParser to java.lang.Object--><path d="M58,93.067 C58,93.067 58,155.4324 58,155.4324 " fill="none" id="eapli.framework.representations.dto.DTOParser-&gt;java.lang.Object" style="stroke: #A80036; stroke-width: 1.0; stroke-dasharray: 7.0,7.0;"/><polygon fill="#A80036" points="58,160.4324,62,151.4324,58,155.4324,54,151.4324,58,160.4324" style="stroke: #A80036; stroke-width: 1.0;"/><!--MD5=[2f57983b1a6b0009d333ff9f07bd5d2d]
link eapli.framework.representations.dto.DTOParser to eapli.framework.representations.dto.DTOable--><path d="M175.5,93.067 C175.5,93.067 175.5,147.985 175.5,147.985 " fill="none" id="eapli.framework.representations.dto.DTOParser-&gt;eapli.framework.representations.dto.DTOable" style="stroke: #A80036; stroke-width: 1.0; stroke-dasharray: 7.0,7.0;"/><polygon fill="#A80036" points="175.5,152.985,179.5,143.985,175.5,147.985,171.5,143.985,175.5,152.985" style="stroke: #A80036; stroke-width: 1.0;"/><!--MD5=[09918068fb23a41e89d76b5596a98628]
@startuml

skinparam svgLinkTarget _parent
skinparam linetype ortho
set namespaceSeparator none
interface "<b><size:14>DTOParser</b>\n<size:10>eapli.framework.representations.dto" as eapli.framework.representations.dto.DTOParser <<FunctionalInterface>> [[../../../../eapli/framework/representations/dto/DTOParser.html{eapli.framework.representations.dto.DTOParser}]] {
{abstract} +DTOable valueOf(Object dto)
}


class "<b><size:14>Object</b>\n<size:10>java.lang" as java.lang.Object  #lightgrey {
}

hide java.lang.Object fields
hide java.lang.Object methods

eapli.framework.representations.dto.DTOParser ..> java.lang.Object

interface "<b><size:14>DTOable</b>\n<size:10>eapli.framework.representations.dto" as eapli.framework.representations.dto.DTOable <<FunctionalInterface>> [[../../../../eapli/framework/representations/dto/DTOable.html{eapli.framework.representations.dto.DTOable}]] {
}

hide eapli.framework.representations.dto.DTOable fields
hide eapli.framework.representations.dto.DTOable methods

eapli.framework.representations.dto.DTOParser ..> eapli.framework.representations.dto.DTOable


@enduml

PlantUML version 1.2020.04(Thu Mar 19 10:16:49 GMT 2020)
(GPL source distribution)
Java Runtime: Java(TM) SE Runtime Environment
JVM: Java HotSpot(TM) 64-Bit Server VM
Java Version: 1.8.0_202-b08
Operating System: Windows 10
Default Encoding: Cp1252
Language: en
Country: US
--></g></svg>