@startuml

skinparam svgLinkTarget _parent
skinparam linetype ortho
package eapli.framework.representations.dto [[../../../../eapli/framework/representations/dto/package-summary.html{eapli.framework.representations.dto}]] #lightyellow {
}

interface "<b><size:14>DTO</b>" as eapli.framework.representations.dto.DTO  [[../../../../eapli/framework/representations/dto/DTO.html{eapli.framework.representations.dto.DTO}]] {
}

hide eapli.framework.representations.dto.DTO fields
hide eapli.framework.representations.dto.DTO methods

interface "<b><size:14>DTOable</b>" as eapli.framework.representations.dto.DTOable <<FunctionalInterface>> [[../../../../eapli/framework/representations/dto/DTOable.html{eapli.framework.representations.dto.DTOable}]] {
}

hide eapli.framework.representations.dto.DTOable fields
hide eapli.framework.representations.dto.DTOable methods

interface "<b><size:14>DTOParser</b>" as eapli.framework.representations.dto.DTOParser <<FunctionalInterface>> [[../../../../eapli/framework/representations/dto/DTOParser.html{eapli.framework.representations.dto.DTOParser}]] {
}

hide eapli.framework.representations.dto.DTOParser fields
hide eapli.framework.representations.dto.DTOParser methods

class "<b><size:14>GeneralDTO</b>" as eapli.framework.representations.dto.GeneralDTO  [[../../../../eapli/framework/representations/dto/GeneralDTO.html{eapli.framework.representations.dto.GeneralDTO}]] {
}

hide eapli.framework.representations.dto.GeneralDTO fields
hide eapli.framework.representations.dto.GeneralDTO methods

eapli.framework.representations.dto.DTOParser ..> eapli.framework.representations.dto.DTOable
eapli.framework.representations.dto.GeneralDTO ..|> eapli.framework.representations.dto.DTO

@enduml
