<?xml version="1.0" encoding="UTF-8" standalone="no"?><svg xmlns="http://www.w3.org/2000/svg" xmlns:xlink="http://www.w3.org/1999/xlink" contentScriptType="application/ecmascript" contentStyleType="text/css" height="223px" preserveAspectRatio="none" style="width:391px;height:223px;" version="1.1" viewBox="0 0 391 223" width="391px" zoomAndPan="magnify"><defs><filter height="300%" id="f144hian27q17x" width="300%" x="-1" y="-1"><feGaussianBlur result="blurOut" stdDeviation="2.0"/><feColorMatrix in="blurOut" result="blurOut2" type="matrix" values="0 0 0 0 0 0 0 0 0 0 0 0 0 0 0 0 0 0 .4 0"/><feOffset dx="4.0" dy="4.0" in="blurOut2" result="blurOut3"/><feBlend in="SourceGraphic" in2="blurOut3" mode="normal"/></filter></defs><g><!--MD5=[8b5bfb57b9716bd73179b4e423423cee]
cluster eapli.framework.domain.model.time--><a href="../../../../../eapli/framework/domain/model/time/package-summary.html" target="_parent" title="eapli.framework.domain.model.time" xlink:actuate="onRequest" xlink:href="../../../../../eapli/framework/domain/model/time/package-summary.html" xlink:show="new" xlink:title="eapli.framework.domain.model.time" xlink:type="simple"><polygon fill="#FFFFE0" filter="url(#f144hian27q17x)" points="22,24,276,24,283,47.6094,369,47.6094,369,211,22,211,22,24" style="stroke: #000000; stroke-width: 1.5;"/><line style="stroke: #000000; stroke-width: 1.5;" x1="22" x2="283" y1="47.6094" y2="47.6094"/><text fill="#000000" font-family="sans-serif" font-size="14" font-weight="bold" lengthAdjust="spacingAndGlyphs" textLength="248" x="26" y="40.5332">eapli.framework.domain.model.time</text></a><!--MD5=[dca1e22293862daacdc14079ef0eab1c]
class eapli.framework.domain.model.time.DateInterval--><a href="../../../../../eapli/framework/domain/model/time/DateInterval.html" target="_parent" title="eapli.framework.domain.model.time.DateInterval" xlink:actuate="onRequest" xlink:href="../../../../../eapli/framework/domain/model/time/DateInterval.html" xlink:show="new" xlink:title="eapli.framework.domain.model.time.DateInterval" xlink:type="simple"><rect fill="#FEFECE" filter="url(#f144hian27q17x)" height="42.7031" id="eapli.framework.domain.model.time.DateInterval" style="stroke: #A80036; stroke-width: 1.5;" width="118" x="235" y="60"/><ellipse cx="250" cy="81.3516" fill="#ADD1B2" rx="11" ry="11" style="stroke: #A80036; stroke-width: 1.0;"/><path d="M252.7656,77.2266 Q252.9219,77.0078 253.1094,76.8984 Q253.2969,76.7891 253.5156,76.7891 Q253.8906,76.7891 254.125,77.0469 Q254.3594,77.3047 254.3594,77.9141 L254.3594,79.3672 Q254.3594,79.9766 254.125,80.2422 Q253.8906,80.5078 253.5156,80.5078 Q253.1719,80.5078 252.9688,80.3047 Q252.7656,80.1172 252.6563,79.6016 Q252.6094,79.2422 252.4219,79.0547 Q252.0938,78.6797 251.4844,78.4609 Q250.875,78.2422 250.25,78.2422 Q249.4844,78.2422 248.8516,78.5703 Q248.2188,78.8984 247.7266,79.6484 Q247.2344,80.3984 247.2344,81.4297 L247.2344,82.5234 Q247.2344,83.7578 248.125,84.5781 Q249.0156,85.3984 250.6094,85.3984 Q251.5469,85.3984 252.2031,85.1484 Q252.5938,84.9922 253.0156,84.5547 Q253.2813,84.2891 253.4297,84.2109 Q253.5781,84.1328 253.7813,84.1328 Q254.1094,84.1328 254.3672,84.3906 Q254.625,84.6484 254.625,84.9922 Q254.625,85.3359 254.2813,85.7422 Q253.7813,86.3203 252.9844,86.6484 Q251.9063,87.1016 250.6094,87.1016 Q249.0938,87.1016 247.8906,86.4766 Q246.9063,85.9766 246.2188,84.9063 Q245.5313,83.8359 245.5313,82.5547 L245.5313,81.3984 Q245.5313,80.0703 246.1484,78.9219 Q246.7656,77.7734 247.8594,77.1563 Q248.9531,76.5391 250.1875,76.5391 Q250.9219,76.5391 251.5703,76.7031 Q252.2188,76.8672 252.7656,77.2266 Z "/><text fill="#000000" font-family="sans-serif" font-size="12" font-style="italic" lengthAdjust="spacingAndGlyphs" textLength="87" x="263.5" y="77.457">«Embeddable»</text><text fill="#000000" font-family="sans-serif" font-size="14" font-weight="bold" lengthAdjust="spacingAndGlyphs" textLength="86" x="264" y="94.627">DateInterval</text></a><!--MD5=[df92a6088eccbc5949c8962550694f7f]
class eapli.framework.domain.model.time.TimeInterval--><a href="../../../../../eapli/framework/domain/model/time/TimeInterval.html" target="_parent" title="eapli.framework.domain.model.time.TimeInterval" xlink:actuate="onRequest" xlink:href="../../../../../eapli/framework/domain/model/time/TimeInterval.html" xlink:show="new" xlink:title="eapli.framework.domain.model.time.TimeInterval" xlink:type="simple"><rect fill="#FEFECE" filter="url(#f144hian27q17x)" height="32" id="eapli.framework.domain.model.time.TimeInterval" style="stroke: #A80036; stroke-width: 1.5;" width="119" x="146.5" y="163"/><ellipse cx="161.5" cy="179" fill="#ADD1B2" rx="11" ry="11" style="stroke: #A80036; stroke-width: 1.0;"/><path d="M164.2656,174.875 Q164.4219,174.6563 164.6094,174.5469 Q164.7969,174.4375 165.0156,174.4375 Q165.3906,174.4375 165.625,174.6953 Q165.8594,174.9531 165.8594,175.5625 L165.8594,177.0156 Q165.8594,177.625 165.625,177.8906 Q165.3906,178.1563 165.0156,178.1563 Q164.6719,178.1563 164.4688,177.9531 Q164.2656,177.7656 164.1563,177.25 Q164.1094,176.8906 163.9219,176.7031 Q163.5938,176.3281 162.9844,176.1094 Q162.375,175.8906 161.75,175.8906 Q160.9844,175.8906 160.3516,176.2188 Q159.7188,176.5469 159.2266,177.2969 Q158.7344,178.0469 158.7344,179.0781 L158.7344,180.1719 Q158.7344,181.4063 159.625,182.2266 Q160.5156,183.0469 162.1094,183.0469 Q163.0469,183.0469 163.7031,182.7969 Q164.0938,182.6406 164.5156,182.2031 Q164.7813,181.9375 164.9297,181.8594 Q165.0781,181.7813 165.2813,181.7813 Q165.6094,181.7813 165.8672,182.0391 Q166.125,182.2969 166.125,182.6406 Q166.125,182.9844 165.7813,183.3906 Q165.2813,183.9688 164.4844,184.2969 Q163.4063,184.75 162.1094,184.75 Q160.5938,184.75 159.3906,184.125 Q158.4063,183.625 157.7188,182.5547 Q157.0313,181.4844 157.0313,180.2031 L157.0313,179.0469 Q157.0313,177.7188 157.6484,176.5703 Q158.2656,175.4219 159.3594,174.8047 Q160.4531,174.1875 161.6875,174.1875 Q162.4219,174.1875 163.0703,174.3516 Q163.7188,174.5156 164.2656,174.875 Z "/><text fill="#000000" font-family="sans-serif" font-size="14" font-weight="bold" lengthAdjust="spacingAndGlyphs" textLength="87" x="175.5" y="184.7285">TimeInterval</text></a><!--MD5=[97ec933158fa7ccac01509f7735a17f0]
class eapli.framework.domain.model.time.TimestampInterval--><a href="../../../../../eapli/framework/domain/model/time/TimestampInterval.html" target="_parent" title="eapli.framework.domain.model.time.TimestampInterval" xlink:actuate="onRequest" xlink:href="../../../../../eapli/framework/domain/model/time/TimestampInterval.html" xlink:show="new" xlink:title="eapli.framework.domain.model.time.TimestampInterval" xlink:type="simple"><rect fill="#FEFECE" filter="url(#f144hian27q17x)" height="42.7031" id="eapli.framework.domain.model.time.TimestampInterval" style="stroke: #A80036; stroke-width: 1.5;" width="161" x="38.5" y="60"/><ellipse cx="53.5" cy="81.3516" fill="#ADD1B2" rx="11" ry="11" style="stroke: #A80036; stroke-width: 1.0;"/><path d="M56.2656,77.2266 Q56.4219,77.0078 56.6094,76.8984 Q56.7969,76.7891 57.0156,76.7891 Q57.3906,76.7891 57.625,77.0469 Q57.8594,77.3047 57.8594,77.9141 L57.8594,79.3672 Q57.8594,79.9766 57.625,80.2422 Q57.3906,80.5078 57.0156,80.5078 Q56.6719,80.5078 56.4688,80.3047 Q56.2656,80.1172 56.1563,79.6016 Q56.1094,79.2422 55.9219,79.0547 Q55.5938,78.6797 54.9844,78.4609 Q54.375,78.2422 53.75,78.2422 Q52.9844,78.2422 52.3516,78.5703 Q51.7188,78.8984 51.2266,79.6484 Q50.7344,80.3984 50.7344,81.4297 L50.7344,82.5234 Q50.7344,83.7578 51.625,84.5781 Q52.5156,85.3984 54.1094,85.3984 Q55.0469,85.3984 55.7031,85.1484 Q56.0938,84.9922 56.5156,84.5547 Q56.7813,84.2891 56.9297,84.2109 Q57.0781,84.1328 57.2813,84.1328 Q57.6094,84.1328 57.8672,84.3906 Q58.125,84.6484 58.125,84.9922 Q58.125,85.3359 57.7813,85.7422 Q57.2813,86.3203 56.4844,86.6484 Q55.4063,87.1016 54.1094,87.1016 Q52.5938,87.1016 51.3906,86.4766 Q50.4063,85.9766 49.7188,84.9063 Q49.0313,83.8359 49.0313,82.5547 L49.0313,81.3984 Q49.0313,80.0703 49.6484,78.9219 Q50.2656,77.7734 51.3594,77.1563 Q52.4531,76.5391 53.6875,76.5391 Q54.4219,76.5391 55.0703,76.7031 Q55.7188,76.8672 56.2656,77.2266 Z "/><text fill="#000000" font-family="sans-serif" font-size="12" font-style="italic" lengthAdjust="spacingAndGlyphs" textLength="87" x="88.5" y="77.457">«Embeddable»</text><text fill="#000000" font-family="sans-serif" font-size="14" font-weight="bold" lengthAdjust="spacingAndGlyphs" textLength="129" x="67.5" y="94.627">TimestampInterval</text></a><!--MD5=[a5d279b4fb4dafdf8cfe0086cc721765]
link eapli.framework.domain.model.time.DateInterval to eapli.framework.domain.model.time.TimeInterval--><path d="M250.25,103.138 C250.25,103.138 250.25,157.8759 250.25,157.8759 " fill="none" id="eapli.framework.domain.model.time.DateInterval-&gt;eapli.framework.domain.model.time.TimeInterval" style="stroke: #A80036; stroke-width: 1.0;"/><polygon fill="#A80036" points="250.25,162.8759,254.25,153.8759,250.25,157.8759,246.25,153.8759,250.25,162.8759" style="stroke: #A80036; stroke-width: 1.0;"/><text fill="#000000" font-family="sans-serif" font-size="13" lengthAdjust="spacingAndGlyphs" textLength="35" x="224.4453" y="152.1388">period</text><!--MD5=[48f5e9cf1b8285b38003be6a1c8c1710]
link eapli.framework.domain.model.time.TimestampInterval to eapli.framework.domain.model.time.TimeInterval--><path d="M173,103.138 C173,103.138 173,157.8759 173,157.8759 " fill="none" id="eapli.framework.domain.model.time.TimestampInterval-&gt;eapli.framework.domain.model.time.TimeInterval" style="stroke: #A80036; stroke-width: 1.0;"/><polygon fill="#A80036" points="173,162.8759,177,153.8759,173,157.8759,169,153.8759,173,162.8759" style="stroke: #A80036; stroke-width: 1.0;"/><text fill="#000000" font-family="sans-serif" font-size="13" lengthAdjust="spacingAndGlyphs" textLength="35" x="120.6406" y="152.1388">period</text><!--MD5=[8e418cf4392189533fe492fdde908a4e]
@startuml

skinparam svgLinkTarget _parent
skinparam linetype ortho
package eapli.framework.domain.model.time [[../../../../../eapli/framework/domain/model/time/package-summary.html{eapli.framework.domain.model.time}]] #lightyellow {
}

class "<b><size:14>DateInterval</b>" as eapli.framework.domain.model.time.DateInterval <<Embeddable>> [[../../../../../eapli/framework/domain/model/time/DateInterval.html{eapli.framework.domain.model.time.DateInterval}]] {
}

hide eapli.framework.domain.model.time.DateInterval fields
hide eapli.framework.domain.model.time.DateInterval methods

class "<b><size:14>TimeInterval</b>" as eapli.framework.domain.model.time.TimeInterval  [[../../../../../eapli/framework/domain/model/time/TimeInterval.html{eapli.framework.domain.model.time.TimeInterval}]] {
}

hide eapli.framework.domain.model.time.TimeInterval fields
hide eapli.framework.domain.model.time.TimeInterval methods

class "<b><size:14>TimestampInterval</b>" as eapli.framework.domain.model.time.TimestampInterval <<Embeddable>> [[../../../../../eapli/framework/domain/model/time/TimestampInterval.html{eapli.framework.domain.model.time.TimestampInterval}]] {
}

hide eapli.framework.domain.model.time.TimestampInterval fields
hide eapli.framework.domain.model.time.TimestampInterval methods

eapli.framework.domain.model.time.DateInterval - ->  "period" eapli.framework.domain.model.time.TimeInterval
eapli.framework.domain.model.time.TimestampInterval - ->  "period" eapli.framework.domain.model.time.TimeInterval

@enduml

PlantUML version 1.2020.04(Thu Mar 19 10:16:49 GMT 2020)
(GPL source distribution)
Java Runtime: Java(TM) SE Runtime Environment
JVM: Java HotSpot(TM) 64-Bit Server VM
Java Version: 1.8.0_202-b08
Operating System: Windows 10
Default Encoding: Cp1252
Language: en
Country: US
--></g></svg>