<?xml version="1.0" encoding="UTF-8" standalone="no"?><svg xmlns="http://www.w3.org/2000/svg" xmlns:xlink="http://www.w3.org/1999/xlink" contentScriptType="application/ecmascript" contentStyleType="text/css" height="467px" preserveAspectRatio="none" style="width:425px;height:467px;" version="1.1" viewBox="0 0 425 467" width="425px" zoomAndPan="magnify"><defs><filter height="300%" id="f1qniuufl0zoig" width="300%" x="-1" y="-1"><feGaussianBlur result="blurOut" stdDeviation="2.0"/><feColorMatrix in="blurOut" result="blurOut2" type="matrix" values="0 0 0 0 0 0 0 0 0 0 0 0 0 0 0 0 0 0 .4 0"/><feOffset dx="4.0" dy="4.0" in="blurOut2" result="blurOut3"/><feBlend in="SourceGraphic" in2="blurOut3" mode="normal"/></filter></defs><g><!--MD5=[22764ad11cfae2e0707e6b259a699abd]
class eapli.framework.domain.model.math.Numeral--><a href="../../../../../eapli/framework/domain/model/math/Numeral.html" target="_parent" title="eapli.framework.domain.model.math.Numeral" xlink:actuate="onRequest" xlink:href="../../../../../eapli/framework/domain/model/math/Numeral.html" xlink:show="new" xlink:title="eapli.framework.domain.model.math.Numeral" xlink:type="simple"><rect fill="#FEFECE" filter="url(#f1qniuufl0zoig)" height="332.9063" id="eapli.framework.domain.model.math.Numeral" style="stroke: #A80036; stroke-width: 1.5;" width="287" x="73" y="8"/><ellipse cx="125.75" cy="28.0938" fill="#ADD1B2" rx="11" ry="11" style="stroke: #A80036; stroke-width: 1.0;"/><path d="M128.5156,23.9688 Q128.6719,23.75 128.8594,23.6406 Q129.0469,23.5313 129.2656,23.5313 Q129.6406,23.5313 129.875,23.7891 Q130.1094,24.0469 130.1094,24.6563 L130.1094,26.1094 Q130.1094,26.7188 129.875,26.9844 Q129.6406,27.25 129.2656,27.25 Q128.9219,27.25 128.7188,27.0469 Q128.5156,26.8594 128.4063,26.3438 Q128.3594,25.9844 128.1719,25.7969 Q127.8438,25.4219 127.2344,25.2031 Q126.625,24.9844 126,24.9844 Q125.2344,24.9844 124.6016,25.3125 Q123.9688,25.6406 123.4766,26.3906 Q122.9844,27.1406 122.9844,28.1719 L122.9844,29.2656 Q122.9844,30.5 123.875,31.3203 Q124.7656,32.1406 126.3594,32.1406 Q127.2969,32.1406 127.9531,31.8906 Q128.3438,31.7344 128.7656,31.2969 Q129.0313,31.0313 129.1797,30.9531 Q129.3281,30.875 129.5313,30.875 Q129.8594,30.875 130.1172,31.1328 Q130.375,31.3906 130.375,31.7344 Q130.375,32.0781 130.0313,32.4844 Q129.5313,33.0625 128.7344,33.3906 Q127.6563,33.8438 126.3594,33.8438 Q124.8438,33.8438 123.6406,33.2188 Q122.6563,32.7188 121.9688,31.6484 Q121.2813,30.5781 121.2813,29.2969 L121.2813,28.1406 Q121.2813,26.8125 121.8984,25.6641 Q122.5156,24.5156 123.6094,23.8984 Q124.7031,23.2813 125.9375,23.2813 Q126.6719,23.2813 127.3203,23.4453 Q127.9688,23.6094 128.5156,23.9688 Z "/><text fill="#000000" font-family="sans-serif" font-size="14" font-weight="bold" lengthAdjust="spacingAndGlyphs" textLength="58" x="203.75" y="27.5332">Numeral</text><text fill="#000000" font-family="sans-serif" font-size="10" lengthAdjust="spacingAndGlyphs" textLength="173" x="146.25" y="40.9902">eapli.framework.domain.model.math</text><line style="stroke: #A80036; stroke-width: 1.5;" x1="74" x2="359" y1="48.1875" y2="48.1875"/><rect fill="none" height="6" style="stroke: #C82930; stroke-width: 1.0;" width="6" x="81" y="56.1875"/><text fill="#000000" font-family="sans-serif" font-size="11" lengthAdjust="spacingAndGlyphs" text-decoration="underline" textLength="103" x="93" y="63.6064">long serialVersionUID</text><rect fill="none" height="6" style="stroke: #C82930; stroke-width: 1.0;" width="6" x="81" y="70.0234"/><text fill="#000000" font-family="sans-serif" font-size="11" lengthAdjust="spacingAndGlyphs" textLength="113" x="93" y="77.4424">NumeralSystem system</text><rect fill="none" height="6" style="stroke: #C82930; stroke-width: 1.0;" width="6" x="81" y="83.8594"/><text fill="#000000" font-family="sans-serif" font-size="11" lengthAdjust="spacingAndGlyphs" textLength="49" x="93" y="91.2783">long value</text><rect fill="none" height="6" style="stroke: #C82930; stroke-width: 1.0;" width="6" x="81" y="97.6953"/><text fill="#000000" font-family="sans-serif" font-size="11" lengthAdjust="spacingAndGlyphs" textLength="101" x="93" y="105.1143">String representation</text><line style="stroke: #A80036; stroke-width: 1.5;" x1="74" x2="359" y1="111.5313" y2="111.5313"/><rect fill="#F24D5C" height="6" style="stroke: #C82930; stroke-width: 1.0;" width="6" x="81" y="119.5313"/><text fill="#000000" font-family="sans-serif" font-size="11" lengthAdjust="spacingAndGlyphs" textLength="212" x="93" y="126.9502">Numeral(long value,NumeralSystem system)</text><rect fill="#F24D5C" height="6" style="stroke: #C82930; stroke-width: 1.0;" width="6" x="81" y="133.3672"/><text fill="#000000" font-family="sans-serif" font-size="11" lengthAdjust="spacingAndGlyphs" textLength="220" x="93" y="140.7861">Numeral(String value,NumeralSystem system)</text><ellipse cx="84" cy="150.2031" fill="#84BE84" rx="3" ry="3" style="stroke: #038048; stroke-width: 1.0;"/><text fill="#000000" font-family="sans-serif" font-size="11" lengthAdjust="spacingAndGlyphs" text-decoration="underline" textLength="261" x="93" y="154.6221">Numeral valueOf(String value,NumeralSystem system)</text><ellipse cx="84" cy="164.0391" fill="#84BE84" rx="3" ry="3" style="stroke: #038048; stroke-width: 1.0;"/><text fill="#000000" font-family="sans-serif" font-size="11" lengthAdjust="spacingAndGlyphs" text-decoration="underline" textLength="186" x="93" y="168.458">Numeral valueOf(String value,int base)</text><ellipse cx="84" cy="177.875" fill="#84BE84" rx="3" ry="3" style="stroke: #038048; stroke-width: 1.0;"/><text fill="#000000" font-family="sans-serif" font-size="11" lengthAdjust="spacingAndGlyphs" text-decoration="underline" textLength="147" x="93" y="182.2939">Numeral valueOf(long decimal)</text><ellipse cx="84" cy="191.7109" fill="#84BE84" rx="3" ry="3" style="stroke: #038048; stroke-width: 1.0;"/><text fill="#000000" font-family="sans-serif" font-size="11" lengthAdjust="spacingAndGlyphs" textLength="90" x="93" y="196.1299">Numeral toBase2()</text><ellipse cx="84" cy="205.5469" fill="#84BE84" rx="3" ry="3" style="stroke: #038048; stroke-width: 1.0;"/><text fill="#000000" font-family="sans-serif" font-size="11" lengthAdjust="spacingAndGlyphs" textLength="90" x="93" y="209.9658">Numeral toBase8()</text><ellipse cx="84" cy="219.3828" fill="#84BE84" rx="3" ry="3" style="stroke: #038048; stroke-width: 1.0;"/><text fill="#000000" font-family="sans-serif" font-size="11" lengthAdjust="spacingAndGlyphs" textLength="96" x="93" y="223.8018">Numeral toBase10()</text><ellipse cx="84" cy="233.2188" fill="#84BE84" rx="3" ry="3" style="stroke: #038048; stroke-width: 1.0;"/><text fill="#000000" font-family="sans-serif" font-size="11" lengthAdjust="spacingAndGlyphs" textLength="96" x="93" y="237.6377">Numeral toBase16()</text><ellipse cx="84" cy="247.0547" fill="#84BE84" rx="3" ry="3" style="stroke: #038048; stroke-width: 1.0;"/><text fill="#000000" font-family="sans-serif" font-size="11" lengthAdjust="spacingAndGlyphs" textLength="122" x="93" y="251.4736">Numeral toBase(int base)</text><ellipse cx="84" cy="260.8906" fill="#84BE84" rx="3" ry="3" style="stroke: #038048; stroke-width: 1.0;"/><text fill="#000000" font-family="sans-serif" font-size="11" lengthAdjust="spacingAndGlyphs" textLength="186" x="93" y="265.3096">Numeral toBase(NumeralSystem base)</text><ellipse cx="84" cy="274.7266" fill="#84BE84" rx="3" ry="3" style="stroke: #038048; stroke-width: 1.0;"/><text fill="#000000" font-family="sans-serif" font-size="11" lengthAdjust="spacingAndGlyphs" textLength="140" x="93" y="279.1455">boolean equals(Object other)</text><ellipse cx="84" cy="288.5625" fill="#84BE84" rx="3" ry="3" style="stroke: #038048; stroke-width: 1.0;"/><text fill="#000000" font-family="sans-serif" font-size="11" lengthAdjust="spacingAndGlyphs" textLength="71" x="93" y="292.9814">int hashCode()</text><ellipse cx="84" cy="302.3984" fill="#84BE84" rx="3" ry="3" style="stroke: #038048; stroke-width: 1.0;"/><text fill="#000000" font-family="sans-serif" font-size="11" lengthAdjust="spacingAndGlyphs" textLength="76" x="93" y="306.8174">String toString()</text><ellipse cx="84" cy="316.2344" fill="#84BE84" rx="3" ry="3" style="stroke: #038048; stroke-width: 1.0;"/><text fill="#000000" font-family="sans-serif" font-size="11" lengthAdjust="spacingAndGlyphs" textLength="95" x="93" y="320.6533">long decimalValue()</text><ellipse cx="84" cy="330.0703" fill="#84BE84" rx="3" ry="3" style="stroke: #038048; stroke-width: 1.0;"/><text fill="#000000" font-family="sans-serif" font-size="11" lengthAdjust="spacingAndGlyphs" textLength="121" x="93" y="334.4893">NumeralSystem system()</text></a><!--MD5=[dbf2d1a242c391fad9fbef5fa9ebf9ef]
class eapli.framework.domain.model.math.NumeralSystem--><a href="../../../../../eapli/framework/domain/model/math/NumeralSystem.html" target="_parent" title="eapli.framework.domain.model.math.NumeralSystem" xlink:actuate="onRequest" xlink:href="../../../../../eapli/framework/domain/model/math/NumeralSystem.html" xlink:show="new" xlink:title="eapli.framework.domain.model.math.NumeralSystem" xlink:type="simple"><rect fill="#FEFECE" filter="url(#f1qniuufl0zoig)" height="55.2813" id="eapli.framework.domain.model.math.NumeralSystem" style="stroke: #A80036; stroke-width: 1.5;" width="199" x="6" y="401"/><ellipse cx="21" cy="428.6406" fill="#B4A7E5" rx="11" ry="11" style="stroke: #A80036; stroke-width: 1.0;"/><path d="M21.9531,425.2813 L21.9531,431.9375 L23.6719,431.9375 Q24.2813,431.9375 24.5469,432.1719 Q24.8125,432.4063 24.8125,432.7969 Q24.8125,433.1719 24.5469,433.4063 Q24.2813,433.6406 23.6719,433.6406 L18.5313,433.6406 Q17.9219,433.6406 17.6563,433.4063 Q17.3906,433.1719 17.3906,432.7813 Q17.3906,432.4063 17.6563,432.1719 Q17.9219,431.9375 18.5313,431.9375 L20.25,431.9375 L20.25,425.2813 L18.5313,425.2813 Q17.9219,425.2813 17.6563,425.0469 Q17.3906,424.8125 17.3906,424.4219 Q17.3906,424.0469 17.6563,423.8125 Q17.9219,423.5781 18.5313,423.5781 L23.6719,423.5781 Q24.2813,423.5781 24.5469,423.8125 Q24.8125,424.0469 24.8125,424.4219 Q24.8125,424.8125 24.5469,425.0469 Q24.2813,425.2813 23.6719,425.2813 L21.9531,425.2813 Z "/><text fill="#000000" font-family="sans-serif" font-size="12" font-style="italic" lengthAdjust="spacingAndGlyphs" textLength="119" x="59" y="418.457">«FunctionalInterface»</text><text fill="#000000" font-family="sans-serif" font-size="14" font-style="italic" font-weight="bold" lengthAdjust="spacingAndGlyphs" textLength="104" x="66.5" y="435.627">NumeralSystem</text><text fill="#000000" font-family="sans-serif" font-size="10" font-style="italic" lengthAdjust="spacingAndGlyphs" textLength="167" x="35" y="449.084">eapli.framework.domain.model.math</text></a><!--MD5=[ce0423b4918b6b29de95b9c9580cdd71]
class eapli.framework.domain.model.ValueObject--><a href="../../../../../eapli/framework/domain/model/ValueObject.html" target="_parent" title="eapli.framework.domain.model.ValueObject" xlink:actuate="onRequest" xlink:href="../../../../../eapli/framework/domain/model/ValueObject.html" xlink:show="new" xlink:title="eapli.framework.domain.model.ValueObject" xlink:type="simple"><rect fill="#FFFFFF" filter="url(#f1qniuufl0zoig)" height="40.1875" id="eapli.framework.domain.model.ValueObject" style="stroke: #A80036; stroke-width: 1.5;" width="174" x="240.5" y="408.5"/><rect fill="#FFFFFF" height="40.1875" style="stroke: #A80036; stroke-width: 1.5;" width="174" x="240.5" y="408.5"/><ellipse cx="255.5" cy="428.5938" fill="#B4A7E5" rx="11" ry="11" style="stroke: #A80036; stroke-width: 1.0;"/><path d="M256.4531,425.2344 L256.4531,431.8906 L258.1719,431.8906 Q258.7813,431.8906 259.0469,432.125 Q259.3125,432.3594 259.3125,432.75 Q259.3125,433.125 259.0469,433.3594 Q258.7813,433.5938 258.1719,433.5938 L253.0313,433.5938 Q252.4219,433.5938 252.1563,433.3594 Q251.8906,433.125 251.8906,432.7344 Q251.8906,432.3594 252.1563,432.125 Q252.4219,431.8906 253.0313,431.8906 L254.75,431.8906 L254.75,425.2344 L253.0313,425.2344 Q252.4219,425.2344 252.1563,425 Q251.8906,424.7656 251.8906,424.375 Q251.8906,424 252.1563,423.7656 Q252.4219,423.5313 253.0313,423.5313 L258.1719,423.5313 Q258.7813,423.5313 259.0469,423.7656 Q259.3125,424 259.3125,424.375 Q259.3125,424.7656 259.0469,425 Q258.7813,425.2344 258.1719,425.2344 L256.4531,425.2344 Z "/><text fill="#000000" font-family="sans-serif" font-size="14" font-style="italic" font-weight="bold" lengthAdjust="spacingAndGlyphs" textLength="84" x="298.5" y="428.0332">ValueObject</text><text fill="#000000" font-family="sans-serif" font-size="10" font-style="italic" lengthAdjust="spacingAndGlyphs" textLength="142" x="269.5" y="441.4902">eapli.framework.domain.model</text></a><!--MD5=[86a15d3a2eaa948e523247efd588e1c7]
link eapli.framework.domain.model.math.Numeral to eapli.framework.domain.model.math.NumeralSystem--><path d="M139,341.088 C139,341.088 139,395.8606 139,395.8606 " fill="none" id="eapli.framework.domain.model.math.Numeral-&gt;eapli.framework.domain.model.math.NumeralSystem" style="stroke: #A80036; stroke-width: 1.0;"/><polygon fill="#A80036" points="139,400.8606,143,391.8606,139,395.8606,135,391.8606,139,400.8606" style="stroke: #A80036; stroke-width: 1.0;"/><text fill="#000000" font-family="sans-serif" font-size="13" lengthAdjust="spacingAndGlyphs" textLength="43" x="98.775" y="390.1222">system</text><!--MD5=[80cf4f6d998180d99a538ad07acd73df]
link eapli.framework.domain.model.math.Numeral to eapli.framework.domain.model.ValueObject--><path d="M300.25,341.088 C300.25,341.088 300.25,388.4099 300.25,388.4099 " fill="none" id="eapli.framework.domain.model.math.Numeral-&gt;eapli.framework.domain.model.ValueObject" style="stroke: #A80036; stroke-width: 1.0; stroke-dasharray: 7.0,7.0;"/><polygon fill="none" points="307.25,388.4099,300.25,408.4099,293.25,388.4099,307.25,388.4099" style="stroke: #A80036; stroke-width: 1.0;"/><!--MD5=[5e3226a9c514766be540e23302e6423e]
@startuml

skinparam svgLinkTarget _parent
skinparam linetype ortho
set namespaceSeparator none
class "<b><size:14>Numeral</b>\n<size:10>eapli.framework.domain.model.math" as eapli.framework.domain.model.math.Numeral  [[../../../../../eapli/framework/domain/model/math/Numeral.html{eapli.framework.domain.model.math.Numeral}]] {
{static} -long serialVersionUID
-NumeralSystem system
-long value
-String representation
-Numeral(long value,NumeralSystem system)
-Numeral(String value,NumeralSystem system)
{static} +Numeral valueOf(String value,NumeralSystem system)
{static} +Numeral valueOf(String value,int base)
{static} +Numeral valueOf(long decimal)
+Numeral toBase2()
+Numeral toBase8()
+Numeral toBase10()
+Numeral toBase16()
+Numeral toBase(int base)
+Numeral toBase(NumeralSystem base)
+boolean equals(Object other)
+int hashCode()
+String toString()
+long decimalValue()
+NumeralSystem system()
}


interface "<b><size:14>NumeralSystem</b>\n<size:10>eapli.framework.domain.model.math" as eapli.framework.domain.model.math.NumeralSystem <<FunctionalInterface>> [[../../../../../eapli/framework/domain/model/math/NumeralSystem.html{eapli.framework.domain.model.math.NumeralSystem}]] {
}

hide eapli.framework.domain.model.math.NumeralSystem fields
hide eapli.framework.domain.model.math.NumeralSystem methods

eapli.framework.domain.model.math.Numeral - ->  "system" eapli.framework.domain.model.math.NumeralSystem

interface "<b><size:14>ValueObject</b>\n<size:10>eapli.framework.domain.model" as eapli.framework.domain.model.ValueObject  [[../../../../../eapli/framework/domain/model/ValueObject.html{eapli.framework.domain.model.ValueObject}]] #white {
}

hide eapli.framework.domain.model.ValueObject fields
hide eapli.framework.domain.model.ValueObject methods

eapli.framework.domain.model.math.Numeral ..|> eapli.framework.domain.model.ValueObject


@enduml

PlantUML version 1.2020.04(Thu Mar 19 10:16:49 GMT 2020)
(GPL source distribution)
Java Runtime: Java(TM) SE Runtime Environment
JVM: Java HotSpot(TM) 64-Bit Server VM
Java Version: 1.8.0_202-b08
Operating System: Windows 10
Default Encoding: Cp1252
Language: en
Country: US
--></g></svg>