@startuml

skinparam svgLinkTarget _parent
skinparam linetype ortho
set namespaceSeparator none
interface "<b><size:14>NumeralSystem</b>\n<size:10>eapli.framework.domain.model.math" as eapli.framework.domain.model.math.NumeralSystem <<FunctionalInterface>> [[../../../../../eapli/framework/domain/model/math/NumeralSystem.html{eapli.framework.domain.model.math.NumeralSystem}]] {
{abstract} +String symbols()
+char symbol(int digit)
+int digit(char symbol)
+int base()
+String zero()
+boolean isValidNumeral(String numeralToTest)
}


class "<b><size:14>Numeral</b>\n<size:10>eapli.framework.domain.model.math" as eapli.framework.domain.model.math.Numeral  [[../../../../../eapli/framework/domain/model/math/Numeral.html{eapli.framework.domain.model.math.Numeral}]] {
}

hide eapli.framework.domain.model.math.Numeral fields
hide eapli.framework.domain.model.math.Numeral methods

eapli.framework.domain.model.math.Numeral -->  "system" eapli.framework.domain.model.math.NumeralSystem

interface "<b><size:14>ValueObject</b>\n<size:10>eapli.framework.domain.model" as eapli.framework.domain.model.ValueObject  [[../../../../../eapli/framework/domain/model/ValueObject.html{eapli.framework.domain.model.ValueObject}]] #white {
}

hide eapli.framework.domain.model.ValueObject fields
hide eapli.framework.domain.model.ValueObject methods

eapli.framework.domain.model.math.NumeralSystem --|> eapli.framework.domain.model.ValueObject

class "<b><size:14>StandardNumeralSystem</b>\n<size:10>eapli.framework.domain.model.math" as eapli.framework.domain.model.math.StandardNumeralSystem  [[../../../../../eapli/framework/domain/model/math/StandardNumeralSystem.html{eapli.framework.domain.model.math.StandardNumeralSystem}]] {
}

hide eapli.framework.domain.model.math.StandardNumeralSystem fields
hide eapli.framework.domain.model.math.StandardNumeralSystem methods

eapli.framework.domain.model.math.StandardNumeralSystem -->  "BINARY" eapli.framework.domain.model.math.NumeralSystem

eapli.framework.domain.model.math.StandardNumeralSystem -->  "OCTAL" eapli.framework.domain.model.math.NumeralSystem

eapli.framework.domain.model.math.StandardNumeralSystem -->  "DECIMAL" eapli.framework.domain.model.math.NumeralSystem

eapli.framework.domain.model.math.StandardNumeralSystem -->  "HEXADECIMAL" eapli.framework.domain.model.math.NumeralSystem

eapli.framework.domain.model.math.StandardNumeralSystem ..|> eapli.framework.domain.model.math.NumeralSystem


@enduml
