@startuml

skinparam svgLinkTarget _parent
skinparam linetype ortho
set namespaceSeparator none
class "<b><size:14>RomanNumeral</b>\n<size:10>eapli.framework.domain.model.math" as eapli.framework.domain.model.math.RomanNumeral  [[../../../../../eapli/framework/domain/model/math/RomanNumeral.html{eapli.framework.domain.model.math.RomanNumeral}]] {
{static} -long serialVersionUID
{static} -int numbers
{static} -String letters
-int num
+RomanNumeral(int arabic)
+RomanNumeral(String roman)
{static} +RomanNumeral valueOf(String roman)
{static} +String toString(int number)
+String toString()
+int toInt()
-int letterToNumber(char letter)
}


interface "<b><size:14>ValueObject</b>\n<size:10>eapli.framework.domain.model" as eapli.framework.domain.model.ValueObject  [[../../../../../eapli/framework/domain/model/ValueObject.html{eapli.framework.domain.model.ValueObject}]] #white {
}

hide eapli.framework.domain.model.ValueObject fields
hide eapli.framework.domain.model.ValueObject methods

eapli.framework.domain.model.math.RomanNumeral ..|> eapli.framework.domain.model.ValueObject


@enduml
