@startuml

skinparam svgLinkTarget _parent
skinparam linetype ortho
set namespaceSeparator none
class "<b><size:14>ConcurrencyException</b>\n<size:10>eapli.framework.domain.repositories" as eapli.framework.domain.repositories.ConcurrencyException  [[../../../../eapli/framework/domain/repositories/ConcurrencyException.html{eapli.framework.domain.repositories.ConcurrencyException}]] {
{static} -long serialVersionUID
+ConcurrencyException(String arg0,Throwable arg1)
+ConcurrencyException(String arg0)
+ConcurrencyException(Throwable arg0)
}


class "<b><size:14>RuntimeException</b>\n<size:10>java.lang" as java.lang.RuntimeException  #lightgrey {
}

hide java.lang.RuntimeException fields
hide java.lang.RuntimeException methods

eapli.framework.domain.repositories.ConcurrencyException --|> java.lang.RuntimeException


@enduml
