@startuml

skinparam svgLinkTarget _parent
skinparam linetype ortho
set namespaceSeparator none
class "<b><size:14>IntegrityViolationException</b>\n<size:10>eapli.framework.domain.repositories" as eapli.framework.domain.repositories.IntegrityViolationException  [[../../../../eapli/framework/domain/repositories/IntegrityViolationException.html{eapli.framework.domain.repositories.IntegrityViolationException}]] {
{static} -long serialVersionUID
+IntegrityViolationException()
+IntegrityViolationException(String arg0)
+IntegrityViolationException(Throwable arg0)
+IntegrityViolationException(String arg0,Throwable arg1)
}


class "<b><size:14>RuntimeException</b>\n<size:10>java.lang" as java.lang.RuntimeException  #lightgrey {
}

hide java.lang.RuntimeException fields
hide java.lang.RuntimeException methods

eapli.framework.domain.repositories.IntegrityViolationException --|> java.lang.RuntimeException


@enduml
