<?xml version="1.0" encoding="UTF-8" standalone="no"?><svg xmlns="http://www.w3.org/2000/svg" xmlns:xlink="http://www.w3.org/1999/xlink" contentScriptType="application/ecmascript" contentStyleType="text/css" height="239px" preserveAspectRatio="none" style="width:1036px;height:239px;" version="1.1" viewBox="0 0 1036 239" width="1036px" zoomAndPan="magnify"><defs><filter height="300%" id="f1un7a4rdg286i" width="300%" x="-1" y="-1"><feGaussianBlur result="blurOut" stdDeviation="2.0"/><feColorMatrix in="blurOut" result="blurOut2" type="matrix" values="0 0 0 0 0 0 0 0 0 0 0 0 0 0 0 0 0 0 .4 0"/><feOffset dx="4.0" dy="4.0" in="blurOut2" result="blurOut3"/><feBlend in="SourceGraphic" in2="blurOut3" mode="normal"/></filter></defs><g><!--MD5=[a44dce31794dba165f7cb3b707384285]
cluster eapli.framework.domain.repositories--><a href="../../../../eapli/framework/domain/repositories/package-summary.html" target="_parent" title="eapli.framework.domain.repositories" xlink:actuate="onRequest" xlink:href="../../../../eapli/framework/domain/repositories/package-summary.html" xlink:show="new" xlink:title="eapli.framework.domain.repositories" xlink:type="simple"><polygon fill="#FFFFE0" filter="url(#f1un7a4rdg286i)" points="22,24,285,24,292,47.6094,1014,47.6094,1014,227,22,227,22,24" style="stroke: #000000; stroke-width: 1.5;"/><line style="stroke: #000000; stroke-width: 1.5;" x1="22" x2="292" y1="47.6094" y2="47.6094"/><text fill="#000000" font-family="sans-serif" font-size="14" font-weight="bold" lengthAdjust="spacingAndGlyphs" textLength="257" x="26" y="40.5332">eapli.framework.domain.repositories</text></a><!--MD5=[4801ef6edc79593814de7083e4df4789]
class eapli.framework.domain.repositories.BusinessIdentity--><a href="../../../../eapli/framework/domain/repositories/BusinessIdentity.html" target="_parent" title="eapli.framework.domain.repositories.BusinessIdentity" xlink:actuate="onRequest" xlink:href="../../../../eapli/framework/domain/repositories/BusinessIdentity.html" xlink:show="new" xlink:title="eapli.framework.domain.repositories.BusinessIdentity" xlink:type="simple"><rect fill="#FEFECE" filter="url(#f1un7a4rdg286i)" height="42.7031" id="eapli.framework.domain.repositories.BusinessIdentity" style="stroke: #A80036; stroke-width: 1.5;" width="149" x="395.5" y="60"/><ellipse cx="410.5" cy="81.3516" fill="#ADD1B2" rx="11" ry="11" style="stroke: #A80036; stroke-width: 1.0;"/><path d="M413.2656,77.2266 Q413.4219,77.0078 413.6094,76.8984 Q413.7969,76.7891 414.0156,76.7891 Q414.3906,76.7891 414.625,77.0469 Q414.8594,77.3047 414.8594,77.9141 L414.8594,79.3672 Q414.8594,79.9766 414.625,80.2422 Q414.3906,80.5078 414.0156,80.5078 Q413.6719,80.5078 413.4688,80.3047 Q413.2656,80.1172 413.1563,79.6016 Q413.1094,79.2422 412.9219,79.0547 Q412.5938,78.6797 411.9844,78.4609 Q411.375,78.2422 410.75,78.2422 Q409.9844,78.2422 409.3516,78.5703 Q408.7188,78.8984 408.2266,79.6484 Q407.7344,80.3984 407.7344,81.4297 L407.7344,82.5234 Q407.7344,83.7578 408.625,84.5781 Q409.5156,85.3984 411.1094,85.3984 Q412.0469,85.3984 412.7031,85.1484 Q413.0938,84.9922 413.5156,84.5547 Q413.7813,84.2891 413.9297,84.2109 Q414.0781,84.1328 414.2813,84.1328 Q414.6094,84.1328 414.8672,84.3906 Q415.125,84.6484 415.125,84.9922 Q415.125,85.3359 414.7813,85.7422 Q414.2813,86.3203 413.4844,86.6484 Q412.4063,87.1016 411.1094,87.1016 Q409.5938,87.1016 408.3906,86.4766 Q407.4063,85.9766 406.7188,84.9063 Q406.0313,83.8359 406.0313,82.5547 L406.0313,81.3984 Q406.0313,80.0703 406.6484,78.9219 Q407.2656,77.7734 408.3594,77.1563 Q409.4531,76.5391 410.6875,76.5391 Q411.4219,76.5391 412.0703,76.7031 Q412.7188,76.8672 413.2656,77.2266 Z "/><text fill="#000000" font-family="sans-serif" font-size="12" font-style="italic" lengthAdjust="spacingAndGlyphs" textLength="49" x="458.5" y="77.457">«Target»</text><text fill="#000000" font-family="sans-serif" font-size="14" font-weight="bold" lengthAdjust="spacingAndGlyphs" textLength="117" x="424.5" y="94.627">BusinessIdentity</text></a><!--MD5=[269595e0e88d2841349cbd54a227e83f]
class eapli.framework.domain.repositories.ConcurrencyException--><a href="../../../../eapli/framework/domain/repositories/ConcurrencyException.html" target="_parent" title="eapli.framework.domain.repositories.ConcurrencyException" xlink:actuate="onRequest" xlink:href="../../../../eapli/framework/domain/repositories/ConcurrencyException.html" xlink:show="new" xlink:title="eapli.framework.domain.repositories.ConcurrencyException" xlink:type="simple"><rect fill="#FEFECE" filter="url(#f1un7a4rdg286i)" height="32" id="eapli.framework.domain.repositories.ConcurrencyException" style="stroke: #A80036; stroke-width: 1.5;" width="192" x="580" y="65.5"/><ellipse cx="595" cy="81.5" fill="#ADD1B2" rx="11" ry="11" style="stroke: #A80036; stroke-width: 1.0;"/><path d="M597.7656,77.375 Q597.9219,77.1563 598.1094,77.0469 Q598.2969,76.9375 598.5156,76.9375 Q598.8906,76.9375 599.125,77.1953 Q599.3594,77.4531 599.3594,78.0625 L599.3594,79.5156 Q599.3594,80.125 599.125,80.3906 Q598.8906,80.6563 598.5156,80.6563 Q598.1719,80.6563 597.9688,80.4531 Q597.7656,80.2656 597.6563,79.75 Q597.6094,79.3906 597.4219,79.2031 Q597.0938,78.8281 596.4844,78.6094 Q595.875,78.3906 595.25,78.3906 Q594.4844,78.3906 593.8516,78.7188 Q593.2188,79.0469 592.7266,79.7969 Q592.2344,80.5469 592.2344,81.5781 L592.2344,82.6719 Q592.2344,83.9063 593.125,84.7266 Q594.0156,85.5469 595.6094,85.5469 Q596.5469,85.5469 597.2031,85.2969 Q597.5938,85.1406 598.0156,84.7031 Q598.2813,84.4375 598.4297,84.3594 Q598.5781,84.2813 598.7813,84.2813 Q599.1094,84.2813 599.3672,84.5391 Q599.625,84.7969 599.625,85.1406 Q599.625,85.4844 599.2813,85.8906 Q598.7813,86.4688 597.9844,86.7969 Q596.9063,87.25 595.6094,87.25 Q594.0938,87.25 592.8906,86.625 Q591.9063,86.125 591.2188,85.0547 Q590.5313,83.9844 590.5313,82.7031 L590.5313,81.5469 Q590.5313,80.2188 591.1484,79.0703 Q591.7656,77.9219 592.8594,77.3047 Q593.9531,76.6875 595.1875,76.6875 Q595.9219,76.6875 596.5703,76.8516 Q597.2188,77.0156 597.7656,77.375 Z "/><text fill="#000000" font-family="sans-serif" font-size="14" font-weight="bold" lengthAdjust="spacingAndGlyphs" textLength="160" x="609" y="87.2285">ConcurrencyException</text></a><!--MD5=[bd9c2ca7f638fe5bea686079b02825b2]
class eapli.framework.domain.repositories.DomainRepository--><a href="../../../../eapli/framework/domain/repositories/DomainRepository.html" target="_parent" title="eapli.framework.domain.repositories.DomainRepository" xlink:actuate="onRequest" xlink:href="../../../../eapli/framework/domain/repositories/DomainRepository.html" xlink:show="new" xlink:title="eapli.framework.domain.repositories.DomainRepository" xlink:type="simple"><rect fill="#FEFECE" filter="url(#f1un7a4rdg286i)" height="32" id="eapli.framework.domain.repositories.DomainRepository" style="stroke: #A80036; stroke-width: 1.5;" width="154" x="807" y="65.5"/><ellipse cx="822" cy="81.5" fill="#B4A7E5" rx="11" ry="11" style="stroke: #A80036; stroke-width: 1.0;"/><path d="M822.9531,78.1406 L822.9531,84.7969 L824.6719,84.7969 Q825.2813,84.7969 825.5469,85.0313 Q825.8125,85.2656 825.8125,85.6563 Q825.8125,86.0313 825.5469,86.2656 Q825.2813,86.5 824.6719,86.5 L819.5313,86.5 Q818.9219,86.5 818.6563,86.2656 Q818.3906,86.0313 818.3906,85.6406 Q818.3906,85.2656 818.6563,85.0313 Q818.9219,84.7969 819.5313,84.7969 L821.25,84.7969 L821.25,78.1406 L819.5313,78.1406 Q818.9219,78.1406 818.6563,77.9063 Q818.3906,77.6719 818.3906,77.2813 Q818.3906,76.9063 818.6563,76.6719 Q818.9219,76.4375 819.5313,76.4375 L824.6719,76.4375 Q825.2813,76.4375 825.5469,76.6719 Q825.8125,76.9063 825.8125,77.2813 Q825.8125,77.6719 825.5469,77.9063 Q825.2813,78.1406 824.6719,78.1406 L822.9531,78.1406 Z "/><text fill="#000000" font-family="sans-serif" font-size="14" font-style="italic" font-weight="bold" lengthAdjust="spacingAndGlyphs" textLength="122" x="836" y="87.2285">DomainRepository</text></a><!--MD5=[ae44496ed72abd7f0bd135d56959a35f]
class eapli.framework.domain.repositories.IntegrityViolationException--><a href="../../../../eapli/framework/domain/repositories/IntegrityViolationException.html" target="_parent" title="eapli.framework.domain.repositories.IntegrityViolationException" xlink:actuate="onRequest" xlink:href="../../../../eapli/framework/domain/repositories/IntegrityViolationException.html" xlink:show="new" xlink:title="eapli.framework.domain.repositories.IntegrityViolationException" xlink:type="simple"><rect fill="#FEFECE" filter="url(#f1un7a4rdg286i)" height="32" id="eapli.framework.domain.repositories.IntegrityViolationException" style="stroke: #A80036; stroke-width: 1.5;" width="221" x="359.5" y="171"/><ellipse cx="374.5" cy="187" fill="#ADD1B2" rx="11" ry="11" style="stroke: #A80036; stroke-width: 1.0;"/><path d="M377.2656,182.875 Q377.4219,182.6563 377.6094,182.5469 Q377.7969,182.4375 378.0156,182.4375 Q378.3906,182.4375 378.625,182.6953 Q378.8594,182.9531 378.8594,183.5625 L378.8594,185.0156 Q378.8594,185.625 378.625,185.8906 Q378.3906,186.1563 378.0156,186.1563 Q377.6719,186.1563 377.4688,185.9531 Q377.2656,185.7656 377.1563,185.25 Q377.1094,184.8906 376.9219,184.7031 Q376.5938,184.3281 375.9844,184.1094 Q375.375,183.8906 374.75,183.8906 Q373.9844,183.8906 373.3516,184.2188 Q372.7188,184.5469 372.2266,185.2969 Q371.7344,186.0469 371.7344,187.0781 L371.7344,188.1719 Q371.7344,189.4063 372.625,190.2266 Q373.5156,191.0469 375.1094,191.0469 Q376.0469,191.0469 376.7031,190.7969 Q377.0938,190.6406 377.5156,190.2031 Q377.7813,189.9375 377.9297,189.8594 Q378.0781,189.7813 378.2813,189.7813 Q378.6094,189.7813 378.8672,190.0391 Q379.125,190.2969 379.125,190.6406 Q379.125,190.9844 378.7813,191.3906 Q378.2813,191.9688 377.4844,192.2969 Q376.4063,192.75 375.1094,192.75 Q373.5938,192.75 372.3906,192.125 Q371.4063,191.625 370.7188,190.5547 Q370.0313,189.4844 370.0313,188.2031 L370.0313,187.0469 Q370.0313,185.7188 370.6484,184.5703 Q371.2656,183.4219 372.3594,182.8047 Q373.4531,182.1875 374.6875,182.1875 Q375.4219,182.1875 376.0703,182.3516 Q376.7188,182.5156 377.2656,182.875 Z "/><text fill="#000000" font-family="sans-serif" font-size="14" font-weight="bold" lengthAdjust="spacingAndGlyphs" textLength="189" x="388.5" y="192.7285">IntegrityViolationException</text></a><!--MD5=[f8f2db03471c5e5d17cf172382c4798a]
class eapli.framework.domain.repositories.IterableDomainRepository--><a href="../../../../eapli/framework/domain/repositories/IterableDomainRepository.html" target="_parent" title="eapli.framework.domain.repositories.IterableDomainRepository" xlink:actuate="onRequest" xlink:href="../../../../eapli/framework/domain/repositories/IterableDomainRepository.html" xlink:show="new" xlink:title="eapli.framework.domain.repositories.IterableDomainRepository" xlink:type="simple"><rect fill="#FEFECE" filter="url(#f1un7a4rdg286i)" height="32" id="eapli.framework.domain.repositories.IterableDomainRepository" style="stroke: #A80036; stroke-width: 1.5;" width="205" x="78.5" y="65.5"/><ellipse cx="93.5" cy="81.5" fill="#B4A7E5" rx="11" ry="11" style="stroke: #A80036; stroke-width: 1.0;"/><path d="M94.4531,78.1406 L94.4531,84.7969 L96.1719,84.7969 Q96.7813,84.7969 97.0469,85.0313 Q97.3125,85.2656 97.3125,85.6563 Q97.3125,86.0313 97.0469,86.2656 Q96.7813,86.5 96.1719,86.5 L91.0313,86.5 Q90.4219,86.5 90.1563,86.2656 Q89.8906,86.0313 89.8906,85.6406 Q89.8906,85.2656 90.1563,85.0313 Q90.4219,84.7969 91.0313,84.7969 L92.75,84.7969 L92.75,78.1406 L91.0313,78.1406 Q90.4219,78.1406 90.1563,77.9063 Q89.8906,77.6719 89.8906,77.2813 Q89.8906,76.9063 90.1563,76.6719 Q90.4219,76.4375 91.0313,76.4375 L96.1719,76.4375 Q96.7813,76.4375 97.0469,76.6719 Q97.3125,76.9063 97.3125,77.2813 Q97.3125,77.6719 97.0469,77.9063 Q96.7813,78.1406 96.1719,78.1406 L94.4531,78.1406 Z "/><text fill="#000000" font-family="sans-serif" font-size="14" font-style="italic" font-weight="bold" lengthAdjust="spacingAndGlyphs" textLength="173" x="107.5" y="87.2285">IterableDomainRepository</text></a><!--MD5=[902a93df49fd1bca2dc1f1ba80d2d1b0]
class eapli.framework.domain.repositories.ReportingRepository--><a href="../../../../eapli/framework/domain/repositories/ReportingRepository.html" target="_parent" title="eapli.framework.domain.repositories.ReportingRepository" xlink:actuate="onRequest" xlink:href="../../../../eapli/framework/domain/repositories/ReportingRepository.html" xlink:show="new" xlink:title="eapli.framework.domain.repositories.ReportingRepository" xlink:type="simple"><rect fill="#FEFECE" filter="url(#f1un7a4rdg286i)" height="32" id="eapli.framework.domain.repositories.ReportingRepository" style="stroke: #A80036; stroke-width: 1.5;" width="169" x="615.5" y="171"/><ellipse cx="630.5" cy="187" fill="#B4A7E5" rx="11" ry="11" style="stroke: #A80036; stroke-width: 1.0;"/><path d="M631.4531,183.6406 L631.4531,190.2969 L633.1719,190.2969 Q633.7813,190.2969 634.0469,190.5313 Q634.3125,190.7656 634.3125,191.1563 Q634.3125,191.5313 634.0469,191.7656 Q633.7813,192 633.1719,192 L628.0313,192 Q627.4219,192 627.1563,191.7656 Q626.8906,191.5313 626.8906,191.1406 Q626.8906,190.7656 627.1563,190.5313 Q627.4219,190.2969 628.0313,190.2969 L629.75,190.2969 L629.75,183.6406 L628.0313,183.6406 Q627.4219,183.6406 627.1563,183.4063 Q626.8906,183.1719 626.8906,182.7813 Q626.8906,182.4063 627.1563,182.1719 Q627.4219,181.9375 628.0313,181.9375 L633.1719,181.9375 Q633.7813,181.9375 634.0469,182.1719 Q634.3125,182.4063 634.3125,182.7813 Q634.3125,183.1719 634.0469,183.4063 Q633.7813,183.6406 633.1719,183.6406 L631.4531,183.6406 Z "/><text fill="#000000" font-family="sans-serif" font-size="14" font-style="italic" font-weight="bold" lengthAdjust="spacingAndGlyphs" textLength="137" x="644.5" y="192.7285">ReportingRepository</text></a><!--MD5=[d4c3418e4b9f7728a57dfa43ed99deb9]
class eapli.framework.domain.repositories.TransactionalContext--><a href="../../../../eapli/framework/domain/repositories/TransactionalContext.html" target="_parent" title="eapli.framework.domain.repositories.TransactionalContext" xlink:actuate="onRequest" xlink:href="../../../../eapli/framework/domain/repositories/TransactionalContext.html" xlink:show="new" xlink:title="eapli.framework.domain.repositories.TransactionalContext" xlink:type="simple"><rect fill="#FEFECE" filter="url(#f1un7a4rdg286i)" height="32" id="eapli.framework.domain.repositories.TransactionalContext" style="stroke: #A80036; stroke-width: 1.5;" width="178" x="820" y="171"/><ellipse cx="835" cy="187" fill="#B4A7E5" rx="11" ry="11" style="stroke: #A80036; stroke-width: 1.0;"/><path d="M835.9531,183.6406 L835.9531,190.2969 L837.6719,190.2969 Q838.2813,190.2969 838.5469,190.5313 Q838.8125,190.7656 838.8125,191.1563 Q838.8125,191.5313 838.5469,191.7656 Q838.2813,192 837.6719,192 L832.5313,192 Q831.9219,192 831.6563,191.7656 Q831.3906,191.5313 831.3906,191.1406 Q831.3906,190.7656 831.6563,190.5313 Q831.9219,190.2969 832.5313,190.2969 L834.25,190.2969 L834.25,183.6406 L832.5313,183.6406 Q831.9219,183.6406 831.6563,183.4063 Q831.3906,183.1719 831.3906,182.7813 Q831.3906,182.4063 831.6563,182.1719 Q831.9219,181.9375 832.5313,181.9375 L837.6719,181.9375 Q838.2813,181.9375 838.5469,182.1719 Q838.8125,182.4063 838.8125,182.7813 Q838.8125,183.1719 838.5469,183.4063 Q838.2813,183.6406 837.6719,183.6406 L835.9531,183.6406 Z "/><text fill="#000000" font-family="sans-serif" font-size="14" font-style="italic" font-weight="bold" lengthAdjust="spacingAndGlyphs" textLength="146" x="849" y="192.7285">TransactionalContext</text></a><!--MD5=[3e7c93b7605552ec92eb0411772992a0]
class eapli.framework.domain.repositories.DomainRepositoryComparableAggregateRoot--><rect fill="#FEFECE" filter="url(#f1un7a4rdg286i)" height="48" id="eapli.framework.domain.repositories.DomainRepositoryComparableAggregateRoot" style="stroke: #A80036; stroke-width: 1.5;" width="286" x="38" y="163"/><ellipse cx="53" cy="179" fill="#ADD1B2" rx="11" ry="11" style="stroke: #A80036; stroke-width: 1.0;"/><path d="M55.7656,174.875 Q55.9219,174.6563 56.1094,174.5469 Q56.2969,174.4375 56.5156,174.4375 Q56.8906,174.4375 57.125,174.6953 Q57.3594,174.9531 57.3594,175.5625 L57.3594,177.0156 Q57.3594,177.625 57.125,177.8906 Q56.8906,178.1563 56.5156,178.1563 Q56.1719,178.1563 55.9688,177.9531 Q55.7656,177.7656 55.6563,177.25 Q55.6094,176.8906 55.4219,176.7031 Q55.0938,176.3281 54.4844,176.1094 Q53.875,175.8906 53.25,175.8906 Q52.4844,175.8906 51.8516,176.2188 Q51.2188,176.5469 50.7266,177.2969 Q50.2344,178.0469 50.2344,179.0781 L50.2344,180.1719 Q50.2344,181.4063 51.125,182.2266 Q52.0156,183.0469 53.6094,183.0469 Q54.5469,183.0469 55.2031,182.7969 Q55.5938,182.6406 56.0156,182.2031 Q56.2813,181.9375 56.4297,181.8594 Q56.5781,181.7813 56.7813,181.7813 Q57.1094,181.7813 57.3672,182.0391 Q57.625,182.2969 57.625,182.6406 Q57.625,182.9844 57.2813,183.3906 Q56.7813,183.9688 55.9844,184.2969 Q54.9063,184.75 53.6094,184.75 Q52.0938,184.75 50.8906,184.125 Q49.9063,183.625 49.2188,182.5547 Q48.5313,181.4844 48.5313,180.2031 L48.5313,179.0469 Q48.5313,177.7188 49.1484,176.5703 Q49.7656,175.4219 50.8594,174.8047 Q51.9531,174.1875 53.1875,174.1875 Q53.9219,174.1875 54.5703,174.3516 Q55.2188,174.5156 55.7656,174.875 Z "/><text fill="#000000" font-family="sans-serif" font-size="12" lengthAdjust="spacingAndGlyphs" textLength="254" x="67" y="183.9102">DomainRepositoryComparableAggregateRoot</text><line style="stroke: #A80036; stroke-width: 1.5;" x1="39" x2="323" y1="195" y2="195"/><line style="stroke: #A80036; stroke-width: 1.5;" x1="39" x2="323" y1="203" y2="203"/><!--MD5=[d1f0643b63ebb54bc10f4e1c60271455]
link eapli.framework.domain.repositories.IterableDomainRepository to eapli.framework.domain.repositories.DomainRepositoryComparableAggregateRoot--><path d="M181,97.523 C181,97.523 181,142.976 181,142.976 " fill="none" id="eapli.framework.domain.repositories.IterableDomainRepository-&gt;eapli.framework.domain.repositories.DomainRepositoryComparableAggregateRoot" style="stroke: #A80036; stroke-width: 1.0;"/><polygon fill="none" points="188,142.976,181,162.9759,174,142.976,188,142.976" style="stroke: #A80036; stroke-width: 1.0;"/><!--MD5=[b7daf054fd69a3b8fd55762f44e35b32]
link eapli.framework.domain.repositories.BusinessIdentity to eapli.framework.domain.repositories.ConcurrencyException--><!--MD5=[237d40d8ecd0e53d0609f01ac65f11af]
link eapli.framework.domain.repositories.ConcurrencyException to eapli.framework.domain.repositories.DomainRepository--><!--MD5=[9b6fa45c3dbf5336132916e30aacb5a2]
link eapli.framework.domain.repositories.BusinessIdentity to eapli.framework.domain.repositories.IntegrityViolationException--><!--MD5=[2f38e79fadbfb3cf2b978a27bbe4310d]
link eapli.framework.domain.repositories.IntegrityViolationException to eapli.framework.domain.repositories.ReportingRepository--><!--MD5=[0c93aadfe5b5133136475e1f185f9d70]
link eapli.framework.domain.repositories.ReportingRepository to eapli.framework.domain.repositories.TransactionalContext--><!--MD5=[2e722438bef3127b99d6622016724b22]
@startuml

skinparam svgLinkTarget _parent
skinparam linetype ortho
package eapli.framework.domain.repositories [[../../../../eapli/framework/domain/repositories/package-summary.html{eapli.framework.domain.repositories}]] #lightyellow {
}

class "<b><size:14>BusinessIdentity</b>" as eapli.framework.domain.repositories.BusinessIdentity <<Target>> [[../../../../eapli/framework/domain/repositories/BusinessIdentity.html{eapli.framework.domain.repositories.BusinessIdentity}]] {
}

hide eapli.framework.domain.repositories.BusinessIdentity fields
hide eapli.framework.domain.repositories.BusinessIdentity methods

class "<b><size:14>ConcurrencyException</b>" as eapli.framework.domain.repositories.ConcurrencyException  [[../../../../eapli/framework/domain/repositories/ConcurrencyException.html{eapli.framework.domain.repositories.ConcurrencyException}]] {
}

hide eapli.framework.domain.repositories.ConcurrencyException fields
hide eapli.framework.domain.repositories.ConcurrencyException methods

interface "<b><size:14>DomainRepository</b>" as eapli.framework.domain.repositories.DomainRepository  [[../../../../eapli/framework/domain/repositories/DomainRepository.html{eapli.framework.domain.repositories.DomainRepository}]] {
}

hide eapli.framework.domain.repositories.DomainRepository fields
hide eapli.framework.domain.repositories.DomainRepository methods

class "<b><size:14>IntegrityViolationException</b>" as eapli.framework.domain.repositories.IntegrityViolationException  [[../../../../eapli/framework/domain/repositories/IntegrityViolationException.html{eapli.framework.domain.repositories.IntegrityViolationException}]] {
}

hide eapli.framework.domain.repositories.IntegrityViolationException fields
hide eapli.framework.domain.repositories.IntegrityViolationException methods

interface "<b><size:14>IterableDomainRepository</b>" as eapli.framework.domain.repositories.IterableDomainRepository  [[../../../../eapli/framework/domain/repositories/IterableDomainRepository.html{eapli.framework.domain.repositories.IterableDomainRepository}]] {
}

hide eapli.framework.domain.repositories.IterableDomainRepository fields
hide eapli.framework.domain.repositories.IterableDomainRepository methods

interface "<b><size:14>ReportingRepository</b>" as eapli.framework.domain.repositories.ReportingRepository  [[../../../../eapli/framework/domain/repositories/ReportingRepository.html{eapli.framework.domain.repositories.ReportingRepository}]] {
}

hide eapli.framework.domain.repositories.ReportingRepository fields
hide eapli.framework.domain.repositories.ReportingRepository methods

interface "<b><size:14>TransactionalContext</b>" as eapli.framework.domain.repositories.TransactionalContext  [[../../../../eapli/framework/domain/repositories/TransactionalContext.html{eapli.framework.domain.repositories.TransactionalContext}]] {
}

hide eapli.framework.domain.repositories.TransactionalContext fields
hide eapli.framework.domain.repositories.TransactionalContext methods

eapli.framework.domain.repositories.IterableDomainRepository - -|> eapli.framework.domain.repositories.DomainRepositoryComparableAggregateRoot

@enduml

PlantUML version 1.2020.04(Thu Mar 19 10:16:49 GMT 2020)
(GPL source distribution)
Java Runtime: Java(TM) SE Runtime Environment
JVM: Java HotSpot(TM) 64-Bit Server VM
Java Version: 1.8.0_202-b08
Operating System: Windows 10
Default Encoding: Cp1252
Language: en
Country: US
--></g></svg>