@startuml

skinparam svgLinkTarget _parent
skinparam linetype ortho
set namespaceSeparator none
class "<b><size:14>InMemoryAutoNumberRepository</b>\n<size:10>eapli.framework.infrastructure.repositories.impl.inmemory" as eapli.framework.infrastructure.repositories.impl.inmemory.InMemoryAutoNumberRepository  [[../../../../../../eapli/framework/infrastructure/repositories/impl/inmemory/InMemoryAutoNumberRepository.html{eapli.framework.infrastructure.repositories.impl.inmemory.InMemoryAutoNumberRepository}]] {
{static} -NumberSequenceGenerator gen
+InMemoryAutoNumberRepository()
}


class "<b><size:14>NumberSequenceGenerator</b>\n<size:10>eapli.framework.domain.model.identities.impl" as eapli.framework.domain.model.identities.impl.NumberSequenceGenerator  [[../../../../../../eapli/framework/domain/model/identities/impl/NumberSequenceGenerator.html{eapli.framework.domain.model.identities.impl.NumberSequenceGenerator}]] #white {
}

hide eapli.framework.domain.model.identities.impl.NumberSequenceGenerator fields
hide eapli.framework.domain.model.identities.impl.NumberSequenceGenerator methods

eapli.framework.infrastructure.repositories.impl.inmemory.InMemoryAutoNumberRepository -->  "gen" eapli.framework.domain.model.identities.impl.NumberSequenceGenerator

class "<b><size:14>InMemoryRepository<T, Long></b>\n<size:10>eapli.framework.infrastructure.repositories.impl.inmemory" as eapli.framework.infrastructure.repositories.impl.inmemory.InMemoryRepositoryObjectLong  [[../../../../../../eapli/framework/infrastructure/repositories/impl/inmemory/InMemoryRepository.html{eapli.framework.infrastructure.repositories.impl.inmemory.InMemoryRepository}]] {
}

hide eapli.framework.infrastructure.repositories.impl.inmemory.InMemoryRepositoryObjectLong fields
hide eapli.framework.infrastructure.repositories.impl.inmemory.InMemoryRepositoryObjectLong methods

eapli.framework.infrastructure.repositories.impl.inmemory.InMemoryAutoNumberRepository --|> eapli.framework.infrastructure.repositories.impl.inmemory.InMemoryRepositoryObjectLong

class "<b><size:14>Object</b>\n<size:10>java.lang" as java.lang.Object  #lightgrey {
}

hide java.lang.Object fields
hide java.lang.Object methods

eapli.framework.infrastructure.repositories.impl.inmemory.InMemoryAutoNumberRepository ..> java.lang.Object


@enduml
