@startuml

skinparam svgLinkTarget _parent
skinparam linetype ortho
set namespaceSeparator none
class "<b><size:14>InMemoryDomainAutoNumberRepository</b>\n<size:10>eapli.framework.infrastructure.repositories.impl.inmemory" as eapli.framework.infrastructure.repositories.impl.inmemory.InMemoryDomainAutoNumberRepository  [[../../../../../../eapli/framework/infrastructure/repositories/impl/inmemory/InMemoryDomainAutoNumberRepository.html{eapli.framework.infrastructure.repositories.impl.inmemory.InMemoryDomainAutoNumberRepository}]] {
{static} -NumberSequenceGenerator gen
+InMemoryDomainAutoNumberRepository()
}


class "<b><size:14>NumberSequenceGenerator</b>\n<size:10>eapli.framework.domain.model.identities.impl" as eapli.framework.domain.model.identities.impl.NumberSequenceGenerator  [[../../../../../../eapli/framework/domain/model/identities/impl/NumberSequenceGenerator.html{eapli.framework.domain.model.identities.impl.NumberSequenceGenerator}]] #white {
}

hide eapli.framework.domain.model.identities.impl.NumberSequenceGenerator fields
hide eapli.framework.domain.model.identities.impl.NumberSequenceGenerator methods

eapli.framework.infrastructure.repositories.impl.inmemory.InMemoryDomainAutoNumberRepository -->  "gen" eapli.framework.domain.model.identities.impl.NumberSequenceGenerator

class "<b><size:14>InMemoryDomainRepository<Long, T></b>\n<size:10>eapli.framework.infrastructure.repositories.impl.inmemory" as eapli.framework.infrastructure.repositories.impl.inmemory.InMemoryDomainRepositoryLongAggregateRoot  [[../../../../../../eapli/framework/infrastructure/repositories/impl/inmemory/InMemoryDomainRepository.html{eapli.framework.infrastructure.repositories.impl.inmemory.InMemoryDomainRepository}]] {
}

hide eapli.framework.infrastructure.repositories.impl.inmemory.InMemoryDomainRepositoryLongAggregateRoot fields
hide eapli.framework.infrastructure.repositories.impl.inmemory.InMemoryDomainRepositoryLongAggregateRoot methods

eapli.framework.infrastructure.repositories.impl.inmemory.InMemoryDomainAutoNumberRepository --|> eapli.framework.infrastructure.repositories.impl.inmemory.InMemoryDomainRepositoryLongAggregateRoot

interface "<b><size:14>AggregateRoot</b>\n<size:10>eapli.framework.domain.model" as eapli.framework.domain.model.AggregateRoot  [[../../../../../../eapli/framework/domain/model/AggregateRoot.html{eapli.framework.domain.model.AggregateRoot}]] #white {
}

hide eapli.framework.domain.model.AggregateRoot fields
hide eapli.framework.domain.model.AggregateRoot methods

eapli.framework.infrastructure.repositories.impl.inmemory.InMemoryDomainAutoNumberRepository ..> eapli.framework.domain.model.AggregateRoot


@enduml
