<?xml version="1.0" encoding="UTF-8" standalone="no"?><svg xmlns="http://www.w3.org/2000/svg" xmlns:xlink="http://www.w3.org/1999/xlink" contentScriptType="application/ecmascript" contentStyleType="text/css" height="261px" preserveAspectRatio="none" style="width:340px;height:261px;" version="1.1" viewBox="0 0 340 261" width="340px" zoomAndPan="magnify"><defs><filter height="300%" id="fkryr1odd95d" width="300%" x="-1" y="-1"><feGaussianBlur result="blurOut" stdDeviation="2.0"/><feColorMatrix in="blurOut" result="blurOut2" type="matrix" values="0 0 0 0 0 0 0 0 0 0 0 0 0 0 0 0 0 0 .4 0"/><feOffset dx="4.0" dy="4.0" in="blurOut2" result="blurOut3"/><feBlend in="SourceGraphic" in2="blurOut3" mode="normal"/></filter></defs><g><!--MD5=[fb4513a6c95bc01571496da6775222cb]
class eapli.framework.domain.model.general.Money.MoneyCollector--><a href="../../../../../eapli/framework/domain/model/general/Money.MoneyCollector.html" target="_parent" title="eapli.framework.domain.model.general.Money.MoneyCollector" xlink:actuate="onRequest" xlink:href="../../../../../eapli/framework/domain/model/general/Money.MoneyCollector.html" xlink:show="new" xlink:title="eapli.framework.domain.model.general.Money.MoneyCollector" xlink:type="simple"><rect fill="#FEFECE" filter="url(#fkryr1odd95d)" height="111.5313" id="eapli.framework.domain.model.general.Money.MoneyCollector" style="stroke: #A80036; stroke-width: 1.5;" width="323" x="6" y="8"/><ellipse cx="70.75" cy="28.0938" fill="#ADD1B2" rx="11" ry="11" style="stroke: #A80036; stroke-width: 1.0;"/><path d="M73.5156,23.9688 Q73.6719,23.75 73.8594,23.6406 Q74.0469,23.5313 74.2656,23.5313 Q74.6406,23.5313 74.875,23.7891 Q75.1094,24.0469 75.1094,24.6563 L75.1094,26.1094 Q75.1094,26.7188 74.875,26.9844 Q74.6406,27.25 74.2656,27.25 Q73.9219,27.25 73.7188,27.0469 Q73.5156,26.8594 73.4063,26.3438 Q73.3594,25.9844 73.1719,25.7969 Q72.8438,25.4219 72.2344,25.2031 Q71.625,24.9844 71,24.9844 Q70.2344,24.9844 69.6016,25.3125 Q68.9688,25.6406 68.4766,26.3906 Q67.9844,27.1406 67.9844,28.1719 L67.9844,29.2656 Q67.9844,30.5 68.875,31.3203 Q69.7656,32.1406 71.3594,32.1406 Q72.2969,32.1406 72.9531,31.8906 Q73.3438,31.7344 73.7656,31.2969 Q74.0313,31.0313 74.1797,30.9531 Q74.3281,30.875 74.5313,30.875 Q74.8594,30.875 75.1172,31.1328 Q75.375,31.3906 75.375,31.7344 Q75.375,32.0781 75.0313,32.4844 Q74.5313,33.0625 73.7344,33.3906 Q72.6563,33.8438 71.3594,33.8438 Q69.8438,33.8438 68.6406,33.2188 Q67.6563,32.7188 66.9688,31.6484 Q66.2813,30.5781 66.2813,29.2969 L66.2813,28.1406 Q66.2813,26.8125 66.8984,25.6641 Q67.5156,24.5156 68.6094,23.8984 Q69.7031,23.2813 70.9375,23.2813 Q71.6719,23.2813 72.3203,23.4453 Q72.9688,23.6094 73.5156,23.9688 Z "/><text fill="#000000" font-family="sans-serif" font-size="14" font-weight="bold" lengthAdjust="spacingAndGlyphs" textLength="162" x="102.75" y="27.5332">Money.MoneyCollector</text><text fill="#000000" font-family="sans-serif" font-size="10" lengthAdjust="spacingAndGlyphs" textLength="185" x="91.25" y="40.9902">eapli.framework.domain.model.general</text><line style="stroke: #A80036; stroke-width: 1.5;" x1="7" x2="328" y1="48.1875" y2="48.1875"/><rect fill="none" height="6" style="stroke: #C82930; stroke-width: 1.0;" width="6" x="14" y="56.1875"/><text fill="#000000" font-family="sans-serif" font-size="11" lengthAdjust="spacingAndGlyphs" textLength="70" x="26" y="63.6064">Money current</text><line style="stroke: #A80036; stroke-width: 1.5;" x1="7" x2="328" y1="70.0234" y2="70.0234"/><ellipse cx="17" cy="81.0234" fill="#84BE84" rx="3" ry="3" style="stroke: #038048; stroke-width: 1.0;"/><text fill="#000000" font-family="sans-serif" font-size="11" lengthAdjust="spacingAndGlyphs" textLength="139" x="26" y="85.4424">MoneyCollector(Money zero)</text><ellipse cx="17" cy="94.8594" fill="#84BE84" rx="3" ry="3" style="stroke: #038048; stroke-width: 1.0;"/><text fill="#000000" font-family="sans-serif" font-size="11" lengthAdjust="spacingAndGlyphs" textLength="90" x="26" y="99.2783">void add(Money b)</text><ellipse cx="17" cy="108.6953" fill="#84BE84" rx="3" ry="3" style="stroke: #038048; stroke-width: 1.0;"/><text fill="#000000" font-family="sans-serif" font-size="11" lengthAdjust="spacingAndGlyphs" textLength="297" x="26" y="113.1143">Money.MoneyCollector combine(Money.MoneyCollector other)</text></a><!--MD5=[360b8bdbefecae8456c12fb75513bdba]
class eapli.framework.domain.model.general.Money--><a href="../../../../../eapli/framework/domain/model/general/Money.html" target="_parent" title="eapli.framework.domain.model.general.Money" xlink:actuate="onRequest" xlink:href="../../../../../eapli/framework/domain/model/general/Money.html" xlink:show="new" xlink:title="eapli.framework.domain.model.general.Money" xlink:type="simple"><rect fill="#FEFECE" filter="url(#fkryr1odd95d)" height="70.375" id="eapli.framework.domain.model.general.Money" style="stroke: #A80036; stroke-width: 1.5;" width="217" x="59" y="180"/><ellipse cx="74" cy="215.1875" fill="#ADD1B2" rx="11" ry="11" style="stroke: #A80036; stroke-width: 1.0;"/><path d="M76.7656,211.0625 Q76.9219,210.8438 77.1094,210.7344 Q77.2969,210.625 77.5156,210.625 Q77.8906,210.625 78.125,210.8828 Q78.3594,211.1406 78.3594,211.75 L78.3594,213.2031 Q78.3594,213.8125 78.125,214.0781 Q77.8906,214.3438 77.5156,214.3438 Q77.1719,214.3438 76.9688,214.1406 Q76.7656,213.9531 76.6563,213.4375 Q76.6094,213.0781 76.4219,212.8906 Q76.0938,212.5156 75.4844,212.2969 Q74.875,212.0781 74.25,212.0781 Q73.4844,212.0781 72.8516,212.4063 Q72.2188,212.7344 71.7266,213.4844 Q71.2344,214.2344 71.2344,215.2656 L71.2344,216.3594 Q71.2344,217.5938 72.125,218.4141 Q73.0156,219.2344 74.6094,219.2344 Q75.5469,219.2344 76.2031,218.9844 Q76.5938,218.8281 77.0156,218.3906 Q77.2813,218.125 77.4297,218.0469 Q77.5781,217.9688 77.7813,217.9688 Q78.1094,217.9688 78.3672,218.2266 Q78.625,218.4844 78.625,218.8281 Q78.625,219.1719 78.2813,219.5781 Q77.7813,220.1563 76.9844,220.4844 Q75.9063,220.9375 74.6094,220.9375 Q73.0938,220.9375 71.8906,220.3125 Q70.9063,219.8125 70.2188,218.7422 Q69.5313,217.6719 69.5313,216.3906 L69.5313,215.2344 Q69.5313,213.9063 70.1484,212.7578 Q70.7656,211.6094 71.8594,210.9922 Q72.9531,210.375 74.1875,210.375 Q74.9219,210.375 75.5703,210.5391 Q76.2188,210.7031 76.7656,211.0625 Z "/><text fill="#000000" font-family="sans-serif" font-size="12" font-style="italic" lengthAdjust="spacingAndGlyphs" textLength="87" x="137" y="197.457">«Embeddable»</text><text fill="#000000" font-family="sans-serif" font-size="12" font-style="italic" lengthAdjust="spacingAndGlyphs" textLength="100" x="130.5" y="212.5508">«JsonAutoDetect»</text><text fill="#000000" font-family="sans-serif" font-size="14" font-weight="bold" lengthAdjust="spacingAndGlyphs" textLength="47" x="157" y="229.7207">Money</text><text fill="#000000" font-family="sans-serif" font-size="10" lengthAdjust="spacingAndGlyphs" textLength="185" x="88" y="243.1777">eapli.framework.domain.model.general</text></a><!--MD5=[ad9f20a787bbfba4214894e3be7ce9a3]
link eapli.framework.domain.model.general.Money to eapli.framework.domain.model.general.Money.MoneyCollector--><path d="M131.333,179.978 C131.333,179.978 131.333,125.12 131.333,125.12 " fill="none" id="eapli.framework.domain.model.general.Money-&gt;eapli.framework.domain.model.general.Money.MoneyCollector" style="stroke: #A80036; stroke-width: 1.0; stroke-dasharray: 7.0,7.0;"/><polygon fill="#A80036" points="131.333,120.12,127.333,129.12,131.333,125.12,135.333,129.12,131.333,120.12" style="stroke: #A80036; stroke-width: 1.0;"/><!--MD5=[72692f98c5a611141ef054c48253c619]
link eapli.framework.domain.model.general.Money.MoneyCollector to eapli.framework.domain.model.general.Money--><path d="M203.667,120.227 C203.667,120.227 203.667,174.7699 203.667,174.7699 " fill="none" id="eapli.framework.domain.model.general.Money.MoneyCollector-&gt;eapli.framework.domain.model.general.Money" style="stroke: #A80036; stroke-width: 1.0;"/><polygon fill="#A80036" points="203.667,179.7699,207.667,170.7699,203.667,174.7699,199.667,170.7699,203.667,179.7699" style="stroke: #A80036; stroke-width: 1.0;"/><text fill="#000000" font-family="sans-serif" font-size="13" lengthAdjust="spacingAndGlyphs" textLength="40" x="166.7488" y="169.022">current</text><!--MD5=[93e80c25fcd0855de750e77e3f13ca99]
@startuml

skinparam svgLinkTarget _parent
skinparam linetype ortho
set namespaceSeparator none
class "<b><size:14>Money.MoneyCollector</b>\n<size:10>eapli.framework.domain.model.general" as eapli.framework.domain.model.general.Money.MoneyCollector  [[../../../../../eapli/framework/domain/model/general/Money.MoneyCollector.html{eapli.framework.domain.model.general.Money.MoneyCollector}]] {
-Money current
+MoneyCollector(Money zero)
+void add(Money b)
+Money.MoneyCollector combine(Money.MoneyCollector other)
}


class "<b><size:14>Money</b>\n<size:10>eapli.framework.domain.model.general" as eapli.framework.domain.model.general.Money <<Embeddable>><<JsonAutoDetect>> [[../../../../../eapli/framework/domain/model/general/Money.html{eapli.framework.domain.model.general.Money}]] {
}

hide eapli.framework.domain.model.general.Money fields
hide eapli.framework.domain.model.general.Money methods

eapli.framework.domain.model.general.Money ..> eapli.framework.domain.model.general.Money.MoneyCollector

eapli.framework.domain.model.general.Money.MoneyCollector - ->  "current" eapli.framework.domain.model.general.Money


@enduml

PlantUML version 1.2020.04(Thu Mar 19 10:16:49 GMT 2020)
(GPL source distribution)
Java Runtime: Java(TM) SE Runtime Environment
JVM: Java HotSpot(TM) 64-Bit Server VM
Java Version: 1.8.0_202-b08
Operating System: Windows 10
Default Encoding: Cp1252
Language: en
Country: US
--></g></svg>