@startuml

skinparam svgLinkTarget _parent
skinparam linetype ortho
set namespaceSeparator none
class "<b><size:14>Money</b>\n<size:10>eapli.framework.domain.model.general" as eapli.framework.domain.model.general.Money <<Embeddable>><<JsonAutoDetect>> [[../../../../../eapli/framework/domain/model/general/Money.html{eapli.framework.domain.model.general.Money}]] {
{static} -long serialVersionUID
{static} -int HUNDRED
-BigInteger amount
-Currency currency
+Money(double amount,Currency currency)
+Money(long amount,Currency currency)
+Money(BigInteger amount,String currency)
#Money()
-Money(BigInteger amountInCents,Currency currency)
{static} +Money dollars(double amount)
{static} +Money euros(double amount)
{static} +Money valueOf(String value)
{static} +Collector<Money, MoneyCollector, Money> collector(Money zero)
+double amount()
+BigDecimal amountAsDecimal()
+Currency currency()
+Money add(Money arg)
+Money subtract(Money arg)
+Money negate()
+Money multiply(double arg)
+Money divide(int denominator)
+int compareTo(Money arg)
+boolean isGreaterThan(Money arg)
+boolean isLessThan(Money arg)
+boolean isGreaterThanOrEqual(Money arg)
+boolean isLessThanOrEqual(Money arg)
+boolean equals(Object arg)
+int hashCode()
+int signum()
+boolean isNegative()
+boolean isPositive()
+boolean isZero()
+String toString()
+String formatted()
}


class "<b><size:14>BigInteger</b>\n<size:10>java.math" as java.math.BigInteger  #lightgrey {
}

hide java.math.BigInteger fields
hide java.math.BigInteger methods

eapli.framework.domain.model.general.Money -->  "amount" java.math.BigInteger


interface "<b><size:14>Comparable<Money></b>\n<size:10>java.lang" as java.lang.ComparableMoney  #lightgrey {
}

hide java.lang.ComparableMoney fields
hide java.lang.ComparableMoney methods

eapli.framework.domain.model.general.Money ..|> java.lang.ComparableMoney

eapli.framework.domain.model.general.Money ..> eapli.framework.domain.model.general.Money

interface "<b><size:14>Serializable</b>\n<size:10>java.io" as java.io.Serializable  #lightgrey {
}

hide java.io.Serializable fields
hide java.io.Serializable methods

eapli.framework.domain.model.general.Money ..|> java.io.Serializable

interface "<b><size:14>ValueObject</b>\n<size:10>eapli.framework.domain.model" as eapli.framework.domain.model.ValueObject  [[../../../../../eapli/framework/domain/model/ValueObject.html{eapli.framework.domain.model.ValueObject}]] #white {
}

hide eapli.framework.domain.model.ValueObject fields
hide eapli.framework.domain.model.ValueObject methods

eapli.framework.domain.model.general.Money ..|> eapli.framework.domain.model.ValueObject


class "<b><size:14>Money.MoneyCollector</b>\n<size:10>eapli.framework.domain.model.general" as eapli.framework.domain.model.general.Money.MoneyCollector  [[../../../../../eapli/framework/domain/model/general/Money.MoneyCollector.html{eapli.framework.domain.model.general.Money.MoneyCollector}]] {
}

hide eapli.framework.domain.model.general.Money.MoneyCollector fields
hide eapli.framework.domain.model.general.Money.MoneyCollector methods

eapli.framework.domain.model.general.Money ..> eapli.framework.domain.model.general.Money.MoneyCollector

class "<b><size:14>BigDecimal</b>\n<size:10>java.math" as java.math.BigDecimal  #lightgrey {
}

hide java.math.BigDecimal fields
hide java.math.BigDecimal methods

eapli.framework.domain.model.general.Money ..> java.math.BigDecimal

class "<b><size:14>MoneyConverter</b>\n<size:10>eapli.framework.infrastructure.repositories.impl.jpa" as eapli.framework.infrastructure.repositories.impl.jpa.MoneyConverter <<Converter>> [[../../../../../eapli/framework/infrastructure/repositories/impl/jpa/MoneyConverter.html{eapli.framework.infrastructure.repositories.impl.jpa.MoneyConverter}]] #white {
}

hide eapli.framework.infrastructure.repositories.impl.jpa.MoneyConverter fields
hide eapli.framework.infrastructure.repositories.impl.jpa.MoneyConverter methods

eapli.framework.infrastructure.repositories.impl.jpa.MoneyConverter ..> eapli.framework.domain.model.general.Money

class "<b><size:14>GeneralDTORepresentationBuilder</b>\n<size:10>eapli.framework.representations.builders" as eapli.framework.representations.builders.GeneralDTORepresentationBuilder  [[../../../../../eapli/framework/representations/builders/GeneralDTORepresentationBuilder.html{eapli.framework.representations.builders.GeneralDTORepresentationBuilder}]] #white {
}

hide eapli.framework.representations.builders.GeneralDTORepresentationBuilder fields
hide eapli.framework.representations.builders.GeneralDTORepresentationBuilder methods

eapli.framework.representations.builders.GeneralDTORepresentationBuilder ..> eapli.framework.domain.model.general.Money

class "<b><size:14>JsonRepresentationBuilder</b>\n<size:10>eapli.framework.representations.builders" as eapli.framework.representations.builders.JsonRepresentationBuilder  [[../../../../../eapli/framework/representations/builders/JsonRepresentationBuilder.html{eapli.framework.representations.builders.JsonRepresentationBuilder}]] #white {
}

hide eapli.framework.representations.builders.JsonRepresentationBuilder fields
hide eapli.framework.representations.builders.JsonRepresentationBuilder methods

eapli.framework.representations.builders.JsonRepresentationBuilder ..> eapli.framework.domain.model.general.Money

interface "<b><size:14>RepresentationBuilder</b>\n<size:10>eapli.framework.representations" as eapli.framework.representations.RepresentationBuilder  [[../../../../../eapli/framework/representations/RepresentationBuilder.html{eapli.framework.representations.RepresentationBuilder}]] #white {
}

hide eapli.framework.representations.RepresentationBuilder fields
hide eapli.framework.representations.RepresentationBuilder methods

eapli.framework.representations.RepresentationBuilder ..> eapli.framework.domain.model.general.Money


@enduml
