@startuml

skinparam svgLinkTarget _parent
skinparam linetype ortho
package eapli.framework.domain.model.general [[../../../../../eapli/framework/domain/model/general/package-summary.html{eapli.framework.domain.model.general}]] #lightyellow {
}

class "<b><size:14>Description</b>" as eapli.framework.domain.model.general.Description <<Embeddable>><<JsonAutoDetect>> [[../../../../../eapli/framework/domain/model/general/Description.html{eapli.framework.domain.model.general.Description}]] {
}

hide eapli.framework.domain.model.general.Description fields
hide eapli.framework.domain.model.general.Description methods

class "<b><size:14>Designation</b>" as eapli.framework.domain.model.general.Designation <<Embeddable>><<JsonAutoDetect>> [[../../../../../eapli/framework/domain/model/general/Designation.html{eapli.framework.domain.model.general.Designation}]] {
}

hide eapli.framework.domain.model.general.Designation fields
hide eapli.framework.domain.model.general.Designation methods

class "<b><size:14>EmailAddress</b>" as eapli.framework.domain.model.general.EmailAddress <<Embeddable>><<JsonAutoDetect>> [[../../../../../eapli/framework/domain/model/general/EmailAddress.html{eapli.framework.domain.model.general.EmailAddress}]] {
}

hide eapli.framework.domain.model.general.EmailAddress fields
hide eapli.framework.domain.model.general.EmailAddress methods

class "<b><size:14>Money</b>" as eapli.framework.domain.model.general.Money <<Embeddable>><<JsonAutoDetect>> [[../../../../../eapli/framework/domain/model/general/Money.html{eapli.framework.domain.model.general.Money}]] {
}

hide eapli.framework.domain.model.general.Money fields
hide eapli.framework.domain.model.general.Money methods

class "<b><size:14>Text</b>" as eapli.framework.domain.model.general.Text <<Embeddable>><<JsonAutoDetect>> [[../../../../../eapli/framework/domain/model/general/Text.html{eapli.framework.domain.model.general.Text}]] {
}

hide eapli.framework.domain.model.general.Text fields
hide eapli.framework.domain.model.general.Text methods

class "<b><size:14>Text.TextBuilder</b>" as eapli.framework.domain.model.general.Text.TextBuilder  [[../../../../../eapli/framework/domain/model/general/Text.TextBuilder.html{eapli.framework.domain.model.general.Text.TextBuilder}]] {
}

hide eapli.framework.domain.model.general.Text.TextBuilder fields
hide eapli.framework.domain.model.general.Text.TextBuilder methods

eapli.framework.domain.model.general.Designation ..> eapli.framework.domain.model.general.Designation
eapli.framework.domain.model.general.Money ..> eapli.framework.domain.model.general.Money
eapli.framework.domain.model.general.Money ..> eapli.framework.domain.model.general.Money.MoneyCollector
eapli.framework.domain.model.general.Text ..> eapli.framework.domain.model.general.Text.TextBuilder
eapli.framework.domain.model.general.Text.TextBuilder ..> eapli.framework.domain.model.general.Text

@enduml
