<?xml version="1.0" encoding="UTF-8" standalone="no"?><svg xmlns="http://www.w3.org/2000/svg" xmlns:xlink="http://www.w3.org/1999/xlink" contentScriptType="application/ecmascript" contentStyleType="text/css" height="218px" preserveAspectRatio="none" style="width:1365px;height:218px;" version="1.1" viewBox="0 0 1365 218" width="1365px" zoomAndPan="magnify"><defs><filter height="300%" id="ffjgijhv8r7pb" width="300%" x="-1" y="-1"><feGaussianBlur result="blurOut" stdDeviation="2.0"/><feColorMatrix in="blurOut" result="blurOut2" type="matrix" values="0 0 0 0 0 0 0 0 0 0 0 0 0 0 0 0 0 0 .4 0"/><feOffset dx="4.0" dy="4.0" in="blurOut2" result="blurOut3"/><feBlend in="SourceGraphic" in2="blurOut3" mode="normal"/></filter></defs><g><!--MD5=[70f4950fb87d94cd4518757d15077a8a]
class eapli.framework.infrastructure.authz.repositories.impl.InMemoryUserRepository--><a href="../../../../../../eapli/framework/infrastructure/authz/repositories/impl/InMemoryUserRepository.html" target="_parent" title="eapli.framework.infrastructure.authz.repositories.impl.InMemoryUserRepository" xlink:actuate="onRequest" xlink:href="../../../../../../eapli/framework/infrastructure/authz/repositories/impl/InMemoryUserRepository.html" xlink:show="new" xlink:title="eapli.framework.infrastructure.authz.repositories.impl.InMemoryUserRepository" xlink:type="simple"><rect fill="#FEFECE" filter="url(#ffjgijhv8r7pb)" height="83.8594" id="eapli.framework.infrastructure.authz.repositories.impl.InMemoryUserRepository" style="stroke: #A80036; stroke-width: 1.5;" width="279" x="597" y="8"/><ellipse cx="612" cy="28.0938" fill="#ADD1B2" rx="11" ry="11" style="stroke: #A80036; stroke-width: 1.0;"/><path d="M614.7656,23.9688 Q614.9219,23.75 615.1094,23.6406 Q615.2969,23.5313 615.5156,23.5313 Q615.8906,23.5313 616.125,23.7891 Q616.3594,24.0469 616.3594,24.6563 L616.3594,26.1094 Q616.3594,26.7188 616.125,26.9844 Q615.8906,27.25 615.5156,27.25 Q615.1719,27.25 614.9688,27.0469 Q614.7656,26.8594 614.6563,26.3438 Q614.6094,25.9844 614.4219,25.7969 Q614.0938,25.4219 613.4844,25.2031 Q612.875,24.9844 612.25,24.9844 Q611.4844,24.9844 610.8516,25.3125 Q610.2188,25.6406 609.7266,26.3906 Q609.2344,27.1406 609.2344,28.1719 L609.2344,29.2656 Q609.2344,30.5 610.125,31.3203 Q611.0156,32.1406 612.6094,32.1406 Q613.5469,32.1406 614.2031,31.8906 Q614.5938,31.7344 615.0156,31.2969 Q615.2813,31.0313 615.4297,30.9531 Q615.5781,30.875 615.7813,30.875 Q616.1094,30.875 616.3672,31.1328 Q616.625,31.3906 616.625,31.7344 Q616.625,32.0781 616.2813,32.4844 Q615.7813,33.0625 614.9844,33.3906 Q613.9063,33.8438 612.6094,33.8438 Q611.0938,33.8438 609.8906,33.2188 Q608.9063,32.7188 608.2188,31.6484 Q607.5313,30.5781 607.5313,29.2969 L607.5313,28.1406 Q607.5313,26.8125 608.1484,25.6641 Q608.7656,24.5156 609.8594,23.8984 Q610.9531,23.2813 612.1875,23.2813 Q612.9219,23.2813 613.5703,23.4453 Q614.2188,23.6094 614.7656,23.9688 Z "/><text fill="#000000" font-family="sans-serif" font-size="14" font-weight="bold" lengthAdjust="spacingAndGlyphs" textLength="178" x="660.5" y="27.5332">InMemoryUserRepository</text><text fill="#000000" font-family="sans-serif" font-size="10" lengthAdjust="spacingAndGlyphs" textLength="247" x="626" y="40.9902">eapli.framework.infrastructure.authz.repositories.impl</text><line style="stroke: #A80036; stroke-width: 1.5;" x1="598" x2="875" y1="48.1875" y2="48.1875"/><line style="stroke: #A80036; stroke-width: 1.5;" x1="598" x2="875" y1="56.1875" y2="56.1875"/><ellipse cx="608" cy="67.1875" fill="#84BE84" rx="3" ry="3" style="stroke: #038048; stroke-width: 1.0;"/><text fill="#000000" font-family="sans-serif" font-size="11" lengthAdjust="spacingAndGlyphs" textLength="129" x="617" y="71.6064">InMemoryUserRepository()</text><ellipse cx="608" cy="81.0234" fill="#84BE84" rx="3" ry="3" style="stroke: #038048; stroke-width: 1.0;"/><text fill="#000000" font-family="sans-serif" font-size="11" lengthAdjust="spacingAndGlyphs" textLength="249" x="617" y="85.4424">Iterable&lt;SystemUser&gt; findByActive(boolean active)</text></a><!--MD5=[d2aaa228c249f49906b5b90f6230de17]
class eapli.framework.infrastructure.repositories.impl.inmemory.InMemoryDomainRepositoryUsernameSystemUser--><rect fill="#D3D3D3" filter="url(#ffjgijhv8r7pb)" height="40.1875" id="eapli.framework.infrastructure.repositories.impl.inmemory.InMemoryDomainRepositoryUsernameSystemUser" style="stroke: #A80036; stroke-width: 1.5;" width="407" x="6" y="159.5"/><rect fill="#D3D3D3" height="40.1875" style="stroke: #A80036; stroke-width: 1.5;" width="407" x="6" y="159.5"/><ellipse cx="21" cy="179.5938" fill="#ADD1B2" rx="11" ry="11" style="stroke: #A80036; stroke-width: 1.0;"/><path d="M23.7656,175.4688 Q23.9219,175.25 24.1094,175.1406 Q24.2969,175.0313 24.5156,175.0313 Q24.8906,175.0313 25.125,175.2891 Q25.3594,175.5469 25.3594,176.1563 L25.3594,177.6094 Q25.3594,178.2188 25.125,178.4844 Q24.8906,178.75 24.5156,178.75 Q24.1719,178.75 23.9688,178.5469 Q23.7656,178.3594 23.6563,177.8438 Q23.6094,177.4844 23.4219,177.2969 Q23.0938,176.9219 22.4844,176.7031 Q21.875,176.4844 21.25,176.4844 Q20.4844,176.4844 19.8516,176.8125 Q19.2188,177.1406 18.7266,177.8906 Q18.2344,178.6406 18.2344,179.6719 L18.2344,180.7656 Q18.2344,182 19.125,182.8203 Q20.0156,183.6406 21.6094,183.6406 Q22.5469,183.6406 23.2031,183.3906 Q23.5938,183.2344 24.0156,182.7969 Q24.2813,182.5313 24.4297,182.4531 Q24.5781,182.375 24.7813,182.375 Q25.1094,182.375 25.3672,182.6328 Q25.625,182.8906 25.625,183.2344 Q25.625,183.5781 25.2813,183.9844 Q24.7813,184.5625 23.9844,184.8906 Q22.9063,185.3438 21.6094,185.3438 Q20.0938,185.3438 18.8906,184.7188 Q17.9063,184.2188 17.2188,183.1484 Q16.5313,182.0781 16.5313,180.7969 L16.5313,179.6406 Q16.5313,178.3125 17.1484,177.1641 Q17.7656,176.0156 18.8594,175.3984 Q19.9531,174.7813 21.1875,174.7813 Q21.9219,174.7813 22.5703,174.9453 Q23.2188,175.1094 23.7656,175.4688 Z "/><text fill="#000000" font-family="sans-serif" font-size="14" font-weight="bold" lengthAdjust="spacingAndGlyphs" textLength="375" x="35" y="179.0332">InMemoryDomainRepository&lt;Username, SystemUser&gt;</text><text fill="#000000" font-family="sans-serif" font-size="10" lengthAdjust="spacingAndGlyphs" textLength="268" x="88.5" y="192.4902">eapli.framework.infrastructure.repositories.impl.inmemory</text><!--MD5=[ad21e501eaaa768189704de17b30410a]
class eapli.framework.infrastructure.authz.domain.model.Username--><a href="../../../../../../eapli/framework/infrastructure/authz/domain/model/Username.html" target="_parent" title="eapli.framework.infrastructure.authz.domain.model.Username" xlink:actuate="onRequest" xlink:href="../../../../../../eapli/framework/infrastructure/authz/domain/model/Username.html" xlink:show="new" xlink:title="eapli.framework.infrastructure.authz.domain.model.Username" xlink:type="simple"><rect fill="#FFFFFF" filter="url(#ffjgijhv8r7pb)" height="55.2813" id="eapli.framework.infrastructure.authz.domain.model.Username" style="stroke: #A80036; stroke-width: 1.5;" width="271" x="448" y="152"/><rect fill="#FFFFFF" height="55.2813" style="stroke: #A80036; stroke-width: 1.5;" width="271" x="448" y="152"/><ellipse cx="463" cy="179.6406" fill="#ADD1B2" rx="11" ry="11" style="stroke: #A80036; stroke-width: 1.0;"/><path d="M465.7656,175.5156 Q465.9219,175.2969 466.1094,175.1875 Q466.2969,175.0781 466.5156,175.0781 Q466.8906,175.0781 467.125,175.3359 Q467.3594,175.5938 467.3594,176.2031 L467.3594,177.6563 Q467.3594,178.2656 467.125,178.5313 Q466.8906,178.7969 466.5156,178.7969 Q466.1719,178.7969 465.9688,178.5938 Q465.7656,178.4063 465.6563,177.8906 Q465.6094,177.5313 465.4219,177.3438 Q465.0938,176.9688 464.4844,176.75 Q463.875,176.5313 463.25,176.5313 Q462.4844,176.5313 461.8516,176.8594 Q461.2188,177.1875 460.7266,177.9375 Q460.2344,178.6875 460.2344,179.7188 L460.2344,180.8125 Q460.2344,182.0469 461.125,182.8672 Q462.0156,183.6875 463.6094,183.6875 Q464.5469,183.6875 465.2031,183.4375 Q465.5938,183.2813 466.0156,182.8438 Q466.2813,182.5781 466.4297,182.5 Q466.5781,182.4219 466.7813,182.4219 Q467.1094,182.4219 467.3672,182.6797 Q467.625,182.9375 467.625,183.2813 Q467.625,183.625 467.2813,184.0313 Q466.7813,184.6094 465.9844,184.9375 Q464.9063,185.3906 463.6094,185.3906 Q462.0938,185.3906 460.8906,184.7656 Q459.9063,184.2656 459.2188,183.1953 Q458.5313,182.125 458.5313,180.8438 L458.5313,179.6875 Q458.5313,178.3594 459.1484,177.2109 Q459.7656,176.0625 460.8594,175.4453 Q461.9531,174.8281 463.1875,174.8281 Q463.9219,174.8281 464.5703,174.9922 Q465.2188,175.1563 465.7656,175.5156 Z "/><text fill="#000000" font-family="sans-serif" font-size="12" font-style="italic" lengthAdjust="spacingAndGlyphs" textLength="87" x="553" y="169.457">«Embeddable»</text><text fill="#000000" font-family="sans-serif" font-size="14" font-weight="bold" lengthAdjust="spacingAndGlyphs" textLength="71" x="561" y="186.627">Username</text><text fill="#000000" font-family="sans-serif" font-size="10" lengthAdjust="spacingAndGlyphs" textLength="239" x="477" y="200.084">eapli.framework.infrastructure.authz.domain.model</text></a><!--MD5=[9d1258bf87405b8ab48e8caec849a2cc]
class eapli.framework.infrastructure.authz.domain.model.SystemUser--><a href="../../../../../../eapli/framework/infrastructure/authz/domain/model/SystemUser.html" target="_parent" title="eapli.framework.infrastructure.authz.domain.model.SystemUser" xlink:actuate="onRequest" xlink:href="../../../../../../eapli/framework/infrastructure/authz/domain/model/SystemUser.html" xlink:show="new" xlink:title="eapli.framework.infrastructure.authz.domain.model.SystemUser" xlink:type="simple"><rect fill="#FFFFFF" filter="url(#ffjgijhv8r7pb)" height="55.2813" id="eapli.framework.infrastructure.authz.domain.model.SystemUser" style="stroke: #A80036; stroke-width: 1.5;" width="271" x="754" y="152"/><rect fill="#FFFFFF" height="55.2813" style="stroke: #A80036; stroke-width: 1.5;" width="271" x="754" y="152"/><ellipse cx="769" cy="179.6406" fill="#ADD1B2" rx="11" ry="11" style="stroke: #A80036; stroke-width: 1.0;"/><path d="M771.7656,175.5156 Q771.9219,175.2969 772.1094,175.1875 Q772.2969,175.0781 772.5156,175.0781 Q772.8906,175.0781 773.125,175.3359 Q773.3594,175.5938 773.3594,176.2031 L773.3594,177.6563 Q773.3594,178.2656 773.125,178.5313 Q772.8906,178.7969 772.5156,178.7969 Q772.1719,178.7969 771.9688,178.5938 Q771.7656,178.4063 771.6563,177.8906 Q771.6094,177.5313 771.4219,177.3438 Q771.0938,176.9688 770.4844,176.75 Q769.875,176.5313 769.25,176.5313 Q768.4844,176.5313 767.8516,176.8594 Q767.2188,177.1875 766.7266,177.9375 Q766.2344,178.6875 766.2344,179.7188 L766.2344,180.8125 Q766.2344,182.0469 767.125,182.8672 Q768.0156,183.6875 769.6094,183.6875 Q770.5469,183.6875 771.2031,183.4375 Q771.5938,183.2813 772.0156,182.8438 Q772.2813,182.5781 772.4297,182.5 Q772.5781,182.4219 772.7813,182.4219 Q773.1094,182.4219 773.3672,182.6797 Q773.625,182.9375 773.625,183.2813 Q773.625,183.625 773.2813,184.0313 Q772.7813,184.6094 771.9844,184.9375 Q770.9063,185.3906 769.6094,185.3906 Q768.0938,185.3906 766.8906,184.7656 Q765.9063,184.2656 765.2188,183.1953 Q764.5313,182.125 764.5313,180.8438 L764.5313,179.6875 Q764.5313,178.3594 765.1484,177.2109 Q765.7656,176.0625 766.8594,175.4453 Q767.9531,174.8281 769.1875,174.8281 Q769.9219,174.8281 770.5703,174.9922 Q771.2188,175.1563 771.7656,175.5156 Z "/><text fill="#000000" font-family="sans-serif" font-size="12" font-style="italic" lengthAdjust="spacingAndGlyphs" textLength="44" x="880.5" y="169.457">«Entity»</text><text fill="#000000" font-family="sans-serif" font-size="14" font-weight="bold" lengthAdjust="spacingAndGlyphs" textLength="83" x="861" y="186.627">SystemUser</text><text fill="#000000" font-family="sans-serif" font-size="10" lengthAdjust="spacingAndGlyphs" textLength="239" x="783" y="200.084">eapli.framework.infrastructure.authz.domain.model</text></a><!--MD5=[4ecd4d434b781c674ba6e816ddaa2ec3]
class eapli.framework.infrastructure.authz.domain.repositories.UserRepository--><a href="../../../../../../eapli/framework/infrastructure/authz/domain/repositories/UserRepository.html" target="_parent" title="eapli.framework.infrastructure.authz.domain.repositories.UserRepository" xlink:actuate="onRequest" xlink:href="../../../../../../eapli/framework/infrastructure/authz/domain/repositories/UserRepository.html" xlink:show="new" xlink:title="eapli.framework.infrastructure.authz.domain.repositories.UserRepository" xlink:type="simple"><rect fill="#FFFFFF" filter="url(#ffjgijhv8r7pb)" height="40.1875" id="eapli.framework.infrastructure.authz.domain.repositories.UserRepository" style="stroke: #A80036; stroke-width: 1.5;" width="294" x="1060.5" y="159.5"/><rect fill="#FFFFFF" height="40.1875" style="stroke: #A80036; stroke-width: 1.5;" width="294" x="1060.5" y="159.5"/><ellipse cx="1075.5" cy="179.5938" fill="#B4A7E5" rx="11" ry="11" style="stroke: #A80036; stroke-width: 1.0;"/><path d="M1076.4531,176.2344 L1076.4531,182.8906 L1078.1719,182.8906 Q1078.7813,182.8906 1079.0469,183.125 Q1079.3125,183.3594 1079.3125,183.75 Q1079.3125,184.125 1079.0469,184.3594 Q1078.7813,184.5938 1078.1719,184.5938 L1073.0313,184.5938 Q1072.4219,184.5938 1072.1563,184.3594 Q1071.8906,184.125 1071.8906,183.7344 Q1071.8906,183.3594 1072.1563,183.125 Q1072.4219,182.8906 1073.0313,182.8906 L1074.75,182.8906 L1074.75,176.2344 L1073.0313,176.2344 Q1072.4219,176.2344 1072.1563,176 Q1071.8906,175.7656 1071.8906,175.375 Q1071.8906,175 1072.1563,174.7656 Q1072.4219,174.5313 1073.0313,174.5313 L1078.1719,174.5313 Q1078.7813,174.5313 1079.0469,174.7656 Q1079.3125,175 1079.3125,175.375 Q1079.3125,175.7656 1079.0469,176 Q1078.7813,176.2344 1078.1719,176.2344 L1076.4531,176.2344 Z "/><text fill="#000000" font-family="sans-serif" font-size="14" font-style="italic" font-weight="bold" lengthAdjust="spacingAndGlyphs" textLength="101" x="1170" y="179.0332">UserRepository</text><text fill="#000000" font-family="sans-serif" font-size="10" font-style="italic" lengthAdjust="spacingAndGlyphs" textLength="262" x="1089.5" y="192.4902">eapli.framework.infrastructure.authz.domain.repositories</text></a><!--MD5=[426a6698415dad703cf783cd0ea76110]
link eapli.framework.infrastructure.authz.repositories.impl.InMemoryUserRepository to eapli.framework.infrastructure.repositories.impl.inmemory.InMemoryDomainRepositoryUsernameSystemUser--><path d="M596.657,50 C440.531,50 209.5,50 209.5,50 C209.5,50 209.5,139.2656 209.5,139.2656 " fill="none" id="eapli.framework.infrastructure.authz.repositories.impl.InMemoryUserRepository-&gt;eapli.framework.infrastructure.repositories.impl.inmemory.InMemoryDomainRepositoryUsernameSystemUser" style="stroke: #A80036; stroke-width: 1.0;"/><polygon fill="none" points="216.5,139.2657,209.5,159.2656,202.5,139.2656,216.5,139.2657" style="stroke: #A80036; stroke-width: 1.0;"/><!--MD5=[ebcc8e87e3eee1f414faa098da700521]
link eapli.framework.infrastructure.authz.repositories.impl.InMemoryUserRepository to eapli.framework.infrastructure.authz.domain.model.Username--><path d="M658,92.045 C658,92.045 658,146.9386 658,146.9386 " fill="none" id="eapli.framework.infrastructure.authz.repositories.impl.InMemoryUserRepository-&gt;eapli.framework.infrastructure.authz.domain.model.Username" style="stroke: #A80036; stroke-width: 1.0; stroke-dasharray: 7.0,7.0;"/><polygon fill="#A80036" points="658,151.9386,662,142.9386,658,146.9386,654,142.9386,658,151.9386" style="stroke: #A80036; stroke-width: 1.0;"/><!--MD5=[4999a98eaea3d4b8ddf5da4abe5b4447]
link eapli.framework.infrastructure.authz.repositories.impl.InMemoryUserRepository to eapli.framework.infrastructure.authz.domain.model.SystemUser--><path d="M815,92.045 C815,92.045 815,146.9386 815,146.9386 " fill="none" id="eapli.framework.infrastructure.authz.repositories.impl.InMemoryUserRepository-&gt;eapli.framework.infrastructure.authz.domain.model.SystemUser" style="stroke: #A80036; stroke-width: 1.0; stroke-dasharray: 7.0,7.0;"/><polygon fill="#A80036" points="815,151.9386,819,142.9386,815,146.9386,811,142.9386,815,151.9386" style="stroke: #A80036; stroke-width: 1.0;"/><!--MD5=[e698ef16e92f43927bb130226405ae73]
link eapli.framework.infrastructure.authz.repositories.impl.InMemoryUserRepository to eapli.framework.infrastructure.authz.domain.repositories.UserRepository--><path d="M876.222,50 C1015.08,50 1207.5,50 1207.5,50 C1207.5,50 1207.5,139.2656 1207.5,139.2656 " fill="none" id="eapli.framework.infrastructure.authz.repositories.impl.InMemoryUserRepository-&gt;eapli.framework.infrastructure.authz.domain.repositories.UserRepository" style="stroke: #A80036; stroke-width: 1.0; stroke-dasharray: 7.0,7.0;"/><polygon fill="none" points="1214.5,139.2657,1207.5,159.2656,1200.5,139.2656,1214.5,139.2657" style="stroke: #A80036; stroke-width: 1.0;"/><!--MD5=[4b1423b2f9882a6ee71e7d71c627f1f5]
@startuml

skinparam svgLinkTarget _parent
skinparam linetype ortho
set namespaceSeparator none
class "<b><size:14>InMemoryUserRepository</b>\n<size:10>eapli.framework.infrastructure.authz.repositories.impl" as eapli.framework.infrastructure.authz.repositories.impl.InMemoryUserRepository  [[../../../../../../eapli/framework/infrastructure/authz/repositories/impl/InMemoryUserRepository.html{eapli.framework.infrastructure.authz.repositories.impl.InMemoryUserRepository}]] {
+InMemoryUserRepository()
+Iterable<SystemUser> findByActive(boolean active)
}


class "<b><size:14>InMemoryDomainRepository<Username, SystemUser></b>\n<size:10>eapli.framework.infrastructure.repositories.impl.inmemory" as eapli.framework.infrastructure.repositories.impl.inmemory.InMemoryDomainRepositoryUsernameSystemUser  #lightgrey {
}

hide eapli.framework.infrastructure.repositories.impl.inmemory.InMemoryDomainRepositoryUsernameSystemUser fields
hide eapli.framework.infrastructure.repositories.impl.inmemory.InMemoryDomainRepositoryUsernameSystemUser methods

eapli.framework.infrastructure.authz.repositories.impl.InMemoryUserRepository - -|> eapli.framework.infrastructure.repositories.impl.inmemory.InMemoryDomainRepositoryUsernameSystemUser

class "<b><size:14>Username</b>\n<size:10>eapli.framework.infrastructure.authz.domain.model" as eapli.framework.infrastructure.authz.domain.model.Username <<Embeddable>> [[../../../../../../eapli/framework/infrastructure/authz/domain/model/Username.html{eapli.framework.infrastructure.authz.domain.model.Username}]] #white {
}

hide eapli.framework.infrastructure.authz.domain.model.Username fields
hide eapli.framework.infrastructure.authz.domain.model.Username methods

eapli.framework.infrastructure.authz.repositories.impl.InMemoryUserRepository ..> eapli.framework.infrastructure.authz.domain.model.Username

class "<b><size:14>SystemUser</b>\n<size:10>eapli.framework.infrastructure.authz.domain.model" as eapli.framework.infrastructure.authz.domain.model.SystemUser <<Entity>> [[../../../../../../eapli/framework/infrastructure/authz/domain/model/SystemUser.html{eapli.framework.infrastructure.authz.domain.model.SystemUser}]] #white {
}

hide eapli.framework.infrastructure.authz.domain.model.SystemUser fields
hide eapli.framework.infrastructure.authz.domain.model.SystemUser methods

eapli.framework.infrastructure.authz.repositories.impl.InMemoryUserRepository ..> eapli.framework.infrastructure.authz.domain.model.SystemUser

interface "<b><size:14>UserRepository</b>\n<size:10>eapli.framework.infrastructure.authz.domain.repositories" as eapli.framework.infrastructure.authz.domain.repositories.UserRepository  [[../../../../../../eapli/framework/infrastructure/authz/domain/repositories/UserRepository.html{eapli.framework.infrastructure.authz.domain.repositories.UserRepository}]] #white {
}

hide eapli.framework.infrastructure.authz.domain.repositories.UserRepository fields
hide eapli.framework.infrastructure.authz.domain.repositories.UserRepository methods

eapli.framework.infrastructure.authz.repositories.impl.InMemoryUserRepository ..|> eapli.framework.infrastructure.authz.domain.repositories.UserRepository


@enduml

PlantUML version 1.2020.04(Thu Mar 19 10:16:49 GMT 2020)
(GPL source distribution)
Java Runtime: Java(TM) SE Runtime Environment
JVM: Java HotSpot(TM) 64-Bit Server VM
Java Version: 1.8.0_202-b08
Operating System: Windows 10
Default Encoding: Cp1252
Language: en
Country: US
--></g></svg>