<?xml version="1.0" encoding="UTF-8" standalone="no"?><svg xmlns="http://www.w3.org/2000/svg" xmlns:xlink="http://www.w3.org/1999/xlink" contentScriptType="application/ecmascript" contentStyleType="text/css" height="922px" preserveAspectRatio="none" style="width:671px;height:922px;" version="1.1" viewBox="0 0 671 922" width="671px" zoomAndPan="magnify"><defs><filter height="300%" id="f11nv3flb7k4gt" width="300%" x="-1" y="-1"><feGaussianBlur result="blurOut" stdDeviation="2.0"/><feColorMatrix in="blurOut" result="blurOut2" type="matrix" values="0 0 0 0 0 0 0 0 0 0 0 0 0 0 0 0 0 0 .4 0"/><feOffset dx="4.0" dy="4.0" in="blurOut2" result="blurOut3"/><feBlend in="SourceGraphic" in2="blurOut3" mode="normal"/></filter></defs><g><!--MD5=[039164721eea804a0642e9e2f6603267]
class eapli.framework.domain.model.math.Matrix--><a href="../../../../../eapli/framework/domain/model/math/Matrix.html" target="_parent" title="eapli.framework.domain.model.math.Matrix" xlink:actuate="onRequest" xlink:href="../../../../../eapli/framework/domain/model/math/Matrix.html" xlink:show="new" xlink:title="eapli.framework.domain.model.math.Matrix" xlink:type="simple"><rect fill="#FEFECE" filter="url(#f11nv3flb7k4gt)" height="803.3281" id="eapli.framework.domain.model.math.Matrix" style="stroke: #A80036; stroke-width: 1.5;" width="355" x="140.5" y="8"/><ellipse cx="227.25" cy="28.0938" fill="#ADD1B2" rx="11" ry="11" style="stroke: #A80036; stroke-width: 1.0;"/><path d="M230.0156,23.9688 Q230.1719,23.75 230.3594,23.6406 Q230.5469,23.5313 230.7656,23.5313 Q231.1406,23.5313 231.375,23.7891 Q231.6094,24.0469 231.6094,24.6563 L231.6094,26.1094 Q231.6094,26.7188 231.375,26.9844 Q231.1406,27.25 230.7656,27.25 Q230.4219,27.25 230.2188,27.0469 Q230.0156,26.8594 229.9063,26.3438 Q229.8594,25.9844 229.6719,25.7969 Q229.3438,25.4219 228.7344,25.2031 Q228.125,24.9844 227.5,24.9844 Q226.7344,24.9844 226.1016,25.3125 Q225.4688,25.6406 224.9766,26.3906 Q224.4844,27.1406 224.4844,28.1719 L224.4844,29.2656 Q224.4844,30.5 225.375,31.3203 Q226.2656,32.1406 227.8594,32.1406 Q228.7969,32.1406 229.4531,31.8906 Q229.8438,31.7344 230.2656,31.2969 Q230.5313,31.0313 230.6797,30.9531 Q230.8281,30.875 231.0313,30.875 Q231.3594,30.875 231.6172,31.1328 Q231.875,31.3906 231.875,31.7344 Q231.875,32.0781 231.5313,32.4844 Q231.0313,33.0625 230.2344,33.3906 Q229.1563,33.8438 227.8594,33.8438 Q226.3438,33.8438 225.1406,33.2188 Q224.1563,32.7188 223.4688,31.6484 Q222.7813,30.5781 222.7813,29.2969 L222.7813,28.1406 Q222.7813,26.8125 223.3984,25.6641 Q224.0156,24.5156 225.1094,23.8984 Q226.2031,23.2813 227.4375,23.2813 Q228.1719,23.2813 228.8203,23.4453 Q229.4688,23.6094 230.0156,23.9688 Z "/><text fill="#000000" font-family="sans-serif" font-size="14" font-weight="bold" lengthAdjust="spacingAndGlyphs" textLength="44" x="312.25" y="27.5332">Matrix</text><text fill="#000000" font-family="sans-serif" font-size="10" lengthAdjust="spacingAndGlyphs" textLength="173" x="247.75" y="40.9902">eapli.framework.domain.model.math</text><line style="stroke: #A80036; stroke-width: 1.5;" x1="141.5" x2="494.5" y1="48.1875" y2="48.1875"/><rect fill="none" height="6" style="stroke: #C82930; stroke-width: 1.0;" width="6" x="148.5" y="56.1875"/><text fill="#000000" font-family="sans-serif" font-size="11" lengthAdjust="spacingAndGlyphs" text-decoration="underline" textLength="171" x="160.5" y="63.6064">String MATRIX_MUST_BE_SQUARE</text><rect fill="none" height="6" style="stroke: #C82930; stroke-width: 1.0;" width="6" x="148.5" y="70.0234"/><text fill="#000000" font-family="sans-serif" font-size="11" lengthAdjust="spacingAndGlyphs" text-decoration="underline" textLength="103" x="160.5" y="77.4424">long serialVersionUID</text><rect fill="none" height="6" style="stroke: #C82930; stroke-width: 1.0;" width="6" x="148.5" y="83.8594"/><text fill="#000000" font-family="sans-serif" font-size="11" lengthAdjust="spacingAndGlyphs" textLength="40" x="160.5" y="91.2783">int rows</text><rect fill="none" height="6" style="stroke: #C82930; stroke-width: 1.0;" width="6" x="148.5" y="97.6953"/><text fill="#000000" font-family="sans-serif" font-size="11" lengthAdjust="spacingAndGlyphs" textLength="34" x="160.5" y="105.1143">int cols</text><rect fill="none" height="6" style="stroke: #C82930; stroke-width: 1.0;" width="6" x="148.5" y="111.5313"/><text fill="#000000" font-family="sans-serif" font-size="11" lengthAdjust="spacingAndGlyphs" textLength="56" x="160.5" y="118.9502">double data</text><line style="stroke: #A80036; stroke-width: 1.5;" x1="141.5" x2="494.5" y1="125.3672" y2="125.3672"/><ellipse cx="151.5" cy="136.3672" fill="#84BE84" rx="3" ry="3" style="stroke: #038048; stroke-width: 1.0;"/><text fill="#000000" font-family="sans-serif" font-size="11" lengthAdjust="spacingAndGlyphs" textLength="100" x="160.5" y="140.7861">Matrix(double elems)</text><ellipse cx="151.5" cy="150.2031" fill="#84BE84" rx="3" ry="3" style="stroke: #038048; stroke-width: 1.0;"/><text fill="#000000" font-family="sans-serif" font-size="11" lengthAdjust="spacingAndGlyphs" textLength="94" x="160.5" y="154.6221">Matrix(Matrix other)</text><rect fill="#F24D5C" height="6" style="stroke: #C82930; stroke-width: 1.0;" width="6" x="148.5" y="161.0391"/><text fill="#000000" font-family="sans-serif" font-size="11" lengthAdjust="spacingAndGlyphs" textLength="114" x="160.5" y="168.458">Matrix(int rows,int cols)</text><ellipse cx="151.5" cy="177.875" fill="#84BE84" rx="3" ry="3" style="stroke: #038048; stroke-width: 1.0;"/><text fill="#000000" font-family="sans-serif" font-size="11" lengthAdjust="spacingAndGlyphs" text-decoration="underline" textLength="94" x="160.5" y="182.2939">Matrix identity(int n)</text><ellipse cx="151.5" cy="191.7109" fill="#84BE84" rx="3" ry="3" style="stroke: #038048; stroke-width: 1.0;"/><text fill="#000000" font-family="sans-serif" font-size="11" lengthAdjust="spacingAndGlyphs" text-decoration="underline" textLength="82" x="160.5" y="196.1299">Matrix zero(int n)</text><ellipse cx="151.5" cy="205.5469" fill="#84BE84" rx="3" ry="3" style="stroke: #038048; stroke-width: 1.0;"/><text fill="#000000" font-family="sans-serif" font-size="11" lengthAdjust="spacingAndGlyphs" text-decoration="underline" textLength="103" x="160.5" y="209.9658">Matrix zero(int r,int c)</text><ellipse cx="151.5" cy="219.3828" fill="#84BE84" rx="3" ry="3" style="stroke: #038048; stroke-width: 1.0;"/><text fill="#000000" font-family="sans-serif" font-size="11" lengthAdjust="spacingAndGlyphs" text-decoration="underline" textLength="163" x="160.5" y="223.8018">Matrix zero(int r,int c,double zero)</text><ellipse cx="151.5" cy="233.2188" fill="#84BE84" rx="3" ry="3" style="stroke: #038048; stroke-width: 1.0;"/><text fill="#000000" font-family="sans-serif" font-size="11" lengthAdjust="spacingAndGlyphs" textLength="126" x="160.5" y="237.6377">double elementAt(int i,int j)</text><ellipse cx="151.5" cy="247.0547" fill="#84BE84" rx="3" ry="3" style="stroke: #038048; stroke-width: 1.0;"/><text fill="#000000" font-family="sans-serif" font-size="11" lengthAdjust="spacingAndGlyphs" textLength="42" x="160.5" y="251.4736">int size()</text><ellipse cx="151.5" cy="260.8906" fill="#84BE84" rx="3" ry="3" style="stroke: #038048; stroke-width: 1.0;"/><text fill="#000000" font-family="sans-serif" font-size="11" lengthAdjust="spacingAndGlyphs" textLength="104" x="160.5" y="265.3096">Vector row(int index)</text><ellipse cx="151.5" cy="274.7266" fill="#84BE84" rx="3" ry="3" style="stroke: #038048; stroke-width: 1.0;"/><text fill="#000000" font-family="sans-serif" font-size="11" lengthAdjust="spacingAndGlyphs" textLength="118" x="160.5" y="279.1455">Vector column(int index)</text><ellipse cx="151.5" cy="288.5625" fill="#84BE84" rx="3" ry="3" style="stroke: #038048; stroke-width: 1.0;"/><text fill="#000000" font-family="sans-serif" font-size="11" lengthAdjust="spacingAndGlyphs" textLength="106" x="160.5" y="292.9814">Matrix scale(double k)</text><ellipse cx="151.5" cy="302.3984" fill="#84BE84" rx="3" ry="3" style="stroke: #038048; stroke-width: 1.0;"/><text fill="#000000" font-family="sans-serif" font-size="11" lengthAdjust="spacingAndGlyphs" textLength="115" x="160.5" y="306.8174">Matrix add(Matrix other)</text><ellipse cx="151.5" cy="316.2344" fill="#84BE84" rx="3" ry="3" style="stroke: #038048; stroke-width: 1.0;"/><text fill="#000000" font-family="sans-serif" font-size="11" lengthAdjust="spacingAndGlyphs" textLength="137" x="160.5" y="320.6533">Matrix subtract(Matrix other)</text><ellipse cx="151.5" cy="330.0703" fill="#84BE84" rx="3" ry="3" style="stroke: #038048; stroke-width: 1.0;"/><text fill="#000000" font-family="sans-serif" font-size="11" lengthAdjust="spacingAndGlyphs" textLength="132" x="160.5" y="334.4893">Matrix multiply(Matrix other)</text><ellipse cx="151.5" cy="343.9063" fill="#84BE84" rx="3" ry="3" style="stroke: #038048; stroke-width: 1.0;"/><text fill="#000000" font-family="sans-serif" font-size="11" lengthAdjust="spacingAndGlyphs" textLength="68" x="160.5" y="348.3252">double trace()</text><ellipse cx="151.5" cy="357.7422" fill="#84BE84" rx="3" ry="3" style="stroke: #038048; stroke-width: 1.0;"/><text fill="#000000" font-family="sans-serif" font-size="11" lengthAdjust="spacingAndGlyphs" textLength="119" x="160.5" y="362.1611">double cofactor(int i,int j)</text><ellipse cx="151.5" cy="371.5781" fill="#84BE84" rx="3" ry="3" style="stroke: #038048; stroke-width: 1.0;"/><text fill="#000000" font-family="sans-serif" font-size="11" lengthAdjust="spacingAndGlyphs" textLength="104" x="160.5" y="375.9971">double minor(int i,int j)</text><ellipse cx="151.5" cy="385.4141" fill="#84BE84" rx="3" ry="3" style="stroke: #038048; stroke-width: 1.0;"/><text fill="#000000" font-family="sans-serif" font-size="11" lengthAdjust="spacingAndGlyphs" textLength="89" x="160.5" y="389.833">Matrix transpose()</text><ellipse cx="151.5" cy="399.25" fill="#84BE84" rx="3" ry="3" style="stroke: #038048; stroke-width: 1.0;"/><text fill="#000000" font-family="sans-serif" font-size="11" lengthAdjust="spacingAndGlyphs" textLength="80" x="160.5" y="403.6689">Matrix diagonal()</text><ellipse cx="151.5" cy="413.0859" fill="#84BE84" rx="3" ry="3" style="stroke: #038048; stroke-width: 1.0;"/><text fill="#000000" font-family="sans-serif" font-size="11" lengthAdjust="spacingAndGlyphs" textLength="123" x="160.5" y="417.5049">Matrix diagonalElements()</text><ellipse cx="151.5" cy="426.9219" fill="#84BE84" rx="3" ry="3" style="stroke: #038048; stroke-width: 1.0;"/><text fill="#000000" font-family="sans-serif" font-size="11" lengthAdjust="spacingAndGlyphs" textLength="247" x="160.5" y="431.3408">Matrix submatrix(int index,Vector.VectorType type)</text><ellipse cx="151.5" cy="440.7578" fill="#84BE84" rx="3" ry="3" style="stroke: #038048; stroke-width: 1.0;"/><text fill="#000000" font-family="sans-serif" font-size="11" lengthAdjust="spacingAndGlyphs" textLength="254" x="160.5" y="445.1768">Matrix submatrix(int rowToRemove,int colToRemove)</text><ellipse cx="151.5" cy="454.5938" fill="#84BE84" rx="3" ry="3" style="stroke: #038048; stroke-width: 1.0;"/><text fill="#000000" font-family="sans-serif" font-size="11" lengthAdjust="spacingAndGlyphs" textLength="91" x="160.5" y="459.0127">Matrix vectorized()</text><ellipse cx="151.5" cy="468.4297" fill="#84BE84" rx="3" ry="3" style="stroke: #038048; stroke-width: 1.0;"/><text fill="#000000" font-family="sans-serif" font-size="11" lengthAdjust="spacingAndGlyphs" textLength="127" x="160.5" y="472.8486">boolean isUpperDiagonal()</text><ellipse cx="151.5" cy="482.2656" fill="#84BE84" rx="3" ry="3" style="stroke: #038048; stroke-width: 1.0;"/><text fill="#000000" font-family="sans-serif" font-size="11" lengthAdjust="spacingAndGlyphs" textLength="130" x="160.5" y="486.6846">boolean isLowerDiagonal()</text><ellipse cx="151.5" cy="496.1016" fill="#84BE84" rx="3" ry="3" style="stroke: #038048; stroke-width: 1.0;"/><text fill="#000000" font-family="sans-serif" font-size="11" lengthAdjust="spacingAndGlyphs" textLength="103" x="160.5" y="500.5205">boolean isInversible()</text><ellipse cx="151.5" cy="509.9375" fill="#84BE84" rx="3" ry="3" style="stroke: #038048; stroke-width: 1.0;"/><text fill="#000000" font-family="sans-serif" font-size="11" lengthAdjust="spacingAndGlyphs" textLength="71" x="160.5" y="514.3564">Matrix adjoint()</text><ellipse cx="151.5" cy="523.7734" fill="#84BE84" rx="3" ry="3" style="stroke: #038048; stroke-width: 1.0;"/><text fill="#000000" font-family="sans-serif" font-size="11" lengthAdjust="spacingAndGlyphs" textLength="84" x="160.5" y="528.1924">int columnCount()</text><ellipse cx="151.5" cy="537.6094" fill="#84BE84" rx="3" ry="3" style="stroke: #038048; stroke-width: 1.0;"/><text fill="#000000" font-family="sans-serif" font-size="11" lengthAdjust="spacingAndGlyphs" textLength="70" x="160.5" y="542.0283">int rowCount()</text><ellipse cx="151.5" cy="551.4453" fill="#84BE84" rx="3" ry="3" style="stroke: #038048; stroke-width: 1.0;"/><text fill="#000000" font-family="sans-serif" font-size="11" lengthAdjust="spacingAndGlyphs" textLength="92" x="160.5" y="555.8643">boolean isSquare()</text><ellipse cx="151.5" cy="565.2813" fill="#84BE84" rx="3" ry="3" style="stroke: #038048; stroke-width: 1.0;"/><text fill="#000000" font-family="sans-serif" font-size="11" lengthAdjust="spacingAndGlyphs" textLength="96" x="160.5" y="569.7002">boolean isSingular()</text><ellipse cx="151.5" cy="579.1172" fill="#84BE84" rx="3" ry="3" style="stroke: #038048; stroke-width: 1.0;"/><text fill="#000000" font-family="sans-serif" font-size="11" lengthAdjust="spacingAndGlyphs" textLength="98" x="160.5" y="583.5361">boolean isDiagonal()</text><ellipse cx="151.5" cy="592.9531" fill="#84BE84" rx="3" ry="3" style="stroke: #038048; stroke-width: 1.0;"/><text fill="#000000" font-family="sans-serif" font-size="11" lengthAdjust="spacingAndGlyphs" textLength="150" x="160.5" y="597.3721">boolean isDiagonallyDominant()</text><ellipse cx="151.5" cy="606.7891" fill="#84BE84" rx="3" ry="3" style="stroke: #038048; stroke-width: 1.0;"/><text fill="#000000" font-family="sans-serif" font-size="11" lengthAdjust="spacingAndGlyphs" textLength="107" x="160.5" y="611.208">boolean isSymmetric()</text><ellipse cx="151.5" cy="620.625" fill="#84BE84" rx="3" ry="3" style="stroke: #038048; stroke-width: 1.0;"/><text fill="#000000" font-family="sans-serif" font-size="11" lengthAdjust="spacingAndGlyphs" textLength="135" x="160.5" y="625.0439">boolean isSkewSymmetric()</text><ellipse cx="151.5" cy="634.4609" fill="#84BE84" rx="3" ry="3" style="stroke: #038048; stroke-width: 1.0;"/><text fill="#000000" font-family="sans-serif" font-size="11" lengthAdjust="spacingAndGlyphs" textLength="91" x="160.5" y="638.8799">boolean isIdentity()</text><ellipse cx="151.5" cy="648.2969" fill="#84BE84" rx="3" ry="3" style="stroke: #038048; stroke-width: 1.0;"/><text fill="#000000" font-family="sans-serif" font-size="11" lengthAdjust="spacingAndGlyphs" textLength="80" x="160.5" y="652.7158">boolean isZero()</text><ellipse cx="151.5" cy="662.1328" fill="#84BE84" rx="3" ry="3" style="stroke: #038048; stroke-width: 1.0;"/><text fill="#000000" font-family="sans-serif" font-size="11" lengthAdjust="spacingAndGlyphs" textLength="99" x="160.5" y="666.5518">double determinant()</text><ellipse cx="151.5" cy="675.9688" fill="#84BE84" rx="3" ry="3" style="stroke: #038048; stroke-width: 1.0;"/><text fill="#000000" font-family="sans-serif" font-size="11" lengthAdjust="spacingAndGlyphs" textLength="76" x="160.5" y="680.3877">Matrix inverse()</text><ellipse cx="151.5" cy="689.8047" fill="#84BE84" rx="3" ry="3" style="stroke: #038048; stroke-width: 1.0;"/><text fill="#000000" font-family="sans-serif" font-size="11" lengthAdjust="spacingAndGlyphs" textLength="139" x="160.5" y="694.2236">Matrix withoutRow(int index)</text><ellipse cx="151.5" cy="703.6406" fill="#84BE84" rx="3" ry="3" style="stroke: #038048; stroke-width: 1.0;"/><text fill="#000000" font-family="sans-serif" font-size="11" lengthAdjust="spacingAndGlyphs" textLength="151" x="160.5" y="708.0596">Matrix withoutColumn(int index)</text><ellipse cx="151.5" cy="717.4766" fill="#84BE84" rx="3" ry="3" style="stroke: #038048; stroke-width: 1.0;"/><text fill="#000000" font-family="sans-serif" font-size="11" lengthAdjust="spacingAndGlyphs" textLength="308" x="160.5" y="721.8955">Matrix submatrix(int startRow,int endRow,int startCol,int endCol)</text><ellipse cx="151.5" cy="731.3125" fill="#84BE84" rx="3" ry="3" style="stroke: #038048; stroke-width: 1.0;"/><text fill="#000000" font-family="sans-serif" font-size="11" lengthAdjust="spacingAndGlyphs" textLength="129" x="160.5" y="735.7314">boolean equals(Object obj)</text><ellipse cx="151.5" cy="745.1484" fill="#84BE84" rx="3" ry="3" style="stroke: #038048; stroke-width: 1.0;"/><text fill="#000000" font-family="sans-serif" font-size="11" lengthAdjust="spacingAndGlyphs" textLength="71" x="160.5" y="749.5674">int hashCode()</text><rect fill="#F24D5C" height="6" style="stroke: #C82930; stroke-width: 1.0;" width="6" x="148.5" y="755.9844"/><text fill="#000000" font-family="sans-serif" font-size="11" lengthAdjust="spacingAndGlyphs" textLength="329" x="160.5" y="763.4033">void copyRowToSubmatrix(Matrix sub,int colToRemove,int desti,int i)</text><rect fill="#F24D5C" height="6" style="stroke: #C82930; stroke-width: 1.0;" width="6" x="148.5" y="769.8203"/><text fill="#000000" font-family="sans-serif" font-size="11" lengthAdjust="spacingAndGlyphs" textLength="214" x="160.5" y="777.2393">void setAdjointCell(Matrix adj,int tms,int i,int j)</text><rect fill="#F24D5C" height="6" style="stroke: #C82930; stroke-width: 1.0;" width="6" x="148.5" y="783.6563"/><text fill="#000000" font-family="sans-serif" font-size="11" lengthAdjust="spacingAndGlyphs" textLength="136" x="160.5" y="791.0752">void putAt(int i,int j,double v)</text><rect fill="#F24D5C" height="6" style="stroke: #C82930; stroke-width: 1.0;" width="6" x="148.5" y="797.4922"/><text fill="#000000" font-family="sans-serif" font-size="11" lengthAdjust="spacingAndGlyphs" textLength="104" x="160.5" y="804.9111">double getAt(int i,int j)</text></a><!--MD5=[ce0423b4918b6b29de95b9c9580cdd71]
class eapli.framework.domain.model.ValueObject--><a href="../../../../../eapli/framework/domain/model/ValueObject.html" target="_parent" title="eapli.framework.domain.model.ValueObject" xlink:actuate="onRequest" xlink:href="../../../../../eapli/framework/domain/model/ValueObject.html" xlink:show="new" xlink:title="eapli.framework.domain.model.ValueObject" xlink:type="simple"><rect fill="#FFFFFF" filter="url(#f11nv3flb7k4gt)" height="40.1875" id="eapli.framework.domain.model.ValueObject" style="stroke: #A80036; stroke-width: 1.5;" width="174" x="6" y="871"/><rect fill="#FFFFFF" height="40.1875" style="stroke: #A80036; stroke-width: 1.5;" width="174" x="6" y="871"/><ellipse cx="21" cy="891.0938" fill="#B4A7E5" rx="11" ry="11" style="stroke: #A80036; stroke-width: 1.0;"/><path d="M21.9531,887.7344 L21.9531,894.3906 L23.6719,894.3906 Q24.2813,894.3906 24.5469,894.625 Q24.8125,894.8594 24.8125,895.25 Q24.8125,895.625 24.5469,895.8594 Q24.2813,896.0938 23.6719,896.0938 L18.5313,896.0938 Q17.9219,896.0938 17.6563,895.8594 Q17.3906,895.625 17.3906,895.2344 Q17.3906,894.8594 17.6563,894.625 Q17.9219,894.3906 18.5313,894.3906 L20.25,894.3906 L20.25,887.7344 L18.5313,887.7344 Q17.9219,887.7344 17.6563,887.5 Q17.3906,887.2656 17.3906,886.875 Q17.3906,886.5 17.6563,886.2656 Q17.9219,886.0313 18.5313,886.0313 L23.6719,886.0313 Q24.2813,886.0313 24.5469,886.2656 Q24.8125,886.5 24.8125,886.875 Q24.8125,887.2656 24.5469,887.5 Q24.2813,887.7344 23.6719,887.7344 L21.9531,887.7344 Z "/><text fill="#000000" font-family="sans-serif" font-size="14" font-style="italic" font-weight="bold" lengthAdjust="spacingAndGlyphs" textLength="84" x="64" y="890.5332">ValueObject</text><text fill="#000000" font-family="sans-serif" font-size="10" font-style="italic" lengthAdjust="spacingAndGlyphs" textLength="142" x="35" y="903.9902">eapli.framework.domain.model</text></a><!--MD5=[ae5dbe708e058c36a928dca2d1ca908b]
class eapli.framework.domain.model.math.Vector--><a href="../../../../../eapli/framework/domain/model/math/Vector.html" target="_parent" title="eapli.framework.domain.model.math.Vector" xlink:actuate="onRequest" xlink:href="../../../../../eapli/framework/domain/model/math/Vector.html" xlink:show="new" xlink:title="eapli.framework.domain.model.math.Vector" xlink:type="simple"><rect fill="#FEFECE" filter="url(#f11nv3flb7k4gt)" height="40.1875" id="eapli.framework.domain.model.math.Vector" style="stroke: #A80036; stroke-width: 1.5;" width="205" x="215.5" y="871"/><ellipse cx="230.5" cy="891.0938" fill="#ADD1B2" rx="11" ry="11" style="stroke: #A80036; stroke-width: 1.0;"/><path d="M233.2656,886.9688 Q233.4219,886.75 233.6094,886.6406 Q233.7969,886.5313 234.0156,886.5313 Q234.3906,886.5313 234.625,886.7891 Q234.8594,887.0469 234.8594,887.6563 L234.8594,889.1094 Q234.8594,889.7188 234.625,889.9844 Q234.3906,890.25 234.0156,890.25 Q233.6719,890.25 233.4688,890.0469 Q233.2656,889.8594 233.1563,889.3438 Q233.1094,888.9844 232.9219,888.7969 Q232.5938,888.4219 231.9844,888.2031 Q231.375,887.9844 230.75,887.9844 Q229.9844,887.9844 229.3516,888.3125 Q228.7188,888.6406 228.2266,889.3906 Q227.7344,890.1406 227.7344,891.1719 L227.7344,892.2656 Q227.7344,893.5 228.625,894.3203 Q229.5156,895.1406 231.1094,895.1406 Q232.0469,895.1406 232.7031,894.8906 Q233.0938,894.7344 233.5156,894.2969 Q233.7813,894.0313 233.9297,893.9531 Q234.0781,893.875 234.2813,893.875 Q234.6094,893.875 234.8672,894.1328 Q235.125,894.3906 235.125,894.7344 Q235.125,895.0781 234.7813,895.4844 Q234.2813,896.0625 233.4844,896.3906 Q232.4063,896.8438 231.1094,896.8438 Q229.5938,896.8438 228.3906,896.2188 Q227.4063,895.7188 226.7188,894.6484 Q226.0313,893.5781 226.0313,892.2969 L226.0313,891.1406 Q226.0313,889.8125 226.6484,888.6641 Q227.2656,887.5156 228.3594,886.8984 Q229.4531,886.2813 230.6875,886.2813 Q231.4219,886.2813 232.0703,886.4453 Q232.7188,886.6094 233.2656,886.9688 Z "/><text fill="#000000" font-family="sans-serif" font-size="14" font-weight="bold" lengthAdjust="spacingAndGlyphs" textLength="46" x="308" y="890.5332">Vector</text><text fill="#000000" font-family="sans-serif" font-size="10" lengthAdjust="spacingAndGlyphs" textLength="173" x="244.5" y="903.9902">eapli.framework.domain.model.math</text></a><!--MD5=[e990c612ce63dbd7940179194f7304c8]
class eapli.framework.domain.model.math.Vector.VectorType--><a href="../../../../../eapli/framework/domain/model/math/Vector.VectorType.html" target="_parent" title="eapli.framework.domain.model.math.Vector.VectorType" xlink:actuate="onRequest" xlink:href="../../../../../eapli/framework/domain/model/math/Vector.VectorType.html" xlink:show="new" xlink:title="eapli.framework.domain.model.math.Vector.VectorType" xlink:type="simple"><rect fill="#FEFECE" filter="url(#f11nv3flb7k4gt)" height="40.1875" id="eapli.framework.domain.model.math.Vector.VectorType" style="stroke: #A80036; stroke-width: 1.5;" width="205" x="455.5" y="871"/><ellipse cx="470.5" cy="891.0938" fill="#EB937F" rx="11" ry="11" style="stroke: #A80036; stroke-width: 1.0;"/><path d="M469.3594,891.8906 L469.3594,894.3906 L473.6875,894.3906 L473.6875,893.4688 Q473.6875,892.8594 473.9297,892.5938 Q474.1719,892.3281 474.5469,892.3281 Q474.9219,892.3281 475.1563,892.5938 Q475.3906,892.8594 475.3906,893.4688 L475.3906,896.0938 L467.3906,896.0938 Q466.7656,896.0938 466.5078,895.8594 Q466.25,895.625 466.25,895.2344 Q466.25,894.8594 466.5156,894.625 Q466.7813,894.3906 467.3906,894.3906 L467.6563,894.3906 L467.6563,887.7344 L467.3906,887.7344 Q466.7656,887.7344 466.5078,887.5 Q466.25,887.2656 466.25,886.875 Q466.25,886.5 466.5078,886.2656 Q466.7656,886.0313 467.3906,886.0313 L475.0156,886.0313 L475.0156,888.625 Q475.0156,889.2344 474.7891,889.4922 Q474.5625,889.75 474.1719,889.75 Q473.7969,889.75 473.5625,889.4922 Q473.3281,889.2344 473.3281,888.625 L473.3281,887.7344 L469.3594,887.7344 L469.3594,890.1875 L470.8438,890.1875 Q470.8438,889.5313 470.9688,889.3438 Q471.2344,888.9375 471.7031,888.9375 Q472.0781,888.9375 472.3125,889.1953 Q472.5469,889.4531 472.5469,890.0625 L472.5469,892.0313 Q472.5469,892.5781 472.4219,892.7656 Q472.1563,893.1563 471.7031,893.1563 Q471.2344,893.1563 470.9688,892.75 Q470.8438,892.5625 470.8438,891.8906 L469.3594,891.8906 Z "/><text fill="#000000" font-family="sans-serif" font-size="14" font-weight="bold" lengthAdjust="spacingAndGlyphs" textLength="129" x="506.5" y="890.5332">Vector.VectorType</text><text fill="#000000" font-family="sans-serif" font-size="10" lengthAdjust="spacingAndGlyphs" textLength="173" x="484.5" y="903.9902">eapli.framework.domain.model.math</text></a><!--MD5=[7380cbfbafee2269aeec35e540cd27ff]
link eapli.framework.domain.model.math.Matrix to eapli.framework.domain.model.ValueObject--><path d="M160.25,811.22 C160.25,811.22 160.25,850.9081 160.25,850.9081 " fill="none" id="eapli.framework.domain.model.math.Matrix-&gt;eapli.framework.domain.model.ValueObject" style="stroke: #A80036; stroke-width: 1.0; stroke-dasharray: 7.0,7.0;"/><polygon fill="none" points="167.25,850.9081,160.25,870.9081,153.25,850.9081,167.25,850.9081" style="stroke: #A80036; stroke-width: 1.0;"/><!--MD5=[9f34dd528dc2db2ed68d47f43b29ec85]
link eapli.framework.domain.model.math.Matrix to eapli.framework.domain.model.math.Vector--><path d="M318,811.22 C318,811.22 318,865.9081 318,865.9081 " fill="none" id="eapli.framework.domain.model.math.Matrix-&gt;eapli.framework.domain.model.math.Vector" style="stroke: #A80036; stroke-width: 1.0; stroke-dasharray: 7.0,7.0;"/><polygon fill="#A80036" points="318,870.9081,322,861.9081,318,865.9081,314,861.9081,318,870.9081" style="stroke: #A80036; stroke-width: 1.0;"/><!--MD5=[5cff631b6a323454bee2c3bf26293df9]
link eapli.framework.domain.model.math.Matrix to eapli.framework.domain.model.math.Vector.VectorType--><path d="M475.5,811.22 C475.5,811.22 475.5,865.9081 475.5,865.9081 " fill="none" id="eapli.framework.domain.model.math.Matrix-&gt;eapli.framework.domain.model.math.Vector.VectorType" style="stroke: #A80036; stroke-width: 1.0; stroke-dasharray: 7.0,7.0;"/><polygon fill="#A80036" points="475.5,870.9081,479.5,861.9081,475.5,865.9081,471.5,861.9081,475.5,870.9081" style="stroke: #A80036; stroke-width: 1.0;"/><!--MD5=[e72616c645a4d88d945c971fd9f3f3d5]
@startuml

skinparam svgLinkTarget _parent
skinparam linetype ortho
set namespaceSeparator none
class "<b><size:14>Matrix</b>\n<size:10>eapli.framework.domain.model.math" as eapli.framework.domain.model.math.Matrix  [[../../../../../eapli/framework/domain/model/math/Matrix.html{eapli.framework.domain.model.math.Matrix}]] {
{static} -String MATRIX_MUST_BE_SQUARE
{static} -long serialVersionUID
-int rows
-int cols
-double data
+Matrix(double elems)
+Matrix(Matrix other)
-Matrix(int rows,int cols)
{static} +Matrix identity(int n)
{static} +Matrix zero(int n)
{static} +Matrix zero(int r,int c)
{static} +Matrix zero(int r,int c,double zero)
+double elementAt(int i,int j)
+int size()
+Vector row(int index)
+Vector column(int index)
+Matrix scale(double k)
+Matrix add(Matrix other)
+Matrix subtract(Matrix other)
+Matrix multiply(Matrix other)
+double trace()
+double cofactor(int i,int j)
+double minor(int i,int j)
+Matrix transpose()
+Matrix diagonal()
+Matrix diagonalElements()
+Matrix submatrix(int index,Vector.VectorType type)
+Matrix submatrix(int rowToRemove,int colToRemove)
+Matrix vectorized()
+boolean isUpperDiagonal()
+boolean isLowerDiagonal()
+boolean isInversible()
+Matrix adjoint()
+int columnCount()
+int rowCount()
+boolean isSquare()
+boolean isSingular()
+boolean isDiagonal()
+boolean isDiagonallyDominant()
+boolean isSymmetric()
+boolean isSkewSymmetric()
+boolean isIdentity()
+boolean isZero()
+double determinant()
+Matrix inverse()
+Matrix withoutRow(int index)
+Matrix withoutColumn(int index)
+Matrix submatrix(int startRow,int endRow,int startCol,int endCol)
+boolean equals(Object obj)
+int hashCode()
-void copyRowToSubmatrix(Matrix sub,int colToRemove,int desti,int i)
-void setAdjointCell(Matrix adj,int tms,int i,int j)
-void putAt(int i,int j,double v)
-double getAt(int i,int j)
}


interface "<b><size:14>ValueObject</b>\n<size:10>eapli.framework.domain.model" as eapli.framework.domain.model.ValueObject  [[../../../../../eapli/framework/domain/model/ValueObject.html{eapli.framework.domain.model.ValueObject}]] #white {
}

hide eapli.framework.domain.model.ValueObject fields
hide eapli.framework.domain.model.ValueObject methods

eapli.framework.domain.model.math.Matrix ..|> eapli.framework.domain.model.ValueObject

class "<b><size:14>Vector</b>\n<size:10>eapli.framework.domain.model.math" as eapli.framework.domain.model.math.Vector  [[../../../../../eapli/framework/domain/model/math/Vector.html{eapli.framework.domain.model.math.Vector}]] {
}

hide eapli.framework.domain.model.math.Vector fields
hide eapli.framework.domain.model.math.Vector methods

eapli.framework.domain.model.math.Matrix ..> eapli.framework.domain.model.math.Vector

enum "<b><size:14>Vector.VectorType</b>\n<size:10>eapli.framework.domain.model.math" as eapli.framework.domain.model.math.Vector.VectorType  [[../../../../../eapli/framework/domain/model/math/Vector.VectorType.html{eapli.framework.domain.model.math.Vector.VectorType}]] {
}

hide eapli.framework.domain.model.math.Vector.VectorType fields
hide eapli.framework.domain.model.math.Vector.VectorType methods

eapli.framework.domain.model.math.Matrix ..> eapli.framework.domain.model.math.Vector.VectorType


@enduml

PlantUML version 1.2020.04(Thu Mar 19 10:16:49 GMT 2020)
(GPL source distribution)
Java Runtime: Java(TM) SE Runtime Environment
JVM: Java HotSpot(TM) 64-Bit Server VM
Java Version: 1.8.0_202-b08
Operating System: Windows 10
Default Encoding: Cp1252
Language: en
Country: US
--></g></svg>