@startuml

skinparam svgLinkTarget _parent
skinparam linetype ortho
set namespaceSeparator none
class "<b><size:14>Numeral</b>\n<size:10>eapli.framework.domain.model.math" as eapli.framework.domain.model.math.Numeral  [[../../../../../eapli/framework/domain/model/math/Numeral.html{eapli.framework.domain.model.math.Numeral}]] {
{static} -long serialVersionUID
-NumeralSystem system
-long value
-String representation
-Numeral(long value,NumeralSystem system)
-Numeral(String value,NumeralSystem system)
{static} +Numeral valueOf(String value,NumeralSystem system)
{static} +Numeral valueOf(String value,int base)
{static} +Numeral valueOf(long decimal)
+Numeral toBase2()
+Numeral toBase8()
+Numeral toBase10()
+Numeral toBase16()
+Numeral toBase(int base)
+Numeral toBase(NumeralSystem base)
+boolean equals(Object other)
+int hashCode()
+String toString()
+long decimalValue()
+NumeralSystem system()
}


interface "<b><size:14>NumeralSystem</b>\n<size:10>eapli.framework.domain.model.math" as eapli.framework.domain.model.math.NumeralSystem <<FunctionalInterface>> [[../../../../../eapli/framework/domain/model/math/NumeralSystem.html{eapli.framework.domain.model.math.NumeralSystem}]] {
}

hide eapli.framework.domain.model.math.NumeralSystem fields
hide eapli.framework.domain.model.math.NumeralSystem methods

eapli.framework.domain.model.math.Numeral -->  "system" eapli.framework.domain.model.math.NumeralSystem

interface "<b><size:14>ValueObject</b>\n<size:10>eapli.framework.domain.model" as eapli.framework.domain.model.ValueObject  [[../../../../../eapli/framework/domain/model/ValueObject.html{eapli.framework.domain.model.ValueObject}]] #white {
}

hide eapli.framework.domain.model.ValueObject fields
hide eapli.framework.domain.model.ValueObject methods

eapli.framework.domain.model.math.Numeral ..|> eapli.framework.domain.model.ValueObject


@enduml
