@startuml

skinparam svgLinkTarget _parent
skinparam linetype ortho
package eapli.framework.domain.model.math [[../../../../../eapli/framework/domain/model/math/package-summary.html{eapli.framework.domain.model.math}]] #lightyellow {
}

class "<b><size:14>Matrix</b>" as eapli.framework.domain.model.math.Matrix  [[../../../../../eapli/framework/domain/model/math/Matrix.html{eapli.framework.domain.model.math.Matrix}]] {
}

hide eapli.framework.domain.model.math.Matrix fields
hide eapli.framework.domain.model.math.Matrix methods

class "<b><size:14>Numeral</b>" as eapli.framework.domain.model.math.Numeral  [[../../../../../eapli/framework/domain/model/math/Numeral.html{eapli.framework.domain.model.math.Numeral}]] {
}

hide eapli.framework.domain.model.math.Numeral fields
hide eapli.framework.domain.model.math.Numeral methods

interface "<b><size:14>NumeralSystem</b>" as eapli.framework.domain.model.math.NumeralSystem <<FunctionalInterface>> [[../../../../../eapli/framework/domain/model/math/NumeralSystem.html{eapli.framework.domain.model.math.NumeralSystem}]] {
}

hide eapli.framework.domain.model.math.NumeralSystem fields
hide eapli.framework.domain.model.math.NumeralSystem methods

class "<b><size:14>RomanNumeral</b>" as eapli.framework.domain.model.math.RomanNumeral  [[../../../../../eapli/framework/domain/model/math/RomanNumeral.html{eapli.framework.domain.model.math.RomanNumeral}]] {
}

hide eapli.framework.domain.model.math.RomanNumeral fields
hide eapli.framework.domain.model.math.RomanNumeral methods

class "<b><size:14>StandardNumeralSystem</b>" as eapli.framework.domain.model.math.StandardNumeralSystem  [[../../../../../eapli/framework/domain/model/math/StandardNumeralSystem.html{eapli.framework.domain.model.math.StandardNumeralSystem}]] {
}

hide eapli.framework.domain.model.math.StandardNumeralSystem fields
hide eapli.framework.domain.model.math.StandardNumeralSystem methods

class "<b><size:14>Vector</b>" as eapli.framework.domain.model.math.Vector  [[../../../../../eapli/framework/domain/model/math/Vector.html{eapli.framework.domain.model.math.Vector}]] {
}

hide eapli.framework.domain.model.math.Vector fields
hide eapli.framework.domain.model.math.Vector methods

enum "<b><size:14>Vector.VectorType</b>" as eapli.framework.domain.model.math.Vector.VectorType  [[../../../../../eapli/framework/domain/model/math/Vector.VectorType.html{eapli.framework.domain.model.math.Vector.VectorType}]] {
}

hide eapli.framework.domain.model.math.Vector.VectorType fields
hide eapli.framework.domain.model.math.Vector.VectorType methods

eapli.framework.domain.model.math.Matrix ..> eapli.framework.domain.model.math.Vector
eapli.framework.domain.model.math.Matrix ..> eapli.framework.domain.model.math.Vector.VectorType
eapli.framework.domain.model.math.Numeral -->  "system" eapli.framework.domain.model.math.NumeralSystem
eapli.framework.domain.model.math.StandardNumeralSystem -->  "BINARY" eapli.framework.domain.model.math.NumeralSystem
eapli.framework.domain.model.math.StandardNumeralSystem -->  "OCTAL" eapli.framework.domain.model.math.NumeralSystem
eapli.framework.domain.model.math.StandardNumeralSystem -->  "DECIMAL" eapli.framework.domain.model.math.NumeralSystem
eapli.framework.domain.model.math.StandardNumeralSystem -->  "HEXADECIMAL" eapli.framework.domain.model.math.NumeralSystem
eapli.framework.domain.model.math.StandardNumeralSystem ..|> eapli.framework.domain.model.math.NumeralSystem
eapli.framework.domain.model.math.Vector -->  "type" eapli.framework.domain.model.math.Vector.VectorType

@enduml
