<?xml version="1.0" encoding="UTF-8" standalone="no"?><svg xmlns="http://www.w3.org/2000/svg" xmlns:xlink="http://www.w3.org/1999/xlink" contentScriptType="application/ecmascript" contentStyleType="text/css" height="327px" preserveAspectRatio="none" style="width:225px;height:327px;" version="1.1" viewBox="0 0 225 327" width="225px" zoomAndPan="magnify"><defs><filter height="300%" id="f12yvk5507zqb0" width="300%" x="-1" y="-1"><feGaussianBlur result="blurOut" stdDeviation="2.0"/><feColorMatrix in="blurOut" result="blurOut2" type="matrix" values="0 0 0 0 0 0 0 0 0 0 0 0 0 0 0 0 0 0 .4 0"/><feOffset dx="4.0" dy="4.0" in="blurOut2" result="blurOut3"/><feBlend in="SourceGraphic" in2="blurOut3" mode="normal"/></filter></defs><g><!--MD5=[004a0ade061779c93277f002dafe847f]
class eapli.framework.domain.model.math.RomanNumeral--><a href="../../../../../eapli/framework/domain/model/math/RomanNumeral.html" target="_parent" title="eapli.framework.domain.model.math.RomanNumeral" xlink:actuate="onRequest" xlink:href="../../../../../eapli/framework/domain/model/math/RomanNumeral.html" xlink:show="new" xlink:title="eapli.framework.domain.model.math.RomanNumeral" xlink:type="simple"><rect fill="#FEFECE" filter="url(#f12yvk5507zqb0)" height="208.3828" id="eapli.framework.domain.model.math.RomanNumeral" style="stroke: #A80036; stroke-width: 1.5;" width="208" x="6" y="8"/><ellipse cx="22.35" cy="28.0938" fill="#ADD1B2" rx="11" ry="11" style="stroke: #A80036; stroke-width: 1.0;"/><path d="M25.1156,23.9688 Q25.2719,23.75 25.4594,23.6406 Q25.6469,23.5313 25.8656,23.5313 Q26.2406,23.5313 26.475,23.7891 Q26.7094,24.0469 26.7094,24.6563 L26.7094,26.1094 Q26.7094,26.7188 26.475,26.9844 Q26.2406,27.25 25.8656,27.25 Q25.5219,27.25 25.3188,27.0469 Q25.1156,26.8594 25.0063,26.3438 Q24.9594,25.9844 24.7719,25.7969 Q24.4438,25.4219 23.8344,25.2031 Q23.225,24.9844 22.6,24.9844 Q21.8344,24.9844 21.2016,25.3125 Q20.5688,25.6406 20.0766,26.3906 Q19.5844,27.1406 19.5844,28.1719 L19.5844,29.2656 Q19.5844,30.5 20.475,31.3203 Q21.3656,32.1406 22.9594,32.1406 Q23.8969,32.1406 24.5531,31.8906 Q24.9438,31.7344 25.3656,31.2969 Q25.6313,31.0313 25.7797,30.9531 Q25.9281,30.875 26.1313,30.875 Q26.4594,30.875 26.7172,31.1328 Q26.975,31.3906 26.975,31.7344 Q26.975,32.0781 26.6313,32.4844 Q26.1313,33.0625 25.3344,33.3906 Q24.2563,33.8438 22.9594,33.8438 Q21.4438,33.8438 20.2406,33.2188 Q19.2563,32.7188 18.5688,31.6484 Q17.8813,30.5781 17.8813,29.2969 L17.8813,28.1406 Q17.8813,26.8125 18.4984,25.6641 Q19.1156,24.5156 20.2094,23.8984 Q21.3031,23.2813 22.5375,23.2813 Q23.2719,23.2813 23.9203,23.4453 Q24.5688,23.6094 25.1156,23.9688 Z "/><text fill="#000000" font-family="sans-serif" font-size="14" font-weight="bold" lengthAdjust="spacingAndGlyphs" textLength="106" x="70.15" y="27.5332">RomanNumeral</text><text fill="#000000" font-family="sans-serif" font-size="10" lengthAdjust="spacingAndGlyphs" textLength="173" x="36.65" y="40.9902">eapli.framework.domain.model.math</text><line style="stroke: #A80036; stroke-width: 1.5;" x1="7" x2="213" y1="48.1875" y2="48.1875"/><rect fill="none" height="6" style="stroke: #C82930; stroke-width: 1.0;" width="6" x="14" y="56.1875"/><text fill="#000000" font-family="sans-serif" font-size="11" lengthAdjust="spacingAndGlyphs" text-decoration="underline" textLength="103" x="26" y="63.6064">long serialVersionUID</text><rect fill="none" height="6" style="stroke: #C82930; stroke-width: 1.0;" width="6" x="14" y="70.0234"/><text fill="#000000" font-family="sans-serif" font-size="11" lengthAdjust="spacingAndGlyphs" text-decoration="underline" textLength="56" x="26" y="77.4424">int numbers</text><rect fill="none" height="6" style="stroke: #C82930; stroke-width: 1.0;" width="6" x="14" y="83.8594"/><text fill="#000000" font-family="sans-serif" font-size="11" lengthAdjust="spacingAndGlyphs" text-decoration="underline" textLength="61" x="26" y="91.2783">String letters</text><rect fill="none" height="6" style="stroke: #C82930; stroke-width: 1.0;" width="6" x="14" y="97.6953"/><text fill="#000000" font-family="sans-serif" font-size="11" lengthAdjust="spacingAndGlyphs" textLength="34" x="26" y="105.1143">int num</text><line style="stroke: #A80036; stroke-width: 1.5;" x1="7" x2="213" y1="111.5313" y2="111.5313"/><ellipse cx="17" cy="122.5313" fill="#84BE84" rx="3" ry="3" style="stroke: #038048; stroke-width: 1.0;"/><text fill="#000000" font-family="sans-serif" font-size="11" lengthAdjust="spacingAndGlyphs" textLength="124" x="26" y="126.9502">RomanNumeral(int arabic)</text><ellipse cx="17" cy="136.3672" fill="#84BE84" rx="3" ry="3" style="stroke: #038048; stroke-width: 1.0;"/><text fill="#000000" font-family="sans-serif" font-size="11" lengthAdjust="spacingAndGlyphs" textLength="141" x="26" y="140.7861">RomanNumeral(String roman)</text><ellipse cx="17" cy="150.2031" fill="#84BE84" rx="3" ry="3" style="stroke: #038048; stroke-width: 1.0;"/><text fill="#000000" font-family="sans-serif" font-size="11" lengthAdjust="spacingAndGlyphs" text-decoration="underline" textLength="182" x="26" y="154.6221">RomanNumeral valueOf(String roman)</text><ellipse cx="17" cy="164.0391" fill="#84BE84" rx="3" ry="3" style="stroke: #038048; stroke-width: 1.0;"/><text fill="#000000" font-family="sans-serif" font-size="11" lengthAdjust="spacingAndGlyphs" text-decoration="underline" textLength="126" x="26" y="168.458">String toString(int number)</text><ellipse cx="17" cy="177.875" fill="#84BE84" rx="3" ry="3" style="stroke: #038048; stroke-width: 1.0;"/><text fill="#000000" font-family="sans-serif" font-size="11" lengthAdjust="spacingAndGlyphs" textLength="76" x="26" y="182.2939">String toString()</text><ellipse cx="17" cy="191.7109" fill="#84BE84" rx="3" ry="3" style="stroke: #038048; stroke-width: 1.0;"/><text fill="#000000" font-family="sans-serif" font-size="11" lengthAdjust="spacingAndGlyphs" textLength="42" x="26" y="196.1299">int toInt()</text><rect fill="#F24D5C" height="6" style="stroke: #C82930; stroke-width: 1.0;" width="6" x="14" y="202.5469"/><text fill="#000000" font-family="sans-serif" font-size="11" lengthAdjust="spacingAndGlyphs" textLength="144" x="26" y="209.9658">int letterToNumber(char letter)</text></a><!--MD5=[ce0423b4918b6b29de95b9c9580cdd71]
class eapli.framework.domain.model.ValueObject--><a href="../../../../../eapli/framework/domain/model/ValueObject.html" target="_parent" title="eapli.framework.domain.model.ValueObject" xlink:actuate="onRequest" xlink:href="../../../../../eapli/framework/domain/model/ValueObject.html" xlink:show="new" xlink:title="eapli.framework.domain.model.ValueObject" xlink:type="simple"><rect fill="#FFFFFF" filter="url(#f12yvk5507zqb0)" height="40.1875" id="eapli.framework.domain.model.ValueObject" style="stroke: #A80036; stroke-width: 1.5;" width="174" x="23" y="276"/><rect fill="#FFFFFF" height="40.1875" style="stroke: #A80036; stroke-width: 1.5;" width="174" x="23" y="276"/><ellipse cx="38" cy="296.0938" fill="#B4A7E5" rx="11" ry="11" style="stroke: #A80036; stroke-width: 1.0;"/><path d="M38.9531,292.7344 L38.9531,299.3906 L40.6719,299.3906 Q41.2813,299.3906 41.5469,299.625 Q41.8125,299.8594 41.8125,300.25 Q41.8125,300.625 41.5469,300.8594 Q41.2813,301.0938 40.6719,301.0938 L35.5313,301.0938 Q34.9219,301.0938 34.6563,300.8594 Q34.3906,300.625 34.3906,300.2344 Q34.3906,299.8594 34.6563,299.625 Q34.9219,299.3906 35.5313,299.3906 L37.25,299.3906 L37.25,292.7344 L35.5313,292.7344 Q34.9219,292.7344 34.6563,292.5 Q34.3906,292.2656 34.3906,291.875 Q34.3906,291.5 34.6563,291.2656 Q34.9219,291.0313 35.5313,291.0313 L40.6719,291.0313 Q41.2813,291.0313 41.5469,291.2656 Q41.8125,291.5 41.8125,291.875 Q41.8125,292.2656 41.5469,292.5 Q41.2813,292.7344 40.6719,292.7344 L38.9531,292.7344 Z "/><text fill="#000000" font-family="sans-serif" font-size="14" font-style="italic" font-weight="bold" lengthAdjust="spacingAndGlyphs" textLength="84" x="81" y="295.5332">ValueObject</text><text fill="#000000" font-family="sans-serif" font-size="10" font-style="italic" lengthAdjust="spacingAndGlyphs" textLength="142" x="52" y="308.9902">eapli.framework.domain.model</text></a><!--MD5=[ea971a755a3ee2b61924c269469f6cf0]
link eapli.framework.domain.model.math.RomanNumeral to eapli.framework.domain.model.ValueObject--><path d="M110,216.0977 C110,216.0977 110,255.9963 110,255.9963 " fill="none" id="eapli.framework.domain.model.math.RomanNumeral-&gt;eapli.framework.domain.model.ValueObject" style="stroke: #A80036; stroke-width: 1.0; stroke-dasharray: 7.0,7.0;"/><polygon fill="none" points="117,255.9963,110,275.9963,103.0001,255.9962,117,255.9963" style="stroke: #A80036; stroke-width: 1.0;"/><!--MD5=[c366f48b1e34ea8d3c12f016fcbb622f]
@startuml

skinparam svgLinkTarget _parent
skinparam linetype ortho
set namespaceSeparator none
class "<b><size:14>RomanNumeral</b>\n<size:10>eapli.framework.domain.model.math" as eapli.framework.domain.model.math.RomanNumeral  [[../../../../../eapli/framework/domain/model/math/RomanNumeral.html{eapli.framework.domain.model.math.RomanNumeral}]] {
{static} -long serialVersionUID
{static} -int numbers
{static} -String letters
-int num
+RomanNumeral(int arabic)
+RomanNumeral(String roman)
{static} +RomanNumeral valueOf(String roman)
{static} +String toString(int number)
+String toString()
+int toInt()
-int letterToNumber(char letter)
}


interface "<b><size:14>ValueObject</b>\n<size:10>eapli.framework.domain.model" as eapli.framework.domain.model.ValueObject  [[../../../../../eapli/framework/domain/model/ValueObject.html{eapli.framework.domain.model.ValueObject}]] #white {
}

hide eapli.framework.domain.model.ValueObject fields
hide eapli.framework.domain.model.ValueObject methods

eapli.framework.domain.model.math.RomanNumeral ..|> eapli.framework.domain.model.ValueObject


@enduml

PlantUML version 1.2020.04(Thu Mar 19 10:16:49 GMT 2020)
(GPL source distribution)
Java Runtime: Java(TM) SE Runtime Environment
JVM: Java HotSpot(TM) 64-Bit Server VM
Java Version: 1.8.0_202-b08
Operating System: Windows 10
Default Encoding: Cp1252
Language: en
Country: US
--></g></svg>