@startuml

skinparam svgLinkTarget _parent
skinparam linetype ortho
set namespaceSeparator none
interface "<b><size:14>DeleteableActiveRecord</b>\n<size:10>eapli.framework.domain.activerecord" as eapli.framework.domain.activerecord.DeleteableActiveRecord  [[../../../../eapli/framework/domain/activerecord/DeleteableActiveRecord.html{eapli.framework.domain.activerecord.DeleteableActiveRecord}]] {
{abstract} +void delete()
{abstract} +boolean isDeleted()
}


interface "<b><size:14>ActiveRecord<I></b>\n<size:10>eapli.framework.domain.activerecord" as eapli.framework.domain.activerecord.ActiveRecordComparable  [[../../../../eapli/framework/domain/activerecord/ActiveRecord.html{eapli.framework.domain.activerecord.ActiveRecord}]] {
}

hide eapli.framework.domain.activerecord.ActiveRecordComparable fields
hide eapli.framework.domain.activerecord.ActiveRecordComparable methods

eapli.framework.domain.activerecord.DeleteableActiveRecord --|> eapli.framework.domain.activerecord.ActiveRecordComparable

interface "<b><size:14>Comparable</b>\n<size:10>java.lang" as java.lang.Comparable  #lightgrey {
}

hide java.lang.Comparable fields
hide java.lang.Comparable methods

eapli.framework.domain.activerecord.DeleteableActiveRecord ..> java.lang.Comparable


@enduml
