<?xml version="1.0" encoding="UTF-8" standalone="no"?><svg xmlns="http://www.w3.org/2000/svg" xmlns:xlink="http://www.w3.org/1999/xlink" contentScriptType="application/ecmascript" contentStyleType="text/css" height="203px" preserveAspectRatio="none" style="width:368px;height:203px;" version="1.1" viewBox="0 0 368 203" width="368px" zoomAndPan="magnify"><defs><filter height="300%" id="f1vj3tq957sx77" width="300%" x="-1" y="-1"><feGaussianBlur result="blurOut" stdDeviation="2.0"/><feColorMatrix in="blurOut" result="blurOut2" type="matrix" values="0 0 0 0 0 0 0 0 0 0 0 0 0 0 0 0 0 0 .4 0"/><feOffset dx="4.0" dy="4.0" in="blurOut2" result="blurOut3"/><feBlend in="SourceGraphic" in2="blurOut3" mode="normal"/></filter></defs><g><!--MD5=[712005c064f80198d891d2a61bbd02fa]
class eapli.framework.domain.activerecord.Finder--><a href="../../../../eapli/framework/domain/activerecord/Finder.html" target="_parent" title="eapli.framework.domain.activerecord.Finder" xlink:actuate="onRequest" xlink:href="../../../../eapli/framework/domain/activerecord/Finder.html" xlink:show="new" xlink:title="eapli.framework.domain.activerecord.Finder" xlink:type="simple"><rect fill="#FEFECE" filter="url(#f1vj3tq957sx77)" height="83.8594" id="eapli.framework.domain.activerecord.Finder" style="stroke: #A80036; stroke-width: 1.5;" width="210" x="53.5" y="8"/><ellipse cx="71.65" cy="28.0938" fill="#B4A7E5" rx="11" ry="11" style="stroke: #A80036; stroke-width: 1.0;"/><path d="M72.6031,24.7344 L72.6031,31.3906 L74.3219,31.3906 Q74.9313,31.3906 75.1969,31.625 Q75.4625,31.8594 75.4625,32.25 Q75.4625,32.625 75.1969,32.8594 Q74.9313,33.0938 74.3219,33.0938 L69.1813,33.0938 Q68.5719,33.0938 68.3063,32.8594 Q68.0406,32.625 68.0406,32.2344 Q68.0406,31.8594 68.3063,31.625 Q68.5719,31.3906 69.1813,31.3906 L70.9,31.3906 L70.9,24.7344 L69.1813,24.7344 Q68.5719,24.7344 68.3063,24.5 Q68.0406,24.2656 68.0406,23.875 Q68.0406,23.5 68.3063,23.2656 Q68.5719,23.0313 69.1813,23.0313 L74.3219,23.0313 Q74.9313,23.0313 75.1969,23.2656 Q75.4625,23.5 75.4625,23.875 Q75.4625,24.2656 75.1969,24.5 Q74.9313,24.7344 74.3219,24.7344 L72.6031,24.7344 Z "/><text fill="#000000" font-family="sans-serif" font-size="14" font-style="italic" font-weight="bold" lengthAdjust="spacingAndGlyphs" textLength="43" x="150.35" y="27.5332">Finder</text><text fill="#000000" font-family="sans-serif" font-size="10" font-style="italic" lengthAdjust="spacingAndGlyphs" textLength="171" x="86.35" y="40.9902">eapli.framework.domain.activerecord</text><line style="stroke: #A80036; stroke-width: 1.5;" x1="54.5" x2="262.5" y1="48.1875" y2="48.1875"/><line style="stroke: #A80036; stroke-width: 1.5;" x1="54.5" x2="262.5" y1="56.1875" y2="56.1875"/><ellipse cx="64.5" cy="67.1875" fill="#84BE84" rx="3" ry="3" style="stroke: #038048; stroke-width: 1.0;"/><text fill="#000000" font-family="sans-serif" font-size="11" font-style="italic" lengthAdjust="spacingAndGlyphs" textLength="99" x="73.5" y="71.6064">Iterable&lt;T&gt; findAll()</text><ellipse cx="64.5" cy="81.0234" fill="#84BE84" rx="3" ry="3" style="stroke: #038048; stroke-width: 1.0;"/><text fill="#000000" font-family="sans-serif" font-size="11" font-style="italic" lengthAdjust="spacingAndGlyphs" textLength="184" x="73.5" y="85.4424">Optional&lt;T&gt; findById(Comparable id)</text></a><!--MD5=[008d82c49f85b4d489e041917c99c847]
class java.lang.Comparable--><rect fill="#D3D3D3" filter="url(#f1vj3tq957sx77)" height="40.1875" id="java.lang.Comparable" style="stroke: #A80036; stroke-width: 1.5;" width="113" x="6" y="152"/><rect fill="#D3D3D3" height="40.1875" style="stroke: #A80036; stroke-width: 1.5;" width="113" x="6" y="152"/><ellipse cx="21" cy="172.0938" fill="#B4A7E5" rx="11" ry="11" style="stroke: #A80036; stroke-width: 1.0;"/><path d="M21.9531,168.7344 L21.9531,175.3906 L23.6719,175.3906 Q24.2813,175.3906 24.5469,175.625 Q24.8125,175.8594 24.8125,176.25 Q24.8125,176.625 24.5469,176.8594 Q24.2813,177.0938 23.6719,177.0938 L18.5313,177.0938 Q17.9219,177.0938 17.6563,176.8594 Q17.3906,176.625 17.3906,176.2344 Q17.3906,175.8594 17.6563,175.625 Q17.9219,175.3906 18.5313,175.3906 L20.25,175.3906 L20.25,168.7344 L18.5313,168.7344 Q17.9219,168.7344 17.6563,168.5 Q17.3906,168.2656 17.3906,167.875 Q17.3906,167.5 17.6563,167.2656 Q17.9219,167.0313 18.5313,167.0313 L23.6719,167.0313 Q24.2813,167.0313 24.5469,167.2656 Q24.8125,167.5 24.8125,167.875 Q24.8125,168.2656 24.5469,168.5 Q24.2813,168.7344 23.6719,168.7344 L21.9531,168.7344 Z "/><text fill="#000000" font-family="sans-serif" font-size="14" font-style="italic" font-weight="bold" lengthAdjust="spacingAndGlyphs" textLength="81" x="35" y="171.5332">Comparable</text><text fill="#000000" font-family="sans-serif" font-size="10" font-style="italic" lengthAdjust="spacingAndGlyphs" textLength="43" x="54" y="184.9902">java.lang</text><!--MD5=[8ff66bd4b776a2492940b8a4799dc12d]
class eapli.framework.domain.activerecord.ActiveRecord--><a href="../../../../eapli/framework/domain/activerecord/ActiveRecord.html" target="_parent" title="eapli.framework.domain.activerecord.ActiveRecord" xlink:actuate="onRequest" xlink:href="../../../../eapli/framework/domain/activerecord/ActiveRecord.html" xlink:show="new" xlink:title="eapli.framework.domain.activerecord.ActiveRecord" xlink:type="simple"><rect fill="#FEFECE" filter="url(#f1vj3tq957sx77)" height="40.1875" id="eapli.framework.domain.activerecord.ActiveRecord" style="stroke: #A80036; stroke-width: 1.5;" width="203" x="154" y="152"/><ellipse cx="169" cy="172.0938" fill="#B4A7E5" rx="11" ry="11" style="stroke: #A80036; stroke-width: 1.0;"/><path d="M169.9531,168.7344 L169.9531,175.3906 L171.6719,175.3906 Q172.2813,175.3906 172.5469,175.625 Q172.8125,175.8594 172.8125,176.25 Q172.8125,176.625 172.5469,176.8594 Q172.2813,177.0938 171.6719,177.0938 L166.5313,177.0938 Q165.9219,177.0938 165.6563,176.8594 Q165.3906,176.625 165.3906,176.2344 Q165.3906,175.8594 165.6563,175.625 Q165.9219,175.3906 166.5313,175.3906 L168.25,175.3906 L168.25,168.7344 L166.5313,168.7344 Q165.9219,168.7344 165.6563,168.5 Q165.3906,168.2656 165.3906,167.875 Q165.3906,167.5 165.6563,167.2656 Q165.9219,167.0313 166.5313,167.0313 L171.6719,167.0313 Q172.2813,167.0313 172.5469,167.2656 Q172.8125,167.5 172.8125,167.875 Q172.8125,168.2656 172.5469,168.5 Q172.2813,168.7344 171.6719,168.7344 L169.9531,168.7344 Z "/><text fill="#000000" font-family="sans-serif" font-size="14" font-style="italic" font-weight="bold" lengthAdjust="spacingAndGlyphs" textLength="91" x="223" y="171.5332">ActiveRecord</text><text fill="#000000" font-family="sans-serif" font-size="10" font-style="italic" lengthAdjust="spacingAndGlyphs" textLength="171" x="183" y="184.9902">eapli.framework.domain.activerecord</text></a><!--MD5=[95b4ebe131f953e8fa9df5fbacbcbc22]
link eapli.framework.domain.activerecord.Finder to java.lang.Comparable--><path d="M86.25,92.3273 C86.25,92.3273 86.25,146.9727 86.25,146.9727 " fill="none" id="eapli.framework.domain.activerecord.Finder-&gt;java.lang.Comparable" style="stroke: #A80036; stroke-width: 1.0; stroke-dasharray: 7.0,7.0;"/><polygon fill="#A80036" points="86.25,151.9727,90.25,142.9727,86.25,146.9727,82.25,142.9727,86.25,151.9727" style="stroke: #A80036; stroke-width: 1.0;"/><!--MD5=[26d687fff764497624464ddc9bdaf82d]
link eapli.framework.domain.activerecord.Finder to eapli.framework.domain.activerecord.ActiveRecord--><path d="M208.75,92.3273 C208.75,92.3273 208.75,146.9727 208.75,146.9727 " fill="none" id="eapli.framework.domain.activerecord.Finder-&gt;eapli.framework.domain.activerecord.ActiveRecord" style="stroke: #A80036; stroke-width: 1.0; stroke-dasharray: 7.0,7.0;"/><polygon fill="#A80036" points="208.75,151.9727,212.75,142.9727,208.75,146.9727,204.75,142.9727,208.75,151.9727" style="stroke: #A80036; stroke-width: 1.0;"/><!--MD5=[7b40f5d80ff0cc10244cc7c948f42ca0]
@startuml

skinparam svgLinkTarget _parent
skinparam linetype ortho
set namespaceSeparator none
interface "<b><size:14>Finder</b>\n<size:10>eapli.framework.domain.activerecord" as eapli.framework.domain.activerecord.Finder  [[../../../../eapli/framework/domain/activerecord/Finder.html{eapli.framework.domain.activerecord.Finder}]] {
{abstract} +Iterable<T> findAll()
{abstract} +Optional<T> findById(Comparable id)
}


interface "<b><size:14>Comparable</b>\n<size:10>java.lang" as java.lang.Comparable  #lightgrey {
}

hide java.lang.Comparable fields
hide java.lang.Comparable methods

eapli.framework.domain.activerecord.Finder ..> java.lang.Comparable


interface "<b><size:14>ActiveRecord</b>\n<size:10>eapli.framework.domain.activerecord" as eapli.framework.domain.activerecord.ActiveRecord  [[../../../../eapli/framework/domain/activerecord/ActiveRecord.html{eapli.framework.domain.activerecord.ActiveRecord}]] {
}

hide eapli.framework.domain.activerecord.ActiveRecord fields
hide eapli.framework.domain.activerecord.ActiveRecord methods

eapli.framework.domain.activerecord.Finder ..> eapli.framework.domain.activerecord.ActiveRecord


@enduml

PlantUML version 1.2020.04(Thu Mar 19 10:16:49 GMT 2020)
(GPL source distribution)
Java Runtime: Java(TM) SE Runtime Environment
JVM: Java HotSpot(TM) 64-Bit Server VM
Java Version: 1.8.0_202-b08
Operating System: Windows 10
Default Encoding: Cp1252
Language: en
Country: US
--></g></svg>