@startuml

skinparam svgLinkTarget _parent
skinparam linetype ortho
set namespaceSeparator none
class "<b><size:14>EmailAddress</b>\n<size:10>eapli.framework.domain.model.general" as eapli.framework.domain.model.general.EmailAddress <<Embeddable>><<JsonAutoDetect>> [[../../../../../eapli/framework/domain/model/general/EmailAddress.html{eapli.framework.domain.model.general.EmailAddress}]] {
{static} -long serialVersionUID
-String email
#EmailAddress(String address)
#EmailAddress()
{static} +EmailAddress valueOf(String address)
+boolean equals(Object o)
+int hashCode()
+String toString()
}


interface "<b><size:14>ValueObject</b>\n<size:10>eapli.framework.domain.model" as eapli.framework.domain.model.ValueObject  [[../../../../../eapli/framework/domain/model/ValueObject.html{eapli.framework.domain.model.ValueObject}]] #white {
}

hide eapli.framework.domain.model.ValueObject fields
hide eapli.framework.domain.model.ValueObject methods

eapli.framework.domain.model.general.EmailAddress ..|> eapli.framework.domain.model.ValueObject

interface "<b><size:14>Serializable</b>\n<size:10>java.io" as java.io.Serializable  #lightgrey {
}

hide java.io.Serializable fields
hide java.io.Serializable methods

eapli.framework.domain.model.general.EmailAddress ..|> java.io.Serializable

interface "<b><size:14>StringMixin</b>\n<size:10>eapli.framework.util" as eapli.framework.util.StringMixin  [[../../../../../eapli/framework/util/StringMixin.html{eapli.framework.util.StringMixin}]] #white {
}

hide eapli.framework.util.StringMixin fields
hide eapli.framework.util.StringMixin methods

eapli.framework.domain.model.general.EmailAddress ..|> eapli.framework.util.StringMixin

class "<b><size:14>GeneralDTORepresentationBuilder</b>\n<size:10>eapli.framework.representations.builders" as eapli.framework.representations.builders.GeneralDTORepresentationBuilder  [[../../../../../eapli/framework/representations/builders/GeneralDTORepresentationBuilder.html{eapli.framework.representations.builders.GeneralDTORepresentationBuilder}]] #white {
}

hide eapli.framework.representations.builders.GeneralDTORepresentationBuilder fields
hide eapli.framework.representations.builders.GeneralDTORepresentationBuilder methods

eapli.framework.representations.builders.GeneralDTORepresentationBuilder ..> eapli.framework.domain.model.general.EmailAddress

interface "<b><size:14>RepresentationBuilder</b>\n<size:10>eapli.framework.representations" as eapli.framework.representations.RepresentationBuilder  [[../../../../../eapli/framework/representations/RepresentationBuilder.html{eapli.framework.representations.RepresentationBuilder}]] #white {
}

hide eapli.framework.representations.RepresentationBuilder fields
hide eapli.framework.representations.RepresentationBuilder methods

eapli.framework.representations.RepresentationBuilder ..> eapli.framework.domain.model.general.EmailAddress


@enduml
