@startuml

skinparam svgLinkTarget _parent
skinparam linetype ortho
set namespaceSeparator none
class "<b><size:14>Text.TextBuilder</b>\n<size:10>eapli.framework.domain.model.general" as eapli.framework.domain.model.general.Text.TextBuilder  [[../../../../../eapli/framework/domain/model/general/Text.TextBuilder.html{eapli.framework.domain.model.general.Text.TextBuilder}]] {
-StringBuilder builder
+TextBuilder(String text)
+Text.TextBuilder appendLine(String text)
+Text.TextBuilder append(String text)
+Text build()
}


class "<b><size:14>Text</b>\n<size:10>eapli.framework.domain.model.general" as eapli.framework.domain.model.general.Text <<Embeddable>><<JsonAutoDetect>> [[../../../../../eapli/framework/domain/model/general/Text.html{eapli.framework.domain.model.general.Text}]] {
}

hide eapli.framework.domain.model.general.Text fields
hide eapli.framework.domain.model.general.Text methods

eapli.framework.domain.model.general.Text ..> eapli.framework.domain.model.general.Text.TextBuilder

interface "<b><size:14>Factory<Text></b>\n<size:10>eapli.framework.util" as eapli.framework.util.FactoryText <<FunctionalInterface>> [[../../../../../eapli/framework/util/Factory.html{eapli.framework.util.Factory}]] #lightgrey {
}

hide eapli.framework.util.FactoryText fields
hide eapli.framework.util.FactoryText methods

eapli.framework.domain.model.general.Text.TextBuilder ..|> eapli.framework.util.FactoryText

eapli.framework.domain.model.general.Text.TextBuilder ..> eapli.framework.domain.model.general.Text


@enduml
