<?xml version="1.0" encoding="UTF-8" standalone="no"?><svg xmlns="http://www.w3.org/2000/svg" xmlns:xlink="http://www.w3.org/1999/xlink" contentScriptType="application/ecmascript" contentStyleType="text/css" height="287px" preserveAspectRatio="none" style="width:380px;height:287px;" version="1.1" viewBox="0 0 380 287" width="380px" zoomAndPan="magnify"><defs><filter height="300%" id="f1yuj68icab5" width="300%" x="-1" y="-1"><feGaussianBlur result="blurOut" stdDeviation="2.0"/><feColorMatrix in="blurOut" result="blurOut2" type="matrix" values="0 0 0 0 0 0 0 0 0 0 0 0 0 0 0 0 0 0 .4 0"/><feOffset dx="4.0" dy="4.0" in="blurOut2" result="blurOut3"/><feBlend in="SourceGraphic" in2="blurOut3" mode="normal"/></filter></defs><g><!--MD5=[c6f4661320b7728a508b5514faee2aa9]
class eapli.framework.validations.ComparablePredicates--><a href="../../../eapli/framework/validations/ComparablePredicates.html" target="_parent" title="eapli.framework.validations.ComparablePredicates" xlink:actuate="onRequest" xlink:href="../../../eapli/framework/validations/ComparablePredicates.html" xlink:show="new" xlink:title="eapli.framework.validations.ComparablePredicates" xlink:type="simple"><rect fill="#FEFECE" filter="url(#f1yuj68icab5)" height="168.1328" id="eapli.framework.validations.ComparablePredicates" style="stroke: #A80036; stroke-width: 1.5;" width="363" x="6" y="8"/><ellipse cx="103.75" cy="35.6406" fill="#ADD1B2" rx="11" ry="11" style="stroke: #A80036; stroke-width: 1.0;"/><path d="M106.5156,31.5156 Q106.6719,31.2969 106.8594,31.1875 Q107.0469,31.0781 107.2656,31.0781 Q107.6406,31.0781 107.875,31.3359 Q108.1094,31.5938 108.1094,32.2031 L108.1094,33.6563 Q108.1094,34.2656 107.875,34.5313 Q107.6406,34.7969 107.2656,34.7969 Q106.9219,34.7969 106.7188,34.5938 Q106.5156,34.4063 106.4063,33.8906 Q106.3594,33.5313 106.1719,33.3438 Q105.8438,32.9688 105.2344,32.75 Q104.625,32.5313 104,32.5313 Q103.2344,32.5313 102.6016,32.8594 Q101.9688,33.1875 101.4766,33.9375 Q100.9844,34.6875 100.9844,35.7188 L100.9844,36.8125 Q100.9844,38.0469 101.875,38.8672 Q102.7656,39.6875 104.3594,39.6875 Q105.2969,39.6875 105.9531,39.4375 Q106.3438,39.2813 106.7656,38.8438 Q107.0313,38.5781 107.1797,38.5 Q107.3281,38.4219 107.5313,38.4219 Q107.8594,38.4219 108.1172,38.6797 Q108.375,38.9375 108.375,39.2813 Q108.375,39.625 108.0313,40.0313 Q107.5313,40.6094 106.7344,40.9375 Q105.6563,41.3906 104.3594,41.3906 Q102.8438,41.3906 101.6406,40.7656 Q100.6563,40.2656 99.9688,39.1953 Q99.2813,38.125 99.2813,36.8438 L99.2813,35.6875 Q99.2813,34.3594 99.8984,33.2109 Q100.5156,32.0625 101.6094,31.4453 Q102.7031,30.8281 103.9375,30.8281 Q104.6719,30.8281 105.3203,30.9922 Q105.9688,31.1563 106.5156,31.5156 Z "/><text fill="#000000" font-family="sans-serif" font-size="12" font-style="italic" lengthAdjust="spacingAndGlyphs" textLength="44" x="181.75" y="25.457">«Utility»</text><text fill="#000000" font-family="sans-serif" font-size="14" font-weight="bold" lengthAdjust="spacingAndGlyphs" textLength="159" x="124.25" y="42.627">ComparablePredicates</text><text fill="#000000" font-family="sans-serif" font-size="10" lengthAdjust="spacingAndGlyphs" textLength="128" x="139.75" y="56.084">eapli.framework.validations</text><line style="stroke: #A80036; stroke-width: 1.5;" x1="7" x2="368" y1="63.2813" y2="63.2813"/><line style="stroke: #A80036; stroke-width: 1.5;" x1="7" x2="368" y1="71.2813" y2="71.2813"/><rect fill="#F24D5C" height="6" style="stroke: #C82930; stroke-width: 1.0;" width="6" x="14" y="79.2813"/><text fill="#000000" font-family="sans-serif" font-size="11" lengthAdjust="spacingAndGlyphs" textLength="116" x="26" y="86.7002">ComparablePredicates()</text><ellipse cx="17" cy="96.1172" fill="#84BE84" rx="3" ry="3" style="stroke: #038048; stroke-width: 1.0;"/><text fill="#000000" font-family="sans-serif" font-size="11" lengthAdjust="spacingAndGlyphs" text-decoration="underline" textLength="226" x="26" y="100.5361">boolean isBetween(long e,long begin,long end)</text><ellipse cx="17" cy="109.9531" fill="#84BE84" rx="3" ry="3" style="stroke: #038048; stroke-width: 1.0;"/><text fill="#000000" font-family="sans-serif" font-size="11" lengthAdjust="spacingAndGlyphs" text-decoration="underline" textLength="337" x="26" y="114.3721">boolean isBetween(Comparable e,Comparable begin,Comparable end)</text><ellipse cx="17" cy="123.7891" fill="#84BE84" rx="3" ry="3" style="stroke: #038048; stroke-width: 1.0;"/><text fill="#000000" font-family="sans-serif" font-size="11" lengthAdjust="spacingAndGlyphs" text-decoration="underline" textLength="253" x="26" y="128.208">boolean isGreaterThan(Comparable a,Comparable b)</text><ellipse cx="17" cy="137.625" fill="#84BE84" rx="3" ry="3" style="stroke: #038048; stroke-width: 1.0;"/><text fill="#000000" font-family="sans-serif" font-size="11" lengthAdjust="spacingAndGlyphs" text-decoration="underline" textLength="230" x="26" y="142.0439">boolean isAtLeast(Comparable a,Comparable b)</text><ellipse cx="17" cy="151.4609" fill="#84BE84" rx="3" ry="3" style="stroke: #038048; stroke-width: 1.0;"/><text fill="#000000" font-family="sans-serif" font-size="11" lengthAdjust="spacingAndGlyphs" text-decoration="underline" textLength="240" x="26" y="155.8799">boolean isLessThan(Comparable a,Comparable b)</text><ellipse cx="17" cy="165.2969" fill="#84BE84" rx="3" ry="3" style="stroke: #038048; stroke-width: 1.0;"/><text fill="#000000" font-family="sans-serif" font-size="11" lengthAdjust="spacingAndGlyphs" text-decoration="underline" textLength="226" x="26" y="169.7158">boolean isAtMost(Comparable a,Comparable b)</text></a><!--MD5=[008d82c49f85b4d489e041917c99c847]
class java.lang.Comparable--><rect fill="#D3D3D3" filter="url(#f1yuj68icab5)" height="40.1875" id="java.lang.Comparable" style="stroke: #A80036; stroke-width: 1.5;" width="113" x="131" y="236"/><rect fill="#D3D3D3" height="40.1875" style="stroke: #A80036; stroke-width: 1.5;" width="113" x="131" y="236"/><ellipse cx="146" cy="256.0938" fill="#B4A7E5" rx="11" ry="11" style="stroke: #A80036; stroke-width: 1.0;"/><path d="M146.9531,252.7344 L146.9531,259.3906 L148.6719,259.3906 Q149.2813,259.3906 149.5469,259.625 Q149.8125,259.8594 149.8125,260.25 Q149.8125,260.625 149.5469,260.8594 Q149.2813,261.0938 148.6719,261.0938 L143.5313,261.0938 Q142.9219,261.0938 142.6563,260.8594 Q142.3906,260.625 142.3906,260.2344 Q142.3906,259.8594 142.6563,259.625 Q142.9219,259.3906 143.5313,259.3906 L145.25,259.3906 L145.25,252.7344 L143.5313,252.7344 Q142.9219,252.7344 142.6563,252.5 Q142.3906,252.2656 142.3906,251.875 Q142.3906,251.5 142.6563,251.2656 Q142.9219,251.0313 143.5313,251.0313 L148.6719,251.0313 Q149.2813,251.0313 149.5469,251.2656 Q149.8125,251.5 149.8125,251.875 Q149.8125,252.2656 149.5469,252.5 Q149.2813,252.7344 148.6719,252.7344 L146.9531,252.7344 Z "/><text fill="#000000" font-family="sans-serif" font-size="14" font-style="italic" font-weight="bold" lengthAdjust="spacingAndGlyphs" textLength="81" x="160" y="255.5332">Comparable</text><text fill="#000000" font-family="sans-serif" font-size="10" font-style="italic" lengthAdjust="spacingAndGlyphs" textLength="43" x="179" y="268.9902">java.lang</text><!--MD5=[c7ea9ea5c085b279dab24ecfce0d1537]
link eapli.framework.validations.ComparablePredicates to java.lang.Comparable--><path d="M187.5,176.402 C187.5,176.402 187.5,230.9647 187.5,230.9647 " fill="none" id="eapli.framework.validations.ComparablePredicates-&gt;java.lang.Comparable" style="stroke: #A80036; stroke-width: 1.0; stroke-dasharray: 7.0,7.0;"/><polygon fill="#A80036" points="187.5,235.9647,191.5,226.9647,187.5,230.9647,183.5,226.9647,187.5,235.9647" style="stroke: #A80036; stroke-width: 1.0;"/><!--MD5=[70f6cd2735b3ba5917db133af8df42ed]
@startuml

skinparam svgLinkTarget _parent
skinparam linetype ortho
set namespaceSeparator none
class "<b><size:14>ComparablePredicates</b>\n<size:10>eapli.framework.validations" as eapli.framework.validations.ComparablePredicates <<Utility>> [[../../../eapli/framework/validations/ComparablePredicates.html{eapli.framework.validations.ComparablePredicates}]] {
-ComparablePredicates()
{static} +boolean isBetween(long e,long begin,long end)
{static} +boolean isBetween(Comparable e,Comparable begin,Comparable end)
{static} +boolean isGreaterThan(Comparable a,Comparable b)
{static} +boolean isAtLeast(Comparable a,Comparable b)
{static} +boolean isLessThan(Comparable a,Comparable b)
{static} +boolean isAtMost(Comparable a,Comparable b)
}


interface "<b><size:14>Comparable</b>\n<size:10>java.lang" as java.lang.Comparable  #lightgrey {
}

hide java.lang.Comparable fields
hide java.lang.Comparable methods

eapli.framework.validations.ComparablePredicates ..> java.lang.Comparable


@enduml

PlantUML version 1.2020.04(Thu Mar 19 10:16:49 GMT 2020)
(GPL source distribution)
Java Runtime: Java(TM) SE Runtime Environment
JVM: Java HotSpot(TM) 64-Bit Server VM
Java Version: 1.8.0_202-b08
Operating System: Windows 10
Default Encoding: Cp1252
Language: en
Country: US
--></g></svg>