<?xml version="1.0" encoding="UTF-8" standalone="no"?><svg xmlns="http://www.w3.org/2000/svg" xmlns:xlink="http://www.w3.org/1999/xlink" contentScriptType="application/ecmascript" contentStyleType="text/css" height="425px" preserveAspectRatio="none" style="width:284px;height:425px;" version="1.1" viewBox="0 0 284 425" width="284px" zoomAndPan="magnify"><defs><filter height="300%" id="fzd3c292ss4ph" width="300%" x="-1" y="-1"><feGaussianBlur result="blurOut" stdDeviation="2.0"/><feColorMatrix in="blurOut" result="blurOut2" type="matrix" values="0 0 0 0 0 0 0 0 0 0 0 0 0 0 0 0 0 0 .4 0"/><feOffset dx="4.0" dy="4.0" in="blurOut2" result="blurOut3"/><feBlend in="SourceGraphic" in2="blurOut3" mode="normal"/></filter></defs><g><!--MD5=[475638f81c1427689ba26815bdfdee83]
class eapli.framework.validations.Preconditions--><a href="../../../eapli/framework/validations/Preconditions.html" target="_parent" title="eapli.framework.validations.Preconditions" xlink:actuate="onRequest" xlink:href="../../../eapli/framework/validations/Preconditions.html" xlink:show="new" xlink:title="eapli.framework.validations.Preconditions" xlink:type="simple"><rect fill="#FEFECE" filter="url(#fzd3c292ss4ph)" height="306.4922" id="eapli.framework.validations.Preconditions" style="stroke: #A80036; stroke-width: 1.5;" width="267" x="6" y="8"/><ellipse cx="71.25" cy="35.6406" fill="#ADD1B2" rx="11" ry="11" style="stroke: #A80036; stroke-width: 1.0;"/><path d="M74.0156,31.5156 Q74.1719,31.2969 74.3594,31.1875 Q74.5469,31.0781 74.7656,31.0781 Q75.1406,31.0781 75.375,31.3359 Q75.6094,31.5938 75.6094,32.2031 L75.6094,33.6563 Q75.6094,34.2656 75.375,34.5313 Q75.1406,34.7969 74.7656,34.7969 Q74.4219,34.7969 74.2188,34.5938 Q74.0156,34.4063 73.9063,33.8906 Q73.8594,33.5313 73.6719,33.3438 Q73.3438,32.9688 72.7344,32.75 Q72.125,32.5313 71.5,32.5313 Q70.7344,32.5313 70.1016,32.8594 Q69.4688,33.1875 68.9766,33.9375 Q68.4844,34.6875 68.4844,35.7188 L68.4844,36.8125 Q68.4844,38.0469 69.375,38.8672 Q70.2656,39.6875 71.8594,39.6875 Q72.7969,39.6875 73.4531,39.4375 Q73.8438,39.2813 74.2656,38.8438 Q74.5313,38.5781 74.6797,38.5 Q74.8281,38.4219 75.0313,38.4219 Q75.3594,38.4219 75.6172,38.6797 Q75.875,38.9375 75.875,39.2813 Q75.875,39.625 75.5313,40.0313 Q75.0313,40.6094 74.2344,40.9375 Q73.1563,41.3906 71.8594,41.3906 Q70.3438,41.3906 69.1406,40.7656 Q68.1563,40.2656 67.4688,39.1953 Q66.7813,38.125 66.7813,36.8438 L66.7813,35.6875 Q66.7813,34.3594 67.3984,33.2109 Q68.0156,32.0625 69.1094,31.4453 Q70.2031,30.8281 71.4375,30.8281 Q72.1719,30.8281 72.8203,30.9922 Q73.4688,31.1563 74.0156,31.5156 Z "/><text fill="#000000" font-family="sans-serif" font-size="12" font-style="italic" lengthAdjust="spacingAndGlyphs" textLength="44" x="133.75" y="25.457">«Utility»</text><text fill="#000000" font-family="sans-serif" font-size="14" font-weight="bold" lengthAdjust="spacingAndGlyphs" textLength="98" x="106.75" y="42.627">Preconditions</text><text fill="#000000" font-family="sans-serif" font-size="10" lengthAdjust="spacingAndGlyphs" textLength="128" x="91.75" y="56.084">eapli.framework.validations</text><line style="stroke: #A80036; stroke-width: 1.5;" x1="7" x2="272" y1="63.2813" y2="63.2813"/><line style="stroke: #A80036; stroke-width: 1.5;" x1="7" x2="272" y1="71.2813" y2="71.2813"/><rect fill="#F24D5C" height="6" style="stroke: #C82930; stroke-width: 1.0;" width="6" x="14" y="79.2813"/><text fill="#000000" font-family="sans-serif" font-size="11" lengthAdjust="spacingAndGlyphs" textLength="73" x="26" y="86.7002">Preconditions()</text><ellipse cx="17" cy="96.1172" fill="#84BE84" rx="3" ry="3" style="stroke: #038048; stroke-width: 1.0;"/><text fill="#000000" font-family="sans-serif" font-size="11" lengthAdjust="spacingAndGlyphs" text-decoration="underline" textLength="122" x="26" y="100.5361">void noneNull(Object arg)</text><ellipse cx="17" cy="109.9531" fill="#84BE84" rx="3" ry="3" style="stroke: #038048; stroke-width: 1.0;"/><text fill="#000000" font-family="sans-serif" font-size="11" lengthAdjust="spacingAndGlyphs" text-decoration="underline" textLength="130" x="26" y="114.3721">void nonNegative(long arg)</text><ellipse cx="17" cy="123.7891" fill="#84BE84" rx="3" ry="3" style="stroke: #038048; stroke-width: 1.0;"/><text fill="#000000" font-family="sans-serif" font-size="11" lengthAdjust="spacingAndGlyphs" text-decoration="underline" textLength="184" x="26" y="128.208">void nonNegative(long arg,String msg)</text><ellipse cx="17" cy="137.625" fill="#84BE84" rx="3" ry="3" style="stroke: #038048; stroke-width: 1.0;"/><text fill="#000000" font-family="sans-serif" font-size="11" lengthAdjust="spacingAndGlyphs" text-decoration="underline" textLength="134" x="26" y="142.0439">void areEqual(long a,long b)</text><ellipse cx="17" cy="151.4609" fill="#84BE84" rx="3" ry="3" style="stroke: #038048; stroke-width: 1.0;"/><text fill="#000000" font-family="sans-serif" font-size="11" lengthAdjust="spacingAndGlyphs" text-decoration="underline" textLength="210" x="26" y="155.8799">void areEqual(Object a,Object b,String msg)</text><ellipse cx="17" cy="165.2969" fill="#84BE84" rx="3" ry="3" style="stroke: #038048; stroke-width: 1.0;"/><text fill="#000000" font-family="sans-serif" font-size="11" lengthAdjust="spacingAndGlyphs" text-decoration="underline" textLength="241" x="26" y="169.7158">void matches(Pattern regex,String arg,String msg)</text><ellipse cx="17" cy="179.1328" fill="#84BE84" rx="3" ry="3" style="stroke: #038048; stroke-width: 1.0;"/><text fill="#000000" font-family="sans-serif" font-size="11" lengthAdjust="spacingAndGlyphs" text-decoration="underline" textLength="112" x="26" y="183.5518">void ensure(boolean b)</text><ellipse cx="17" cy="192.9688" fill="#84BE84" rx="3" ry="3" style="stroke: #038048; stroke-width: 1.0;"/><text fill="#000000" font-family="sans-serif" font-size="11" lengthAdjust="spacingAndGlyphs" text-decoration="underline" textLength="166" x="26" y="197.3877">void ensure(boolean b,String msg)</text><ellipse cx="17" cy="206.8047" fill="#84BE84" rx="3" ry="3" style="stroke: #038048; stroke-width: 1.0;"/><text fill="#000000" font-family="sans-serif" font-size="11" lengthAdjust="spacingAndGlyphs" text-decoration="underline" textLength="115" x="26" y="211.2236">void isPositive(long arg)</text><ellipse cx="17" cy="220.6406" fill="#84BE84" rx="3" ry="3" style="stroke: #038048; stroke-width: 1.0;"/><text fill="#000000" font-family="sans-serif" font-size="11" lengthAdjust="spacingAndGlyphs" text-decoration="underline" textLength="169" x="26" y="225.0596">void isPositive(long arg,String msg)</text><ellipse cx="17" cy="234.4766" fill="#84BE84" rx="3" ry="3" style="stroke: #038048; stroke-width: 1.0;"/><text fill="#000000" font-family="sans-serif" font-size="11" lengthAdjust="spacingAndGlyphs" text-decoration="underline" textLength="116" x="26" y="238.8955">void nonNull(Object arg)</text><ellipse cx="17" cy="248.3125" fill="#84BE84" rx="3" ry="3" style="stroke: #038048; stroke-width: 1.0;"/><text fill="#000000" font-family="sans-serif" font-size="11" lengthAdjust="spacingAndGlyphs" text-decoration="underline" textLength="170" x="26" y="252.7314">void nonNull(Object arg,String msg)</text><ellipse cx="17" cy="262.1484" fill="#84BE84" rx="3" ry="3" style="stroke: #038048; stroke-width: 1.0;"/><text fill="#000000" font-family="sans-serif" font-size="11" lengthAdjust="spacingAndGlyphs" text-decoration="underline" textLength="170" x="26" y="266.5674">void nonEmpty(Collection&lt;?&gt; items)</text><ellipse cx="17" cy="275.9844" fill="#84BE84" rx="3" ry="3" style="stroke: #038048; stroke-width: 1.0;"/><text fill="#000000" font-family="sans-serif" font-size="11" lengthAdjust="spacingAndGlyphs" text-decoration="underline" textLength="224" x="26" y="280.4033">void nonEmpty(Collection&lt;?&gt; items,String msg)</text><ellipse cx="17" cy="289.8203" fill="#84BE84" rx="3" ry="3" style="stroke: #038048; stroke-width: 1.0;"/><text fill="#000000" font-family="sans-serif" font-size="11" lengthAdjust="spacingAndGlyphs" text-decoration="underline" textLength="125" x="26" y="294.2393">void nonEmpty(String arg)</text><ellipse cx="17" cy="303.6563" fill="#84BE84" rx="3" ry="3" style="stroke: #038048; stroke-width: 1.0;"/><text fill="#000000" font-family="sans-serif" font-size="11" lengthAdjust="spacingAndGlyphs" text-decoration="underline" textLength="179" x="26" y="308.0752">void nonEmpty(String arg,String msg)</text></a><!--MD5=[274ad5661286b626a93603d287cbf95a]
class java.lang.Object--><rect fill="#D3D3D3" filter="url(#fzd3c292ss4ph)" height="40.1875" id="java.lang.Object" style="stroke: #A80036; stroke-width: 1.5;" width="78" x="100.5" y="374"/><rect fill="#D3D3D3" height="40.1875" style="stroke: #A80036; stroke-width: 1.5;" width="78" x="100.5" y="374"/><ellipse cx="115.5" cy="394.0938" fill="#ADD1B2" rx="11" ry="11" style="stroke: #A80036; stroke-width: 1.0;"/><path d="M118.2656,389.9688 Q118.4219,389.75 118.6094,389.6406 Q118.7969,389.5313 119.0156,389.5313 Q119.3906,389.5313 119.625,389.7891 Q119.8594,390.0469 119.8594,390.6563 L119.8594,392.1094 Q119.8594,392.7188 119.625,392.9844 Q119.3906,393.25 119.0156,393.25 Q118.6719,393.25 118.4688,393.0469 Q118.2656,392.8594 118.1563,392.3438 Q118.1094,391.9844 117.9219,391.7969 Q117.5938,391.4219 116.9844,391.2031 Q116.375,390.9844 115.75,390.9844 Q114.9844,390.9844 114.3516,391.3125 Q113.7188,391.6406 113.2266,392.3906 Q112.7344,393.1406 112.7344,394.1719 L112.7344,395.2656 Q112.7344,396.5 113.625,397.3203 Q114.5156,398.1406 116.1094,398.1406 Q117.0469,398.1406 117.7031,397.8906 Q118.0938,397.7344 118.5156,397.2969 Q118.7813,397.0313 118.9297,396.9531 Q119.0781,396.875 119.2813,396.875 Q119.6094,396.875 119.8672,397.1328 Q120.125,397.3906 120.125,397.7344 Q120.125,398.0781 119.7813,398.4844 Q119.2813,399.0625 118.4844,399.3906 Q117.4063,399.8438 116.1094,399.8438 Q114.5938,399.8438 113.3906,399.2188 Q112.4063,398.7188 111.7188,397.6484 Q111.0313,396.5781 111.0313,395.2969 L111.0313,394.1406 Q111.0313,392.8125 111.6484,391.6641 Q112.2656,390.5156 113.3594,389.8984 Q114.4531,389.2813 115.6875,389.2813 Q116.4219,389.2813 117.0703,389.4453 Q117.7188,389.6094 118.2656,389.9688 Z "/><text fill="#000000" font-family="sans-serif" font-size="14" font-weight="bold" lengthAdjust="spacingAndGlyphs" textLength="46" x="129.5" y="393.5332">Object</text><text fill="#000000" font-family="sans-serif" font-size="10" lengthAdjust="spacingAndGlyphs" textLength="44" x="130.5" y="406.9902">java.lang</text><!--MD5=[32ffeba4e1a8d30059b991f9b83168cd]
link eapli.framework.validations.Preconditions to java.lang.Object--><path d="M139.5,314.1406 C139.5,314.1406 139.5,368.7795 139.5,368.7795 " fill="none" id="eapli.framework.validations.Preconditions-&gt;java.lang.Object" style="stroke: #A80036; stroke-width: 1.0; stroke-dasharray: 7.0,7.0;"/><polygon fill="#A80036" points="139.5,373.7795,143.5,364.7795,139.5,368.7795,135.5,364.7795,139.5,373.7795" style="stroke: #A80036; stroke-width: 1.0;"/><!--MD5=[4d8b133216817fe3992e400f22c98293]
@startuml

skinparam svgLinkTarget _parent
skinparam linetype ortho
set namespaceSeparator none
class "<b><size:14>Preconditions</b>\n<size:10>eapli.framework.validations" as eapli.framework.validations.Preconditions <<Utility>> [[../../../eapli/framework/validations/Preconditions.html{eapli.framework.validations.Preconditions}]] {
-Preconditions()
{static} +void noneNull(Object arg)
{static} +void nonNegative(long arg)
{static} +void nonNegative(long arg,String msg)
{static} +void areEqual(long a,long b)
{static} +void areEqual(Object a,Object b,String msg)
{static} +void matches(Pattern regex,String arg,String msg)
{static} +void ensure(boolean b)
{static} +void ensure(boolean b,String msg)
{static} +void isPositive(long arg)
{static} +void isPositive(long arg,String msg)
{static} +void nonNull(Object arg)
{static} +void nonNull(Object arg,String msg)
{static} +void nonEmpty(Collection<?> items)
{static} +void nonEmpty(Collection<?> items,String msg)
{static} +void nonEmpty(String arg)
{static} +void nonEmpty(String arg,String msg)
}




class "<b><size:14>Object</b>\n<size:10>java.lang" as java.lang.Object  #lightgrey {
}

hide java.lang.Object fields
hide java.lang.Object methods

eapli.framework.validations.Preconditions ..> java.lang.Object


@enduml

PlantUML version 1.2020.04(Thu Mar 19 10:16:49 GMT 2020)
(GPL source distribution)
Java Runtime: Java(TM) SE Runtime Environment
JVM: Java HotSpot(TM) 64-Bit Server VM
Java Version: 1.8.0_202-b08
Operating System: Windows 10
Default Encoding: Cp1252
Language: en
Country: US
--></g></svg>