<?xml version="1.0" encoding="UTF-8" standalone="no"?><svg xmlns="http://www.w3.org/2000/svg" xmlns:xlink="http://www.w3.org/1999/xlink" contentScriptType="application/ecmascript" contentStyleType="text/css" height="344px" preserveAspectRatio="none" style="width:367px;height:344px;" version="1.1" viewBox="0 0 367 344" width="367px" zoomAndPan="magnify"><defs><filter height="300%" id="f1krqa0n7ns79t" width="300%" x="-1" y="-1"><feGaussianBlur result="blurOut" stdDeviation="2.0"/><feColorMatrix in="blurOut" result="blurOut2" type="matrix" values="0 0 0 0 0 0 0 0 0 0 0 0 0 0 0 0 0 0 .4 0"/><feOffset dx="4.0" dy="4.0" in="blurOut2" result="blurOut3"/><feBlend in="SourceGraphic" in2="blurOut3" mode="normal"/></filter></defs><g><!--MD5=[1d59e29f85fabccd83688477131398c6]
class eapli.framework.validations.Validations--><a href="../../../eapli/framework/validations/Validations.html" target="_parent" title="eapli.framework.validations.Validations" xlink:actuate="onRequest" xlink:href="../../../eapli/framework/validations/Validations.html" xlink:show="new" xlink:title="eapli.framework.validations.Validations" xlink:type="simple"><rect fill="#FEFECE" filter="url(#f1krqa0n7ns79t)" height="209.6406" id="eapli.framework.validations.Validations" style="stroke: #A80036; stroke-width: 1.5;" width="350" x="6" y="8"/><ellipse cx="112.75" cy="35.6406" fill="#ADD1B2" rx="11" ry="11" style="stroke: #A80036; stroke-width: 1.0;"/><path d="M115.5156,31.5156 Q115.6719,31.2969 115.8594,31.1875 Q116.0469,31.0781 116.2656,31.0781 Q116.6406,31.0781 116.875,31.3359 Q117.1094,31.5938 117.1094,32.2031 L117.1094,33.6563 Q117.1094,34.2656 116.875,34.5313 Q116.6406,34.7969 116.2656,34.7969 Q115.9219,34.7969 115.7188,34.5938 Q115.5156,34.4063 115.4063,33.8906 Q115.3594,33.5313 115.1719,33.3438 Q114.8438,32.9688 114.2344,32.75 Q113.625,32.5313 113,32.5313 Q112.2344,32.5313 111.6016,32.8594 Q110.9688,33.1875 110.4766,33.9375 Q109.9844,34.6875 109.9844,35.7188 L109.9844,36.8125 Q109.9844,38.0469 110.875,38.8672 Q111.7656,39.6875 113.3594,39.6875 Q114.2969,39.6875 114.9531,39.4375 Q115.3438,39.2813 115.7656,38.8438 Q116.0313,38.5781 116.1797,38.5 Q116.3281,38.4219 116.5313,38.4219 Q116.8594,38.4219 117.1172,38.6797 Q117.375,38.9375 117.375,39.2813 Q117.375,39.625 117.0313,40.0313 Q116.5313,40.6094 115.7344,40.9375 Q114.6563,41.3906 113.3594,41.3906 Q111.8438,41.3906 110.6406,40.7656 Q109.6563,40.2656 108.9688,39.1953 Q108.2813,38.125 108.2813,36.8438 L108.2813,35.6875 Q108.2813,34.3594 108.8984,33.2109 Q109.5156,32.0625 110.6094,31.4453 Q111.7031,30.8281 112.9375,30.8281 Q113.6719,30.8281 114.3203,30.9922 Q114.9688,31.1563 115.5156,31.5156 Z "/><text fill="#000000" font-family="sans-serif" font-size="12" font-style="italic" lengthAdjust="spacingAndGlyphs" textLength="44" x="175.25" y="25.457">«Utility»</text><text fill="#000000" font-family="sans-serif" font-size="14" font-weight="bold" lengthAdjust="spacingAndGlyphs" textLength="77" x="158.75" y="42.627">Validations</text><text fill="#000000" font-family="sans-serif" font-size="10" lengthAdjust="spacingAndGlyphs" textLength="128" x="133.25" y="56.084">eapli.framework.validations</text><line style="stroke: #A80036; stroke-width: 1.5;" x1="7" x2="355" y1="63.2813" y2="63.2813"/><line style="stroke: #A80036; stroke-width: 1.5;" x1="7" x2="355" y1="71.2813" y2="71.2813"/><polygon fill="#FFFF44" points="17,77.2813,21,81.2813,17,85.2813,13,81.2813" style="stroke: #B38D22; stroke-width: 1.0;"/><text fill="#000000" font-family="sans-serif" font-size="11" lengthAdjust="spacingAndGlyphs" textLength="61" x="26" y="86.7002">Validations()</text><ellipse cx="17" cy="96.1172" fill="#84BE84" rx="3" ry="3" style="stroke: #038048; stroke-width: 1.0;"/><text fill="#000000" font-family="sans-serif" font-size="11" lengthAdjust="spacingAndGlyphs" text-decoration="underline" textLength="273" x="26" y="100.5361">void ensureAreEqual(long a,long b,Action consequence)</text><ellipse cx="17" cy="109.9531" fill="#84BE84" rx="3" ry="3" style="stroke: #038048; stroke-width: 1.0;"/><text fill="#000000" font-family="sans-serif" font-size="11" lengthAdjust="spacingAndGlyphs" text-decoration="underline" textLength="295" x="26" y="114.3721">void ensureAreEqual(Object a,Object b,Action consequence)</text><ellipse cx="17" cy="123.7891" fill="#84BE84" rx="3" ry="3" style="stroke: #038048; stroke-width: 1.0;"/><text fill="#000000" font-family="sans-serif" font-size="11" lengthAdjust="spacingAndGlyphs" text-decoration="underline" textLength="324" x="26" y="128.208">void ensureMatches(Pattern regex,String arg,Action consequence)</text><ellipse cx="17" cy="137.625" fill="#84BE84" rx="3" ry="3" style="stroke: #038048; stroke-width: 1.0;"/><text fill="#000000" font-family="sans-serif" font-size="11" lengthAdjust="spacingAndGlyphs" text-decoration="underline" textLength="227" x="26" y="142.0439">void ensure(boolean test,Action consequence)</text><ellipse cx="17" cy="151.4609" fill="#84BE84" rx="3" ry="3" style="stroke: #038048; stroke-width: 1.0;"/><text fill="#000000" font-family="sans-serif" font-size="11" lengthAdjust="spacingAndGlyphs" text-decoration="underline" textLength="279" x="26" y="155.8799">void ensureNoneNull(Action consequence,Object objects)</text><ellipse cx="17" cy="165.2969" fill="#84BE84" rx="3" ry="3" style="stroke: #038048; stroke-width: 1.0;"/><text fill="#000000" font-family="sans-serif" font-size="11" lengthAdjust="spacingAndGlyphs" text-decoration="underline" textLength="299" x="26" y="169.7158">void ensureNonEmpty(Collection&lt;?&gt; arg,Action consequence)</text><ellipse cx="17" cy="179.1328" fill="#84BE84" rx="3" ry="3" style="stroke: #038048; stroke-width: 1.0;"/><text fill="#000000" font-family="sans-serif" font-size="11" lengthAdjust="spacingAndGlyphs" text-decoration="underline" textLength="263" x="26" y="183.5518">void ensureNonEmpty(String arg,Action consequence)</text><ellipse cx="17" cy="192.9688" fill="#84BE84" rx="3" ry="3" style="stroke: #038048; stroke-width: 1.0;"/><text fill="#000000" font-family="sans-serif" font-size="11" lengthAdjust="spacingAndGlyphs" text-decoration="underline" textLength="252" x="26" y="197.3877">void ensureIsPositive(long arg,Action consequence)</text><ellipse cx="17" cy="206.8047" fill="#84BE84" rx="3" ry="3" style="stroke: #038048; stroke-width: 1.0;"/><text fill="#000000" font-family="sans-serif" font-size="11" lengthAdjust="spacingAndGlyphs" text-decoration="underline" textLength="268" x="26" y="211.2236">void ensureNonNegative(long arg,Action consequence)</text></a><!--MD5=[ef8b130fed61c1e1b3c1a2a618d68bbd]
class eapli.framework.actions.Action--><a href="../../../eapli/framework/actions/Action.html" target="_parent" title="eapli.framework.actions.Action" xlink:actuate="onRequest" xlink:href="../../../eapli/framework/actions/Action.html" xlink:show="new" xlink:title="eapli.framework.actions.Action" xlink:type="simple"><rect fill="#FFFFFF" filter="url(#f1krqa0n7ns79t)" height="55.2813" id="eapli.framework.actions.Action" style="stroke: #A80036; stroke-width: 1.5;" width="147" x="33.5" y="278"/><rect fill="#FFFFFF" height="55.2813" style="stroke: #A80036; stroke-width: 1.5;" width="147" x="33.5" y="278"/><ellipse cx="48.5" cy="305.6406" fill="#B4A7E5" rx="11" ry="11" style="stroke: #A80036; stroke-width: 1.0;"/><path d="M49.4531,302.2813 L49.4531,308.9375 L51.1719,308.9375 Q51.7813,308.9375 52.0469,309.1719 Q52.3125,309.4063 52.3125,309.7969 Q52.3125,310.1719 52.0469,310.4063 Q51.7813,310.6406 51.1719,310.6406 L46.0313,310.6406 Q45.4219,310.6406 45.1563,310.4063 Q44.8906,310.1719 44.8906,309.7813 Q44.8906,309.4063 45.1563,309.1719 Q45.4219,308.9375 46.0313,308.9375 L47.75,308.9375 L47.75,302.2813 L46.0313,302.2813 Q45.4219,302.2813 45.1563,302.0469 Q44.8906,301.8125 44.8906,301.4219 Q44.8906,301.0469 45.1563,300.8125 Q45.4219,300.5781 46.0313,300.5781 L51.1719,300.5781 Q51.7813,300.5781 52.0469,300.8125 Q52.3125,301.0469 52.3125,301.4219 Q52.3125,301.8125 52.0469,302.0469 Q51.7813,302.2813 51.1719,302.2813 L49.4531,302.2813 Z "/><text fill="#000000" font-family="sans-serif" font-size="12" font-style="italic" lengthAdjust="spacingAndGlyphs" textLength="119" x="60.5" y="295.457">«FunctionalInterface»</text><text fill="#000000" font-family="sans-serif" font-size="14" font-style="italic" font-weight="bold" lengthAdjust="spacingAndGlyphs" textLength="44" x="98" y="312.627">Action</text><text fill="#000000" font-family="sans-serif" font-size="10" font-style="italic" lengthAdjust="spacingAndGlyphs" textLength="111" x="64.5" y="326.084">eapli.framework.actions</text></a><!--MD5=[274ad5661286b626a93603d287cbf95a]
class java.lang.Object--><rect fill="#D3D3D3" filter="url(#f1krqa0n7ns79t)" height="40.1875" id="java.lang.Object" style="stroke: #A80036; stroke-width: 1.5;" width="78" x="216" y="285.5"/><rect fill="#D3D3D3" height="40.1875" style="stroke: #A80036; stroke-width: 1.5;" width="78" x="216" y="285.5"/><ellipse cx="231" cy="305.5938" fill="#ADD1B2" rx="11" ry="11" style="stroke: #A80036; stroke-width: 1.0;"/><path d="M233.7656,301.4688 Q233.9219,301.25 234.1094,301.1406 Q234.2969,301.0313 234.5156,301.0313 Q234.8906,301.0313 235.125,301.2891 Q235.3594,301.5469 235.3594,302.1563 L235.3594,303.6094 Q235.3594,304.2188 235.125,304.4844 Q234.8906,304.75 234.5156,304.75 Q234.1719,304.75 233.9688,304.5469 Q233.7656,304.3594 233.6563,303.8438 Q233.6094,303.4844 233.4219,303.2969 Q233.0938,302.9219 232.4844,302.7031 Q231.875,302.4844 231.25,302.4844 Q230.4844,302.4844 229.8516,302.8125 Q229.2188,303.1406 228.7266,303.8906 Q228.2344,304.6406 228.2344,305.6719 L228.2344,306.7656 Q228.2344,308 229.125,308.8203 Q230.0156,309.6406 231.6094,309.6406 Q232.5469,309.6406 233.2031,309.3906 Q233.5938,309.2344 234.0156,308.7969 Q234.2813,308.5313 234.4297,308.4531 Q234.5781,308.375 234.7813,308.375 Q235.1094,308.375 235.3672,308.6328 Q235.625,308.8906 235.625,309.2344 Q235.625,309.5781 235.2813,309.9844 Q234.7813,310.5625 233.9844,310.8906 Q232.9063,311.3438 231.6094,311.3438 Q230.0938,311.3438 228.8906,310.7188 Q227.9063,310.2188 227.2188,309.1484 Q226.5313,308.0781 226.5313,306.7969 L226.5313,305.6406 Q226.5313,304.3125 227.1484,303.1641 Q227.7656,302.0156 228.8594,301.3984 Q229.9531,300.7813 231.1875,300.7813 Q231.9219,300.7813 232.5703,300.9453 Q233.2188,301.1094 233.7656,301.4688 Z "/><text fill="#000000" font-family="sans-serif" font-size="14" font-weight="bold" lengthAdjust="spacingAndGlyphs" textLength="46" x="245" y="305.0332">Object</text><text fill="#000000" font-family="sans-serif" font-size="10" lengthAdjust="spacingAndGlyphs" textLength="44" x="246" y="318.4902">java.lang</text><!--MD5=[2306df24a75a51da10d60d995b2921bb]
link eapli.framework.validations.Validations to eapli.framework.actions.Action--><path d="M107,218.262 C107,218.262 107,272.9706 107,272.9706 " fill="none" id="eapli.framework.validations.Validations-&gt;eapli.framework.actions.Action" style="stroke: #A80036; stroke-width: 1.0; stroke-dasharray: 7.0,7.0;"/><polygon fill="#A80036" points="107,277.9706,111,268.9706,107,272.9706,103,268.9706,107,277.9706" style="stroke: #A80036; stroke-width: 1.0;"/><!--MD5=[2d6d70b37ca5cd5dc3d340f34a957da1]
link eapli.framework.validations.Validations to java.lang.Object--><path d="M255,218.262 C255,218.262 255,280.2176 255,280.2176 " fill="none" id="eapli.framework.validations.Validations-&gt;java.lang.Object" style="stroke: #A80036; stroke-width: 1.0; stroke-dasharray: 7.0,7.0;"/><polygon fill="#A80036" points="255,285.2176,259,276.2176,255,280.2176,251,276.2176,255,285.2176" style="stroke: #A80036; stroke-width: 1.0;"/><!--MD5=[2016e5022e4f03905284673a65ec53ed]
@startuml

skinparam svgLinkTarget _parent
skinparam linetype ortho
set namespaceSeparator none
class "<b><size:14>Validations</b>\n<size:10>eapli.framework.validations" as eapli.framework.validations.Validations <<Utility>> [[../../../eapli/framework/validations/Validations.html{eapli.framework.validations.Validations}]] {
#Validations()
{static} +void ensureAreEqual(long a,long b,Action consequence)
{static} +void ensureAreEqual(Object a,Object b,Action consequence)
{static} +void ensureMatches(Pattern regex,String arg,Action consequence)
{static} +void ensure(boolean test,Action consequence)
{static} +void ensureNoneNull(Action consequence,Object objects)
{static} +void ensureNonEmpty(Collection<?> arg,Action consequence)
{static} +void ensureNonEmpty(String arg,Action consequence)
{static} +void ensureIsPositive(long arg,Action consequence)
{static} +void ensureNonNegative(long arg,Action consequence)
}


interface "<b><size:14>Action</b>\n<size:10>eapli.framework.actions" as eapli.framework.actions.Action <<FunctionalInterface>> [[../../../eapli/framework/actions/Action.html{eapli.framework.actions.Action}]] #white {
}

hide eapli.framework.actions.Action fields
hide eapli.framework.actions.Action methods

eapli.framework.validations.Validations ..> eapli.framework.actions.Action



class "<b><size:14>Object</b>\n<size:10>java.lang" as java.lang.Object  #lightgrey {
}

hide java.lang.Object fields
hide java.lang.Object methods

eapli.framework.validations.Validations ..> java.lang.Object


@enduml

PlantUML version 1.2020.04(Thu Mar 19 10:16:49 GMT 2020)
(GPL source distribution)
Java Runtime: Java(TM) SE Runtime Environment
JVM: Java HotSpot(TM) 64-Bit Server VM
Java Version: 1.8.0_202-b08
Operating System: Windows 10
Default Encoding: Cp1252
Language: en
Country: US
--></g></svg>