@startuml

skinparam svgLinkTarget _parent
skinparam linetype ortho
set namespaceSeparator none
class "<b><size:14>HorizontalMenuRenderer</b>\n<size:10>eapli.framework.presentation.console.menu" as eapli.framework.presentation.console.menu.HorizontalMenuRenderer <<SuppressWarnings>> [[../../../../../eapli/framework/presentation/console/menu/HorizontalMenuRenderer.html{eapli.framework.presentation.console.menu.HorizontalMenuRenderer}]] {
+HorizontalMenuRenderer(Menu menu,MenuItemRenderer itemRenderer)
#void doRender()
}


class "<b><size:14>MenuRenderer</b>\n<size:10>eapli.framework.presentation.console.menu" as eapli.framework.presentation.console.menu.MenuRenderer  [[../../../../../eapli/framework/presentation/console/menu/MenuRenderer.html{eapli.framework.presentation.console.menu.MenuRenderer}]] {
}

hide eapli.framework.presentation.console.menu.MenuRenderer fields
hide eapli.framework.presentation.console.menu.MenuRenderer methods

eapli.framework.presentation.console.menu.HorizontalMenuRenderer --|> eapli.framework.presentation.console.menu.MenuRenderer

class "<b><size:14>Menu</b>\n<size:10>eapli.framework.actions.menu" as eapli.framework.actions.menu.Menu  [[../../../../../eapli/framework/actions/menu/Menu.html{eapli.framework.actions.menu.Menu}]] #white {
}

hide eapli.framework.actions.menu.Menu fields
hide eapli.framework.actions.menu.Menu methods

eapli.framework.presentation.console.menu.HorizontalMenuRenderer ..> eapli.framework.actions.menu.Menu

class "<b><size:14>MenuItemRenderer</b>\n<size:10>eapli.framework.presentation.console.menu" as eapli.framework.presentation.console.menu.MenuItemRenderer <<SuppressWarnings>> [[../../../../../eapli/framework/presentation/console/menu/MenuItemRenderer.html{eapli.framework.presentation.console.menu.MenuItemRenderer}]] {
}

hide eapli.framework.presentation.console.menu.MenuItemRenderer fields
hide eapli.framework.presentation.console.menu.MenuItemRenderer methods

eapli.framework.presentation.console.menu.HorizontalMenuRenderer ..> eapli.framework.presentation.console.menu.MenuItemRenderer


@enduml
