<?xml version="1.0" encoding="UTF-8" standalone="no"?><svg xmlns="http://www.w3.org/2000/svg" xmlns:xlink="http://www.w3.org/1999/xlink" contentScriptType="application/ecmascript" contentStyleType="text/css" height="347px" preserveAspectRatio="none" style="width:798px;height:347px;" version="1.1" viewBox="0 0 798 347" width="798px" zoomAndPan="magnify"><defs><filter height="300%" id="frs3lluycfgc3" width="300%" x="-1" y="-1"><feGaussianBlur result="blurOut" stdDeviation="2.0"/><feColorMatrix in="blurOut" result="blurOut2" type="matrix" values="0 0 0 0 0 0 0 0 0 0 0 0 0 0 0 0 0 0 .4 0"/><feOffset dx="4.0" dy="4.0" in="blurOut2" result="blurOut3"/><feBlend in="SourceGraphic" in2="blurOut3" mode="normal"/></filter></defs><g><!--MD5=[5bca1a1acd175109361689918123948b]
class eapli.framework.presentation.console.menu.MenuItemRenderer--><a href="../../../../../eapli/framework/presentation/console/menu/MenuItemRenderer.html" target="_parent" title="eapli.framework.presentation.console.menu.MenuItemRenderer" xlink:actuate="onRequest" xlink:href="../../../../../eapli/framework/presentation/console/menu/MenuItemRenderer.html" xlink:show="new" xlink:title="eapli.framework.presentation.console.menu.MenuItemRenderer" xlink:type="simple"><rect fill="#FEFECE" filter="url(#frs3lluycfgc3)" height="112.7891" id="eapli.framework.presentation.console.menu.MenuItemRenderer" style="stroke: #A80036; stroke-width: 1.5;" width="237" x="278" y="123"/><ellipse cx="293" cy="150.6406" fill="#ADD1B2" rx="11" ry="11" style="stroke: #A80036; stroke-width: 1.0;"/><path d="M295.7656,146.5156 Q295.9219,146.2969 296.1094,146.1875 Q296.2969,146.0781 296.5156,146.0781 Q296.8906,146.0781 297.125,146.3359 Q297.3594,146.5938 297.3594,147.2031 L297.3594,148.6563 Q297.3594,149.2656 297.125,149.5313 Q296.8906,149.7969 296.5156,149.7969 Q296.1719,149.7969 295.9688,149.5938 Q295.7656,149.4063 295.6563,148.8906 Q295.6094,148.5313 295.4219,148.3438 Q295.0938,147.9688 294.4844,147.75 Q293.875,147.5313 293.25,147.5313 Q292.4844,147.5313 291.8516,147.8594 Q291.2188,148.1875 290.7266,148.9375 Q290.2344,149.6875 290.2344,150.7188 L290.2344,151.8125 Q290.2344,153.0469 291.125,153.8672 Q292.0156,154.6875 293.6094,154.6875 Q294.5469,154.6875 295.2031,154.4375 Q295.5938,154.2813 296.0156,153.8438 Q296.2813,153.5781 296.4297,153.5 Q296.5781,153.4219 296.7813,153.4219 Q297.1094,153.4219 297.3672,153.6797 Q297.625,153.9375 297.625,154.2813 Q297.625,154.625 297.2813,155.0313 Q296.7813,155.6094 295.9844,155.9375 Q294.9063,156.3906 293.6094,156.3906 Q292.0938,156.3906 290.8906,155.7656 Q289.9063,155.2656 289.2188,154.1953 Q288.5313,153.125 288.5313,151.8438 L288.5313,150.6875 Q288.5313,149.3594 289.1484,148.2109 Q289.7656,147.0625 290.8594,146.4453 Q291.9531,145.8281 293.1875,145.8281 Q293.9219,145.8281 294.5703,145.9922 Q295.2188,146.1563 295.7656,146.5156 Z "/><text fill="#000000" font-family="sans-serif" font-size="12" font-style="italic" lengthAdjust="spacingAndGlyphs" textLength="118" x="350.5" y="140.457">«SuppressWarnings»</text><text fill="#000000" font-family="sans-serif" font-size="14" font-weight="bold" lengthAdjust="spacingAndGlyphs" textLength="137" x="341" y="157.627">MenuItemRenderer</text><text fill="#000000" font-family="sans-serif" font-size="10" lengthAdjust="spacingAndGlyphs" textLength="205" x="307" y="171.084">eapli.framework.presentation.console.menu</text><line style="stroke: #A80036; stroke-width: 1.5;" x1="279" x2="514" y1="178.2813" y2="178.2813"/><ellipse cx="289" cy="189.2813" fill="none" rx="3" ry="3" style="stroke: #038048; stroke-width: 1.0;"/><text fill="#000000" font-family="sans-serif" font-size="11" lengthAdjust="spacingAndGlyphs" text-decoration="underline" textLength="139" x="298" y="193.7002">MenuItemRenderer DEFAULT</text><line style="stroke: #A80036; stroke-width: 1.5;" x1="279" x2="514" y1="200.1172" y2="200.1172"/><ellipse cx="289" cy="211.1172" fill="#84BE84" rx="3" ry="3" style="stroke: #038048; stroke-width: 1.0;"/><text fill="#000000" font-family="sans-serif" font-size="11" lengthAdjust="spacingAndGlyphs" textLength="98" x="298" y="215.5361">MenuItemRenderer()</text><ellipse cx="289" cy="224.9531" fill="#84BE84" rx="3" ry="3" style="stroke: #038048; stroke-width: 1.0;"/><text fill="#000000" font-family="sans-serif" font-size="11" lengthAdjust="spacingAndGlyphs" textLength="130" x="298" y="229.3721">void render(MenuItem item)</text></a><!--MD5=[d9471816fd6736dd0eaf3a8a3ad707b3]
class eapli.framework.presentation.console.menu.HorizontalMenuRenderer--><a href="../../../../../eapli/framework/presentation/console/menu/HorizontalMenuRenderer.html" target="_parent" title="eapli.framework.presentation.console.menu.HorizontalMenuRenderer" xlink:actuate="onRequest" xlink:href="../../../../../eapli/framework/presentation/console/menu/HorizontalMenuRenderer.html" xlink:show="new" xlink:title="eapli.framework.presentation.console.menu.HorizontalMenuRenderer" xlink:type="simple"><rect fill="#FEFECE" filter="url(#frs3lluycfgc3)" height="55.2813" id="eapli.framework.presentation.console.menu.HorizontalMenuRenderer" style="stroke: #A80036; stroke-width: 1.5;" width="237" x="6" y="8"/><ellipse cx="21" cy="35.6406" fill="#ADD1B2" rx="11" ry="11" style="stroke: #A80036; stroke-width: 1.0;"/><path d="M23.7656,31.5156 Q23.9219,31.2969 24.1094,31.1875 Q24.2969,31.0781 24.5156,31.0781 Q24.8906,31.0781 25.125,31.3359 Q25.3594,31.5938 25.3594,32.2031 L25.3594,33.6563 Q25.3594,34.2656 25.125,34.5313 Q24.8906,34.7969 24.5156,34.7969 Q24.1719,34.7969 23.9688,34.5938 Q23.7656,34.4063 23.6563,33.8906 Q23.6094,33.5313 23.4219,33.3438 Q23.0938,32.9688 22.4844,32.75 Q21.875,32.5313 21.25,32.5313 Q20.4844,32.5313 19.8516,32.8594 Q19.2188,33.1875 18.7266,33.9375 Q18.2344,34.6875 18.2344,35.7188 L18.2344,36.8125 Q18.2344,38.0469 19.125,38.8672 Q20.0156,39.6875 21.6094,39.6875 Q22.5469,39.6875 23.2031,39.4375 Q23.5938,39.2813 24.0156,38.8438 Q24.2813,38.5781 24.4297,38.5 Q24.5781,38.4219 24.7813,38.4219 Q25.1094,38.4219 25.3672,38.6797 Q25.625,38.9375 25.625,39.2813 Q25.625,39.625 25.2813,40.0313 Q24.7813,40.6094 23.9844,40.9375 Q22.9063,41.3906 21.6094,41.3906 Q20.0938,41.3906 18.8906,40.7656 Q17.9063,40.2656 17.2188,39.1953 Q16.5313,38.125 16.5313,36.8438 L16.5313,35.6875 Q16.5313,34.3594 17.1484,33.2109 Q17.7656,32.0625 18.8594,31.4453 Q19.9531,30.8281 21.1875,30.8281 Q21.9219,30.8281 22.5703,30.9922 Q23.2188,31.1563 23.7656,31.5156 Z "/><text fill="#000000" font-family="sans-serif" font-size="12" font-style="italic" lengthAdjust="spacingAndGlyphs" textLength="118" x="78.5" y="25.457">«SuppressWarnings»</text><text fill="#000000" font-family="sans-serif" font-size="14" font-weight="bold" lengthAdjust="spacingAndGlyphs" textLength="178" x="48.5" y="42.627">HorizontalMenuRenderer</text><text fill="#000000" font-family="sans-serif" font-size="10" lengthAdjust="spacingAndGlyphs" textLength="205" x="35" y="56.084">eapli.framework.presentation.console.menu</text></a><!--MD5=[997e9759af51b6bb0b155e6901c74880]
class eapli.framework.actions.menu.MenuItem--><a href="../../../../../eapli/framework/actions/menu/MenuItem.html" target="_parent" title="eapli.framework.actions.menu.MenuItem" xlink:actuate="onRequest" xlink:href="../../../../../eapli/framework/actions/menu/MenuItem.html" xlink:show="new" xlink:title="eapli.framework.actions.menu.MenuItem" xlink:type="simple"><rect fill="#FFFFFF" filter="url(#frs3lluycfgc3)" height="40.1875" id="eapli.framework.actions.menu.MenuItem" style="stroke: #A80036; stroke-width: 1.5;" width="173" x="310" y="296"/><rect fill="#FFFFFF" height="40.1875" style="stroke: #A80036; stroke-width: 1.5;" width="173" x="310" y="296"/><ellipse cx="325" cy="316.0938" fill="#ADD1B2" rx="11" ry="11" style="stroke: #A80036; stroke-width: 1.0;"/><path d="M327.7656,311.9688 Q327.9219,311.75 328.1094,311.6406 Q328.2969,311.5313 328.5156,311.5313 Q328.8906,311.5313 329.125,311.7891 Q329.3594,312.0469 329.3594,312.6563 L329.3594,314.1094 Q329.3594,314.7188 329.125,314.9844 Q328.8906,315.25 328.5156,315.25 Q328.1719,315.25 327.9688,315.0469 Q327.7656,314.8594 327.6563,314.3438 Q327.6094,313.9844 327.4219,313.7969 Q327.0938,313.4219 326.4844,313.2031 Q325.875,312.9844 325.25,312.9844 Q324.4844,312.9844 323.8516,313.3125 Q323.2188,313.6406 322.7266,314.3906 Q322.2344,315.1406 322.2344,316.1719 L322.2344,317.2656 Q322.2344,318.5 323.125,319.3203 Q324.0156,320.1406 325.6094,320.1406 Q326.5469,320.1406 327.2031,319.8906 Q327.5938,319.7344 328.0156,319.2969 Q328.2813,319.0313 328.4297,318.9531 Q328.5781,318.875 328.7813,318.875 Q329.1094,318.875 329.3672,319.1328 Q329.625,319.3906 329.625,319.7344 Q329.625,320.0781 329.2813,320.4844 Q328.7813,321.0625 327.9844,321.3906 Q326.9063,321.8438 325.6094,321.8438 Q324.0938,321.8438 322.8906,321.2188 Q321.9063,320.7188 321.2188,319.6484 Q320.5313,318.5781 320.5313,317.2969 L320.5313,316.1406 Q320.5313,314.8125 321.1484,313.6641 Q321.7656,312.5156 322.8594,311.8984 Q323.9531,311.2813 325.1875,311.2813 Q325.9219,311.2813 326.5703,311.4453 Q327.2188,311.6094 327.7656,311.9688 Z "/><text fill="#000000" font-family="sans-serif" font-size="14" font-weight="bold" lengthAdjust="spacingAndGlyphs" textLength="70" x="374.5" y="315.5332">MenuItem</text><text fill="#000000" font-family="sans-serif" font-size="10" lengthAdjust="spacingAndGlyphs" textLength="141" x="339" y="328.9902">eapli.framework.actions.menu</text></a><!--MD5=[95173724b775ae3fac17becf1eff51e7]
class eapli.framework.presentation.console.menu.MenuRenderer--><a href="../../../../../eapli/framework/presentation/console/menu/MenuRenderer.html" target="_parent" title="eapli.framework.presentation.console.menu.MenuRenderer" xlink:actuate="onRequest" xlink:href="../../../../../eapli/framework/presentation/console/menu/MenuRenderer.html" xlink:show="new" xlink:title="eapli.framework.presentation.console.menu.MenuRenderer" xlink:type="simple"><rect fill="#FEFECE" filter="url(#frs3lluycfgc3)" height="40.1875" id="eapli.framework.presentation.console.menu.MenuRenderer" style="stroke: #A80036; stroke-width: 1.5;" width="237" x="278" y="15.5"/><ellipse cx="293" cy="35.5938" fill="#ADD1B2" rx="11" ry="11" style="stroke: #A80036; stroke-width: 1.0;"/><path d="M295.7656,31.4688 Q295.9219,31.25 296.1094,31.1406 Q296.2969,31.0313 296.5156,31.0313 Q296.8906,31.0313 297.125,31.2891 Q297.3594,31.5469 297.3594,32.1563 L297.3594,33.6094 Q297.3594,34.2188 297.125,34.4844 Q296.8906,34.75 296.5156,34.75 Q296.1719,34.75 295.9688,34.5469 Q295.7656,34.3594 295.6563,33.8438 Q295.6094,33.4844 295.4219,33.2969 Q295.0938,32.9219 294.4844,32.7031 Q293.875,32.4844 293.25,32.4844 Q292.4844,32.4844 291.8516,32.8125 Q291.2188,33.1406 290.7266,33.8906 Q290.2344,34.6406 290.2344,35.6719 L290.2344,36.7656 Q290.2344,38 291.125,38.8203 Q292.0156,39.6406 293.6094,39.6406 Q294.5469,39.6406 295.2031,39.3906 Q295.5938,39.2344 296.0156,38.7969 Q296.2813,38.5313 296.4297,38.4531 Q296.5781,38.375 296.7813,38.375 Q297.1094,38.375 297.3672,38.6328 Q297.625,38.8906 297.625,39.2344 Q297.625,39.5781 297.2813,39.9844 Q296.7813,40.5625 295.9844,40.8906 Q294.9063,41.3438 293.6094,41.3438 Q292.0938,41.3438 290.8906,40.7188 Q289.9063,40.2188 289.2188,39.1484 Q288.5313,38.0781 288.5313,36.7969 L288.5313,35.6406 Q288.5313,34.3125 289.1484,33.1641 Q289.7656,32.0156 290.8594,31.3984 Q291.9531,30.7813 293.1875,30.7813 Q293.9219,30.7813 294.5703,30.9453 Q295.2188,31.1094 295.7656,31.4688 Z "/><text fill="#000000" font-family="sans-serif" font-size="14" font-weight="bold" lengthAdjust="spacingAndGlyphs" textLength="107" x="356" y="35.0332">MenuRenderer</text><text fill="#000000" font-family="sans-serif" font-size="10" lengthAdjust="spacingAndGlyphs" textLength="205" x="307" y="48.4902">eapli.framework.presentation.console.menu</text></a><!--MD5=[455c1e100fe1a0e2dbfd5eb2cc042880]
class eapli.framework.presentation.console.menu.VerticalMenuRenderer--><a href="../../../../../eapli/framework/presentation/console/menu/VerticalMenuRenderer.html" target="_parent" title="eapli.framework.presentation.console.menu.VerticalMenuRenderer" xlink:actuate="onRequest" xlink:href="../../../../../eapli/framework/presentation/console/menu/VerticalMenuRenderer.html" xlink:show="new" xlink:title="eapli.framework.presentation.console.menu.VerticalMenuRenderer" xlink:type="simple"><rect fill="#FEFECE" filter="url(#frs3lluycfgc3)" height="55.2813" id="eapli.framework.presentation.console.menu.VerticalMenuRenderer" style="stroke: #A80036; stroke-width: 1.5;" width="237" x="550" y="8"/><ellipse cx="565" cy="35.6406" fill="#ADD1B2" rx="11" ry="11" style="stroke: #A80036; stroke-width: 1.0;"/><path d="M567.7656,31.5156 Q567.9219,31.2969 568.1094,31.1875 Q568.2969,31.0781 568.5156,31.0781 Q568.8906,31.0781 569.125,31.3359 Q569.3594,31.5938 569.3594,32.2031 L569.3594,33.6563 Q569.3594,34.2656 569.125,34.5313 Q568.8906,34.7969 568.5156,34.7969 Q568.1719,34.7969 567.9688,34.5938 Q567.7656,34.4063 567.6563,33.8906 Q567.6094,33.5313 567.4219,33.3438 Q567.0938,32.9688 566.4844,32.75 Q565.875,32.5313 565.25,32.5313 Q564.4844,32.5313 563.8516,32.8594 Q563.2188,33.1875 562.7266,33.9375 Q562.2344,34.6875 562.2344,35.7188 L562.2344,36.8125 Q562.2344,38.0469 563.125,38.8672 Q564.0156,39.6875 565.6094,39.6875 Q566.5469,39.6875 567.2031,39.4375 Q567.5938,39.2813 568.0156,38.8438 Q568.2813,38.5781 568.4297,38.5 Q568.5781,38.4219 568.7813,38.4219 Q569.1094,38.4219 569.3672,38.6797 Q569.625,38.9375 569.625,39.2813 Q569.625,39.625 569.2813,40.0313 Q568.7813,40.6094 567.9844,40.9375 Q566.9063,41.3906 565.6094,41.3906 Q564.0938,41.3906 562.8906,40.7656 Q561.9063,40.2656 561.2188,39.1953 Q560.5313,38.125 560.5313,36.8438 L560.5313,35.6875 Q560.5313,34.3594 561.1484,33.2109 Q561.7656,32.0625 562.8594,31.4453 Q563.9531,30.8281 565.1875,30.8281 Q565.9219,30.8281 566.5703,30.9922 Q567.2188,31.1563 567.7656,31.5156 Z "/><text fill="#000000" font-family="sans-serif" font-size="12" font-style="italic" lengthAdjust="spacingAndGlyphs" textLength="118" x="622.5" y="25.457">«SuppressWarnings»</text><text fill="#000000" font-family="sans-serif" font-size="14" font-weight="bold" lengthAdjust="spacingAndGlyphs" textLength="160" x="601.5" y="42.627">VerticalMenuRenderer</text><text fill="#000000" font-family="sans-serif" font-size="10" lengthAdjust="spacingAndGlyphs" textLength="205" x="579" y="56.084">eapli.framework.presentation.console.menu</text></a><!--MD5=[d7d2345ff91b9235ec1d73e2b082a7de]
link eapli.framework.presentation.console.menu.HorizontalMenuRenderer to eapli.framework.presentation.console.menu.MenuItemRenderer--><path d="M243.196,58 C307.035,58 372.8,58 372.8,58 C372.8,58 372.8,117.663 372.8,117.663 " fill="none" id="eapli.framework.presentation.console.menu.HorizontalMenuRenderer-&gt;eapli.framework.presentation.console.menu.MenuItemRenderer" style="stroke: #A80036; stroke-width: 1.0; stroke-dasharray: 7.0,7.0;"/><polygon fill="#A80036" points="372.8,122.663,376.8,113.663,372.8,117.663,368.8,113.663,372.8,122.663" style="stroke: #A80036; stroke-width: 1.0;"/><!--MD5=[cd11b945182c89d2ba87b56e131cbc6a]
link eapli.framework.presentation.console.menu.MenuItemRenderer to eapli.framework.presentation.console.menu.MenuItemRenderer--><path d="M325.4,122.768 C325.4,106.464 325.4,93 325.4,93 C325.4,93 260.5,93 260.5,93 C260.5,93 260.5,266 260.5,266 C260.5,266 294,266 294,266 C294,266 294,241.2316 294,241.2316 " fill="none" id="eapli.framework.presentation.console.menu.MenuItemRenderer-&gt;eapli.framework.presentation.console.menu.MenuItemRenderer" style="stroke: #A80036; stroke-width: 1.0;"/><polygon fill="#A80036" points="294,236.2316,290,245.2316,294,241.2316,298,245.2316,294,236.2316" style="stroke: #A80036; stroke-width: 1.0;"/><text fill="#000000" font-family="sans-serif" font-size="13" lengthAdjust="spacingAndGlyphs" textLength="58" x="220.7953" y="257.2438">DEFAULT</text><!--MD5=[8d8bbcc0ea54802744f1310f2124d74a]
link eapli.framework.presentation.console.menu.MenuItemRenderer to eapli.framework.actions.menu.MenuItem--><path d="M396.5,236.2024 C396.5,236.2024 396.5,290.9838 396.5,290.9838 " fill="none" id="eapli.framework.presentation.console.menu.MenuItemRenderer-&gt;eapli.framework.actions.menu.MenuItem" style="stroke: #A80036; stroke-width: 1.0; stroke-dasharray: 7.0,7.0;"/><polygon fill="#A80036" points="396.5,295.9838,400.5,286.9838,396.5,290.9838,392.5,286.9838,396.5,295.9838" style="stroke: #A80036; stroke-width: 1.0;"/><!--MD5=[84803dd62fdacdfee9361d6677d144e0]
link eapli.framework.presentation.console.menu.MenuRenderer to eapli.framework.presentation.console.menu.MenuItemRenderer--><path d="M420.2,55.523 C420.2,55.523 420.2,117.697 420.2,117.697 " fill="none" id="eapli.framework.presentation.console.menu.MenuRenderer-&gt;eapli.framework.presentation.console.menu.MenuItemRenderer" style="stroke: #A80036; stroke-width: 1.0;"/><polygon fill="#A80036" points="420.2,122.697,424.2,113.697,420.2,117.697,416.2,113.697,420.2,122.697" style="stroke: #A80036; stroke-width: 1.0;"/><text fill="#000000" font-family="sans-serif" font-size="13" lengthAdjust="spacingAndGlyphs" textLength="77" x="341.3963" y="112.3285">itemRenderer</text><!--MD5=[b4755e19f2bf6ccbfc04038deb2909d0]
link eapli.framework.presentation.console.menu.VerticalMenuRenderer to eapli.framework.presentation.console.menu.MenuItemRenderer--><path d="M549.893,61 C506.398,61 467.6,61 467.6,61 C467.6,61 467.6,117.68 467.6,117.68 " fill="none" id="eapli.framework.presentation.console.menu.VerticalMenuRenderer-&gt;eapli.framework.presentation.console.menu.MenuItemRenderer" style="stroke: #A80036; stroke-width: 1.0; stroke-dasharray: 7.0,7.0;"/><polygon fill="#A80036" points="467.6,122.68,471.6,113.68,467.6,117.68,463.6,113.68,467.6,122.68" style="stroke: #A80036; stroke-width: 1.0;"/><!--MD5=[4eb2ee864304af2070d15e464619de30]
@startuml

skinparam svgLinkTarget _parent
skinparam linetype ortho
set namespaceSeparator none
class "<b><size:14>MenuItemRenderer</b>\n<size:10>eapli.framework.presentation.console.menu" as eapli.framework.presentation.console.menu.MenuItemRenderer <<SuppressWarnings>> [[../../../../../eapli/framework/presentation/console/menu/MenuItemRenderer.html{eapli.framework.presentation.console.menu.MenuItemRenderer}]] {
{static} +MenuItemRenderer DEFAULT
+MenuItemRenderer()
+void render(MenuItem item)
}


class "<b><size:14>HorizontalMenuRenderer</b>\n<size:10>eapli.framework.presentation.console.menu" as eapli.framework.presentation.console.menu.HorizontalMenuRenderer <<SuppressWarnings>> [[../../../../../eapli/framework/presentation/console/menu/HorizontalMenuRenderer.html{eapli.framework.presentation.console.menu.HorizontalMenuRenderer}]] {
}

hide eapli.framework.presentation.console.menu.HorizontalMenuRenderer fields
hide eapli.framework.presentation.console.menu.HorizontalMenuRenderer methods

eapli.framework.presentation.console.menu.HorizontalMenuRenderer ..> eapli.framework.presentation.console.menu.MenuItemRenderer

eapli.framework.presentation.console.menu.MenuItemRenderer - ->  "DEFAULT" eapli.framework.presentation.console.menu.MenuItemRenderer

class "<b><size:14>MenuItem</b>\n<size:10>eapli.framework.actions.menu" as eapli.framework.actions.menu.MenuItem  [[../../../../../eapli/framework/actions/menu/MenuItem.html{eapli.framework.actions.menu.MenuItem}]] #white {
}

hide eapli.framework.actions.menu.MenuItem fields
hide eapli.framework.actions.menu.MenuItem methods

eapli.framework.presentation.console.menu.MenuItemRenderer ..> eapli.framework.actions.menu.MenuItem

class "<b><size:14>MenuRenderer</b>\n<size:10>eapli.framework.presentation.console.menu" as eapli.framework.presentation.console.menu.MenuRenderer  [[../../../../../eapli/framework/presentation/console/menu/MenuRenderer.html{eapli.framework.presentation.console.menu.MenuRenderer}]] {
}

hide eapli.framework.presentation.console.menu.MenuRenderer fields
hide eapli.framework.presentation.console.menu.MenuRenderer methods

eapli.framework.presentation.console.menu.MenuRenderer - ->  "itemRenderer" eapli.framework.presentation.console.menu.MenuItemRenderer

class "<b><size:14>VerticalMenuRenderer</b>\n<size:10>eapli.framework.presentation.console.menu" as eapli.framework.presentation.console.menu.VerticalMenuRenderer <<SuppressWarnings>> [[../../../../../eapli/framework/presentation/console/menu/VerticalMenuRenderer.html{eapli.framework.presentation.console.menu.VerticalMenuRenderer}]] {
}

hide eapli.framework.presentation.console.menu.VerticalMenuRenderer fields
hide eapli.framework.presentation.console.menu.VerticalMenuRenderer methods

eapli.framework.presentation.console.menu.VerticalMenuRenderer ..> eapli.framework.presentation.console.menu.MenuItemRenderer


@enduml

PlantUML version 1.2020.04(Thu Mar 19 10:16:49 GMT 2020)
(GPL source distribution)
Java Runtime: Java(TM) SE Runtime Environment
JVM: Java HotSpot(TM) 64-Bit Server VM
Java Version: 1.8.0_202-b08
Operating System: Windows 10
Default Encoding: Cp1252
Language: en
Country: US
--></g></svg>