@startuml

skinparam svgLinkTarget _parent
skinparam linetype ortho
set namespaceSeparator none
class "<b><size:14>MenuRenderer</b>\n<size:10>eapli.framework.presentation.console.menu" as eapli.framework.presentation.console.menu.MenuRenderer  [[../../../../../eapli/framework/presentation/console/menu/MenuRenderer.html{eapli.framework.presentation.console.menu.MenuRenderer}]] {
#Menu menu
#MenuItemRenderer itemRenderer
+MenuRenderer(Menu menu,MenuItemRenderer itemRenderer)
+boolean render()
#boolean doRenderSubmenu(Menu submenu)
{abstract} #void doRender()
#MenuItem readOption()
}


class "<b><size:14>HorizontalMenuRenderer</b>\n<size:10>eapli.framework.presentation.console.menu" as eapli.framework.presentation.console.menu.HorizontalMenuRenderer <<SuppressWarnings>> [[../../../../../eapli/framework/presentation/console/menu/HorizontalMenuRenderer.html{eapli.framework.presentation.console.menu.HorizontalMenuRenderer}]] {
}

hide eapli.framework.presentation.console.menu.HorizontalMenuRenderer fields
hide eapli.framework.presentation.console.menu.HorizontalMenuRenderer methods

eapli.framework.presentation.console.menu.HorizontalMenuRenderer --|> eapli.framework.presentation.console.menu.MenuRenderer

class "<b><size:14>Menu</b>\n<size:10>eapli.framework.actions.menu" as eapli.framework.actions.menu.Menu  [[../../../../../eapli/framework/actions/menu/Menu.html{eapli.framework.actions.menu.Menu}]] #white {
}

hide eapli.framework.actions.menu.Menu fields
hide eapli.framework.actions.menu.Menu methods

eapli.framework.presentation.console.menu.MenuRenderer -->  "menu" eapli.framework.actions.menu.Menu

class "<b><size:14>MenuItemRenderer</b>\n<size:10>eapli.framework.presentation.console.menu" as eapli.framework.presentation.console.menu.MenuItemRenderer <<SuppressWarnings>> [[../../../../../eapli/framework/presentation/console/menu/MenuItemRenderer.html{eapli.framework.presentation.console.menu.MenuItemRenderer}]] {
}

hide eapli.framework.presentation.console.menu.MenuItemRenderer fields
hide eapli.framework.presentation.console.menu.MenuItemRenderer methods

eapli.framework.presentation.console.menu.MenuRenderer -->  "itemRenderer" eapli.framework.presentation.console.menu.MenuItemRenderer


class "<b><size:14>VerticalMenuRenderer</b>\n<size:10>eapli.framework.presentation.console.menu" as eapli.framework.presentation.console.menu.VerticalMenuRenderer <<SuppressWarnings>> [[../../../../../eapli/framework/presentation/console/menu/VerticalMenuRenderer.html{eapli.framework.presentation.console.menu.VerticalMenuRenderer}]] {
}

hide eapli.framework.presentation.console.menu.VerticalMenuRenderer fields
hide eapli.framework.presentation.console.menu.VerticalMenuRenderer methods

eapli.framework.presentation.console.menu.VerticalMenuRenderer --|> eapli.framework.presentation.console.menu.MenuRenderer


@enduml
