<?xml version="1.0" encoding="UTF-8" standalone="no"?><svg xmlns="http://www.w3.org/2000/svg" xmlns:xlink="http://www.w3.org/1999/xlink" contentScriptType="application/ecmascript" contentStyleType="text/css" height="218px" preserveAspectRatio="none" style="width:262px;height:218px;" version="1.1" viewBox="0 0 262 218" width="262px" zoomAndPan="magnify"><defs><filter height="300%" id="f1hz82j0ym16yi" width="300%" x="-1" y="-1"><feGaussianBlur result="blurOut" stdDeviation="2.0"/><feColorMatrix in="blurOut" result="blurOut2" type="matrix" values="0 0 0 0 0 0 0 0 0 0 0 0 0 0 0 0 0 0 .4 0"/><feOffset dx="4.0" dy="4.0" in="blurOut2" result="blurOut3"/><feBlend in="SourceGraphic" in2="blurOut3" mode="normal"/></filter></defs><g><!--MD5=[85e3d335ac20b6ecc57374daf35dbb05]
class eapli.framework.domain.model.identities.IdentityGenerators.LazyHolder--><a href="../../../../../eapli/framework/domain/model/identities/IdentityGenerators.LazyHolder.html" target="_parent" title="eapli.framework.domain.model.identities.IdentityGenerators.LazyHolder" xlink:actuate="onRequest" xlink:href="../../../../../eapli/framework/domain/model/identities/IdentityGenerators.LazyHolder.html" xlink:show="new" xlink:title="eapli.framework.domain.model.identities.IdentityGenerators.LazyHolder" xlink:type="simple"><rect fill="#FEFECE" filter="url(#f1hz82j0ym16yi)" height="83.8594" id="eapli.framework.domain.model.identities.IdentityGenerators.LazyHolder" style="stroke: #A80036; stroke-width: 1.5;" width="245" x="6" y="8"/><ellipse cx="21" cy="28.0938" fill="#ADD1B2" rx="11" ry="11" style="stroke: #A80036; stroke-width: 1.0;"/><path d="M23.7656,23.9688 Q23.9219,23.75 24.1094,23.6406 Q24.2969,23.5313 24.5156,23.5313 Q24.8906,23.5313 25.125,23.7891 Q25.3594,24.0469 25.3594,24.6563 L25.3594,26.1094 Q25.3594,26.7188 25.125,26.9844 Q24.8906,27.25 24.5156,27.25 Q24.1719,27.25 23.9688,27.0469 Q23.7656,26.8594 23.6563,26.3438 Q23.6094,25.9844 23.4219,25.7969 Q23.0938,25.4219 22.4844,25.2031 Q21.875,24.9844 21.25,24.9844 Q20.4844,24.9844 19.8516,25.3125 Q19.2188,25.6406 18.7266,26.3906 Q18.2344,27.1406 18.2344,28.1719 L18.2344,29.2656 Q18.2344,30.5 19.125,31.3203 Q20.0156,32.1406 21.6094,32.1406 Q22.5469,32.1406 23.2031,31.8906 Q23.5938,31.7344 24.0156,31.2969 Q24.2813,31.0313 24.4297,30.9531 Q24.5781,30.875 24.7813,30.875 Q25.1094,30.875 25.3672,31.1328 Q25.625,31.3906 25.625,31.7344 Q25.625,32.0781 25.2813,32.4844 Q24.7813,33.0625 23.9844,33.3906 Q22.9063,33.8438 21.6094,33.8438 Q20.0938,33.8438 18.8906,33.2188 Q17.9063,32.7188 17.2188,31.6484 Q16.5313,30.5781 16.5313,29.2969 L16.5313,28.1406 Q16.5313,26.8125 17.1484,25.6641 Q17.7656,24.5156 18.8594,23.8984 Q19.9531,23.2813 21.1875,23.2813 Q21.9219,23.2813 22.5703,23.4453 Q23.2188,23.6094 23.7656,23.9688 Z "/><text fill="#000000" font-family="sans-serif" font-size="14" font-weight="bold" lengthAdjust="spacingAndGlyphs" textLength="213" x="35" y="27.5332">IdentityGenerators.LazyHolder</text><text fill="#000000" font-family="sans-serif" font-size="10" lengthAdjust="spacingAndGlyphs" textLength="192" x="45.5" y="40.9902">eapli.framework.domain.model.identities</text><line style="stroke: #A80036; stroke-width: 1.5;" x1="7" x2="250" y1="48.1875" y2="48.1875"/><rect fill="none" height="6" style="stroke: #C82930; stroke-width: 1.0;" width="6" x="14" y="56.1875"/><text fill="#000000" font-family="sans-serif" font-size="11" lengthAdjust="spacingAndGlyphs" text-decoration="underline" textLength="142" x="26" y="63.6064">IdentityGenerators INSTANCE</text><line style="stroke: #A80036; stroke-width: 1.5;" x1="7" x2="250" y1="70.0234" y2="70.0234"/><rect fill="#F24D5C" height="6" style="stroke: #C82930; stroke-width: 1.0;" width="6" x="14" y="78.0234"/><text fill="#000000" font-family="sans-serif" font-size="11" lengthAdjust="spacingAndGlyphs" textLength="63" x="26" y="85.4424">LazyHolder()</text></a><!--MD5=[96dd3f1929ee5828162d7dfb2529e0b0]
class eapli.framework.domain.model.identities.IdentityGenerators--><a href="../../../../../eapli/framework/domain/model/identities/IdentityGenerators.html" target="_parent" title="eapli.framework.domain.model.identities.IdentityGenerators" xlink:actuate="onRequest" xlink:href="../../../../../eapli/framework/domain/model/identities/IdentityGenerators.html" xlink:show="new" xlink:title="eapli.framework.domain.model.identities.IdentityGenerators" xlink:type="simple"><rect fill="#FEFECE" filter="url(#f1hz82j0ym16yi)" height="55.2813" id="eapli.framework.domain.model.identities.IdentityGenerators" style="stroke: #A80036; stroke-width: 1.5;" width="224" x="16.5" y="152"/><ellipse cx="31.5" cy="179.6406" fill="#ADD1B2" rx="11" ry="11" style="stroke: #A80036; stroke-width: 1.0;"/><path d="M34.2656,175.5156 Q34.4219,175.2969 34.6094,175.1875 Q34.7969,175.0781 35.0156,175.0781 Q35.3906,175.0781 35.625,175.3359 Q35.8594,175.5938 35.8594,176.2031 L35.8594,177.6563 Q35.8594,178.2656 35.625,178.5313 Q35.3906,178.7969 35.0156,178.7969 Q34.6719,178.7969 34.4688,178.5938 Q34.2656,178.4063 34.1563,177.8906 Q34.1094,177.5313 33.9219,177.3438 Q33.5938,176.9688 32.9844,176.75 Q32.375,176.5313 31.75,176.5313 Q30.9844,176.5313 30.3516,176.8594 Q29.7188,177.1875 29.2266,177.9375 Q28.7344,178.6875 28.7344,179.7188 L28.7344,180.8125 Q28.7344,182.0469 29.625,182.8672 Q30.5156,183.6875 32.1094,183.6875 Q33.0469,183.6875 33.7031,183.4375 Q34.0938,183.2813 34.5156,182.8438 Q34.7813,182.5781 34.9297,182.5 Q35.0781,182.4219 35.2813,182.4219 Q35.6094,182.4219 35.8672,182.6797 Q36.125,182.9375 36.125,183.2813 Q36.125,183.625 35.7813,184.0313 Q35.2813,184.6094 34.4844,184.9375 Q33.4063,185.3906 32.1094,185.3906 Q30.5938,185.3906 29.3906,184.7656 Q28.4063,184.2656 27.7188,183.1953 Q27.0313,182.125 27.0313,180.8438 L27.0313,179.6875 Q27.0313,178.3594 27.6484,177.2109 Q28.2656,176.0625 29.3594,175.4453 Q30.4531,174.8281 31.6875,174.8281 Q32.4219,174.8281 33.0703,174.9922 Q33.7188,175.1563 34.2656,175.5156 Z "/><text fill="#000000" font-family="sans-serif" font-size="12" font-style="italic" lengthAdjust="spacingAndGlyphs" textLength="66" x="108.5" y="169.457">«Singleton»</text><text fill="#000000" font-family="sans-serif" font-size="14" font-weight="bold" lengthAdjust="spacingAndGlyphs" textLength="132" x="75.5" y="186.627">IdentityGenerators</text><text fill="#000000" font-family="sans-serif" font-size="10" lengthAdjust="spacingAndGlyphs" textLength="192" x="45.5" y="200.084">eapli.framework.domain.model.identities</text></a><!--MD5=[c184757a3c0ef77e780860847ae448d7]
link eapli.framework.domain.model.identities.IdentityGenerators.LazyHolder to eapli.framework.domain.model.identities.IdentityGenerators--><path d="M128.5,92.045 C128.5,92.045 128.5,146.9386 128.5,146.9386 " fill="none" id="eapli.framework.domain.model.identities.IdentityGenerators.LazyHolder-&gt;eapli.framework.domain.model.identities.IdentityGenerators" style="stroke: #A80036; stroke-width: 1.0;"/><polygon fill="#A80036" points="128.5,151.9386,132.5,142.9386,128.5,146.9386,124.5,142.9386,128.5,151.9386" style="stroke: #A80036; stroke-width: 1.0;"/><text fill="#000000" font-family="sans-serif" font-size="13" lengthAdjust="spacingAndGlyphs" textLength="64" x="57.1" y="141.2183">INSTANCE</text><!--MD5=[0411cd640f42f75bd0d658a3b46b6f03]
@startuml

skinparam svgLinkTarget _parent
skinparam linetype ortho
set namespaceSeparator none
class "<b><size:14>IdentityGenerators.LazyHolder</b>\n<size:10>eapli.framework.domain.model.identities" as eapli.framework.domain.model.identities.IdentityGenerators.LazyHolder  [[../../../../../eapli/framework/domain/model/identities/IdentityGenerators.LazyHolder.html{eapli.framework.domain.model.identities.IdentityGenerators.LazyHolder}]] {
{static} -IdentityGenerators INSTANCE
-LazyHolder()
}


class "<b><size:14>IdentityGenerators</b>\n<size:10>eapli.framework.domain.model.identities" as eapli.framework.domain.model.identities.IdentityGenerators <<Singleton>> [[../../../../../eapli/framework/domain/model/identities/IdentityGenerators.html{eapli.framework.domain.model.identities.IdentityGenerators}]] {
}

hide eapli.framework.domain.model.identities.IdentityGenerators fields
hide eapli.framework.domain.model.identities.IdentityGenerators methods

eapli.framework.domain.model.identities.IdentityGenerators.LazyHolder - ->  "INSTANCE" eapli.framework.domain.model.identities.IdentityGenerators


@enduml

PlantUML version 1.2020.04(Thu Mar 19 10:16:49 GMT 2020)
(GPL source distribution)
Java Runtime: Java(TM) SE Runtime Environment
JVM: Java HotSpot(TM) 64-Bit Server VM
Java Version: 1.8.0_202-b08
Operating System: Windows 10
Default Encoding: Cp1252
Language: en
Country: US
--></g></svg>