@startuml

skinparam svgLinkTarget _parent
skinparam linetype ortho
set namespaceSeparator none
class "<b><size:14>InMemoryUserRepository</b>\n<size:10>eapli.framework.infrastructure.authz.repositories.impl" as eapli.framework.infrastructure.authz.repositories.impl.InMemoryUserRepository  [[../../../../../../eapli/framework/infrastructure/authz/repositories/impl/InMemoryUserRepository.html{eapli.framework.infrastructure.authz.repositories.impl.InMemoryUserRepository}]] {
+InMemoryUserRepository()
+Iterable<SystemUser> findByActive(boolean active)
}


class "<b><size:14>InMemoryDomainRepository<Username, SystemUser></b>\n<size:10>eapli.framework.infrastructure.repositories.impl.inmemory" as eapli.framework.infrastructure.repositories.impl.inmemory.InMemoryDomainRepositoryUsernameSystemUser  #lightgrey {
}

hide eapli.framework.infrastructure.repositories.impl.inmemory.InMemoryDomainRepositoryUsernameSystemUser fields
hide eapli.framework.infrastructure.repositories.impl.inmemory.InMemoryDomainRepositoryUsernameSystemUser methods

eapli.framework.infrastructure.authz.repositories.impl.InMemoryUserRepository --|> eapli.framework.infrastructure.repositories.impl.inmemory.InMemoryDomainRepositoryUsernameSystemUser

class "<b><size:14>Username</b>\n<size:10>eapli.framework.infrastructure.authz.domain.model" as eapli.framework.infrastructure.authz.domain.model.Username <<Embeddable>> [[../../../../../../eapli/framework/infrastructure/authz/domain/model/Username.html{eapli.framework.infrastructure.authz.domain.model.Username}]] #white {
}

hide eapli.framework.infrastructure.authz.domain.model.Username fields
hide eapli.framework.infrastructure.authz.domain.model.Username methods

eapli.framework.infrastructure.authz.repositories.impl.InMemoryUserRepository ..> eapli.framework.infrastructure.authz.domain.model.Username

class "<b><size:14>SystemUser</b>\n<size:10>eapli.framework.infrastructure.authz.domain.model" as eapli.framework.infrastructure.authz.domain.model.SystemUser <<Entity>> [[../../../../../../eapli/framework/infrastructure/authz/domain/model/SystemUser.html{eapli.framework.infrastructure.authz.domain.model.SystemUser}]] #white {
}

hide eapli.framework.infrastructure.authz.domain.model.SystemUser fields
hide eapli.framework.infrastructure.authz.domain.model.SystemUser methods

eapli.framework.infrastructure.authz.repositories.impl.InMemoryUserRepository ..> eapli.framework.infrastructure.authz.domain.model.SystemUser

interface "<b><size:14>UserRepository</b>\n<size:10>eapli.framework.infrastructure.authz.domain.repositories" as eapli.framework.infrastructure.authz.domain.repositories.UserRepository  [[../../../../../../eapli/framework/infrastructure/authz/domain/repositories/UserRepository.html{eapli.framework.infrastructure.authz.domain.repositories.UserRepository}]] #white {
}

hide eapli.framework.infrastructure.authz.domain.repositories.UserRepository fields
hide eapli.framework.infrastructure.authz.domain.repositories.UserRepository methods

eapli.framework.infrastructure.authz.repositories.impl.InMemoryUserRepository ..|> eapli.framework.infrastructure.authz.domain.repositories.UserRepository


@enduml
