@startuml

skinparam svgLinkTarget _parent
skinparam linetype ortho
package eapli.framework.infrastructure.authz.repositories.impl [[../../../../../../eapli/framework/infrastructure/authz/repositories/impl/package-summary.html{eapli.framework.infrastructure.authz.repositories.impl}]] #lightyellow {
}

class "<b><size:14>InMemoryUserRepository</b>" as eapli.framework.infrastructure.authz.repositories.impl.InMemoryUserRepository  [[../../../../../../eapli/framework/infrastructure/authz/repositories/impl/InMemoryUserRepository.html{eapli.framework.infrastructure.authz.repositories.impl.InMemoryUserRepository}]] {
}

hide eapli.framework.infrastructure.authz.repositories.impl.InMemoryUserRepository fields
hide eapli.framework.infrastructure.authz.repositories.impl.InMemoryUserRepository methods

class "<b><size:14>JpaAutoTxUserRepository</b>" as eapli.framework.infrastructure.authz.repositories.impl.JpaAutoTxUserRepository  [[../../../../../../eapli/framework/infrastructure/authz/repositories/impl/JpaAutoTxUserRepository.html{eapli.framework.infrastructure.authz.repositories.impl.JpaAutoTxUserRepository}]] {
}

hide eapli.framework.infrastructure.authz.repositories.impl.JpaAutoTxUserRepository fields
hide eapli.framework.infrastructure.authz.repositories.impl.JpaAutoTxUserRepository methods

interface "<b><size:14>SpringDataUserRepository</b>" as eapli.framework.infrastructure.authz.repositories.impl.SpringDataUserRepository  [[../../../../../../eapli/framework/infrastructure/authz/repositories/impl/SpringDataUserRepository.html{eapli.framework.infrastructure.authz.repositories.impl.SpringDataUserRepository}]] {
}

hide eapli.framework.infrastructure.authz.repositories.impl.SpringDataUserRepository fields
hide eapli.framework.infrastructure.authz.repositories.impl.SpringDataUserRepository methods


@enduml
