<?xml version="1.0" encoding="UTF-8" standalone="no"?><svg xmlns="http://www.w3.org/2000/svg" xmlns:xlink="http://www.w3.org/1999/xlink" contentScriptType="application/ecmascript" contentStyleType="text/css" height="303px" preserveAspectRatio="none" style="width:336px;height:303px;" version="1.1" viewBox="0 0 336 303" width="336px" zoomAndPan="magnify"><defs><filter height="300%" id="f19b6valpng3ca" width="300%" x="-1" y="-1"><feGaussianBlur result="blurOut" stdDeviation="2.0"/><feColorMatrix in="blurOut" result="blurOut2" type="matrix" values="0 0 0 0 0 0 0 0 0 0 0 0 0 0 0 0 0 0 .4 0"/><feOffset dx="4.0" dy="4.0" in="blurOut2" result="blurOut3"/><feBlend in="SourceGraphic" in2="blurOut3" mode="normal"/></filter></defs><g><!--MD5=[ea75adc6b2f7b75164bb2ec99f67a451]
class eapli.framework.domain.events.DomainEvent--><a href="../../../../eapli/framework/domain/events/DomainEvent.html" target="_parent" title="eapli.framework.domain.events.DomainEvent" xlink:actuate="onRequest" xlink:href="../../../../eapli/framework/domain/events/DomainEvent.html" xlink:show="new" xlink:title="eapli.framework.domain.events.DomainEvent" xlink:type="simple"><rect fill="#FEFECE" filter="url(#f19b6valpng3ca)" height="83.8594" id="eapli.framework.domain.events.DomainEvent" style="stroke: #A80036; stroke-width: 1.5;" width="177" x="92.5" y="108"/><ellipse cx="107.5" cy="128.0938" fill="#B4A7E5" rx="11" ry="11" style="stroke: #A80036; stroke-width: 1.0;"/><path d="M108.4531,124.7344 L108.4531,131.3906 L110.1719,131.3906 Q110.7813,131.3906 111.0469,131.625 Q111.3125,131.8594 111.3125,132.25 Q111.3125,132.625 111.0469,132.8594 Q110.7813,133.0938 110.1719,133.0938 L105.0313,133.0938 Q104.4219,133.0938 104.1563,132.8594 Q103.8906,132.625 103.8906,132.2344 Q103.8906,131.8594 104.1563,131.625 Q104.4219,131.3906 105.0313,131.3906 L106.75,131.3906 L106.75,124.7344 L105.0313,124.7344 Q104.4219,124.7344 104.1563,124.5 Q103.8906,124.2656 103.8906,123.875 Q103.8906,123.5 104.1563,123.2656 Q104.4219,123.0313 105.0313,123.0313 L110.1719,123.0313 Q110.7813,123.0313 111.0469,123.2656 Q111.3125,123.5 111.3125,123.875 Q111.3125,124.2656 111.0469,124.5 Q110.7813,124.7344 110.1719,124.7344 L108.4531,124.7344 Z "/><text fill="#000000" font-family="sans-serif" font-size="14" font-style="italic" font-weight="bold" lengthAdjust="spacingAndGlyphs" textLength="90" x="149" y="127.5332">DomainEvent</text><text fill="#000000" font-family="sans-serif" font-size="10" font-style="italic" lengthAdjust="spacingAndGlyphs" textLength="145" x="121.5" y="140.9902">eapli.framework.domain.events</text><line style="stroke: #A80036; stroke-width: 1.5;" x1="93.5" x2="268.5" y1="148.1875" y2="148.1875"/><line style="stroke: #A80036; stroke-width: 1.5;" x1="93.5" x2="268.5" y1="156.1875" y2="156.1875"/><ellipse cx="103.5" cy="167.1875" fill="#84BE84" rx="3" ry="3" style="stroke: #038048; stroke-width: 1.0;"/><text fill="#000000" font-family="sans-serif" font-size="11" font-style="italic" lengthAdjust="spacingAndGlyphs" textLength="110" x="112.5" y="171.6064">Calendar occurredAt()</text><ellipse cx="103.5" cy="181.0234" fill="#84BE84" rx="3" ry="3" style="stroke: #038048; stroke-width: 1.0;"/><text fill="#000000" font-family="sans-serif" font-size="11" font-style="italic" lengthAdjust="spacingAndGlyphs" textLength="116" x="112.5" y="185.4424">Calendar registeredAt()</text></a><!--MD5=[ce0423b4918b6b29de95b9c9580cdd71]
class eapli.framework.domain.model.ValueObject--><a href="../../../../eapli/framework/domain/model/ValueObject.html" target="_parent" title="eapli.framework.domain.model.ValueObject" xlink:actuate="onRequest" xlink:href="../../../../eapli/framework/domain/model/ValueObject.html" xlink:show="new" xlink:title="eapli.framework.domain.model.ValueObject" xlink:type="simple"><rect fill="#FFFFFF" filter="url(#f19b6valpng3ca)" height="40.1875" id="eapli.framework.domain.model.ValueObject" style="stroke: #A80036; stroke-width: 1.5;" width="174" x="6" y="252"/><rect fill="#FFFFFF" height="40.1875" style="stroke: #A80036; stroke-width: 1.5;" width="174" x="6" y="252"/><ellipse cx="21" cy="272.0938" fill="#B4A7E5" rx="11" ry="11" style="stroke: #A80036; stroke-width: 1.0;"/><path d="M21.9531,268.7344 L21.9531,275.3906 L23.6719,275.3906 Q24.2813,275.3906 24.5469,275.625 Q24.8125,275.8594 24.8125,276.25 Q24.8125,276.625 24.5469,276.8594 Q24.2813,277.0938 23.6719,277.0938 L18.5313,277.0938 Q17.9219,277.0938 17.6563,276.8594 Q17.3906,276.625 17.3906,276.2344 Q17.3906,275.8594 17.6563,275.625 Q17.9219,275.3906 18.5313,275.3906 L20.25,275.3906 L20.25,268.7344 L18.5313,268.7344 Q17.9219,268.7344 17.6563,268.5 Q17.3906,268.2656 17.3906,267.875 Q17.3906,267.5 17.6563,267.2656 Q17.9219,267.0313 18.5313,267.0313 L23.6719,267.0313 Q24.2813,267.0313 24.5469,267.2656 Q24.8125,267.5 24.8125,267.875 Q24.8125,268.2656 24.5469,268.5 Q24.2813,268.7344 23.6719,268.7344 L21.9531,268.7344 Z "/><text fill="#000000" font-family="sans-serif" font-size="14" font-style="italic" font-weight="bold" lengthAdjust="spacingAndGlyphs" textLength="84" x="64" y="271.5332">ValueObject</text><text fill="#000000" font-family="sans-serif" font-size="10" font-style="italic" lengthAdjust="spacingAndGlyphs" textLength="142" x="35" y="284.9902">eapli.framework.domain.model</text></a><!--MD5=[5a5af9b0547913863cbe0ddf55a9ab5e]
class java.io.Serializable--><rect fill="#D3D3D3" filter="url(#f19b6valpng3ca)" height="40.1875" id="java.io.Serializable" style="stroke: #A80036; stroke-width: 1.5;" width="110" x="215" y="252"/><rect fill="#D3D3D3" height="40.1875" style="stroke: #A80036; stroke-width: 1.5;" width="110" x="215" y="252"/><ellipse cx="230" cy="272.0938" fill="#B4A7E5" rx="11" ry="11" style="stroke: #A80036; stroke-width: 1.0;"/><path d="M230.9531,268.7344 L230.9531,275.3906 L232.6719,275.3906 Q233.2813,275.3906 233.5469,275.625 Q233.8125,275.8594 233.8125,276.25 Q233.8125,276.625 233.5469,276.8594 Q233.2813,277.0938 232.6719,277.0938 L227.5313,277.0938 Q226.9219,277.0938 226.6563,276.8594 Q226.3906,276.625 226.3906,276.2344 Q226.3906,275.8594 226.6563,275.625 Q226.9219,275.3906 227.5313,275.3906 L229.25,275.3906 L229.25,268.7344 L227.5313,268.7344 Q226.9219,268.7344 226.6563,268.5 Q226.3906,268.2656 226.3906,267.875 Q226.3906,267.5 226.6563,267.2656 Q226.9219,267.0313 227.5313,267.0313 L232.6719,267.0313 Q233.2813,267.0313 233.5469,267.2656 Q233.8125,267.5 233.8125,267.875 Q233.8125,268.2656 233.5469,268.5 Q233.2813,268.7344 232.6719,268.7344 L230.9531,268.7344 Z "/><text fill="#000000" font-family="sans-serif" font-size="14" font-style="italic" font-weight="bold" lengthAdjust="spacingAndGlyphs" textLength="78" x="244" y="271.5332">Serializable</text><text fill="#000000" font-family="sans-serif" font-size="10" font-style="italic" lengthAdjust="spacingAndGlyphs" textLength="31" x="267.5" y="284.9902">java.io</text><!--MD5=[4beb70b4df165f82a4be1a581888c180]
class eapli.framework.domain.events.DomainEventBase--><a href="../../../../eapli/framework/domain/events/DomainEventBase.html" target="_parent" title="eapli.framework.domain.events.DomainEventBase" xlink:actuate="onRequest" xlink:href="../../../../eapli/framework/domain/events/DomainEventBase.html" xlink:show="new" xlink:title="eapli.framework.domain.events.DomainEventBase" xlink:type="simple"><rect fill="#FEFECE" filter="url(#f19b6valpng3ca)" height="40.1875" id="eapli.framework.domain.events.DomainEventBase" style="stroke: #A80036; stroke-width: 1.5;" width="178" x="92" y="8"/><ellipse cx="107" cy="28.0938" fill="#ADD1B2" rx="11" ry="11" style="stroke: #A80036; stroke-width: 1.0;"/><path d="M109.7656,23.9688 Q109.9219,23.75 110.1094,23.6406 Q110.2969,23.5313 110.5156,23.5313 Q110.8906,23.5313 111.125,23.7891 Q111.3594,24.0469 111.3594,24.6563 L111.3594,26.1094 Q111.3594,26.7188 111.125,26.9844 Q110.8906,27.25 110.5156,27.25 Q110.1719,27.25 109.9688,27.0469 Q109.7656,26.8594 109.6563,26.3438 Q109.6094,25.9844 109.4219,25.7969 Q109.0938,25.4219 108.4844,25.2031 Q107.875,24.9844 107.25,24.9844 Q106.4844,24.9844 105.8516,25.3125 Q105.2188,25.6406 104.7266,26.3906 Q104.2344,27.1406 104.2344,28.1719 L104.2344,29.2656 Q104.2344,30.5 105.125,31.3203 Q106.0156,32.1406 107.6094,32.1406 Q108.5469,32.1406 109.2031,31.8906 Q109.5938,31.7344 110.0156,31.2969 Q110.2813,31.0313 110.4297,30.9531 Q110.5781,30.875 110.7813,30.875 Q111.1094,30.875 111.3672,31.1328 Q111.625,31.3906 111.625,31.7344 Q111.625,32.0781 111.2813,32.4844 Q110.7813,33.0625 109.9844,33.3906 Q108.9063,33.8438 107.6094,33.8438 Q106.0938,33.8438 104.8906,33.2188 Q103.9063,32.7188 103.2188,31.6484 Q102.5313,30.5781 102.5313,29.2969 L102.5313,28.1406 Q102.5313,26.8125 103.1484,25.6641 Q103.7656,24.5156 104.8594,23.8984 Q105.9531,23.2813 107.1875,23.2813 Q107.9219,23.2813 108.5703,23.4453 Q109.2188,23.6094 109.7656,23.9688 Z "/><text fill="#000000" font-family="sans-serif" font-size="14" font-weight="bold" lengthAdjust="spacingAndGlyphs" textLength="128" x="130" y="27.5332">DomainEventBase</text><text fill="#000000" font-family="sans-serif" font-size="10" lengthAdjust="spacingAndGlyphs" textLength="146" x="121" y="40.9902">eapli.framework.domain.events</text></a><!--MD5=[ebf28006866209ac7544d58fc9aaf164]
link eapli.framework.domain.events.DomainEvent to eapli.framework.domain.model.ValueObject--><path d="M136.25,192.3273 C136.25,192.3273 136.25,231.9727 136.25,231.9727 " fill="none" id="eapli.framework.domain.events.DomainEvent-&gt;eapli.framework.domain.model.ValueObject" style="stroke: #A80036; stroke-width: 1.0;"/><polygon fill="none" points="143.25,231.9727,136.25,251.9727,129.25,231.9726,143.25,231.9727" style="stroke: #A80036; stroke-width: 1.0;"/><!--MD5=[6e374603832ee40f2538a6c46a6bb9d8]
link eapli.framework.domain.events.DomainEvent to java.io.Serializable--><path d="M242.25,192.3273 C242.25,192.3273 242.25,231.9727 242.25,231.9727 " fill="none" id="eapli.framework.domain.events.DomainEvent-&gt;java.io.Serializable" style="stroke: #A80036; stroke-width: 1.0;"/><polygon fill="none" points="249.25,231.9727,242.25,251.9727,235.25,231.9726,249.25,231.9727" style="stroke: #A80036; stroke-width: 1.0;"/><!--MD5=[77ddf3a519bdb4746e59c4bafccfd568]
link eapli.framework.domain.events.DomainEventBase to eapli.framework.domain.events.DomainEvent--><path d="M181,48.146 C181,48.146 181,87.804 181,87.804 " fill="none" id="eapli.framework.domain.events.DomainEventBase-&gt;eapli.framework.domain.events.DomainEvent" style="stroke: #A80036; stroke-width: 1.0; stroke-dasharray: 7.0,7.0;"/><polygon fill="none" points="188,87.804,181,107.804,174,87.804,188,87.804" style="stroke: #A80036; stroke-width: 1.0;"/><!--MD5=[f17fef52930e448401e9571ebe90833a]
@startuml

skinparam svgLinkTarget _parent
skinparam linetype ortho
set namespaceSeparator none
interface "<b><size:14>DomainEvent</b>\n<size:10>eapli.framework.domain.events" as eapli.framework.domain.events.DomainEvent  [[../../../../eapli/framework/domain/events/DomainEvent.html{eapli.framework.domain.events.DomainEvent}]] {
{abstract} +Calendar occurredAt()
{abstract} +Calendar registeredAt()
}


interface "<b><size:14>ValueObject</b>\n<size:10>eapli.framework.domain.model" as eapli.framework.domain.model.ValueObject  [[../../../../eapli/framework/domain/model/ValueObject.html{eapli.framework.domain.model.ValueObject}]] #white {
}

hide eapli.framework.domain.model.ValueObject fields
hide eapli.framework.domain.model.ValueObject methods

eapli.framework.domain.events.DomainEvent - -|> eapli.framework.domain.model.ValueObject

interface "<b><size:14>Serializable</b>\n<size:10>java.io" as java.io.Serializable  #lightgrey {
}

hide java.io.Serializable fields
hide java.io.Serializable methods

eapli.framework.domain.events.DomainEvent - -|> java.io.Serializable


class "<b><size:14>DomainEventBase</b>\n<size:10>eapli.framework.domain.events" as eapli.framework.domain.events.DomainEventBase  [[../../../../eapli/framework/domain/events/DomainEventBase.html{eapli.framework.domain.events.DomainEventBase}]] {
}

hide eapli.framework.domain.events.DomainEventBase fields
hide eapli.framework.domain.events.DomainEventBase methods

eapli.framework.domain.events.DomainEventBase ..|> eapli.framework.domain.events.DomainEvent


@enduml

PlantUML version 1.2020.04(Thu Mar 19 10:16:49 GMT 2020)
(GPL source distribution)
Java Runtime: Java(TM) SE Runtime Environment
JVM: Java HotSpot(TM) 64-Bit Server VM
Java Version: 1.8.0_202-b08
Operating System: Windows 10
Default Encoding: Cp1252
Language: en
Country: US
--></g></svg>