@startuml

skinparam svgLinkTarget _parent
skinparam linetype ortho
package eapli.framework.domain.events [[../../../../eapli/framework/domain/events/package-summary.html{eapli.framework.domain.events}]] #lightyellow {
}

interface "<b><size:14>DomainEvent</b>" as eapli.framework.domain.events.DomainEvent  [[../../../../eapli/framework/domain/events/DomainEvent.html{eapli.framework.domain.events.DomainEvent}]] {
}

hide eapli.framework.domain.events.DomainEvent fields
hide eapli.framework.domain.events.DomainEvent methods

class "<b><size:14>DomainEventBase</b>" as eapli.framework.domain.events.DomainEventBase  [[../../../../eapli/framework/domain/events/DomainEventBase.html{eapli.framework.domain.events.DomainEventBase}]] {
}

hide eapli.framework.domain.events.DomainEventBase fields
hide eapli.framework.domain.events.DomainEventBase methods

eapli.framework.domain.events.DomainEventBase ..|> eapli.framework.domain.events.DomainEvent

@enduml
