@startuml

skinparam svgLinkTarget _parent
skinparam linetype ortho
package eapli.framework.infrastructure.repositories [[../../../../eapli/framework/infrastructure/repositories/package-summary.html{eapli.framework.infrastructure.repositories}]] #lightyellow {
}

interface "<b><size:14>IterableRepository</b>" as eapli.framework.infrastructure.repositories.IterableRepository  [[../../../../eapli/framework/infrastructure/repositories/IterableRepository.html{eapli.framework.infrastructure.repositories.IterableRepository}]] {
}

hide eapli.framework.infrastructure.repositories.IterableRepository fields
hide eapli.framework.infrastructure.repositories.IterableRepository methods

interface "<b><size:14>Repository</b>" as eapli.framework.infrastructure.repositories.Repository  [[../../../../eapli/framework/infrastructure/repositories/Repository.html{eapli.framework.infrastructure.repositories.Repository}]] {
}

hide eapli.framework.infrastructure.repositories.Repository fields
hide eapli.framework.infrastructure.repositories.Repository methods

eapli.framework.infrastructure.repositories.IterableRepository --|> eapli.framework.infrastructure.repositories.RepositoryObjectObject

@enduml
