@startuml

skinparam svgLinkTarget _parent
skinparam linetype ortho
package eapli.framework.domain.model.identities.impl [[../../../../../../eapli/framework/domain/model/identities/impl/package-summary.html{eapli.framework.domain.model.identities.impl}]] #lightyellow {
}

class "<b><size:14>HexSequenceGenerator</b>" as eapli.framework.domain.model.identities.impl.HexSequenceGenerator  [[../../../../../../eapli/framework/domain/model/identities/impl/HexSequenceGenerator.html{eapli.framework.domain.model.identities.impl.HexSequenceGenerator}]] {
}

hide eapli.framework.domain.model.identities.impl.HexSequenceGenerator fields
hide eapli.framework.domain.model.identities.impl.HexSequenceGenerator methods

class "<b><size:14>NumberSequenceGenerator</b>" as eapli.framework.domain.model.identities.impl.NumberSequenceGenerator  [[../../../../../../eapli/framework/domain/model/identities/impl/NumberSequenceGenerator.html{eapli.framework.domain.model.identities.impl.NumberSequenceGenerator}]] {
}

hide eapli.framework.domain.model.identities.impl.NumberSequenceGenerator fields
hide eapli.framework.domain.model.identities.impl.NumberSequenceGenerator methods

class "<b><size:14>PrefixedNumberSequenceGenerator</b>" as eapli.framework.domain.model.identities.impl.PrefixedNumberSequenceGenerator  [[../../../../../../eapli/framework/domain/model/identities/impl/PrefixedNumberSequenceGenerator.html{eapli.framework.domain.model.identities.impl.PrefixedNumberSequenceGenerator}]] {
}

hide eapli.framework.domain.model.identities.impl.PrefixedNumberSequenceGenerator fields
hide eapli.framework.domain.model.identities.impl.PrefixedNumberSequenceGenerator methods

class "<b><size:14>UUIDGenerator</b>" as eapli.framework.domain.model.identities.impl.UUIDGenerator  [[../../../../../../eapli/framework/domain/model/identities/impl/UUIDGenerator.html{eapli.framework.domain.model.identities.impl.UUIDGenerator}]] {
}

hide eapli.framework.domain.model.identities.impl.UUIDGenerator fields
hide eapli.framework.domain.model.identities.impl.UUIDGenerator methods

eapli.framework.domain.model.identities.impl.HexSequenceGenerator -->  "generator" eapli.framework.domain.model.identities.impl.NumberSequenceGenerator
eapli.framework.domain.model.identities.impl.PrefixedNumberSequenceGenerator -->  "numberPartGenerator" eapli.framework.domain.model.identities.impl.NumberSequenceGenerator

@enduml
