@startuml

skinparam svgLinkTarget _parent
skinparam linetype ortho
set namespaceSeparator none
class "<b><size:14>UUIDGenerator</b>\n<size:10>eapli.framework.domain.model.identities.impl" as eapli.framework.domain.model.identities.impl.UUIDGenerator  [[../../../../../../eapli/framework/domain/model/identities/impl/UUIDGenerator.html{eapli.framework.domain.model.identities.impl.UUIDGenerator}]] {
+UUIDGenerator()
+UUID newId()
}


interface "<b><size:14>IdentityGenerator<UUID></b>\n<size:10>eapli.framework.domain.model.identities" as eapli.framework.domain.model.identities.IdentityGeneratorUUID <<FunctionalInterface>> [[../../../../../../eapli/framework/domain/model/identities/IdentityGenerator.html{eapli.framework.domain.model.identities.IdentityGenerator}]] #lightgrey {
}

hide eapli.framework.domain.model.identities.IdentityGeneratorUUID fields
hide eapli.framework.domain.model.identities.IdentityGeneratorUUID methods

eapli.framework.domain.model.identities.impl.UUIDGenerator ..|> eapli.framework.domain.model.identities.IdentityGeneratorUUID



@enduml
