@startuml

skinparam svgLinkTarget _parent
skinparam linetype ortho
set namespaceSeparator none
class "<b><size:14>InProcessPublisherDispatcher</b>\n<size:10>eapli.framework.infrastructure.eventpubsub.impl.inprocess" as eapli.framework.infrastructure.eventpubsub.impl.inprocess.InProcessPublisherDispatcher <<Component>> [[../../../../../../eapli/framework/infrastructure/eventpubsub/impl/inprocess/InProcessPublisherDispatcher.html{eapli.framework.infrastructure.eventpubsub.impl.inprocess.InProcessPublisherDispatcher}]] {
{static} -Logger LOGGER
-Map<Class, List> handlers
~InProcessPublisherDispatcher()
+void subscribe(EventHandler observer,Class<?> events)
+void unsubscribe(EventHandler observer,Class<?> events)
+void unsubscribe(EventHandler observer)
+void publish(DomainEvent event)
+void shutdown()
}


interface "<b><size:14>Logger</b>\n<size:10>org.apache.logging.log4j" as org.apache.logging.log4j.Logger  #lightgrey {
}

hide org.apache.logging.log4j.Logger fields
hide org.apache.logging.log4j.Logger methods

eapli.framework.infrastructure.eventpubsub.impl.inprocess.InProcessPublisherDispatcher -->  "LOGGER" org.apache.logging.log4j.Logger



interface "<b><size:14>EventDispatcher</b>\n<size:10>eapli.framework.infrastructure.eventpubsub" as eapli.framework.infrastructure.eventpubsub.EventDispatcher  [[../../../../../../eapli/framework/infrastructure/eventpubsub/EventDispatcher.html{eapli.framework.infrastructure.eventpubsub.EventDispatcher}]] #white {
}

hide eapli.framework.infrastructure.eventpubsub.EventDispatcher fields
hide eapli.framework.infrastructure.eventpubsub.EventDispatcher methods

eapli.framework.infrastructure.eventpubsub.impl.inprocess.InProcessPublisherDispatcher ..|> eapli.framework.infrastructure.eventpubsub.EventDispatcher

interface "<b><size:14>EventPublisher</b>\n<size:10>eapli.framework.infrastructure.eventpubsub" as eapli.framework.infrastructure.eventpubsub.EventPublisher  [[../../../../../../eapli/framework/infrastructure/eventpubsub/EventPublisher.html{eapli.framework.infrastructure.eventpubsub.EventPublisher}]] #white {
}

hide eapli.framework.infrastructure.eventpubsub.EventPublisher fields
hide eapli.framework.infrastructure.eventpubsub.EventPublisher methods

eapli.framework.infrastructure.eventpubsub.impl.inprocess.InProcessPublisherDispatcher ..|> eapli.framework.infrastructure.eventpubsub.EventPublisher

interface "<b><size:14>EventHandler</b>\n<size:10>eapli.framework.infrastructure.eventpubsub" as eapli.framework.infrastructure.eventpubsub.EventHandler <<FunctionalInterface>> [[../../../../../../eapli/framework/infrastructure/eventpubsub/EventHandler.html{eapli.framework.infrastructure.eventpubsub.EventHandler}]] #white {
}

hide eapli.framework.infrastructure.eventpubsub.EventHandler fields
hide eapli.framework.infrastructure.eventpubsub.EventHandler methods

eapli.framework.infrastructure.eventpubsub.impl.inprocess.InProcessPublisherDispatcher ..> eapli.framework.infrastructure.eventpubsub.EventHandler

interface "<b><size:14>DomainEvent</b>\n<size:10>eapli.framework.domain.events" as eapli.framework.domain.events.DomainEvent  #lightgrey {
}

hide eapli.framework.domain.events.DomainEvent fields
hide eapli.framework.domain.events.DomainEvent methods

eapli.framework.infrastructure.eventpubsub.impl.inprocess.InProcessPublisherDispatcher ..> eapli.framework.domain.events.DomainEvent

class "<b><size:14>InProcessPubSub.LazyHolder</b>\n<size:10>eapli.framework.infrastructure.eventpubsub.impl.inprocess" as eapli.framework.infrastructure.eventpubsub.impl.inprocess.InProcessPubSub.LazyHolder  [[../../../../../../eapli/framework/infrastructure/eventpubsub/impl/inprocess/InProcessPubSub.LazyHolder.html{eapli.framework.infrastructure.eventpubsub.impl.inprocess.InProcessPubSub.LazyHolder}]] {
}

hide eapli.framework.infrastructure.eventpubsub.impl.inprocess.InProcessPubSub.LazyHolder fields
hide eapli.framework.infrastructure.eventpubsub.impl.inprocess.InProcessPubSub.LazyHolder methods

eapli.framework.infrastructure.eventpubsub.impl.inprocess.InProcessPubSub.LazyHolder -->  "INSTANCE" eapli.framework.infrastructure.eventpubsub.impl.inprocess.InProcessPublisherDispatcher


@enduml
