@startuml

skinparam svgLinkTarget _parent
skinparam linetype ortho
set namespaceSeparator none
interface "<b><size:14>PasswordPolicy</b>\n<size:10>eapli.framework.infrastructure.authz.application" as eapli.framework.infrastructure.authz.application.PasswordPolicy <<FunctionalInterface>> [[../../../../../eapli/framework/infrastructure/authz/application/PasswordPolicy.html{eapli.framework.infrastructure.authz.application.PasswordPolicy}]] {
{abstract} +boolean isSatisfiedBy(String rawPassword)
}


class "<b><size:14>AuthenticationService</b>\n<size:10>eapli.framework.infrastructure.authz.application" as eapli.framework.infrastructure.authz.application.AuthenticationService <<Component>> [[../../../../../eapli/framework/infrastructure/authz/application/AuthenticationService.html{eapli.framework.infrastructure.authz.application.AuthenticationService}]] {
}

hide eapli.framework.infrastructure.authz.application.AuthenticationService fields
hide eapli.framework.infrastructure.authz.application.AuthenticationService methods

eapli.framework.infrastructure.authz.application.AuthenticationService -->  "policy" eapli.framework.infrastructure.authz.application.PasswordPolicy

class "<b><size:14>AuthzRegistry</b>\n<size:10>eapli.framework.infrastructure.authz.application" as eapli.framework.infrastructure.authz.application.AuthzRegistry <<Singleton>> [[../../../../../eapli/framework/infrastructure/authz/application/AuthzRegistry.html{eapli.framework.infrastructure.authz.application.AuthzRegistry}]] {
}

hide eapli.framework.infrastructure.authz.application.AuthzRegistry fields
hide eapli.framework.infrastructure.authz.application.AuthzRegistry methods

eapli.framework.infrastructure.authz.application.AuthzRegistry ..> eapli.framework.infrastructure.authz.application.PasswordPolicy

class "<b><size:14>UserManagementService</b>\n<size:10>eapli.framework.infrastructure.authz.application" as eapli.framework.infrastructure.authz.application.UserManagementService <<Component>> [[../../../../../eapli/framework/infrastructure/authz/application/UserManagementService.html{eapli.framework.infrastructure.authz.application.UserManagementService}]] {
}

hide eapli.framework.infrastructure.authz.application.UserManagementService fields
hide eapli.framework.infrastructure.authz.application.UserManagementService methods

eapli.framework.infrastructure.authz.application.UserManagementService -->  "policy" eapli.framework.infrastructure.authz.application.PasswordPolicy

class "<b><size:14>NilPasswordPolicy</b>\n<size:10>eapli.framework.infrastructure.authz.domain.model" as eapli.framework.infrastructure.authz.domain.model.NilPasswordPolicy  [[../../../../../eapli/framework/infrastructure/authz/domain/model/NilPasswordPolicy.html{eapli.framework.infrastructure.authz.domain.model.NilPasswordPolicy}]] #white {
}

hide eapli.framework.infrastructure.authz.domain.model.NilPasswordPolicy fields
hide eapli.framework.infrastructure.authz.domain.model.NilPasswordPolicy methods

eapli.framework.infrastructure.authz.domain.model.NilPasswordPolicy ..|> eapli.framework.infrastructure.authz.application.PasswordPolicy

class "<b><size:14>Password</b>\n<size:10>eapli.framework.infrastructure.authz.domain.model" as eapli.framework.infrastructure.authz.domain.model.Password <<Embeddable>> [[../../../../../eapli/framework/infrastructure/authz/domain/model/Password.html{eapli.framework.infrastructure.authz.domain.model.Password}]] #white {
}

hide eapli.framework.infrastructure.authz.domain.model.Password fields
hide eapli.framework.infrastructure.authz.domain.model.Password methods

eapli.framework.infrastructure.authz.domain.model.Password ..> eapli.framework.infrastructure.authz.application.PasswordPolicy

class "<b><size:14>SystemUserBuilder</b>\n<size:10>eapli.framework.infrastructure.authz.domain.model" as eapli.framework.infrastructure.authz.domain.model.SystemUserBuilder  [[../../../../../eapli/framework/infrastructure/authz/domain/model/SystemUserBuilder.html{eapli.framework.infrastructure.authz.domain.model.SystemUserBuilder}]] #white {
}

hide eapli.framework.infrastructure.authz.domain.model.SystemUserBuilder fields
hide eapli.framework.infrastructure.authz.domain.model.SystemUserBuilder methods

eapli.framework.infrastructure.authz.domain.model.SystemUserBuilder -->  "policy" eapli.framework.infrastructure.authz.application.PasswordPolicy


@enduml
