@startuml

skinparam svgLinkTarget _parent
skinparam linetype ortho
set namespaceSeparator none
class "<b><size:14>UserDetailsServiceImpl</b>\n<size:10>eapli.framework.infrastructure.authz.application" as eapli.framework.infrastructure.authz.application.UserDetailsServiceImpl <<Service>> [[../../../../../eapli/framework/infrastructure/authz/application/UserDetailsServiceImpl.html{eapli.framework.infrastructure.authz.application.UserDetailsServiceImpl}]] {
{static} -Logger LOGGER
-UserRepository userRepository
-AuthorizationService authz
+UserDetailsServiceImpl(UserRepository userRepository,AuthorizationService authz)
+UserDetails loadUserByUsername(String username)
}


interface "<b><size:14>Logger</b>\n<size:10>org.apache.logging.log4j" as org.apache.logging.log4j.Logger  #lightgrey {
}

hide org.apache.logging.log4j.Logger fields
hide org.apache.logging.log4j.Logger methods

eapli.framework.infrastructure.authz.application.UserDetailsServiceImpl -->  "LOGGER" org.apache.logging.log4j.Logger

interface "<b><size:14>UserRepository</b>\n<size:10>eapli.framework.infrastructure.authz.domain.repositories" as eapli.framework.infrastructure.authz.domain.repositories.UserRepository  [[../../../../../eapli/framework/infrastructure/authz/domain/repositories/UserRepository.html{eapli.framework.infrastructure.authz.domain.repositories.UserRepository}]] #white {
}

hide eapli.framework.infrastructure.authz.domain.repositories.UserRepository fields
hide eapli.framework.infrastructure.authz.domain.repositories.UserRepository methods

eapli.framework.infrastructure.authz.application.UserDetailsServiceImpl -->  "userRepository" eapli.framework.infrastructure.authz.domain.repositories.UserRepository

class "<b><size:14>AuthorizationService</b>\n<size:10>eapli.framework.infrastructure.authz.application" as eapli.framework.infrastructure.authz.application.AuthorizationService <<Component>> [[../../../../../eapli/framework/infrastructure/authz/application/AuthorizationService.html{eapli.framework.infrastructure.authz.application.AuthorizationService}]] {
}

hide eapli.framework.infrastructure.authz.application.AuthorizationService fields
hide eapli.framework.infrastructure.authz.application.AuthorizationService methods

eapli.framework.infrastructure.authz.application.UserDetailsServiceImpl -->  "authz" eapli.framework.infrastructure.authz.application.AuthorizationService

interface "<b><size:14>UserDetailsService</b>\n<size:10>org.springframework.security.core.userdetails" as org.springframework.security.core.userdetails.UserDetailsService  #lightgrey {
}

hide org.springframework.security.core.userdetails.UserDetailsService fields
hide org.springframework.security.core.userdetails.UserDetailsService methods

eapli.framework.infrastructure.authz.application.UserDetailsServiceImpl ..|> org.springframework.security.core.userdetails.UserDetailsService

interface "<b><size:14>UserDetails</b>\n<size:10>org.springframework.security.core.userdetails" as org.springframework.security.core.userdetails.UserDetails  #lightgrey {
}

hide org.springframework.security.core.userdetails.UserDetails fields
hide org.springframework.security.core.userdetails.UserDetails methods

eapli.framework.infrastructure.authz.application.UserDetailsServiceImpl ..> org.springframework.security.core.userdetails.UserDetails


@enduml
