<?xml version="1.0" encoding="UTF-8" standalone="no"?><svg xmlns="http://www.w3.org/2000/svg" xmlns:xlink="http://www.w3.org/1999/xlink" contentScriptType="application/ecmascript" contentStyleType="text/css" height="501px" preserveAspectRatio="none" style="width:2662px;height:501px;" version="1.1" viewBox="0 0 2662 501" width="2662px" zoomAndPan="magnify"><defs><filter height="300%" id="f1qsddahd9yuy3" width="300%" x="-1" y="-1"><feGaussianBlur result="blurOut" stdDeviation="2.0"/><feColorMatrix in="blurOut" result="blurOut2" type="matrix" values="0 0 0 0 0 0 0 0 0 0 0 0 0 0 0 0 0 0 .4 0"/><feOffset dx="4.0" dy="4.0" in="blurOut2" result="blurOut3"/><feBlend in="SourceGraphic" in2="blurOut3" mode="normal"/></filter></defs><g><!--MD5=[ece0874c8144d897f1a2b84f834ce48a]
class eapli.framework.infrastructure.authz.application.UserManagementService--><a href="../../../../../eapli/framework/infrastructure/authz/application/UserManagementService.html" target="_parent" title="eapli.framework.infrastructure.authz.application.UserManagementService" xlink:actuate="onRequest" xlink:href="../../../../../eapli/framework/infrastructure/authz/application/UserManagementService.html" xlink:show="new" xlink:title="eapli.framework.infrastructure.authz.application.UserManagementService" xlink:type="simple"><rect fill="#FEFECE" filter="url(#f1qsddahd9yuy3)" height="237.3125" id="eapli.framework.infrastructure.authz.application.UserManagementService" style="stroke: #A80036; stroke-width: 1.5;" width="757" x="967.5" y="123"/><ellipse cx="1229.75" cy="150.6406" fill="#ADD1B2" rx="11" ry="11" style="stroke: #A80036; stroke-width: 1.0;"/><path d="M1232.5156,146.5156 Q1232.6719,146.2969 1232.8594,146.1875 Q1233.0469,146.0781 1233.2656,146.0781 Q1233.6406,146.0781 1233.875,146.3359 Q1234.1094,146.5938 1234.1094,147.2031 L1234.1094,148.6563 Q1234.1094,149.2656 1233.875,149.5313 Q1233.6406,149.7969 1233.2656,149.7969 Q1232.9219,149.7969 1232.7188,149.5938 Q1232.5156,149.4063 1232.4063,148.8906 Q1232.3594,148.5313 1232.1719,148.3438 Q1231.8438,147.9688 1231.2344,147.75 Q1230.625,147.5313 1230,147.5313 Q1229.2344,147.5313 1228.6016,147.8594 Q1227.9688,148.1875 1227.4766,148.9375 Q1226.9844,149.6875 1226.9844,150.7188 L1226.9844,151.8125 Q1226.9844,153.0469 1227.875,153.8672 Q1228.7656,154.6875 1230.3594,154.6875 Q1231.2969,154.6875 1231.9531,154.4375 Q1232.3438,154.2813 1232.7656,153.8438 Q1233.0313,153.5781 1233.1797,153.5 Q1233.3281,153.4219 1233.5313,153.4219 Q1233.8594,153.4219 1234.1172,153.6797 Q1234.375,153.9375 1234.375,154.2813 Q1234.375,154.625 1234.0313,155.0313 Q1233.5313,155.6094 1232.7344,155.9375 Q1231.6563,156.3906 1230.3594,156.3906 Q1228.8438,156.3906 1227.6406,155.7656 Q1226.6563,155.2656 1225.9688,154.1953 Q1225.2813,153.125 1225.2813,151.8438 L1225.2813,150.6875 Q1225.2813,149.3594 1225.8984,148.2109 Q1226.5156,147.0625 1227.6094,146.4453 Q1228.7031,145.8281 1229.9375,145.8281 Q1230.6719,145.8281 1231.3203,145.9922 Q1231.9688,146.1563 1232.5156,146.5156 Z "/><text fill="#000000" font-family="sans-serif" font-size="12" font-style="italic" lengthAdjust="spacingAndGlyphs" textLength="79" x="1322.75" y="140.457">«Component»</text><text fill="#000000" font-family="sans-serif" font-size="14" font-weight="bold" lengthAdjust="spacingAndGlyphs" textLength="178" x="1273.25" y="157.627">UserManagementService</text><text fill="#000000" font-family="sans-serif" font-size="10" lengthAdjust="spacingAndGlyphs" textLength="224" x="1250.25" y="171.084">eapli.framework.infrastructure.authz.application</text><line style="stroke: #A80036; stroke-width: 1.5;" x1="968.5" x2="1723.5" y1="178.2813" y2="178.2813"/><rect fill="none" height="6" style="stroke: #C82930; stroke-width: 1.0;" width="6" x="975.5" y="186.2813"/><text fill="#000000" font-family="sans-serif" font-size="11" lengthAdjust="spacingAndGlyphs" textLength="152" x="987.5" y="193.7002">UserRepository userRepository</text><rect fill="none" height="6" style="stroke: #C82930; stroke-width: 1.0;" width="6" x="975.5" y="200.1172"/><text fill="#000000" font-family="sans-serif" font-size="11" lengthAdjust="spacingAndGlyphs" textLength="133" x="987.5" y="207.5361">PasswordEncoder encoder</text><rect fill="none" height="6" style="stroke: #C82930; stroke-width: 1.0;" width="6" x="975.5" y="213.9531"/><text fill="#000000" font-family="sans-serif" font-size="11" lengthAdjust="spacingAndGlyphs" textLength="109" x="987.5" y="221.3721">PasswordPolicy policy</text><line style="stroke: #A80036; stroke-width: 1.5;" x1="968.5" x2="1723.5" y1="227.7891" y2="227.7891"/><ellipse cx="978.5" cy="238.7891" fill="#84BE84" rx="3" ry="3" style="stroke: #038048; stroke-width: 1.0;"/><text fill="#000000" font-family="sans-serif" font-size="11" lengthAdjust="spacingAndGlyphs" textLength="502" x="987.5" y="243.208">UserManagementService(UserRepository userRepo,PasswordPolicy policy,PasswordEncoder encoder)</text><ellipse cx="978.5" cy="252.625" fill="#84BE84" rx="3" ry="3" style="stroke: #038048; stroke-width: 1.0;"/><text fill="#000000" font-family="sans-serif" font-size="11" lengthAdjust="spacingAndGlyphs" textLength="731" x="987.5" y="257.0439">SystemUser registerNewUser(String username,String rawPassword,String firstName,String lastName,String email,Set&lt;Role&gt; roles,Calendar createdOn)</text><ellipse cx="978.5" cy="266.4609" fill="#84BE84" rx="3" ry="3" style="stroke: #038048; stroke-width: 1.0;"/><text fill="#000000" font-family="sans-serif" font-size="11" lengthAdjust="spacingAndGlyphs" textLength="631" x="987.5" y="270.8799">SystemUser registerNewUser(String username,String rawPassword,String firstName,String lastName,String email,Set&lt;Role&gt; roles)</text><ellipse cx="978.5" cy="280.2969" fill="#84BE84" rx="3" ry="3" style="stroke: #038048; stroke-width: 1.0;"/><text fill="#000000" font-family="sans-serif" font-size="11" lengthAdjust="spacingAndGlyphs" textLength="570" x="987.5" y="284.7158">SystemUser registerUser(Username username,Password password,Name name,EmailAddress email,Set&lt;Role&gt; roles)</text><ellipse cx="978.5" cy="294.1328" fill="#84BE84" rx="3" ry="3" style="stroke: #038048; stroke-width: 1.0;"/><text fill="#000000" font-family="sans-serif" font-size="11" lengthAdjust="spacingAndGlyphs" textLength="175" x="987.5" y="298.5518">Iterable&lt;SystemUser&gt; activeUsers()</text><ellipse cx="978.5" cy="307.9688" fill="#84BE84" rx="3" ry="3" style="stroke: #038048; stroke-width: 1.0;"/><text fill="#000000" font-family="sans-serif" font-size="11" lengthAdjust="spacingAndGlyphs" textLength="202" x="987.5" y="312.3877">Iterable&lt;SystemUser&gt; deactivatedUsers()</text><ellipse cx="978.5" cy="321.8047" fill="#84BE84" rx="3" ry="3" style="stroke: #038048; stroke-width: 1.0;"/><text fill="#000000" font-family="sans-serif" font-size="11" lengthAdjust="spacingAndGlyphs" textLength="156" x="987.5" y="326.2236">Iterable&lt;SystemUser&gt; allUsers()</text><ellipse cx="978.5" cy="335.6406" fill="#84BE84" rx="3" ry="3" style="stroke: #038048; stroke-width: 1.0;"/><text fill="#000000" font-family="sans-serif" font-size="11" lengthAdjust="spacingAndGlyphs" textLength="249" x="987.5" y="340.0596">Optional&lt;SystemUser&gt; userOfIdentity(Username id)</text><ellipse cx="978.5" cy="349.4766" fill="#84BE84" rx="3" ry="3" style="stroke: #038048; stroke-width: 1.0;"/><text fill="#000000" font-family="sans-serif" font-size="11" lengthAdjust="spacingAndGlyphs" textLength="227" x="987.5" y="353.8955">SystemUser deactivateUser(SystemUser user)</text></a><!--MD5=[a1a882c30fbe0c85a1198076c7a1b57f]
class eapli.framework.infrastructure.authz.application.AuthzRegistry--><a href="../../../../../eapli/framework/infrastructure/authz/application/AuthzRegistry.html" target="_parent" title="eapli.framework.infrastructure.authz.application.AuthzRegistry" xlink:actuate="onRequest" xlink:href="../../../../../eapli/framework/infrastructure/authz/application/AuthzRegistry.html" xlink:show="new" xlink:title="eapli.framework.infrastructure.authz.application.AuthzRegistry" xlink:type="simple"><rect fill="#FEFECE" filter="url(#f1qsddahd9yuy3)" height="55.2813" id="eapli.framework.infrastructure.authz.application.AuthzRegistry" style="stroke: #A80036; stroke-width: 1.5;" width="256" x="1218" y="8"/><ellipse cx="1233" cy="35.6406" fill="#ADD1B2" rx="11" ry="11" style="stroke: #A80036; stroke-width: 1.0;"/><path d="M1235.7656,31.5156 Q1235.9219,31.2969 1236.1094,31.1875 Q1236.2969,31.0781 1236.5156,31.0781 Q1236.8906,31.0781 1237.125,31.3359 Q1237.3594,31.5938 1237.3594,32.2031 L1237.3594,33.6563 Q1237.3594,34.2656 1237.125,34.5313 Q1236.8906,34.7969 1236.5156,34.7969 Q1236.1719,34.7969 1235.9688,34.5938 Q1235.7656,34.4063 1235.6563,33.8906 Q1235.6094,33.5313 1235.4219,33.3438 Q1235.0938,32.9688 1234.4844,32.75 Q1233.875,32.5313 1233.25,32.5313 Q1232.4844,32.5313 1231.8516,32.8594 Q1231.2188,33.1875 1230.7266,33.9375 Q1230.2344,34.6875 1230.2344,35.7188 L1230.2344,36.8125 Q1230.2344,38.0469 1231.125,38.8672 Q1232.0156,39.6875 1233.6094,39.6875 Q1234.5469,39.6875 1235.2031,39.4375 Q1235.5938,39.2813 1236.0156,38.8438 Q1236.2813,38.5781 1236.4297,38.5 Q1236.5781,38.4219 1236.7813,38.4219 Q1237.1094,38.4219 1237.3672,38.6797 Q1237.625,38.9375 1237.625,39.2813 Q1237.625,39.625 1237.2813,40.0313 Q1236.7813,40.6094 1235.9844,40.9375 Q1234.9063,41.3906 1233.6094,41.3906 Q1232.0938,41.3906 1230.8906,40.7656 Q1229.9063,40.2656 1229.2188,39.1953 Q1228.5313,38.125 1228.5313,36.8438 L1228.5313,35.6875 Q1228.5313,34.3594 1229.1484,33.2109 Q1229.7656,32.0625 1230.8594,31.4453 Q1231.9531,30.8281 1233.1875,30.8281 Q1233.9219,30.8281 1234.5703,30.9922 Q1235.2188,31.1563 1235.7656,31.5156 Z "/><text fill="#000000" font-family="sans-serif" font-size="12" font-style="italic" lengthAdjust="spacingAndGlyphs" textLength="66" x="1326" y="25.457">«Singleton»</text><text fill="#000000" font-family="sans-serif" font-size="14" font-weight="bold" lengthAdjust="spacingAndGlyphs" textLength="97" x="1310.5" y="42.627">AuthzRegistry</text><text fill="#000000" font-family="sans-serif" font-size="10" lengthAdjust="spacingAndGlyphs" textLength="224" x="1247" y="56.084">eapli.framework.infrastructure.authz.application</text></a><!--MD5=[4ecd4d434b781c674ba6e816ddaa2ec3]
class eapli.framework.infrastructure.authz.domain.repositories.UserRepository--><a href="../../../../../eapli/framework/infrastructure/authz/domain/repositories/UserRepository.html" target="_parent" title="eapli.framework.infrastructure.authz.domain.repositories.UserRepository" xlink:actuate="onRequest" xlink:href="../../../../../eapli/framework/infrastructure/authz/domain/repositories/UserRepository.html" xlink:show="new" xlink:title="eapli.framework.infrastructure.authz.domain.repositories.UserRepository" xlink:type="simple"><rect fill="#FFFFFF" filter="url(#f1qsddahd9yuy3)" height="40.1875" id="eapli.framework.infrastructure.authz.domain.repositories.UserRepository" style="stroke: #A80036; stroke-width: 1.5;" width="294" x="6" y="435"/><rect fill="#FFFFFF" height="40.1875" style="stroke: #A80036; stroke-width: 1.5;" width="294" x="6" y="435"/><ellipse cx="21" cy="455.0938" fill="#B4A7E5" rx="11" ry="11" style="stroke: #A80036; stroke-width: 1.0;"/><path d="M21.9531,451.7344 L21.9531,458.3906 L23.6719,458.3906 Q24.2813,458.3906 24.5469,458.625 Q24.8125,458.8594 24.8125,459.25 Q24.8125,459.625 24.5469,459.8594 Q24.2813,460.0938 23.6719,460.0938 L18.5313,460.0938 Q17.9219,460.0938 17.6563,459.8594 Q17.3906,459.625 17.3906,459.2344 Q17.3906,458.8594 17.6563,458.625 Q17.9219,458.3906 18.5313,458.3906 L20.25,458.3906 L20.25,451.7344 L18.5313,451.7344 Q17.9219,451.7344 17.6563,451.5 Q17.3906,451.2656 17.3906,450.875 Q17.3906,450.5 17.6563,450.2656 Q17.9219,450.0313 18.5313,450.0313 L23.6719,450.0313 Q24.2813,450.0313 24.5469,450.2656 Q24.8125,450.5 24.8125,450.875 Q24.8125,451.2656 24.5469,451.5 Q24.2813,451.7344 23.6719,451.7344 L21.9531,451.7344 Z "/><text fill="#000000" font-family="sans-serif" font-size="14" font-style="italic" font-weight="bold" lengthAdjust="spacingAndGlyphs" textLength="101" x="115.5" y="454.5332">UserRepository</text><text fill="#000000" font-family="sans-serif" font-size="10" font-style="italic" lengthAdjust="spacingAndGlyphs" textLength="262" x="35" y="467.9902">eapli.framework.infrastructure.authz.domain.repositories</text></a><!--MD5=[f157ecc4364305d9e087d9c5c147f523]
class org.springframework.security.crypto.password.PasswordEncoder--><rect fill="#D3D3D3" filter="url(#f1qsddahd9yuy3)" height="40.1875" id="org.springframework.security.crypto.password.PasswordEncoder" style="stroke: #A80036; stroke-width: 1.5;" width="244" x="335" y="435"/><rect fill="#D3D3D3" height="40.1875" style="stroke: #A80036; stroke-width: 1.5;" width="244" x="335" y="435"/><ellipse cx="350" cy="455.0938" fill="#B4A7E5" rx="11" ry="11" style="stroke: #A80036; stroke-width: 1.0;"/><path d="M350.9531,451.7344 L350.9531,458.3906 L352.6719,458.3906 Q353.2813,458.3906 353.5469,458.625 Q353.8125,458.8594 353.8125,459.25 Q353.8125,459.625 353.5469,459.8594 Q353.2813,460.0938 352.6719,460.0938 L347.5313,460.0938 Q346.9219,460.0938 346.6563,459.8594 Q346.3906,459.625 346.3906,459.2344 Q346.3906,458.8594 346.6563,458.625 Q346.9219,458.3906 347.5313,458.3906 L349.25,458.3906 L349.25,451.7344 L347.5313,451.7344 Q346.9219,451.7344 346.6563,451.5 Q346.3906,451.2656 346.3906,450.875 Q346.3906,450.5 346.6563,450.2656 Q346.9219,450.0313 347.5313,450.0313 L352.6719,450.0313 Q353.2813,450.0313 353.5469,450.2656 Q353.8125,450.5 353.8125,450.875 Q353.8125,451.2656 353.5469,451.5 Q353.2813,451.7344 352.6719,451.7344 L350.9531,451.7344 Z "/><text fill="#000000" font-family="sans-serif" font-size="14" font-style="italic" font-weight="bold" lengthAdjust="spacingAndGlyphs" textLength="120" x="410" y="454.5332">PasswordEncoder</text><text fill="#000000" font-family="sans-serif" font-size="10" font-style="italic" lengthAdjust="spacingAndGlyphs" textLength="212" x="364" y="467.9902">org.springframework.security.crypto.password</text><!--MD5=[d2b6c15f0de031a4c231aa17e09fd21b]
class eapli.framework.infrastructure.authz.application.PasswordPolicy--><a href="../../../../../eapli/framework/infrastructure/authz/application/PasswordPolicy.html" target="_parent" title="eapli.framework.infrastructure.authz.application.PasswordPolicy" xlink:actuate="onRequest" xlink:href="../../../../../eapli/framework/infrastructure/authz/application/PasswordPolicy.html" xlink:show="new" xlink:title="eapli.framework.infrastructure.authz.application.PasswordPolicy" xlink:type="simple"><rect fill="#FEFECE" filter="url(#f1qsddahd9yuy3)" height="55.2813" id="eapli.framework.infrastructure.authz.application.PasswordPolicy" style="stroke: #A80036; stroke-width: 1.5;" width="255" x="614.5" y="427.5"/><ellipse cx="629.5" cy="455.1406" fill="#B4A7E5" rx="11" ry="11" style="stroke: #A80036; stroke-width: 1.0;"/><path d="M630.4531,451.7813 L630.4531,458.4375 L632.1719,458.4375 Q632.7813,458.4375 633.0469,458.6719 Q633.3125,458.9063 633.3125,459.2969 Q633.3125,459.6719 633.0469,459.9063 Q632.7813,460.1406 632.1719,460.1406 L627.0313,460.1406 Q626.4219,460.1406 626.1563,459.9063 Q625.8906,459.6719 625.8906,459.2813 Q625.8906,458.9063 626.1563,458.6719 Q626.4219,458.4375 627.0313,458.4375 L628.75,458.4375 L628.75,451.7813 L627.0313,451.7813 Q626.4219,451.7813 626.1563,451.5469 Q625.8906,451.3125 625.8906,450.9219 Q625.8906,450.5469 626.1563,450.3125 Q626.4219,450.0781 627.0313,450.0781 L632.1719,450.0781 Q632.7813,450.0781 633.0469,450.3125 Q633.3125,450.5469 633.3125,450.9219 Q633.3125,451.3125 633.0469,451.5469 Q632.7813,451.7813 632.1719,451.7813 L630.4531,451.7813 Z "/><text fill="#000000" font-family="sans-serif" font-size="12" font-style="italic" lengthAdjust="spacingAndGlyphs" textLength="119" x="695.5" y="444.957">«FunctionalInterface»</text><text fill="#000000" font-family="sans-serif" font-size="14" font-style="italic" font-weight="bold" lengthAdjust="spacingAndGlyphs" textLength="104" x="703" y="462.127">PasswordPolicy</text><text fill="#000000" font-family="sans-serif" font-size="10" font-style="italic" lengthAdjust="spacingAndGlyphs" textLength="223" x="643.5" y="475.584">eapli.framework.infrastructure.authz.application</text></a><!--MD5=[c26f16576204fd8cd6313e06a213bd12]
class eapli.framework.infrastructure.authz.domain.model.Role--><a href="../../../../../eapli/framework/infrastructure/authz/domain/model/Role.html" target="_parent" title="eapli.framework.infrastructure.authz.domain.model.Role" xlink:actuate="onRequest" xlink:href="../../../../../eapli/framework/infrastructure/authz/domain/model/Role.html" xlink:show="new" xlink:title="eapli.framework.infrastructure.authz.domain.model.Role" xlink:type="simple"><rect fill="#FFFFFF" filter="url(#f1qsddahd9yuy3)" height="40.1875" id="eapli.framework.infrastructure.authz.domain.model.Role" style="stroke: #A80036; stroke-width: 1.5;" width="271" x="904.5" y="435"/><rect fill="#FFFFFF" height="40.1875" style="stroke: #A80036; stroke-width: 1.5;" width="271" x="904.5" y="435"/><ellipse cx="919.5" cy="455.0938" fill="#ADD1B2" rx="11" ry="11" style="stroke: #A80036; stroke-width: 1.0;"/><path d="M922.2656,450.9688 Q922.4219,450.75 922.6094,450.6406 Q922.7969,450.5313 923.0156,450.5313 Q923.3906,450.5313 923.625,450.7891 Q923.8594,451.0469 923.8594,451.6563 L923.8594,453.1094 Q923.8594,453.7188 923.625,453.9844 Q923.3906,454.25 923.0156,454.25 Q922.6719,454.25 922.4688,454.0469 Q922.2656,453.8594 922.1563,453.3438 Q922.1094,452.9844 921.9219,452.7969 Q921.5938,452.4219 920.9844,452.2031 Q920.375,451.9844 919.75,451.9844 Q918.9844,451.9844 918.3516,452.3125 Q917.7188,452.6406 917.2266,453.3906 Q916.7344,454.1406 916.7344,455.1719 L916.7344,456.2656 Q916.7344,457.5 917.625,458.3203 Q918.5156,459.1406 920.1094,459.1406 Q921.0469,459.1406 921.7031,458.8906 Q922.0938,458.7344 922.5156,458.2969 Q922.7813,458.0313 922.9297,457.9531 Q923.0781,457.875 923.2813,457.875 Q923.6094,457.875 923.8672,458.1328 Q924.125,458.3906 924.125,458.7344 Q924.125,459.0781 923.7813,459.4844 Q923.2813,460.0625 922.4844,460.3906 Q921.4063,460.8438 920.1094,460.8438 Q918.5938,460.8438 917.3906,460.2188 Q916.4063,459.7188 915.7188,458.6484 Q915.0313,457.5781 915.0313,456.2969 L915.0313,455.1406 Q915.0313,453.8125 915.6484,452.6641 Q916.2656,451.5156 917.3594,450.8984 Q918.4531,450.2813 919.6875,450.2813 Q920.4219,450.2813 921.0703,450.4453 Q921.7188,450.6094 922.2656,450.9688 Z "/><text fill="#000000" font-family="sans-serif" font-size="14" font-weight="bold" lengthAdjust="spacingAndGlyphs" textLength="32" x="1037" y="454.5332">Role</text><text fill="#000000" font-family="sans-serif" font-size="10" lengthAdjust="spacingAndGlyphs" textLength="239" x="933.5" y="467.9902">eapli.framework.infrastructure.authz.domain.model</text></a><!--MD5=[9d1258bf87405b8ab48e8caec849a2cc]
class eapli.framework.infrastructure.authz.domain.model.SystemUser--><a href="../../../../../eapli/framework/infrastructure/authz/domain/model/SystemUser.html" target="_parent" title="eapli.framework.infrastructure.authz.domain.model.SystemUser" xlink:actuate="onRequest" xlink:href="../../../../../eapli/framework/infrastructure/authz/domain/model/SystemUser.html" xlink:show="new" xlink:title="eapli.framework.infrastructure.authz.domain.model.SystemUser" xlink:type="simple"><rect fill="#FFFFFF" filter="url(#f1qsddahd9yuy3)" height="55.2813" id="eapli.framework.infrastructure.authz.domain.model.SystemUser" style="stroke: #A80036; stroke-width: 1.5;" width="271" x="1210.5" y="427.5"/><rect fill="#FFFFFF" height="55.2813" style="stroke: #A80036; stroke-width: 1.5;" width="271" x="1210.5" y="427.5"/><ellipse cx="1225.5" cy="455.1406" fill="#ADD1B2" rx="11" ry="11" style="stroke: #A80036; stroke-width: 1.0;"/><path d="M1228.2656,451.0156 Q1228.4219,450.7969 1228.6094,450.6875 Q1228.7969,450.5781 1229.0156,450.5781 Q1229.3906,450.5781 1229.625,450.8359 Q1229.8594,451.0938 1229.8594,451.7031 L1229.8594,453.1563 Q1229.8594,453.7656 1229.625,454.0313 Q1229.3906,454.2969 1229.0156,454.2969 Q1228.6719,454.2969 1228.4688,454.0938 Q1228.2656,453.9063 1228.1563,453.3906 Q1228.1094,453.0313 1227.9219,452.8438 Q1227.5938,452.4688 1226.9844,452.25 Q1226.375,452.0313 1225.75,452.0313 Q1224.9844,452.0313 1224.3516,452.3594 Q1223.7188,452.6875 1223.2266,453.4375 Q1222.7344,454.1875 1222.7344,455.2188 L1222.7344,456.3125 Q1222.7344,457.5469 1223.625,458.3672 Q1224.5156,459.1875 1226.1094,459.1875 Q1227.0469,459.1875 1227.7031,458.9375 Q1228.0938,458.7813 1228.5156,458.3438 Q1228.7813,458.0781 1228.9297,458 Q1229.0781,457.9219 1229.2813,457.9219 Q1229.6094,457.9219 1229.8672,458.1797 Q1230.125,458.4375 1230.125,458.7813 Q1230.125,459.125 1229.7813,459.5313 Q1229.2813,460.1094 1228.4844,460.4375 Q1227.4063,460.8906 1226.1094,460.8906 Q1224.5938,460.8906 1223.3906,460.2656 Q1222.4063,459.7656 1221.7188,458.6953 Q1221.0313,457.625 1221.0313,456.3438 L1221.0313,455.1875 Q1221.0313,453.8594 1221.6484,452.7109 Q1222.2656,451.5625 1223.3594,450.9453 Q1224.4531,450.3281 1225.6875,450.3281 Q1226.4219,450.3281 1227.0703,450.4922 Q1227.7188,450.6563 1228.2656,451.0156 Z "/><text fill="#000000" font-family="sans-serif" font-size="12" font-style="italic" lengthAdjust="spacingAndGlyphs" textLength="44" x="1337" y="444.957">«Entity»</text><text fill="#000000" font-family="sans-serif" font-size="14" font-weight="bold" lengthAdjust="spacingAndGlyphs" textLength="83" x="1317.5" y="462.127">SystemUser</text><text fill="#000000" font-family="sans-serif" font-size="10" lengthAdjust="spacingAndGlyphs" textLength="239" x="1239.5" y="475.584">eapli.framework.infrastructure.authz.domain.model</text></a><!--MD5=[ad21e501eaaa768189704de17b30410a]
class eapli.framework.infrastructure.authz.domain.model.Username--><a href="../../../../../eapli/framework/infrastructure/authz/domain/model/Username.html" target="_parent" title="eapli.framework.infrastructure.authz.domain.model.Username" xlink:actuate="onRequest" xlink:href="../../../../../eapli/framework/infrastructure/authz/domain/model/Username.html" xlink:show="new" xlink:title="eapli.framework.infrastructure.authz.domain.model.Username" xlink:type="simple"><rect fill="#FFFFFF" filter="url(#f1qsddahd9yuy3)" height="55.2813" id="eapli.framework.infrastructure.authz.domain.model.Username" style="stroke: #A80036; stroke-width: 1.5;" width="271" x="1516.5" y="427.5"/><rect fill="#FFFFFF" height="55.2813" style="stroke: #A80036; stroke-width: 1.5;" width="271" x="1516.5" y="427.5"/><ellipse cx="1531.5" cy="455.1406" fill="#ADD1B2" rx="11" ry="11" style="stroke: #A80036; stroke-width: 1.0;"/><path d="M1534.2656,451.0156 Q1534.4219,450.7969 1534.6094,450.6875 Q1534.7969,450.5781 1535.0156,450.5781 Q1535.3906,450.5781 1535.625,450.8359 Q1535.8594,451.0938 1535.8594,451.7031 L1535.8594,453.1563 Q1535.8594,453.7656 1535.625,454.0313 Q1535.3906,454.2969 1535.0156,454.2969 Q1534.6719,454.2969 1534.4688,454.0938 Q1534.2656,453.9063 1534.1563,453.3906 Q1534.1094,453.0313 1533.9219,452.8438 Q1533.5938,452.4688 1532.9844,452.25 Q1532.375,452.0313 1531.75,452.0313 Q1530.9844,452.0313 1530.3516,452.3594 Q1529.7188,452.6875 1529.2266,453.4375 Q1528.7344,454.1875 1528.7344,455.2188 L1528.7344,456.3125 Q1528.7344,457.5469 1529.625,458.3672 Q1530.5156,459.1875 1532.1094,459.1875 Q1533.0469,459.1875 1533.7031,458.9375 Q1534.0938,458.7813 1534.5156,458.3438 Q1534.7813,458.0781 1534.9297,458 Q1535.0781,457.9219 1535.2813,457.9219 Q1535.6094,457.9219 1535.8672,458.1797 Q1536.125,458.4375 1536.125,458.7813 Q1536.125,459.125 1535.7813,459.5313 Q1535.2813,460.1094 1534.4844,460.4375 Q1533.4063,460.8906 1532.1094,460.8906 Q1530.5938,460.8906 1529.3906,460.2656 Q1528.4063,459.7656 1527.7188,458.6953 Q1527.0313,457.625 1527.0313,456.3438 L1527.0313,455.1875 Q1527.0313,453.8594 1527.6484,452.7109 Q1528.2656,451.5625 1529.3594,450.9453 Q1530.4531,450.3281 1531.6875,450.3281 Q1532.4219,450.3281 1533.0703,450.4922 Q1533.7188,450.6563 1534.2656,451.0156 Z "/><text fill="#000000" font-family="sans-serif" font-size="12" font-style="italic" lengthAdjust="spacingAndGlyphs" textLength="87" x="1621.5" y="444.957">«Embeddable»</text><text fill="#000000" font-family="sans-serif" font-size="14" font-weight="bold" lengthAdjust="spacingAndGlyphs" textLength="71" x="1629.5" y="462.127">Username</text><text fill="#000000" font-family="sans-serif" font-size="10" lengthAdjust="spacingAndGlyphs" textLength="239" x="1545.5" y="475.584">eapli.framework.infrastructure.authz.domain.model</text></a><!--MD5=[f07a31dd61b58f60956d00c5eaae004e]
class eapli.framework.infrastructure.authz.domain.model.Password--><a href="../../../../../eapli/framework/infrastructure/authz/domain/model/Password.html" target="_parent" title="eapli.framework.infrastructure.authz.domain.model.Password" xlink:actuate="onRequest" xlink:href="../../../../../eapli/framework/infrastructure/authz/domain/model/Password.html" xlink:show="new" xlink:title="eapli.framework.infrastructure.authz.domain.model.Password" xlink:type="simple"><rect fill="#FFFFFF" filter="url(#f1qsddahd9yuy3)" height="55.2813" id="eapli.framework.infrastructure.authz.domain.model.Password" style="stroke: #A80036; stroke-width: 1.5;" width="271" x="1822.5" y="427.5"/><rect fill="#FFFFFF" height="55.2813" style="stroke: #A80036; stroke-width: 1.5;" width="271" x="1822.5" y="427.5"/><ellipse cx="1837.5" cy="455.1406" fill="#ADD1B2" rx="11" ry="11" style="stroke: #A80036; stroke-width: 1.0;"/><path d="M1840.2656,451.0156 Q1840.4219,450.7969 1840.6094,450.6875 Q1840.7969,450.5781 1841.0156,450.5781 Q1841.3906,450.5781 1841.625,450.8359 Q1841.8594,451.0938 1841.8594,451.7031 L1841.8594,453.1563 Q1841.8594,453.7656 1841.625,454.0313 Q1841.3906,454.2969 1841.0156,454.2969 Q1840.6719,454.2969 1840.4688,454.0938 Q1840.2656,453.9063 1840.1563,453.3906 Q1840.1094,453.0313 1839.9219,452.8438 Q1839.5938,452.4688 1838.9844,452.25 Q1838.375,452.0313 1837.75,452.0313 Q1836.9844,452.0313 1836.3516,452.3594 Q1835.7188,452.6875 1835.2266,453.4375 Q1834.7344,454.1875 1834.7344,455.2188 L1834.7344,456.3125 Q1834.7344,457.5469 1835.625,458.3672 Q1836.5156,459.1875 1838.1094,459.1875 Q1839.0469,459.1875 1839.7031,458.9375 Q1840.0938,458.7813 1840.5156,458.3438 Q1840.7813,458.0781 1840.9297,458 Q1841.0781,457.9219 1841.2813,457.9219 Q1841.6094,457.9219 1841.8672,458.1797 Q1842.125,458.4375 1842.125,458.7813 Q1842.125,459.125 1841.7813,459.5313 Q1841.2813,460.1094 1840.4844,460.4375 Q1839.4063,460.8906 1838.1094,460.8906 Q1836.5938,460.8906 1835.3906,460.2656 Q1834.4063,459.7656 1833.7188,458.6953 Q1833.0313,457.625 1833.0313,456.3438 L1833.0313,455.1875 Q1833.0313,453.8594 1833.6484,452.7109 Q1834.2656,451.5625 1835.3594,450.9453 Q1836.4531,450.3281 1837.6875,450.3281 Q1838.4219,450.3281 1839.0703,450.4922 Q1839.7188,450.6563 1840.2656,451.0156 Z "/><text fill="#000000" font-family="sans-serif" font-size="12" font-style="italic" lengthAdjust="spacingAndGlyphs" textLength="87" x="1927.5" y="444.957">«Embeddable»</text><text fill="#000000" font-family="sans-serif" font-size="14" font-weight="bold" lengthAdjust="spacingAndGlyphs" textLength="68" x="1937" y="462.127">Password</text><text fill="#000000" font-family="sans-serif" font-size="10" lengthAdjust="spacingAndGlyphs" textLength="239" x="1851.5" y="475.584">eapli.framework.infrastructure.authz.domain.model</text></a><!--MD5=[e22d64acf1afc283c3a9095fdf30c101]
class eapli.framework.infrastructure.authz.domain.model.Name--><a href="../../../../../eapli/framework/infrastructure/authz/domain/model/Name.html" target="_parent" title="eapli.framework.infrastructure.authz.domain.model.Name" xlink:actuate="onRequest" xlink:href="../../../../../eapli/framework/infrastructure/authz/domain/model/Name.html" xlink:show="new" xlink:title="eapli.framework.infrastructure.authz.domain.model.Name" xlink:type="simple"><rect fill="#FFFFFF" filter="url(#f1qsddahd9yuy3)" height="55.2813" id="eapli.framework.infrastructure.authz.domain.model.Name" style="stroke: #A80036; stroke-width: 1.5;" width="271" x="2128.5" y="427.5"/><rect fill="#FFFFFF" height="55.2813" style="stroke: #A80036; stroke-width: 1.5;" width="271" x="2128.5" y="427.5"/><ellipse cx="2143.5" cy="455.1406" fill="#ADD1B2" rx="11" ry="11" style="stroke: #A80036; stroke-width: 1.0;"/><path d="M2146.2656,451.0156 Q2146.4219,450.7969 2146.6094,450.6875 Q2146.7969,450.5781 2147.0156,450.5781 Q2147.3906,450.5781 2147.625,450.8359 Q2147.8594,451.0938 2147.8594,451.7031 L2147.8594,453.1563 Q2147.8594,453.7656 2147.625,454.0313 Q2147.3906,454.2969 2147.0156,454.2969 Q2146.6719,454.2969 2146.4688,454.0938 Q2146.2656,453.9063 2146.1563,453.3906 Q2146.1094,453.0313 2145.9219,452.8438 Q2145.5938,452.4688 2144.9844,452.25 Q2144.375,452.0313 2143.75,452.0313 Q2142.9844,452.0313 2142.3516,452.3594 Q2141.7188,452.6875 2141.2266,453.4375 Q2140.7344,454.1875 2140.7344,455.2188 L2140.7344,456.3125 Q2140.7344,457.5469 2141.625,458.3672 Q2142.5156,459.1875 2144.1094,459.1875 Q2145.0469,459.1875 2145.7031,458.9375 Q2146.0938,458.7813 2146.5156,458.3438 Q2146.7813,458.0781 2146.9297,458 Q2147.0781,457.9219 2147.2813,457.9219 Q2147.6094,457.9219 2147.8672,458.1797 Q2148.125,458.4375 2148.125,458.7813 Q2148.125,459.125 2147.7813,459.5313 Q2147.2813,460.1094 2146.4844,460.4375 Q2145.4063,460.8906 2144.1094,460.8906 Q2142.5938,460.8906 2141.3906,460.2656 Q2140.4063,459.7656 2139.7188,458.6953 Q2139.0313,457.625 2139.0313,456.3438 L2139.0313,455.1875 Q2139.0313,453.8594 2139.6484,452.7109 Q2140.2656,451.5625 2141.3594,450.9453 Q2142.4531,450.3281 2143.6875,450.3281 Q2144.4219,450.3281 2145.0703,450.4922 Q2145.7188,450.6563 2146.2656,451.0156 Z "/><text fill="#000000" font-family="sans-serif" font-size="12" font-style="italic" lengthAdjust="spacingAndGlyphs" textLength="87" x="2233.5" y="444.957">«Embeddable»</text><text fill="#000000" font-family="sans-serif" font-size="14" font-weight="bold" lengthAdjust="spacingAndGlyphs" textLength="39" x="2257.5" y="462.127">Name</text><text fill="#000000" font-family="sans-serif" font-size="10" lengthAdjust="spacingAndGlyphs" textLength="239" x="2157.5" y="475.584">eapli.framework.infrastructure.authz.domain.model</text></a><!--MD5=[5dbe542d7fef8f0e760be2be31075356]
class eapli.framework.domain.model.general.EmailAddress--><rect fill="#D3D3D3" filter="url(#f1qsddahd9yuy3)" height="70.375" id="eapli.framework.domain.model.general.EmailAddress" style="stroke: #A80036; stroke-width: 1.5;" width="217" x="2434.5" y="420"/><rect fill="#D3D3D3" height="70.375" style="stroke: #A80036; stroke-width: 1.5;" width="217" x="2434.5" y="420"/><ellipse cx="2449.5" cy="455.1875" fill="#ADD1B2" rx="11" ry="11" style="stroke: #A80036; stroke-width: 1.0;"/><path d="M2452.2656,451.0625 Q2452.4219,450.8438 2452.6094,450.7344 Q2452.7969,450.625 2453.0156,450.625 Q2453.3906,450.625 2453.625,450.8828 Q2453.8594,451.1406 2453.8594,451.75 L2453.8594,453.2031 Q2453.8594,453.8125 2453.625,454.0781 Q2453.3906,454.3438 2453.0156,454.3438 Q2452.6719,454.3438 2452.4688,454.1406 Q2452.2656,453.9531 2452.1563,453.4375 Q2452.1094,453.0781 2451.9219,452.8906 Q2451.5938,452.5156 2450.9844,452.2969 Q2450.375,452.0781 2449.75,452.0781 Q2448.9844,452.0781 2448.3516,452.4063 Q2447.7188,452.7344 2447.2266,453.4844 Q2446.7344,454.2344 2446.7344,455.2656 L2446.7344,456.3594 Q2446.7344,457.5938 2447.625,458.4141 Q2448.5156,459.2344 2450.1094,459.2344 Q2451.0469,459.2344 2451.7031,458.9844 Q2452.0938,458.8281 2452.5156,458.3906 Q2452.7813,458.125 2452.9297,458.0469 Q2453.0781,457.9688 2453.2813,457.9688 Q2453.6094,457.9688 2453.8672,458.2266 Q2454.125,458.4844 2454.125,458.8281 Q2454.125,459.1719 2453.7813,459.5781 Q2453.2813,460.1563 2452.4844,460.4844 Q2451.4063,460.9375 2450.1094,460.9375 Q2448.5938,460.9375 2447.3906,460.3125 Q2446.4063,459.8125 2445.7188,458.7422 Q2445.0313,457.6719 2445.0313,456.3906 L2445.0313,455.2344 Q2445.0313,453.9063 2445.6484,452.7578 Q2446.2656,451.6094 2447.3594,450.9922 Q2448.4531,450.375 2449.6875,450.375 Q2450.4219,450.375 2451.0703,450.5391 Q2451.7188,450.7031 2452.2656,451.0625 Z "/><text fill="#000000" font-family="sans-serif" font-size="12" font-style="italic" lengthAdjust="spacingAndGlyphs" textLength="87" x="2512.5" y="437.457">«Embeddable»</text><text fill="#000000" font-family="sans-serif" font-size="12" font-style="italic" lengthAdjust="spacingAndGlyphs" textLength="100" x="2506" y="452.5508">«JsonAutoDetect»</text><text fill="#000000" font-family="sans-serif" font-size="14" font-weight="bold" lengthAdjust="spacingAndGlyphs" textLength="95" x="2508.5" y="469.7207">EmailAddress</text><text fill="#000000" font-family="sans-serif" font-size="10" lengthAdjust="spacingAndGlyphs" textLength="185" x="2463.5" y="483.1777">eapli.framework.domain.model.general</text><!--MD5=[c6b781978b262317fb32eed92dafd629]
link eapli.framework.infrastructure.authz.application.AuthzRegistry to eapli.framework.infrastructure.authz.application.UserManagementService--><path d="M1346,63.282 C1346,63.282 1346,117.613 1346,117.613 " fill="none" id="eapli.framework.infrastructure.authz.application.AuthzRegistry-&gt;eapli.framework.infrastructure.authz.application.UserManagementService" style="stroke: #A80036; stroke-width: 1.0;"/><polygon fill="#A80036" points="1346,122.613,1350,113.613,1346,117.613,1342,113.613,1346,122.613" style="stroke: #A80036; stroke-width: 1.0;"/><text fill="#000000" font-family="sans-serif" font-size="13" lengthAdjust="spacingAndGlyphs" textLength="67" x="1276.8539" y="111.9807">userService</text><!--MD5=[53fca0b809fdecd1d797011f976108aa]
link eapli.framework.infrastructure.authz.application.UserManagementService to eapli.framework.infrastructure.authz.domain.repositories.UserRepository--><path d="M967.298,202 C617.924,202 153,202 153,202 C153,202 153,429.7236 153,429.7236 " fill="none" id="eapli.framework.infrastructure.authz.application.UserManagementService-&gt;eapli.framework.infrastructure.authz.domain.repositories.UserRepository" style="stroke: #A80036; stroke-width: 1.0;"/><polygon fill="#A80036" points="153,434.7236,157,425.7236,153,429.7236,149,425.7236,153,434.7236" style="stroke: #A80036; stroke-width: 1.0;"/><text fill="#000000" font-family="sans-serif" font-size="13" lengthAdjust="spacingAndGlyphs" textLength="87" x="53.7656" y="424.2891">userRepository</text><!--MD5=[a430827865d1eb6700a47732eaba5921]
link eapli.framework.infrastructure.authz.application.UserManagementService to org.springframework.security.crypto.password.PasswordEncoder--><path d="M967.373,281 C725.493,281 457,281 457,281 C457,281 457,429.6995 457,429.6995 " fill="none" id="eapli.framework.infrastructure.authz.application.UserManagementService-&gt;org.springframework.security.crypto.password.PasswordEncoder" style="stroke: #A80036; stroke-width: 1.0;"/><polygon fill="#A80036" points="457,434.6995,461,425.6995,457,429.6995,453,425.6995,457,434.6995" style="stroke: #A80036; stroke-width: 1.0;"/><text fill="#000000" font-family="sans-serif" font-size="13" lengthAdjust="spacingAndGlyphs" textLength="46" x="404.5313" y="424.2582">encoder</text><!--MD5=[f76234ceb595189266ca29e169cfcf5d]
link eapli.framework.infrastructure.authz.application.UserManagementService to eapli.framework.infrastructure.authz.application.PasswordPolicy--><path d="M1036.83,360.252 C1036.83,398.8754 1036.83,432 1036.83,432 C1036.83,432 874.603,432 874.603,432 " fill="none" id="eapli.framework.infrastructure.authz.application.UserManagementService-&gt;eapli.framework.infrastructure.authz.application.PasswordPolicy" style="stroke: #A80036; stroke-width: 1.0;"/><polygon fill="#A80036" points="869.603,432,878.603,436,874.603,432,878.603,428,869.603,432" style="stroke: #A80036; stroke-width: 1.0;"/><text fill="#000000" font-family="sans-serif" font-size="13" lengthAdjust="spacingAndGlyphs" textLength="34" x="862.5074" y="424.4387">policy</text><!--MD5=[27960e9a3167a40d6470854411269434]
link eapli.framework.infrastructure.authz.application.UserManagementService to eapli.framework.infrastructure.authz.domain.model.Role--><path d="M1106.17,360.112 C1106.17,360.112 1106.17,429.8348 1106.17,429.8348 " fill="none" id="eapli.framework.infrastructure.authz.application.UserManagementService-&gt;eapli.framework.infrastructure.authz.domain.model.Role" style="stroke: #A80036; stroke-width: 1.0; stroke-dasharray: 7.0,7.0;"/><polygon fill="#A80036" points="1106.17,434.8348,1110.17,425.8348,1106.17,429.8348,1102.17,425.8348,1106.17,434.8348" style="stroke: #A80036; stroke-width: 1.0;"/><!--MD5=[04075e43d5ec72941fa6064a35929d0e]
link eapli.framework.infrastructure.authz.application.UserManagementService to eapli.framework.infrastructure.authz.domain.model.SystemUser--><path d="M1346,360.112 C1346,360.112 1346,422.2101 1346,422.2101 " fill="none" id="eapli.framework.infrastructure.authz.application.UserManagementService-&gt;eapli.framework.infrastructure.authz.domain.model.SystemUser" style="stroke: #A80036; stroke-width: 1.0; stroke-dasharray: 7.0,7.0;"/><polygon fill="#A80036" points="1346,427.2101,1350,418.2101,1346,422.2101,1342,418.2101,1346,427.2101" style="stroke: #A80036; stroke-width: 1.0;"/><!--MD5=[54afdf4947b8e4a7fa7faa16c74440b0]
link eapli.framework.infrastructure.authz.application.UserManagementService to eapli.framework.infrastructure.authz.domain.model.Username--><path d="M1585.83,360.112 C1585.83,360.112 1585.83,422.2101 1585.83,422.2101 " fill="none" id="eapli.framework.infrastructure.authz.application.UserManagementService-&gt;eapli.framework.infrastructure.authz.domain.model.Username" style="stroke: #A80036; stroke-width: 1.0; stroke-dasharray: 7.0,7.0;"/><polygon fill="#A80036" points="1585.83,427.2101,1589.83,418.2101,1585.83,422.2101,1581.83,418.2101,1585.83,427.2101" style="stroke: #A80036; stroke-width: 1.0;"/><!--MD5=[aeaf1d9d3d2d3fa9d1d605d665587d74]
link eapli.framework.infrastructure.authz.application.UserManagementService to eapli.framework.infrastructure.authz.domain.model.Password--><path d="M1724.88,281 C1850.08,281 1958,281 1958,281 C1958,281 1958,422.4292 1958,422.4292 " fill="none" id="eapli.framework.infrastructure.authz.application.UserManagementService-&gt;eapli.framework.infrastructure.authz.domain.model.Password" style="stroke: #A80036; stroke-width: 1.0; stroke-dasharray: 7.0,7.0;"/><polygon fill="#A80036" points="1958,427.4292,1962,418.4292,1958,422.4292,1954,418.4292,1958,427.4292" style="stroke: #A80036; stroke-width: 1.0;"/><!--MD5=[32874409c1c525eeb3b88f4870589c60]
link eapli.framework.infrastructure.authz.application.UserManagementService to eapli.framework.infrastructure.authz.domain.model.Name--><path d="M1724.69,202 C1977.56,202 2264,202 2264,202 C2264,202 2264,422.4429 2264,422.4429 " fill="none" id="eapli.framework.infrastructure.authz.application.UserManagementService-&gt;eapli.framework.infrastructure.authz.domain.model.Name" style="stroke: #A80036; stroke-width: 1.0; stroke-dasharray: 7.0,7.0;"/><polygon fill="#A80036" points="2264,427.4429,2268,418.4429,2264,422.4429,2260,418.4429,2264,427.4429" style="stroke: #A80036; stroke-width: 1.0;"/><!--MD5=[c7c230cf17093225ea1d9881ac9cab90]
link eapli.framework.infrastructure.authz.application.UserManagementService to eapli.framework.domain.model.general.EmailAddress--><path d="M1655.17,360.17 C1655.17,395.0277 1655.17,424 1655.17,424 C1655.17,424 2429.13,424 2429.13,424 " fill="none" id="eapli.framework.infrastructure.authz.application.UserManagementService-&gt;eapli.framework.domain.model.general.EmailAddress" style="stroke: #A80036; stroke-width: 1.0; stroke-dasharray: 7.0,7.0;"/><polygon fill="#A80036" points="2434.13,424,2425.13,420,2429.13,424,2425.13,428,2434.13,424" style="stroke: #A80036; stroke-width: 1.0;"/><!--MD5=[6b8bf6b03176e35fac0023d8d8596d5a]
@startuml

skinparam svgLinkTarget _parent
skinparam linetype ortho
set namespaceSeparator none
class "<b><size:14>UserManagementService</b>\n<size:10>eapli.framework.infrastructure.authz.application" as eapli.framework.infrastructure.authz.application.UserManagementService <<Component>> [[../../../../../eapli/framework/infrastructure/authz/application/UserManagementService.html{eapli.framework.infrastructure.authz.application.UserManagementService}]] {
-UserRepository userRepository
-PasswordEncoder encoder
-PasswordPolicy policy
+UserManagementService(UserRepository userRepo,PasswordPolicy policy,PasswordEncoder encoder)
+SystemUser registerNewUser(String username,String rawPassword,String firstName,String lastName,String email,Set<Role> roles,Calendar createdOn)
+SystemUser registerNewUser(String username,String rawPassword,String firstName,String lastName,String email,Set<Role> roles)
+SystemUser registerUser(Username username,Password password,Name name,EmailAddress email,Set<Role> roles)
+Iterable<SystemUser> activeUsers()
+Iterable<SystemUser> deactivatedUsers()
+Iterable<SystemUser> allUsers()
+Optional<SystemUser> userOfIdentity(Username id)
+SystemUser deactivateUser(SystemUser user)
}


class "<b><size:14>AuthzRegistry</b>\n<size:10>eapli.framework.infrastructure.authz.application" as eapli.framework.infrastructure.authz.application.AuthzRegistry <<Singleton>> [[../../../../../eapli/framework/infrastructure/authz/application/AuthzRegistry.html{eapli.framework.infrastructure.authz.application.AuthzRegistry}]] {
}

hide eapli.framework.infrastructure.authz.application.AuthzRegistry fields
hide eapli.framework.infrastructure.authz.application.AuthzRegistry methods

eapli.framework.infrastructure.authz.application.AuthzRegistry - ->  "userService" eapli.framework.infrastructure.authz.application.UserManagementService

interface "<b><size:14>UserRepository</b>\n<size:10>eapli.framework.infrastructure.authz.domain.repositories" as eapli.framework.infrastructure.authz.domain.repositories.UserRepository  [[../../../../../eapli/framework/infrastructure/authz/domain/repositories/UserRepository.html{eapli.framework.infrastructure.authz.domain.repositories.UserRepository}]] #white {
}

hide eapli.framework.infrastructure.authz.domain.repositories.UserRepository fields
hide eapli.framework.infrastructure.authz.domain.repositories.UserRepository methods

eapli.framework.infrastructure.authz.application.UserManagementService - ->  "userRepository" eapli.framework.infrastructure.authz.domain.repositories.UserRepository

interface "<b><size:14>PasswordEncoder</b>\n<size:10>org.springframework.security.crypto.password" as org.springframework.security.crypto.password.PasswordEncoder  #lightgrey {
}

hide org.springframework.security.crypto.password.PasswordEncoder fields
hide org.springframework.security.crypto.password.PasswordEncoder methods

eapli.framework.infrastructure.authz.application.UserManagementService - ->  "encoder" org.springframework.security.crypto.password.PasswordEncoder

interface "<b><size:14>PasswordPolicy</b>\n<size:10>eapli.framework.infrastructure.authz.application" as eapli.framework.infrastructure.authz.application.PasswordPolicy <<FunctionalInterface>> [[../../../../../eapli/framework/infrastructure/authz/application/PasswordPolicy.html{eapli.framework.infrastructure.authz.application.PasswordPolicy}]] {
}

hide eapli.framework.infrastructure.authz.application.PasswordPolicy fields
hide eapli.framework.infrastructure.authz.application.PasswordPolicy methods

eapli.framework.infrastructure.authz.application.UserManagementService - ->  "policy" eapli.framework.infrastructure.authz.application.PasswordPolicy


class "<b><size:14>Role</b>\n<size:10>eapli.framework.infrastructure.authz.domain.model" as eapli.framework.infrastructure.authz.domain.model.Role  [[../../../../../eapli/framework/infrastructure/authz/domain/model/Role.html{eapli.framework.infrastructure.authz.domain.model.Role}]] #white {
}

hide eapli.framework.infrastructure.authz.domain.model.Role fields
hide eapli.framework.infrastructure.authz.domain.model.Role methods

eapli.framework.infrastructure.authz.application.UserManagementService ..> eapli.framework.infrastructure.authz.domain.model.Role


class "<b><size:14>SystemUser</b>\n<size:10>eapli.framework.infrastructure.authz.domain.model" as eapli.framework.infrastructure.authz.domain.model.SystemUser <<Entity>> [[../../../../../eapli/framework/infrastructure/authz/domain/model/SystemUser.html{eapli.framework.infrastructure.authz.domain.model.SystemUser}]] #white {
}

hide eapli.framework.infrastructure.authz.domain.model.SystemUser fields
hide eapli.framework.infrastructure.authz.domain.model.SystemUser methods

eapli.framework.infrastructure.authz.application.UserManagementService ..> eapli.framework.infrastructure.authz.domain.model.SystemUser

class "<b><size:14>Username</b>\n<size:10>eapli.framework.infrastructure.authz.domain.model" as eapli.framework.infrastructure.authz.domain.model.Username <<Embeddable>> [[../../../../../eapli/framework/infrastructure/authz/domain/model/Username.html{eapli.framework.infrastructure.authz.domain.model.Username}]] #white {
}

hide eapli.framework.infrastructure.authz.domain.model.Username fields
hide eapli.framework.infrastructure.authz.domain.model.Username methods

eapli.framework.infrastructure.authz.application.UserManagementService ..> eapli.framework.infrastructure.authz.domain.model.Username

class "<b><size:14>Password</b>\n<size:10>eapli.framework.infrastructure.authz.domain.model" as eapli.framework.infrastructure.authz.domain.model.Password <<Embeddable>> [[../../../../../eapli/framework/infrastructure/authz/domain/model/Password.html{eapli.framework.infrastructure.authz.domain.model.Password}]] #white {
}

hide eapli.framework.infrastructure.authz.domain.model.Password fields
hide eapli.framework.infrastructure.authz.domain.model.Password methods

eapli.framework.infrastructure.authz.application.UserManagementService ..> eapli.framework.infrastructure.authz.domain.model.Password

class "<b><size:14>Name</b>\n<size:10>eapli.framework.infrastructure.authz.domain.model" as eapli.framework.infrastructure.authz.domain.model.Name <<Embeddable>> [[../../../../../eapli/framework/infrastructure/authz/domain/model/Name.html{eapli.framework.infrastructure.authz.domain.model.Name}]] #white {
}

hide eapli.framework.infrastructure.authz.domain.model.Name fields
hide eapli.framework.infrastructure.authz.domain.model.Name methods

eapli.framework.infrastructure.authz.application.UserManagementService ..> eapli.framework.infrastructure.authz.domain.model.Name

class "<b><size:14>EmailAddress</b>\n<size:10>eapli.framework.domain.model.general" as eapli.framework.domain.model.general.EmailAddress <<Embeddable>><<JsonAutoDetect>> #lightgrey {
}

hide eapli.framework.domain.model.general.EmailAddress fields
hide eapli.framework.domain.model.general.EmailAddress methods

eapli.framework.infrastructure.authz.application.UserManagementService ..> eapli.framework.domain.model.general.EmailAddress



@enduml

PlantUML version 1.2020.04(Thu Mar 19 10:16:49 GMT 2020)
(GPL source distribution)
Java Runtime: Java(TM) SE Runtime Environment
JVM: Java HotSpot(TM) 64-Bit Server VM
Java Version: 1.8.0_202-b08
Operating System: Windows 10
Default Encoding: Cp1252
Language: en
Country: US
--></g></svg>