<?xml version="1.0" encoding="UTF-8" standalone="no"?><svg xmlns="http://www.w3.org/2000/svg" xmlns:xlink="http://www.w3.org/1999/xlink" contentScriptType="application/ecmascript" contentStyleType="text/css" height="274px" preserveAspectRatio="none" style="width:1343px;height:274px;" version="1.1" viewBox="0 0 1343 274" width="1343px" zoomAndPan="magnify"><defs><filter height="300%" id="f1s2755v55465g" width="300%" x="-1" y="-1"><feGaussianBlur result="blurOut" stdDeviation="2.0"/><feColorMatrix in="blurOut" result="blurOut2" type="matrix" values="0 0 0 0 0 0 0 0 0 0 0 0 0 0 0 0 0 0 .4 0"/><feOffset dx="4.0" dy="4.0" in="blurOut2" result="blurOut3"/><feBlend in="SourceGraphic" in2="blurOut3" mode="normal"/></filter></defs><g><!--MD5=[728b7fc14e41d6206210d1e6efe6a761]
class eapli.framework.infrastructure.authz.application.UserDetailsServiceImpl--><a href="../../../../../eapli/framework/infrastructure/authz/application/UserDetailsServiceImpl.html" target="_parent" title="eapli.framework.infrastructure.authz.application.UserDetailsServiceImpl" xlink:actuate="onRequest" xlink:href="../../../../../eapli/framework/infrastructure/authz/application/UserDetailsServiceImpl.html" xlink:show="new" xlink:title="eapli.framework.infrastructure.authz.application.UserDetailsServiceImpl" xlink:type="simple"><rect fill="#FEFECE" filter="url(#f1s2755v55465g)" height="140.4609" id="eapli.framework.infrastructure.authz.application.UserDetailsServiceImpl" style="stroke: #A80036; stroke-width: 1.5;" width="430" x="433" y="8"/><ellipse cx="531.75" cy="35.6406" fill="#ADD1B2" rx="11" ry="11" style="stroke: #A80036; stroke-width: 1.0;"/><path d="M534.5156,31.5156 Q534.6719,31.2969 534.8594,31.1875 Q535.0469,31.0781 535.2656,31.0781 Q535.6406,31.0781 535.875,31.3359 Q536.1094,31.5938 536.1094,32.2031 L536.1094,33.6563 Q536.1094,34.2656 535.875,34.5313 Q535.6406,34.7969 535.2656,34.7969 Q534.9219,34.7969 534.7188,34.5938 Q534.5156,34.4063 534.4063,33.8906 Q534.3594,33.5313 534.1719,33.3438 Q533.8438,32.9688 533.2344,32.75 Q532.625,32.5313 532,32.5313 Q531.2344,32.5313 530.6016,32.8594 Q529.9688,33.1875 529.4766,33.9375 Q528.9844,34.6875 528.9844,35.7188 L528.9844,36.8125 Q528.9844,38.0469 529.875,38.8672 Q530.7656,39.6875 532.3594,39.6875 Q533.2969,39.6875 533.9531,39.4375 Q534.3438,39.2813 534.7656,38.8438 Q535.0313,38.5781 535.1797,38.5 Q535.3281,38.4219 535.5313,38.4219 Q535.8594,38.4219 536.1172,38.6797 Q536.375,38.9375 536.375,39.2813 Q536.375,39.625 536.0313,40.0313 Q535.5313,40.6094 534.7344,40.9375 Q533.6563,41.3906 532.3594,41.3906 Q530.8438,41.3906 529.6406,40.7656 Q528.6563,40.2656 527.9688,39.1953 Q527.2813,38.125 527.2813,36.8438 L527.2813,35.6875 Q527.2813,34.3594 527.8984,33.2109 Q528.5156,32.0625 529.6094,31.4453 Q530.7031,30.8281 531.9375,30.8281 Q532.6719,30.8281 533.3203,30.9922 Q533.9688,31.1563 534.5156,31.5156 Z "/><text fill="#000000" font-family="sans-serif" font-size="12" font-style="italic" lengthAdjust="spacingAndGlyphs" textLength="55" x="636.75" y="25.457">«Service»</text><text fill="#000000" font-family="sans-serif" font-size="14" font-weight="bold" lengthAdjust="spacingAndGlyphs" textLength="164" x="582.25" y="42.627">UserDetailsServiceImpl</text><text fill="#000000" font-family="sans-serif" font-size="10" lengthAdjust="spacingAndGlyphs" textLength="224" x="552.25" y="56.084">eapli.framework.infrastructure.authz.application</text><line style="stroke: #A80036; stroke-width: 1.5;" x1="434" x2="862" y1="63.2813" y2="63.2813"/><rect fill="none" height="6" style="stroke: #C82930; stroke-width: 1.0;" width="6" x="441" y="71.2813"/><text fill="#000000" font-family="sans-serif" font-size="11" lengthAdjust="spacingAndGlyphs" text-decoration="underline" textLength="80" x="453" y="78.7002">Logger LOGGER</text><rect fill="none" height="6" style="stroke: #C82930; stroke-width: 1.0;" width="6" x="441" y="85.1172"/><text fill="#000000" font-family="sans-serif" font-size="11" lengthAdjust="spacingAndGlyphs" textLength="152" x="453" y="92.5361">UserRepository userRepository</text><rect fill="none" height="6" style="stroke: #C82930; stroke-width: 1.0;" width="6" x="441" y="98.9531"/><text fill="#000000" font-family="sans-serif" font-size="11" lengthAdjust="spacingAndGlyphs" textLength="131" x="453" y="106.3721">AuthorizationService authz</text><line style="stroke: #A80036; stroke-width: 1.5;" x1="434" x2="862" y1="112.7891" y2="112.7891"/><ellipse cx="444" cy="123.7891" fill="#84BE84" rx="3" ry="3" style="stroke: #038048; stroke-width: 1.0;"/><text fill="#000000" font-family="sans-serif" font-size="11" lengthAdjust="spacingAndGlyphs" textLength="404" x="453" y="128.208">UserDetailsServiceImpl(UserRepository userRepository,AuthorizationService authz)</text><ellipse cx="444" cy="137.625" fill="#84BE84" rx="3" ry="3" style="stroke: #038048; stroke-width: 1.0;"/><text fill="#000000" font-family="sans-serif" font-size="11" lengthAdjust="spacingAndGlyphs" textLength="250" x="453" y="142.0439">UserDetails loadUserByUsername(String username)</text></a><!--MD5=[9b5987ca9b0081d7a678ca8727dd3b0c]
class org.apache.logging.log4j.Logger--><rect fill="#D3D3D3" filter="url(#f1s2755v55465g)" height="40.1875" id="org.apache.logging.log4j.Logger" style="stroke: #A80036; stroke-width: 1.5;" width="150" x="6" y="215.5"/><rect fill="#D3D3D3" height="40.1875" style="stroke: #A80036; stroke-width: 1.5;" width="150" x="6" y="215.5"/><ellipse cx="21" cy="235.5938" fill="#B4A7E5" rx="11" ry="11" style="stroke: #A80036; stroke-width: 1.0;"/><path d="M21.9531,232.2344 L21.9531,238.8906 L23.6719,238.8906 Q24.2813,238.8906 24.5469,239.125 Q24.8125,239.3594 24.8125,239.75 Q24.8125,240.125 24.5469,240.3594 Q24.2813,240.5938 23.6719,240.5938 L18.5313,240.5938 Q17.9219,240.5938 17.6563,240.3594 Q17.3906,240.125 17.3906,239.7344 Q17.3906,239.3594 17.6563,239.125 Q17.9219,238.8906 18.5313,238.8906 L20.25,238.8906 L20.25,232.2344 L18.5313,232.2344 Q17.9219,232.2344 17.6563,232 Q17.3906,231.7656 17.3906,231.375 Q17.3906,231 17.6563,230.7656 Q17.9219,230.5313 18.5313,230.5313 L23.6719,230.5313 Q24.2813,230.5313 24.5469,230.7656 Q24.8125,231 24.8125,231.375 Q24.8125,231.7656 24.5469,232 Q24.2813,232.2344 23.6719,232.2344 L21.9531,232.2344 Z "/><text fill="#000000" font-family="sans-serif" font-size="14" font-style="italic" font-weight="bold" lengthAdjust="spacingAndGlyphs" textLength="46" x="71" y="235.0332">Logger</text><text fill="#000000" font-family="sans-serif" font-size="10" font-style="italic" lengthAdjust="spacingAndGlyphs" textLength="118" x="35" y="248.4902">org.apache.logging.log4j</text><!--MD5=[4ecd4d434b781c674ba6e816ddaa2ec3]
class eapli.framework.infrastructure.authz.domain.repositories.UserRepository--><a href="../../../../../eapli/framework/infrastructure/authz/domain/repositories/UserRepository.html" target="_parent" title="eapli.framework.infrastructure.authz.domain.repositories.UserRepository" xlink:actuate="onRequest" xlink:href="../../../../../eapli/framework/infrastructure/authz/domain/repositories/UserRepository.html" xlink:show="new" xlink:title="eapli.framework.infrastructure.authz.domain.repositories.UserRepository" xlink:type="simple"><rect fill="#FFFFFF" filter="url(#f1s2755v55465g)" height="40.1875" id="eapli.framework.infrastructure.authz.domain.repositories.UserRepository" style="stroke: #A80036; stroke-width: 1.5;" width="294" x="191" y="215.5"/><rect fill="#FFFFFF" height="40.1875" style="stroke: #A80036; stroke-width: 1.5;" width="294" x="191" y="215.5"/><ellipse cx="206" cy="235.5938" fill="#B4A7E5" rx="11" ry="11" style="stroke: #A80036; stroke-width: 1.0;"/><path d="M206.9531,232.2344 L206.9531,238.8906 L208.6719,238.8906 Q209.2813,238.8906 209.5469,239.125 Q209.8125,239.3594 209.8125,239.75 Q209.8125,240.125 209.5469,240.3594 Q209.2813,240.5938 208.6719,240.5938 L203.5313,240.5938 Q202.9219,240.5938 202.6563,240.3594 Q202.3906,240.125 202.3906,239.7344 Q202.3906,239.3594 202.6563,239.125 Q202.9219,238.8906 203.5313,238.8906 L205.25,238.8906 L205.25,232.2344 L203.5313,232.2344 Q202.9219,232.2344 202.6563,232 Q202.3906,231.7656 202.3906,231.375 Q202.3906,231 202.6563,230.7656 Q202.9219,230.5313 203.5313,230.5313 L208.6719,230.5313 Q209.2813,230.5313 209.5469,230.7656 Q209.8125,231 209.8125,231.375 Q209.8125,231.7656 209.5469,232 Q209.2813,232.2344 208.6719,232.2344 L206.9531,232.2344 Z "/><text fill="#000000" font-family="sans-serif" font-size="14" font-style="italic" font-weight="bold" lengthAdjust="spacingAndGlyphs" textLength="101" x="300.5" y="235.0332">UserRepository</text><text fill="#000000" font-family="sans-serif" font-size="10" font-style="italic" lengthAdjust="spacingAndGlyphs" textLength="262" x="220" y="248.4902">eapli.framework.infrastructure.authz.domain.repositories</text></a><!--MD5=[37e0af8347334aff68c8da97b49cd8ac]
class eapli.framework.infrastructure.authz.application.AuthorizationService--><a href="../../../../../eapli/framework/infrastructure/authz/application/AuthorizationService.html" target="_parent" title="eapli.framework.infrastructure.authz.application.AuthorizationService" xlink:actuate="onRequest" xlink:href="../../../../../eapli/framework/infrastructure/authz/application/AuthorizationService.html" xlink:show="new" xlink:title="eapli.framework.infrastructure.authz.application.AuthorizationService" xlink:type="simple"><rect fill="#FEFECE" filter="url(#f1s2755v55465g)" height="55.2813" id="eapli.framework.infrastructure.authz.application.AuthorizationService" style="stroke: #A80036; stroke-width: 1.5;" width="256" x="520" y="208"/><ellipse cx="535" cy="235.6406" fill="#ADD1B2" rx="11" ry="11" style="stroke: #A80036; stroke-width: 1.0;"/><path d="M537.7656,231.5156 Q537.9219,231.2969 538.1094,231.1875 Q538.2969,231.0781 538.5156,231.0781 Q538.8906,231.0781 539.125,231.3359 Q539.3594,231.5938 539.3594,232.2031 L539.3594,233.6563 Q539.3594,234.2656 539.125,234.5313 Q538.8906,234.7969 538.5156,234.7969 Q538.1719,234.7969 537.9688,234.5938 Q537.7656,234.4063 537.6563,233.8906 Q537.6094,233.5313 537.4219,233.3438 Q537.0938,232.9688 536.4844,232.75 Q535.875,232.5313 535.25,232.5313 Q534.4844,232.5313 533.8516,232.8594 Q533.2188,233.1875 532.7266,233.9375 Q532.2344,234.6875 532.2344,235.7188 L532.2344,236.8125 Q532.2344,238.0469 533.125,238.8672 Q534.0156,239.6875 535.6094,239.6875 Q536.5469,239.6875 537.2031,239.4375 Q537.5938,239.2813 538.0156,238.8438 Q538.2813,238.5781 538.4297,238.5 Q538.5781,238.4219 538.7813,238.4219 Q539.1094,238.4219 539.3672,238.6797 Q539.625,238.9375 539.625,239.2813 Q539.625,239.625 539.2813,240.0313 Q538.7813,240.6094 537.9844,240.9375 Q536.9063,241.3906 535.6094,241.3906 Q534.0938,241.3906 532.8906,240.7656 Q531.9063,240.2656 531.2188,239.1953 Q530.5313,238.125 530.5313,236.8438 L530.5313,235.6875 Q530.5313,234.3594 531.1484,233.2109 Q531.7656,232.0625 532.8594,231.4453 Q533.9531,230.8281 535.1875,230.8281 Q535.9219,230.8281 536.5703,230.9922 Q537.2188,231.1563 537.7656,231.5156 Z "/><text fill="#000000" font-family="sans-serif" font-size="12" font-style="italic" lengthAdjust="spacingAndGlyphs" textLength="79" x="621.5" y="225.457">«Component»</text><text fill="#000000" font-family="sans-serif" font-size="14" font-weight="bold" lengthAdjust="spacingAndGlyphs" textLength="147" x="587.5" y="242.627">AuthorizationService</text><text fill="#000000" font-family="sans-serif" font-size="10" lengthAdjust="spacingAndGlyphs" textLength="224" x="549" y="256.084">eapli.framework.infrastructure.authz.application</text></a><!--MD5=[f01e5e161715ec23945fede2eec8de80]
class org.springframework.security.core.userdetails.UserDetailsService--><rect fill="#D3D3D3" filter="url(#f1s2755v55465g)" height="40.1875" id="org.springframework.security.core.userdetails.UserDetailsService" style="stroke: #A80036; stroke-width: 1.5;" width="243" x="811.5" y="215.5"/><rect fill="#D3D3D3" height="40.1875" style="stroke: #A80036; stroke-width: 1.5;" width="243" x="811.5" y="215.5"/><ellipse cx="826.5" cy="235.5938" fill="#B4A7E5" rx="11" ry="11" style="stroke: #A80036; stroke-width: 1.0;"/><path d="M827.4531,232.2344 L827.4531,238.8906 L829.1719,238.8906 Q829.7813,238.8906 830.0469,239.125 Q830.3125,239.3594 830.3125,239.75 Q830.3125,240.125 830.0469,240.3594 Q829.7813,240.5938 829.1719,240.5938 L824.0313,240.5938 Q823.4219,240.5938 823.1563,240.3594 Q822.8906,240.125 822.8906,239.7344 Q822.8906,239.3594 823.1563,239.125 Q823.4219,238.8906 824.0313,238.8906 L825.75,238.8906 L825.75,232.2344 L824.0313,232.2344 Q823.4219,232.2344 823.1563,232 Q822.8906,231.7656 822.8906,231.375 Q822.8906,231 823.1563,230.7656 Q823.4219,230.5313 824.0313,230.5313 L829.1719,230.5313 Q829.7813,230.5313 830.0469,230.7656 Q830.3125,231 830.3125,231.375 Q830.3125,231.7656 830.0469,232 Q829.7813,232.2344 829.1719,232.2344 L827.4531,232.2344 Z "/><text fill="#000000" font-family="sans-serif" font-size="14" font-style="italic" font-weight="bold" lengthAdjust="spacingAndGlyphs" textLength="127" x="882.5" y="235.0332">UserDetailsService</text><text fill="#000000" font-family="sans-serif" font-size="10" font-style="italic" lengthAdjust="spacingAndGlyphs" textLength="211" x="840.5" y="248.4902">org.springframework.security.core.userdetails</text><!--MD5=[bf8101e45545a57df5e7f70b41677845]
class org.springframework.security.core.userdetails.UserDetails--><rect fill="#D3D3D3" filter="url(#f1s2755v55465g)" height="40.1875" id="org.springframework.security.core.userdetails.UserDetails" style="stroke: #A80036; stroke-width: 1.5;" width="243" x="1089.5" y="215.5"/><rect fill="#D3D3D3" height="40.1875" style="stroke: #A80036; stroke-width: 1.5;" width="243" x="1089.5" y="215.5"/><ellipse cx="1104.5" cy="235.5938" fill="#B4A7E5" rx="11" ry="11" style="stroke: #A80036; stroke-width: 1.0;"/><path d="M1105.4531,232.2344 L1105.4531,238.8906 L1107.1719,238.8906 Q1107.7813,238.8906 1108.0469,239.125 Q1108.3125,239.3594 1108.3125,239.75 Q1108.3125,240.125 1108.0469,240.3594 Q1107.7813,240.5938 1107.1719,240.5938 L1102.0313,240.5938 Q1101.4219,240.5938 1101.1563,240.3594 Q1100.8906,240.125 1100.8906,239.7344 Q1100.8906,239.3594 1101.1563,239.125 Q1101.4219,238.8906 1102.0313,238.8906 L1103.75,238.8906 L1103.75,232.2344 L1102.0313,232.2344 Q1101.4219,232.2344 1101.1563,232 Q1100.8906,231.7656 1100.8906,231.375 Q1100.8906,231 1101.1563,230.7656 Q1101.4219,230.5313 1102.0313,230.5313 L1107.1719,230.5313 Q1107.7813,230.5313 1108.0469,230.7656 Q1108.3125,231 1108.3125,231.375 Q1108.3125,231.7656 1108.0469,232 Q1107.7813,232.2344 1107.1719,232.2344 L1105.4531,232.2344 Z "/><text fill="#000000" font-family="sans-serif" font-size="14" font-style="italic" font-weight="bold" lengthAdjust="spacingAndGlyphs" textLength="76" x="1186" y="235.0332">UserDetails</text><text fill="#000000" font-family="sans-serif" font-size="10" font-style="italic" lengthAdjust="spacingAndGlyphs" textLength="211" x="1118.5" y="248.4902">org.springframework.security.core.userdetails</text><!--MD5=[b64d8d89a8aefb81c0735fba101b1267]
link eapli.framework.infrastructure.authz.application.UserDetailsServiceImpl to org.apache.logging.log4j.Logger--><path d="M432.833,78 C272.433,78 81,78 81,78 C81,78 81,210.2321 81,210.2321 " fill="none" id="eapli.framework.infrastructure.authz.application.UserDetailsServiceImpl-&gt;org.apache.logging.log4j.Logger" style="stroke: #A80036; stroke-width: 1.0;"/><polygon fill="#A80036" points="81,215.2321,85,206.2321,81,210.2321,77,206.2321,81,215.2321" style="stroke: #A80036; stroke-width: 1.0;"/><text fill="#000000" font-family="sans-serif" font-size="13" lengthAdjust="spacingAndGlyphs" textLength="55" x="18.2656" y="204.7999">LOGGER</text><!--MD5=[bd8ae5f81d2ea69fbfb7c5b8b6d76b0b]
link eapli.framework.infrastructure.authz.application.UserDetailsServiceImpl to eapli.framework.infrastructure.authz.domain.repositories.UserRepository--><path d="M459,148.458 C459,148.458 459,210.385 459,210.385 " fill="none" id="eapli.framework.infrastructure.authz.application.UserDetailsServiceImpl-&gt;eapli.framework.infrastructure.authz.domain.repositories.UserRepository" style="stroke: #A80036; stroke-width: 1.0;"/><polygon fill="#A80036" points="459,215.385,463,206.385,459,210.385,455,206.385,459,215.385" style="stroke: #A80036; stroke-width: 1.0;"/><text fill="#000000" font-family="sans-serif" font-size="13" lengthAdjust="spacingAndGlyphs" textLength="87" x="394.7656" y="204.6454">userRepository</text><!--MD5=[d844d219ee1d2f2ab7971749f62137f7]
link eapli.framework.infrastructure.authz.application.UserDetailsServiceImpl to eapli.framework.infrastructure.authz.application.AuthorizationService--><path d="M648,148.458 C648,148.458 648,202.7047 648,202.7047 " fill="none" id="eapli.framework.infrastructure.authz.application.UserDetailsServiceImpl-&gt;eapli.framework.infrastructure.authz.application.AuthorizationService" style="stroke: #A80036; stroke-width: 1.0;"/><polygon fill="#A80036" points="648,207.7047,652,198.7047,648,202.7047,644,198.7047,648,207.7047" style="stroke: #A80036; stroke-width: 1.0;"/><text fill="#000000" font-family="sans-serif" font-size="13" lengthAdjust="spacingAndGlyphs" textLength="32" x="612.3" y="196.9303">authz</text><!--MD5=[fef096251bee9485b50ce2a59f2597ac]
link eapli.framework.infrastructure.authz.application.UserDetailsServiceImpl to org.springframework.security.core.userdetails.UserDetailsService--><path d="M837.25,148.458 C837.25,148.458 837.25,195.385 837.25,195.385 " fill="none" id="eapli.framework.infrastructure.authz.application.UserDetailsServiceImpl-&gt;org.springframework.security.core.userdetails.UserDetailsService" style="stroke: #A80036; stroke-width: 1.0; stroke-dasharray: 7.0,7.0;"/><polygon fill="none" points="844.25,195.3851,837.25,215.385,830.25,195.385,844.25,195.3851" style="stroke: #A80036; stroke-width: 1.0;"/><!--MD5=[f9fa901d610d1b7d5827e6706f5a10d0]
link eapli.framework.infrastructure.authz.application.UserDetailsServiceImpl to org.springframework.security.core.userdetails.UserDetails--><path d="M863.256,78 C1022.19,78 1211,78 1211,78 C1211,78 1211,210.2321 1211,210.2321 " fill="none" id="eapli.framework.infrastructure.authz.application.UserDetailsServiceImpl-&gt;org.springframework.security.core.userdetails.UserDetails" style="stroke: #A80036; stroke-width: 1.0; stroke-dasharray: 7.0,7.0;"/><polygon fill="#A80036" points="1211,215.2321,1215,206.2321,1211,210.2321,1207,206.2321,1211,215.2321" style="stroke: #A80036; stroke-width: 1.0;"/><!--MD5=[560f4ca2b640c57791ff1708e57f0f2b]
@startuml

skinparam svgLinkTarget _parent
skinparam linetype ortho
set namespaceSeparator none
class "<b><size:14>UserDetailsServiceImpl</b>\n<size:10>eapli.framework.infrastructure.authz.application" as eapli.framework.infrastructure.authz.application.UserDetailsServiceImpl <<Service>> [[../../../../../eapli/framework/infrastructure/authz/application/UserDetailsServiceImpl.html{eapli.framework.infrastructure.authz.application.UserDetailsServiceImpl}]] {
{static} -Logger LOGGER
-UserRepository userRepository
-AuthorizationService authz
+UserDetailsServiceImpl(UserRepository userRepository,AuthorizationService authz)
+UserDetails loadUserByUsername(String username)
}


interface "<b><size:14>Logger</b>\n<size:10>org.apache.logging.log4j" as org.apache.logging.log4j.Logger  #lightgrey {
}

hide org.apache.logging.log4j.Logger fields
hide org.apache.logging.log4j.Logger methods

eapli.framework.infrastructure.authz.application.UserDetailsServiceImpl - ->  "LOGGER" org.apache.logging.log4j.Logger

interface "<b><size:14>UserRepository</b>\n<size:10>eapli.framework.infrastructure.authz.domain.repositories" as eapli.framework.infrastructure.authz.domain.repositories.UserRepository  [[../../../../../eapli/framework/infrastructure/authz/domain/repositories/UserRepository.html{eapli.framework.infrastructure.authz.domain.repositories.UserRepository}]] #white {
}

hide eapli.framework.infrastructure.authz.domain.repositories.UserRepository fields
hide eapli.framework.infrastructure.authz.domain.repositories.UserRepository methods

eapli.framework.infrastructure.authz.application.UserDetailsServiceImpl - ->  "userRepository" eapli.framework.infrastructure.authz.domain.repositories.UserRepository

class "<b><size:14>AuthorizationService</b>\n<size:10>eapli.framework.infrastructure.authz.application" as eapli.framework.infrastructure.authz.application.AuthorizationService <<Component>> [[../../../../../eapli/framework/infrastructure/authz/application/AuthorizationService.html{eapli.framework.infrastructure.authz.application.AuthorizationService}]] {
}

hide eapli.framework.infrastructure.authz.application.AuthorizationService fields
hide eapli.framework.infrastructure.authz.application.AuthorizationService methods

eapli.framework.infrastructure.authz.application.UserDetailsServiceImpl - ->  "authz" eapli.framework.infrastructure.authz.application.AuthorizationService

interface "<b><size:14>UserDetailsService</b>\n<size:10>org.springframework.security.core.userdetails" as org.springframework.security.core.userdetails.UserDetailsService  #lightgrey {
}

hide org.springframework.security.core.userdetails.UserDetailsService fields
hide org.springframework.security.core.userdetails.UserDetailsService methods

eapli.framework.infrastructure.authz.application.UserDetailsServiceImpl ..|> org.springframework.security.core.userdetails.UserDetailsService

interface "<b><size:14>UserDetails</b>\n<size:10>org.springframework.security.core.userdetails" as org.springframework.security.core.userdetails.UserDetails  #lightgrey {
}

hide org.springframework.security.core.userdetails.UserDetails fields
hide org.springframework.security.core.userdetails.UserDetails methods

eapli.framework.infrastructure.authz.application.UserDetailsServiceImpl ..> org.springframework.security.core.userdetails.UserDetails


@enduml

PlantUML version 1.2020.04(Thu Mar 19 10:16:49 GMT 2020)
(GPL source distribution)
Java Runtime: Java(TM) SE Runtime Environment
JVM: Java HotSpot(TM) 64-Bit Server VM
Java Version: 1.8.0_202-b08
Operating System: Windows 10
Default Encoding: Cp1252
Language: en
Country: US
--></g></svg>